<?xml version="1.0" encoding="UTF-8"?>
<kml xmlns="http://www.opengis.net/kml/2.2" xmlns:gx="http://www.google.com/kml/ext/2.2">
    <Document>
        <name>Route</name>
        <Folder>
            <name>Route Request</name>
            <Placemark>
                <Point>
                    <coordinates>114.2452136388,22.2665841955</coordinates>
                </Point>
                <ExtendedData>
                    <Data name="routingVisited">
                        <value>false</value>
                    </Data>
                </ExtendedData>
            </Placemark>
            <Placemark>
                <Point>
                    <coordinates>114.2386081578,22.2707843756</coordinates>
                </Point>
            </Placemark>
            <Placemark>
                <Point>
                    <coordinates>114.2301932062,22.2784480449</coordinates>
                </Point>
            </Placemark>
            <Placemark>
                <Point>
                    <coordinates>114.2223634632,22.2807402282</coordinates>
                </Point>
            </Placemark>
            <Placemark>
                <Point>
                    <coordinates>114.1619566864,22.2842515470</coordinates>
                </Point>
            </Placemark>
            <Placemark>
                <Point>
                    <coordinates>114.1688615702,22.3213759292</coordinates>
                </Point>
                <ExtendedData>
                    <Data name="routingVisited">
                        <value>false</value>
                    </Data>
                </ExtendedData>
            </Placemark>
            <Placemark>
                <Point>
                    <coordinates>114.1544969524,22.3366800837</coordinates>
                </Point>
                <ExtendedData>
                    <Data name="routingVisited">
                        <value>false</value>
                    </Data>
                </ExtendedData>
            </Placemark>
            <Placemark>
                <Point>
                    <coordinates>114.1514857771,22.3289165341</coordinates>
                </Point>
                <ExtendedData>
                    <Data name="routingVisited">
                        <value>false</value>
                    </Data>
                </ExtendedData>
            </Placemark>
            <Placemark>
                <Point>
                    <coordinates>114.1556952067,22.3359453437</coordinates>
                </Point>
            </Placemark>
            <Placemark>
                <Point>
                    <coordinates>114.1686415757,22.3235512538</coordinates>
                </Point>
            </Placemark>
            <Placemark>
                <Point>
                    <coordinates>114.1717014954,22.3068947808</coordinates>
                </Point>
                <ExtendedData>
                    <Data name="routingVisited">
                        <value>false</value>
                    </Data>
                </ExtendedData>
            </Placemark>
            <Placemark>
                <Point>
                    <coordinates>114.1668931286,22.2826230448</coordinates>
                </Point>
            </Placemark>
            <Placemark>
                <Point>
                    <coordinates>114.1918734614,22.2905133308</coordinates>
                </Point>
            </Placemark>
            <Placemark>
                <Point>
                    <coordinates>114.2244603832,22.2809275072</coordinates>
                </Point>
            </Placemark>
            <Placemark>
                <Point>
                    <coordinates>114.2294558949,22.2785883299</coordinates>
                </Point>
            </Placemark>
            <Placemark>
                <Point>
                    <coordinates>114.2381707508,22.2691404007</coordinates>
                </Point>
            </Placemark>
            <Placemark>
                <Point>
                    <coordinates>114.2498026401,22.2623684567</coordinates>
                </Point>
            </Placemark>
            <Placemark>
                <Point>
                    <coordinates>114.2451692451,22.2666257829</coordinates>
                </Point>
                <ExtendedData>
                    <Data name="routingVisited">
                        <value>false</value>
                    </Data>
                </ExtendedData>
            </Placemark>
        </Folder>
        <Document>
            <name>53.0 km; 01:06 h (OSRM)</name>
            <Placemark>
                <name>Route</name>
                <LineString>
                    <coordinates>114.2450790000,22.2669290000 114.2450790000,22.2669290000 114.2448390000,22.2671950000 114.2447780000,22.2672620000 114.2443300000,22.2669450000 114.2441710000,22.2668360000 114.2440410000,22.2667470000 114.2441630000,22.2666010000 114.2442160000,22.2665360000 114.2444000000,22.2663160000 114.2444510000,22.2662340000 114.2444820000,22.2661610000 114.2445030000,22.2661020000 114.2445250000,22.2659830000 114.2445340000,22.2659400000 114.2445430000,22.2658970000 114.2445480000,22.2658710000 114.2445640000,22.2657840000 114.2445830000,22.2656860000 114.2444610000,22.2656650000 114.2443480000,22.2656500000 114.2442310000,22.2656440000 114.2441230000,22.2656460000 114.2440380000,22.2656630000 114.2432950000,22.2657930000 114.2432330000,22.2657930000 114.2430970000,22.2657930000 114.2428720000,22.2657590000 114.2427740000,22.2657300000 114.2426260000,22.2656880000 114.2421620000,22.2653560000 114.2417790000,22.2650770000 114.2414720000,22.2648500000 114.2408530000,22.2643850000 114.2407250000,22.2642900000 114.2403230000,22.2639950000 114.2399550000,22.2637210000 114.2396690000,22.2635200000 114.2396370000,22.2634960000 114.2395440000,22.2634350000 114.2393700000,22.2633300000 114.2392770000,22.2632900000 114.2391920000,22.2632610000 114.2390980000,22.2632350000 114.2389870000,22.2632100000 114.2388990000,22.2631950000 114.2388450000,22.2631900000 114.2387840000,22.2631890000 114.2385890000,22.2631970000 114.2382660000,22.2632180000 114.2381350000,22.2632220000 114.2380060000,22.2632190000 114.2379430000,22.2632090000 114.2378740000,22.2631960000 114.2378270000,22.2631830000 114.2377900000,22.2631510000 114.2377380000,22.2631200000 114.2376740000,22.2630890000 114.2376130000,22.2630670000 114.2375550000,22.2630490000 114.2375030000,22.2630380000 114.2374530000,22.2630320000 114.2374110000,22.2630320000 114.2373780000,22.2630350000 114.2373380000,22.2630440000 114.2373020000,22.2630550000 114.2372610000,22.2630750000 114.2372150000,22.2631020000 114.2371500000,22.2631500000 114.2371070000,22.2632200000 114.2371010000,22.2632700000 114.2371030000,22.2633200000 114.2371210000,22.2634300000 114.2371700000,22.2635300000 114.2373260000,22.2636430000 114.2373870000,22.2637250000 114.2374300000,22.2637880000 114.2374570000,22.2638390000 114.2374770000,22.2638840000 114.2374910000,22.2639240000 114.2375000000,22.2639690000 114.2375050000,22.2640160000 114.2375040000,22.2640640000 114.2375000000,22.2641120000 114.2374870000,22.2641950000 114.2374760000,22.2642820000 114.2374700000,22.2643800000 114.2374690000,22.2644800000 114.2374730000,22.2645780000 114.2374940000,22.2647200000 114.2375140000,22.2648110000 114.2375430000,22.2649080000 114.2376610000,22.2652300000 114.2376850000,22.2653060000 114.2377070000,22.2653830000 114.2377320000,22.2655220000 114.2377410000,22.2656050000 114.2377470000,22.2657190000 114.2377460000,22.2659060000 114.2377380000,22.2660120000 114.2376060000,22.2670930000 114.2375970000,22.2671950000 114.2375920000,22.2672940000 114.2375900000,22.2673860000 114.2375920000,22.2674860000 114.2376050000,22.2676770000 114.2376190000,22.2678380000 114.2376300000,22.2679220000 114.2376520000,22.2680540000 114.2376710000,22.2681440000 114.2377090000,22.2683070000 114.2377400000,22.2684200000 114.2377620000,22.2684930000 114.2377960000,22.2685930000 114.2378550000,22.2687500000 114.2379080000,22.2688700000 114.2380560000,22.2691820000 114.2381230000,22.2693340000 114.2382440000,22.2696400000 114.2383310000,22.2698500000 114.2383950000,22.2700280000 114.2384450000,22.2701930000 114.2385130000,22.2704720000 114.2385690000,22.2706410000 114.2386220000,22.2707790000 114.2388440000,22.2713530000 114.2391590000,22.2722780000 114.2392430000,22.2725450000 114.2392910000,22.2727140000 114.2393240000,22.2728570000 114.2393460000,22.2729910000 114.2393630000,22.2731330000 114.2393730000,22.2732560000 114.2393750000,22.2733820000 114.2393710000,22.2735130000 114.2393540000,22.2736650000 114.2393250000,22.2738250000 114.2392870000,22.2739860000 114.2392450000,22.2741240000 114.2392050000,22.2742440000 114.2391490000,22.2743750000 114.2390890000,22.2745010000 114.2390290000,22.2746120000 114.2389630000,22.2747230000 114.2388870000,22.2748380000 114.2388160000,22.2749360000 114.2387520000,22.2750200000 114.2386830000,22.2751040000 114.2375420000,22.2764650000 114.2374170000,22.2766210000 114.2373250000,22.2767460000 114.2372560000,22.2768480000 114.2371670000,22.2769930000 114.2371030000,22.2771070000 114.2370510000,22.2772100000 114.2369960000,22.2773260000 114.2369350000,22.2774750000 114.2368700000,22.2776600000 114.2367930000,22.2779100000 114.2366440000,22.2785280000 114.2366360000,22.2785600000 114.2366210000,22.2786070000 114.2366090000,22.2786410000 114.2365730000,22.2787530000 114.2364020000,22.2791420000 114.2363310000,22.2792660000 114.2358180000,22.2800200000 114.2353720000,22.2806110000 114.2352810000,22.2807320000 114.2350780000,22.2809760000 114.2349990000,22.2810520000 114.2347300000,22.2813150000 114.2346850000,22.2813650000 114.2341840000,22.2819110000 114.2340320000,22.2820830000 114.2339610000,22.2821620000 114.2338720000,22.2822490000 114.2337240000,22.2823760000 114.2336700000,22.2824180000 114.2335430000,22.2824980000 114.2334740000,22.2825340000 114.2333690000,22.2825800000 114.2332080000,22.2826370000 114.2330380000,22.2826830000 114.2329580000,22.2827020000 114.2328190000,22.2827250000 114.2326230000,22.2827470000 114.2325270000,22.2827500000 114.2323140000,22.2827490000 114.2321960000,22.2827400000 114.2320070000,22.2827130000 114.2318020000,22.2826670000 114.2316750000,22.2826280000 114.2315320000,22.2825670000 114.2313730000,22.2825000000 114.2311590000,22.2823790000 114.2310290000,22.2822890000 114.2309240000,22.2822020000 114.2308170000,22.2821010000 114.2307780000,22.2820630000 114.2306970000,22.2819790000 114.2305900000,22.2818500000 114.2305900000,22.2818000000 114.2305990000,22.2816610000 114.2306620000,22.2812030000 114.2306690000,22.2811510000 114.2307060000,22.2810020000 114.2307090000,22.2809760000 114.2307160000,22.2808810000 114.2307160000,22.2808510000 114.2307110000,22.2808160000 114.2306910000,22.2807700000 114.2304250000,22.2802420000 114.2303860000,22.2801660000 114.2303610000,22.2801150000 114.2303360000,22.2800580000 114.2300040000,22.2792050000 114.2299950000,22.2791760000 114.2299910000,22.2791470000 114.2299890000,22.2791220000 114.2299900000,22.2791030000 114.2299950000,22.2790800000 114.2301940000,22.2784480000 114.2302940000,22.2781290000 114.2303080000,22.2780610000 114.2303090000,22.2779920000 114.2302980000,22.2779240000 114.2302750000,22.2778590000 114.2302660000,22.2778330000 114.2302470000,22.2777770000 114.2301150000,22.2775820000 114.2299150000,22.2772160000 114.2298700000,22.2771350000 114.2298610000,22.2771190000 114.2298470000,22.2770930000 114.2298140000,22.2770340000 114.2297770000,22.2769710000 114.2296810000,22.2768130000 114.2296350000,22.2767650000 114.2295540000,22.2767220000 114.2294920000,22.2767040000 114.2294340000,22.2766990000 114.2293830000,22.2767020000 114.2292630000,22.2767190000 114.2291160000,22.2767500000 114.2290490000,22.2767110000 114.2290310000,22.2767140000 114.2288600000,22.2767470000 114.2288360000,22.2767520000 114.2288050000,22.2767580000 114.2287530000,22.2767850000 114.2286510000,22.2768050000 114.2285640000,22.2768210000 114.2284640000,22.2768420000 114.2283180000,22.2768910000 114.2282020000,22.2769410000 114.2278120000,22.2771210000 114.2272170000,22.2774260000 114.2271020000,22.2774880000 114.2270670000,22.2775080000 114.2270000000,22.2775590000 114.2269410000,22.2776260000 114.2269050000,22.2776770000 114.2265440000,22.2782660000 114.2264970000,22.2783430000 114.2262700000,22.2787140000 114.2261680000,22.2788810000 114.2257310000,22.2795960000 114.2256930000,22.2796580000 114.2255780000,22.2795980000 114.2253800000,22.2794940000 114.2252630000,22.2796930000 114.2252350000,22.2797150000 114.2251930000,22.2797290000 114.2249420000,22.2797820000 114.2249130000,22.2797880000 114.2245710000,22.2798590000 114.2242080000,22.2799350000 114.2237390000,22.2800800000 114.2233260000,22.2802600000 114.2231440000,22.2803470000 114.2226450000,22.2805910000 114.2226090000,22.2806110000 114.2223930000,22.2807400000 114.2223750000,22.2807540000 114.2222230000,22.2808700000 114.2221130000,22.2809670000 114.2219660000,22.2811160000 114.2219410000,22.2811470000 114.2219340000,22.2811820000 114.2219420000,22.2812100000 114.2215880000,22.2816670000 114.2215430000,22.2817240000 114.2215020000,22.2817760000 114.2211920000,22.2821620000 114.2211420000,22.2821940000 114.2210660000,22.2822420000 114.2207770000,22.2826090000 114.2209860000,22.2827500000 114.2211510000,22.2828620000 114.2212030000,22.2828980000 114.2212480000,22.2829300000 114.2212680000,22.2829440000 114.2213170000,22.2829780000 114.2213770000,22.2830200000 114.2215850000,22.2831620000 114.2216600000,22.2832130000 114.2218290000,22.2833290000 114.2218720000,22.2833580000 114.2219410000,22.2834050000 114.2219920000,22.2834400000 114.2221230000,22.2835410000 114.2221380000,22.2835530000 114.2221560000,22.2835670000 114.2221720000,22.2835790000 114.2222160000,22.2836120000 114.2221830000,22.2836590000 114.2220860000,22.2837970000 114.2220570000,22.2838370000 114.2220100000,22.2839020000 114.2218850000,22.2840740000 114.2218230000,22.2841580000 114.2217290000,22.2843330000 114.2216600000,22.2845010000 114.2215600000,22.2848340000 114.2215110000,22.2849770000 114.2214870000,22.2850440000 114.2214500000,22.2851530000 114.2214290000,22.2852100000 114.2214170000,22.2852420000 114.2213990000,22.2852830000 114.2213850000,22.2853120000 114.2213590000,22.2853570000 114.2213530000,22.2855080000 114.2213570000,22.2858410000 114.2213610000,22.2860780000 114.2213760000,22.2866650000 114.2213690000,22.2867960000 114.2213550000,22.2869820000 114.2213220000,22.2871970000 114.2212320000,22.2874440000 114.2211840000,22.2875360000 114.2211090000,22.2876640000 114.2210020000,22.2877990000 114.2209110000,22.2878780000 114.2207880000,22.2879490000 114.2206690000,22.2880380000 114.2204850000,22.2881450000 114.2203750000,22.2882000000 114.2202220000,22.2882780000 114.2200180000,22.2883510000 114.2198480000,22.2883900000 114.2198020000,22.2884010000 114.2197290000,22.2884130000 114.2196740000,22.2884270000 114.2194880000,22.2884760000 114.2192360000,22.2885300000 114.2190490000,22.2885710000 114.2185110000,22.2886880000 114.2180910000,22.2887630000 114.2172060000,22.2889130000 114.2168690000,22.2889320000 114.2167970000,22.2889440000 114.2163450000,22.2890210000 114.2160060000,22.2890940000 114.2159010000,22.2891190000 114.2157740000,22.2891470000 114.2153060000,22.2892730000 114.2151250000,22.2893220000 114.2147580000,22.2894410000 114.2142880000,22.2896070000 114.2137820000,22.2898170000 114.2134510000,22.2899700000 114.2133040000,22.2900230000 114.2131690000,22.2900720000 114.2127380000,22.2903170000 114.2124830000,22.2904610000 114.2123200000,22.2905530000 114.2122130000,22.2906180000 114.2121310000,22.2906670000 114.2120320000,22.2907270000 114.2119230000,22.2907940000 114.2116530000,22.2909590000 114.2114960000,22.2910550000 114.2114030000,22.2911130000 114.2111810000,22.2912530000 114.2110560000,22.2913310000 114.2109730000,22.2913830000 114.2106220000,22.2916380000 114.2102020000,22.2919430000 114.2096790000,22.2923280000 114.2094250000,22.2924890000 114.2091620000,22.2926270000 114.2088160000,22.2927860000 114.2086880000,22.2928400000 114.2084250000,22.2929190000 114.2081530000,22.2930010000 114.2077170000,22.2931270000 114.2072230000,22.2932690000 114.2071640000,22.2932870000 114.2066740000,22.2934340000 114.2061700000,22.2935940000 114.2056640000,22.2937480000 114.2053700000,22.2938370000 114.2050060000,22.2939470000 114.2049120000,22.2939730000 114.2046900000,22.2940290000 114.2045330000,22.2940650000 114.2042430000,22.2941180000 114.2040330000,22.2941470000 114.2039120000,22.2941540000 114.2037320000,22.2941650000 114.2035270000,22.2941680000 114.2034090000,22.2941650000 114.2032010000,22.2941380000 114.2031730000,22.2941340000 114.2030020000,22.2941110000 114.2029330000,22.2941020000 114.2028290000,22.2940850000 114.2026460000,22.2940560000 114.2025500000,22.2940360000 114.2022170000,22.2939690000 114.2021190000,22.2939490000 114.2018350000,22.2938920000 114.2015540000,22.2938360000 114.2013450000,22.2937940000 114.2005900000,22.2936420000 114.2005170000,22.2936260000 114.2000710000,22.2935390000 114.1999040000,22.2935110000 114.1997390000,22.2934890000 114.1995910000,22.2934740000 114.1994500000,22.2934640000 114.1992990000,22.2934600000 114.1989250000,22.2934630000 114.1987990000,22.2934610000 114.1986680000,22.2934560000 114.1984820000,22.2934470000 114.1983720000,22.2934380000 114.1982150000,22.2934210000 114.1980750000,22.2933990000 114.1971540000,22.2932100000 114.1968890000,22.2931570000 114.1966340000,22.2931040000 114.1963890000,22.2930500000 114.1963650000,22.2930450000 114.1962830000,22.2930270000 114.1961050000,22.2929900000 114.1958550000,22.2929350000 114.1956370000,22.2928790000 114.1955750000,22.2928640000 114.1955000000,22.2928430000 114.1953420000,22.2928020000 114.1950760000,22.2927130000 114.1949500000,22.2926590000 114.1948340000,22.2926050000 114.1947770000,22.2925780000 114.1947230000,22.2925510000 114.1945570000,22.2924640000 114.1944720000,22.2924140000 114.1943380000,22.2923400000 114.1943010000,22.2923180000 114.1940990000,22.2921780000 114.1939740000,22.2920840000 114.1938490000,22.2919940000 114.1937010000,22.2918840000 114.1936750000,22.2918610000 114.1936060000,22.2918030000 114.1935350000,22.2917410000 114.1934410000,22.2916610000 114.1933890000,22.2916150000 114.1933500000,22.2915810000 114.1933240000,22.2915550000 114.1933070000,22.2915380000 114.1932510000,22.2914830000 114.1931350000,22.2913490000 114.1930370000,22.2912980000 114.1930000000,22.2912790000 114.1929650000,22.2912600000 114.1928810000,22.2911910000 114.1927960000,22.2911220000 114.1926510000,22.2909900000 114.1923350000,22.2907120000 114.1922120000,22.2906020000 114.1918270000,22.2902610000 114.1916300000,22.2900770000 114.1908750000,22.2893900000 114.1907350000,22.2892620000 114.1890040000,22.2874280000 114.1877620000,22.2861010000 114.1876340000,22.2859670000 114.1875060000,22.2858380000 114.1873510000,22.2856890000 114.1871940000,22.2855440000 114.1869480000,22.2853310000 114.1868230000,22.2852280000 114.1866980000,22.2851280000 114.1864830000,22.2849650000 114.1862650000,22.2848080000 114.1860420000,22.2846580000 114.1858230000,22.2845190000 114.1856130000,22.2843930000 114.1854010000,22.2842730000 114.1851740000,22.2841520000 114.1849430000,22.2840370000 114.1847330000,22.2839390000 114.1845230000,22.2838460000 114.1841940000,22.2837120000 114.1838710000,22.2835940000 114.1835380000,22.2834860000 114.1832060000,22.2833900000 114.1830230000,22.2833420000 114.1828410000,22.2832980000 114.1826170000,22.2832480000 114.1823210000,22.2831920000 114.1820230000,22.2831430000 114.1814740000,22.2830780000 114.1805170000,22.2830320000 114.1768450000,22.2825330000 114.1755490000,22.2823780000 114.1749950000,22.2823150000 114.1743800000,22.2822580000 114.1728910000,22.2821650000 114.1715990000,22.2821360000 114.1711640000,22.2821470000 114.1704020000,22.2821530000 114.1698050000,22.2821850000 114.1683210000,22.2822580000 114.1678140000,22.2822960000 114.1672620000,22.2823610000 114.1666010000,22.2824650000 114.1661110000,22.2825700000 114.1655820000,22.2826990000 114.1650590000,22.2828520000 114.1644680000,22.2830590000 114.1640640000,22.2832160000 114.1636710000,22.2833830000 114.1630590000,22.2836830000 114.1619830000,22.2842920000 114.1612520000,22.2847050000 114.1603510000,22.2852150000 114.1600340000,22.2854100000 114.1590010000,22.2860480000 114.1585600000,22.2863200000 114.1584600000,22.2863770000 114.1581200000,22.2865700000 114.1577150000,22.2867660000 114.1574210000,22.2868850000 114.1573240000,22.2869170000 114.1572250000,22.2869470000 114.1570690000,22.2869880000 114.1569330000,22.2870180000 114.1568290000,22.2870380000 114.1567060000,22.2870580000 114.1565900000,22.2870730000 114.1564660000,22.2870850000 114.1563510000,22.2870940000 114.1561880000,22.2870990000 114.1560630000,22.2871000000 114.1559410000,22.2870980000 114.1557750000,22.2870900000 114.1556520000,22.2870800000 114.1555310000,22.2870680000 114.1551870000,22.2870330000 114.1551000000,22.2870220000 114.1548880000,22.2869920000 114.1547980000,22.2869790000 114.1546200000,22.2869530000 114.1542500000,22.2869200000 114.1540900000,22.2869130000 114.1539550000,22.2869130000 114.1537930000,22.2869190000 114.1536620000,22.2869260000 114.1535390000,22.2869390000 114.1533250000,22.2869710000 114.1532130000,22.2869840000 114.1529020000,22.2870700000 114.1526480000,22.2871460000 114.1525440000,22.2871770000 114.1523260000,22.2872420000 114.1518070000,22.2873960000 114.1510010000,22.2876360000 114.1507380000,22.2877100000 114.1504730000,22.2877840000 114.1500380000,22.2879030000 114.1496450000,22.2880000000 114.1488010000,22.2882260000 114.1483480000,22.2883170000 114.1482760000,22.2883440000 114.1481130000,22.2883980000 114.1480310000,22.2884120000 114.1477010000,22.2884540000 114.1464610000,22.2885810000 114.1463690000,22.2885890000 114.1458940000,22.2886340000 114.1452760000,22.2886290000 114.1452130000,22.2886340000 114.1449270000,22.2886610000 114.1431340000,22.2888430000 114.1429290000,22.2888530000 114.1427240000,22.2888580000 114.1425180000,22.2888600000 114.1421640000,22.2888570000 114.1416570000,22.2888120000 114.1415230000,22.2888160000 114.1414030000,22.2888230000 114.1412830000,22.2888350000 114.1411630000,22.2888530000 114.1410450000,22.2888770000 114.1409610000,22.2889020000 114.1408800000,22.2889360000 114.1408030000,22.2889780000 114.1407310000,22.2890280000 114.1406660000,22.2890840000 114.1406080000,22.2891460000 114.1405650000,22.2892050000 114.1405280000,22.2892690000 114.1404990000,22.2893310000 114.1404750000,22.2893920000 114.1404580000,22.2894540000 114.1404480000,22.2895140000 114.1404430000,22.2895770000 114.1404430000,22.2896440000 114.1404490000,22.2897100000 114.1404610000,22.2897730000 114.1404780000,22.2898340000 114.1405030000,22.2898980000 114.1405360000,22.2899620000 114.1405750000,22.2900230000 114.1406370000,22.2901030000 114.1406880000,22.2901540000 114.1407440000,22.2902010000 114.1408050000,22.2902430000 114.1408760000,22.2902830000 114.1409480000,22.2903160000 114.1410200000,22.2903410000 114.1410970000,22.2903600000 114.1411730000,22.2903710000 114.1412540000,22.2903750000 114.1413400000,22.2903730000 114.1414220000,22.2903640000 114.1414930000,22.2903500000 114.1415690000,22.2903300000 114.1416550000,22.2902980000 114.1417490000,22.2902570000 114.1421090000,22.2900830000 114.1422010000,22.2900160000 114.1424570000,22.2898400000 114.1427260000,22.2896770000 114.1428510000,22.2896110000 114.1429780000,22.2895520000 114.1430950000,22.2895030000 114.1432150000,22.2894610000 114.1433370000,22.2894270000 114.1435660000,22.2893660000 114.1437070000,22.2893400000 114.1438090000,22.2893220000 114.1440550000,22.2892960000 114.1443030000,22.2892900000 114.1445500000,22.2893020000 114.1447950000,22.2893330000 114.1450370000,22.2893840000 114.1452730000,22.2894520000 114.1455020000,22.2895390000 114.1457230000,22.2896420000 114.1459340000,22.2897630000 114.1461330000,22.2898990000 114.1463680000,22.2901390000 114.1554730000,22.2999560000 114.1558600000,22.3003730000 114.1566150000,22.3012230000 114.1568940000,22.3015430000 114.1571420000,22.3018730000 114.1572490000,22.3020230000 114.1575930000,22.3024530000 114.1584030000,22.3034320000 114.1584690000,22.3035120000 114.1585150000,22.3035780000 114.1586210000,22.3037060000 114.1589420000,22.3041780000 114.1591530000,22.3044940000 114.1594820000,22.3050270000 114.1595880000,22.3051940000 114.1596600000,22.3053210000 114.1597240000,22.3054210000 114.1598150000,22.3055560000 114.1598920000,22.3056880000 114.1600100000,22.3058790000 114.1600740000,22.3059830000 114.1602070000,22.3062040000 114.1604750000,22.3067300000 114.1605520000,22.3068960000 114.1606170000,22.3070380000 114.1607670000,22.3073780000 114.1609030000,22.3077770000 114.1609560000,22.3080360000 114.1609830000,22.3081700000 114.1610060000,22.3083060000 114.1610170000,22.3083860000 114.1610230000,22.3084410000 114.1610270000,22.3084780000 114.1610290000,22.3085140000 114.1610290000,22.3085470000 114.1610300000,22.3085810000 114.1610320000,22.3086620000 114.1610330000,22.3087370000 114.1610300000,22.3088130000 114.1610260000,22.3088940000 114.1610240000,22.3090090000 114.1610080000,22.3091180000 114.1609920000,22.3092260000 114.1609650000,22.3093330000 114.1608430000,22.3097530000 114.1608290000,22.3098270000 114.1608210000,22.3098640000 114.1608150000,22.3098940000 114.1608080000,22.3099430000 114.1606470000,22.3104230000 114.1606300000,22.3105070000 114.1606100000,22.3106080000 114.1605140000,22.3110300000 114.1604590000,22.3113170000 114.1604700000,22.3115100000 114.1605040000,22.3116770000 114.1605500000,22.3117630000 114.1606670000,22.3119570000 114.1606940000,22.3119940000 114.1607300000,22.3120310000 114.1607770000,22.3120850000 114.1608930000,22.3121800000 114.1610570000,22.3122930000 114.1611880000,22.3123660000 114.1615390000,22.3124950000 114.1616650000,22.3125090000 114.1619200000,22.3125200000 114.1621030000,22.3125010000 114.1623610000,22.3124540000 114.1626960000,22.3123580000 114.1629870000,22.3122150000 114.1631090000,22.3121550000 114.1633600000,22.3120300000 114.1635460000,22.3119610000 114.1636970000,22.3119180000 114.1638400000,22.3119000000 114.1640010000,22.3118940000 114.1641000000,22.3118960000 114.1643580000,22.3119330000 114.1645600000,22.3119810000 114.1649160000,22.3121260000 114.1651290000,22.3121910000 114.1654210000,22.3122680000 114.1657540000,22.3123320000 114.1663720000,22.3124130000 114.1664780000,22.3123670000 114.1665230000,22.3123720000 114.1665880000,22.3123790000 114.1666530000,22.3123900000 114.1669120000,22.3124360000 114.1669460000,22.3124410000 114.1670050000,22.3124500000 114.1670860000,22.3124530000 114.1672900000,22.3124690000 114.1674660000,22.3124980000 114.1675710000,22.3125150000 114.1680420000,22.3125890000 114.1681430000,22.3126050000 114.1682270000,22.3126180000 114.1683840000,22.3126430000 114.1684270000,22.3126500000 114.1684970000,22.3126660000 114.1688960000,22.3127400000 114.1689660000,22.3127530000 114.1690650000,22.3127700000 114.1693530000,22.3128190000 114.1694300000,22.3128330000 114.1695380000,22.3128510000 114.1697440000,22.3128850000 114.1699910000,22.3129250000 114.1700050000,22.3129350000 114.1700100000,22.3129420000 114.1700130000,22.3129510000 114.1700050000,22.3129880000 114.1698730000,22.3136340000 114.1698600000,22.3136970000 114.1698430000,22.3137800000 114.1697270000,22.3143570000 114.1697110000,22.3144400000 114.1699370000,22.3144850000 114.1701560000,22.3145280000 114.1701760000,22.3145320000 114.1701950000,22.3145360000 114.1702950000,22.3145500000 114.1702810000,22.3146290000 114.1702290000,22.3148730000 114.1702140000,22.3149440000 114.1701980000,22.3150140000 114.1701410000,22.3152830000 114.1701250000,22.3153620000 114.1701060000,22.3154490000 114.1700550000,22.3156900000 114.1700310000,22.3158000000 114.1700030000,22.3159320000 114.1700000000,22.3159450000 114.1699760000,22.3160660000 114.1699310000,22.3162970000 114.1698880000,22.3165000000 114.1698800000,22.3165370000 114.1698520000,22.3166790000 114.1698350000,22.3167630000 114.1698240000,22.3168150000 114.1697860000,22.3170000000 114.1697690000,22.3170790000 114.1697100000,22.3173540000 114.1696980000,22.3174070000 114.1696900000,22.3174430000 114.1696590000,22.3176010000 114.1696090000,22.3178630000 114.1695970000,22.3179270000 114.1695870000,22.3179750000 114.1695630000,22.3180910000 114.1695440000,22.3181860000 114.1695350000,22.3182290000 114.1695090000,22.3183530000 114.1695070000,22.3183660000 114.1695000000,22.3184020000 114.1694730000,22.3185400000 114.1694410000,22.3186930000 114.1694150000,22.3188200000 114.1693650000,22.3190650000 114.1693480000,22.3191440000 114.1693380000,22.3191970000 114.1693200000,22.3192930000 114.1693020000,22.3193700000 114.1692890000,22.3194330000 114.1692790000,22.3194820000 114.1692420000,22.3196620000 114.1692390000,22.3196750000 114.1692070000,22.3198340000 114.1691870000,22.3199350000 114.1691800000,22.3199710000 114.1691580000,22.3200810000 114.1691290000,22.3202290000 114.1690920000,22.3203780000 114.1690610000,22.3205360000 114.1690530000,22.3205760000 114.1690440000,22.3206130000 114.1690380000,22.3206440000 114.1690220000,22.3207200000 114.1690010000,22.3208190000 114.1689870000,22.3208860000 114.1689750000,22.3209440000 114.1689680000,22.3209790000 114.1689040000,22.3212910000 114.1688850000,22.3213800000 114.1688670000,22.3214650000 114.1688500000,22.3215570000 114.1688360000,22.3216670000 114.1688220000,22.3217400000 114.1688180000,22.3217570000 114.1688000000,22.3218500000 114.1687620000,22.3220450000 114.1687450000,22.3221210000 114.1687000000,22.3223350000 114.1686570000,22.3225350000 114.1686130000,22.3227430000 114.1685560000,22.3230110000 114.1684610000,22.3234510000 114.1683840000,22.3238070000 114.1683710000,22.3238680000 114.1683670000,22.3238880000 114.1683550000,22.3239430000 114.1683360000,22.3240360000 114.1683220000,22.3241080000 114.1683100000,22.3241680000 114.1682050000,22.3246610000 114.1681250000,22.3251250000 114.1681210000,22.3251580000 114.1681170000,22.3251830000 114.1681040000,22.3252400000 114.1680500000,22.3254910000 114.1680200000,22.3256280000 114.1680020000,22.3257120000 114.1679910000,22.3257640000 114.1679720000,22.3258500000 114.1679500000,22.3259520000 114.1679450000,22.3259740000 114.1678810000,22.3262720000 114.1678700000,22.3262930000 114.1678600000,22.3263190000 114.1678310000,22.3263800000 114.1677910000,22.3264340000 114.1677440000,22.3264890000 114.1676510000,22.3265740000 114.1676010000,22.3265960000 114.1675660000,22.3266180000 114.1675290000,22.3266450000 114.1675080000,22.3266590000 114.1674070000,22.3267300000 114.1670260000,22.3270030000 114.1669830000,22.3270340000 114.1669290000,22.3270740000 114.1662280000,22.3276050000 114.1661300000,22.3276790000 114.1659480000,22.3278180000 114.1657080000,22.3280060000 114.1656290000,22.3280670000 114.1656070000,22.3280840000 114.1653940000,22.3282510000 114.1653360000,22.3282960000 114.1652950000,22.3283280000 114.1652170000,22.3283940000 114.1648780000,22.3286680000 114.1648190000,22.3287160000 114.1648060000,22.3287260000 114.1644780000,22.3289900000 114.1639060000,22.3294180000 114.1638840000,22.3294340000 114.1637310000,22.3295540000 114.1635750000,22.3296810000 114.1635020000,22.3297380000 114.1631550000,22.3300000000 114.1630810000,22.3300580000 114.1630050000,22.3301180000 114.1629490000,22.3301610000 114.1626790000,22.3303700000 114.1623970000,22.3305890000 114.1623600000,22.3306180000 114.1621770000,22.3307600000 114.1621400000,22.3307880000 114.1618040000,22.3310490000 114.1617140000,22.3311190000 114.1616030000,22.3312060000 114.1615370000,22.3312570000 114.1614790000,22.3313010000 114.1613580000,22.3313950000 114.1611430000,22.3315550000 114.1611080000,22.3315800000 114.1609830000,22.3316740000 114.1608900000,22.3317470000 114.1608040000,22.3318130000 114.1607810000,22.3318300000 114.1604790000,22.3320650000 114.1602090000,22.3322800000 114.1600360000,22.3324040000 114.1598990000,22.3325110000 114.1598130000,22.3325770000 114.1596280000,22.3327220000 114.1594010000,22.3328990000 114.1591190000,22.3331180000 114.1591050000,22.3331290000 114.1590660000,22.3331600000 114.1588810000,22.3333040000 114.1588370000,22.3333380000 114.1585540000,22.3335580000 114.1584870000,22.3336100000 114.1583050000,22.3337520000 114.1580690000,22.3339340000 114.1576580000,22.3342510000 114.1574770000,22.3343960000 114.1574310000,22.3344320000 114.1573110000,22.3345220000 114.1572090000,22.3346010000 114.1570950000,22.3346930000 114.1566940000,22.3350050000 114.1565560000,22.3351120000 114.1563140000,22.3353000000 114.1562730000,22.3353310000 114.1559420000,22.3355880000 114.1558360000,22.3356710000 114.1557120000,22.3357670000 114.1555890000,22.3358630000 114.1554290000,22.3359870000 114.1552420000,22.3361320000 114.1551940000,22.3361690000 114.1551030000,22.3362410000 114.1545100000,22.3366950000 114.1543540000,22.3368140000 114.1543130000,22.3368460000 114.1538210000,22.3372230000 114.1537860000,22.3372510000 114.1536520000,22.3373560000 114.1535670000,22.3372660000 114.1533580000,22.3370430000 114.1532560000,22.3369820000 114.1531510000,22.3369150000 114.1530630000,22.3368570000 114.1523340000,22.3360600000 114.1521710000,22.3358650000 114.1518990000,22.3355480000 114.1518680000,22.3355200000 114.1518130000,22.3354580000 114.1519320000,22.3353560000 114.1529140000,22.3345950000 114.1529650000,22.3345530000 114.1535710000,22.3340840000 114.1536690000,22.3340130000 114.1537420000,22.3339550000 114.1537860000,22.3339200000 114.1542400000,22.3335640000 114.1549650000,22.3329950000 114.1554600000,22.3326060000 114.1555670000,22.3325090000 114.1556570000,22.3324170000 114.1555980000,22.3323100000 114.1555090000,22.3322040000 114.1553800000,22.3320560000 114.1552870000,22.3319500000 114.1547260000,22.3313230000 114.1544950000,22.3310650000 114.1544760000,22.3310440000 114.1544550000,22.3310190000 114.1543820000,22.3309350000 114.1543070000,22.3308630000 114.1542170000,22.3307770000 114.1541640000,22.3307260000 114.1541400000,22.3306970000 114.1541040000,22.3306540000 114.1539070000,22.3304120000 114.1538290000,22.3303290000 114.1537820000,22.3302730000 114.1537390000,22.3302200000 114.1528830000,22.3291500000 114.1528790000,22.3291440000 114.1527650000,22.3290070000 114.1526790000,22.3289040000 114.1525630000,22.3289940000 114.1524430000,22.3290860000 114.1521210000,22.3293210000 114.1519090000,22.3294870000 114.1518860000,22.3295040000 114.1513870000,22.3298800000 114.1513270000,22.3298060000 114.1512890000,22.3297580000 114.1509540000,22.3293770000 114.1509100000,22.3293160000 114.1509000000,22.3292790000 114.1508840000,22.3292260000 114.1508790000,22.3292030000 114.1508770000,22.3291820000 114.1508830000,22.3291780000 114.1509050000,22.3291540000 114.1509170000,22.3291260000 114.1509200000,22.3290950000 114.1509120000,22.3290650000 114.1509430000,22.3290460000 114.1511420000,22.3289190000 114.1511970000,22.3288850000 114.1512550000,22.3288480000 114.1513210000,22.3288070000 114.1513800000,22.3287690000 114.1515040000,22.3289030000 114.1516750000,22.3290880000 114.1516910000,22.3291050000 114.1517320000,22.3291510000 114.1517900000,22.3291080000 114.1518510000,22.3290610000 114.1519090000,22.3290180000 114.1519580000,22.3289820000 114.1520060000,22.3289450000 114.1520190000,22.3289360000 114.1520680000,22.3288990000 114.1520770000,22.3288560000 114.1520710000,22.3288130000 114.1520580000,22.3287970000 114.1519680000,22.3286910000 114.1519220000,22.3286750000 114.1517450000,22.3284790000 114.1517030000,22.3284700000 114.1516870000,22.3284660000 114.1515880000,22.3285210000 114.1512690000,22.3287460000 114.1511780000,22.3288000000 114.1510950000,22.3288490000 114.1508410000,22.3289790000 114.1508030000,22.3290070000 114.1507690000,22.3290170000 114.1507440000,22.3290340000 114.1507240000,22.3290550000 114.1507140000,22.3290830000 114.1507120000,22.3291070000 114.1507180000,22.3291340000 114.1507300000,22.3291580000 114.1507540000,22.3291810000 114.1507860000,22.3291960000 114.1508050000,22.3291990000 114.1508310000,22.3292380000 114.1508440000,22.3292570000 114.1508700000,22.3292870000 114.1509100000,22.3293160000 114.1509540000,22.3293770000 114.1512890000,22.3297580000 114.1513270000,22.3298060000 114.1513870000,22.3298800000 114.1513100000,22.3299420000 114.1512890000,22.3299580000 114.1512610000,22.3299790000 114.1511690000,22.3300310000 114.1510910000,22.3300860000 114.1508130000,22.3302850000 114.1506770000,22.3303950000 114.1505510000,22.3304820000 114.1502430000,22.3306660000 114.1500520000,22.3307730000 114.1499870000,22.3308090000 114.1496870000,22.3309760000 114.1494160000,22.3311250000 114.1491740000,22.3312730000 114.1490440000,22.3313570000 114.1490210000,22.3313720000 114.1487910000,22.3315260000 114.1486470000,22.3316010000 114.1487080000,22.3317170000 114.1487750000,22.3318410000 114.1490650000,22.3322920000 114.1491970000,22.3324960000 114.1495270000,22.3329250000 114.1496600000,22.3330930000 114.1498610000,22.3333490000 114.1499210000,22.3334230000 114.1500090000,22.3335310000 114.1500930000,22.3336210000 114.1501190000,22.3336490000 114.1501350000,22.3336660000 114.1501580000,22.3336910000 114.1503820000,22.3339310000 114.1504050000,22.3339560000 114.1504190000,22.3339770000 114.1505350000,22.3341480000 114.1506810000,22.3342710000 114.1507430000,22.3343240000 114.1507740000,22.3343490000 114.1508230000,22.3343580000 114.1508700000,22.3344190000 114.1509400000,22.3345090000 114.1513970000,22.3350540000 114.1515600000,22.3352220000 114.1515980000,22.3352590000 114.1516460000,22.3352990000 114.1517110000,22.3353580000 114.1518130000,22.3354580000 114.1518680000,22.3355200000 114.1518990000,22.3355480000 114.1521710000,22.3358650000 114.1523340000,22.3360600000 114.1530630000,22.3368570000 114.1531820000,22.3370270000 114.1533990000,22.3372420000 114.1534300000,22.3372800000 114.1535550000,22.3374290000 114.1536440000,22.3375310000 114.1537460000,22.3374520000 114.1539090000,22.3373250000 114.1544210000,22.3369270000 114.1549550000,22.3365120000 114.1552880000,22.3362530000 114.1553260000,22.3362240000 114.1556920000,22.3359420000 114.1556940000,22.3359400000 114.1557410000,22.3359040000 114.1558470000,22.3358220000 114.1559330000,22.3357560000 114.1562810000,22.3354860000 114.1563140000,22.3354610000 114.1564090000,22.3353880000 114.1566870000,22.3351740000 114.1568080000,22.3350800000 114.1571400000,22.3348230000 114.1572250000,22.3347580000 114.1572980000,22.3347010000 114.1574030000,22.3346150000 114.1575920000,22.3344660000 114.1582930000,22.3339220000 114.1586360000,22.3336510000 114.1591120000,22.3332800000 114.1591530000,22.3332470000 114.1592260000,22.3331900000 114.1595490000,22.3329390000 114.1595930000,22.3329040000 114.1596560000,22.3328550000 114.1598020000,22.3327430000 114.1600840000,22.3325260000 114.1603360000,22.3323300000 114.1603510000,22.3323180000 114.1603690000,22.3323040000 114.1605440000,22.3321660000 114.1606160000,22.3321110000 114.1608450000,22.3319370000 114.1608740000,22.3319160000 114.1609770000,22.3318360000 114.1610660000,22.3317690000 114.1611900000,22.3316720000 114.1612160000,22.3316520000 114.1617520000,22.3312370000 114.1617890000,22.3312080000 114.1618810000,22.3311370000 114.1621840000,22.3308960000 114.1622060000,22.3308790000 114.1622910000,22.3308110000 114.1623940000,22.3307290000 114.1625100000,22.3306380000 114.1625910000,22.3305750000 114.1626820000,22.3305050000 114.1627100000,22.3304840000 114.1627630000,22.3304440000 114.1631440000,22.3301520000 114.1632110000,22.3301010000 114.1634510000,22.3299220000 114.1635040000,22.3298820000 114.1636520000,22.3297700000 114.1638180000,22.3296400000 114.1639000000,22.3295750000 114.1645560000,22.3290730000 114.1648340000,22.3288610000 114.1648790000,22.3288240000 114.1652130000,22.3285560000 114.1652350000,22.3285390000 114.1653000000,22.3284880000 114.1653860000,22.3284180000 114.1656100000,22.3282370000 114.1657080000,22.3281580000 114.1657970000,22.3280850000 114.1658310000,22.3280580000 114.1658990000,22.3280350000 114.1660510000,22.3279160000 114.1662660000,22.3277480000 114.1669240000,22.3272440000 114.1669840000,22.3272070000 114.1670160000,22.3271940000 114.1670600000,22.3271750000 114.1671390000,22.3271420000 114.1672000000,22.3271150000 114.1673030000,22.3270630000 114.1674430000,22.3269670000 114.1675730000,22.3268670000 114.1676800000,22.3267770000 114.1676970000,22.3267300000 114.1677070000,22.3267080000 114.1677240000,22.3266890000 114.1677370000,22.3266760000 114.1677710000,22.3266480000 114.1678200000,22.3266240000 114.1678910000,22.3265240000 114.1679130000,22.3264820000 114.1679560000,22.3263890000 114.1679690000,22.3263510000 114.1679810000,22.3263140000 114.1680030000,22.3262340000 114.1680940000,22.3258220000 114.1681120000,22.3257430000 114.1681640000,22.3255030000 114.1681880000,22.3253890000 114.1682160000,22.3252530000 114.1682260000,22.3252060000 114.1682340000,22.3251710000 114.1682380000,22.3251420000 114.1682620000,22.3249920000 114.1683000000,22.3248060000 114.1683140000,22.3247360000 114.1683310000,22.3246630000 114.1683480000,22.3245810000 114.1683660000,22.3245000000 114.1683740000,22.3244550000 114.1684010000,22.3243960000 114.1684140000,22.3243440000 114.1684430000,22.3242190000 114.1684490000,22.3241900000 114.1684600000,22.3241330000 114.1684750000,22.3240600000 114.1684970000,22.3239670000 114.1684910000,22.3239090000 114.1684970000,22.3238880000 114.1685080000,22.3238270000 114.1685680000,22.3235450000 114.1685690000,22.3235380000 114.1685800000,22.3234860000 114.1686040000,22.3233720000 114.1686350000,22.3232270000 114.1686590000,22.3231130000 114.1687020000,22.3229210000 114.1687200000,22.3228230000 114.1687320000,22.3227660000 114.1687860000,22.3224820000 114.1688690000,22.3220630000 114.1689430000,22.3216740000 114.1689770000,22.3214710000 114.1689940000,22.3213860000 114.1690500000,22.3210910000 114.1690590000,22.3210510000 114.1690710000,22.3209960000 114.1690790000,22.3209570000 114.1690900000,22.3209050000 114.1691070000,22.3208330000 114.1691310000,22.3207380000 114.1691440000,22.3206680000 114.1691520000,22.3206260000 114.1691590000,22.3205910000 114.1691670000,22.3205560000 114.1692280000,22.3202610000 114.1692710000,22.3200580000 114.1692770000,22.3200320000 114.1693070000,22.3198910000 114.1693170000,22.3198470000 114.1693440000,22.3197150000 114.1693730000,22.3195730000 114.1693980000,22.3194540000 114.1694040000,22.3194270000 114.1694290000,22.3193120000 114.1694480000,22.3192160000 114.1694590000,22.3191660000 114.1694810000,22.3190710000 114.1695230000,22.3188590000 114.1695720000,22.3186200000 114.1695990000,22.3184880000 114.1696260000,22.3183530000 114.1696620000,22.3181810000 114.1696850000,22.3180640000 114.1697190000,22.3178970000 114.1697390000,22.3177970000 114.1697590000,22.3177000000 114.1697750000,22.3176220000 114.1697870000,22.3175640000 114.1697990000,22.3175010000 114.1698150000,22.3174280000 114.1698730000,22.3171490000 114.1699450000,22.3168020000 114.1699620000,22.3167170000 114.1699920000,22.3165510000 114.1700730000,22.3161650000 114.1700870000,22.3160990000 114.1701160000,22.3159580000 114.1701270000,22.3159050000 114.1702070000,22.3155260000 114.1702180000,22.3154680000 114.1702380000,22.3153660000 114.1703200000,22.3149680000 114.1703390000,22.3148810000 114.1703510000,22.3148220000 114.1703770000,22.3146840000 114.1703840000,22.3146470000 114.1703990000,22.3145700000 114.1704660000,22.3142320000 114.1705160000,22.3139760000 114.1705300000,22.3139010000 114.1705490000,22.3138110000 114.1705840000,22.3136360000 114.1705950000,22.3135840000 114.1706020000,22.3135500000 114.1706090000,22.3135150000 114.1706530000,22.3132960000 114.1706590000,22.3132650000 114.1706660000,22.3132320000 114.1707010000,22.3130540000 114.1707170000,22.3129770000 114.1707380000,22.3128780000 114.1707960000,22.3125990000 114.1708470000,22.3123430000 114.1708610000,22.3122730000 114.1708910000,22.3121250000 114.1709490000,22.3118210000 114.1709590000,22.3117680000 114.1710160000,22.3114630000 114.1710330000,22.3113700000 114.1710580000,22.3112370000 114.1710660000,22.3111930000 114.1711040000,22.3109890000 114.1711200000,22.3109100000 114.1711370000,22.3108120000 114.1711460000,22.3107620000 114.1711580000,22.3106950000 114.1712060000,22.3104150000 114.1712230000,22.3103170000 114.1712320000,22.3102790000 114.1712450000,22.3102310000 114.1712490000,22.3102050000 114.1712540000,22.3101490000 114.1712560000,22.3101280000 114.1712590000,22.3100940000 114.1712630000,22.3100020000 114.1712600000,22.3096970000 114.1713020000,22.3091940000 114.1713130000,22.3090960000 114.1713760000,22.3085660000 114.1713840000,22.3084990000 114.1713870000,22.3083990000 114.1713980000,22.3082740000 114.1714490000,22.3078270000 114.1714730000,22.3075790000 114.1714760000,22.3075520000 114.1714930000,22.3073730000 114.1715150000,22.3071490000 114.1715310000,22.3069820000 114.1715400000,22.3068820000 114.1715490000,22.3067870000 114.1715560000,22.3067060000 114.1715700000,22.3065500000 114.1716070000,22.3061250000 114.1716230000,22.3059470000 114.1716490000,22.3056660000 114.1716500000,22.3056480000 114.1716530000,22.3056150000 114.1716760000,22.3053890000 114.1716810000,22.3053050000 114.1715770000,22.3052680000 114.1714610000,22.3052450000 114.1711220000,22.3051970000 114.1708550000,22.3051850000 114.1707380000,22.3051820000 114.1706990000,22.3051800000 114.1706130000,22.3051790000 114.1703440000,22.3051950000 114.1702030000,22.3052080000 114.1699840000,22.3052380000 114.1699100000,22.3052510000 114.1697430000,22.3052840000 114.1696690000,22.3053000000 114.1694100000,22.3053590000 114.1693740000,22.3053670000 114.1692490000,22.3053980000 114.1690620000,22.3054440000 114.1690200000,22.3054540000 114.1686740000,22.3055420000 114.1686070000,22.3055590000 114.1685340000,22.3055780000 114.1684030000,22.3056090000 114.1681490000,22.3056530000 114.1673390000,22.3057740000 114.1671500000,22.3058050000 114.1670140000,22.3058270000 114.1669510000,22.3058390000 114.1668470000,22.3058560000 114.1660510000,22.3060430000 114.1657230000,22.3061140000 114.1654450000,22.3061820000 114.1653710000,22.3061990000 114.1651490000,22.3062310000 114.1650480000,22.3062540000 114.1645660000,22.3063540000 114.1645520000,22.3063570000 114.1645380000,22.3063600000 114.1643660000,22.3063970000 114.1641690000,22.3064440000 114.1640500000,22.3064760000 114.1637620000,22.3065550000 114.1637800000,22.3066980000 114.1637840000,22.3068690000 114.1637790000,22.3072560000 114.1637050000,22.3073860000 114.1636940000,22.3074130000 114.1636840000,22.3074430000 114.1636680000,22.3075130000 114.1636610000,22.3075920000 114.1636540000,22.3076600000 114.1636400000,22.3079300000 114.1636460000,22.3084780000 114.1636470000,22.3085500000 114.1636500000,22.3086630000 114.1636590000,22.3088560000 114.1636060000,22.3089960000 114.1635820000,22.3090550000 114.1635260000,22.3091690000 114.1633720000,22.3093210000 114.1632990000,22.3093930000 114.1632300000,22.3094400000 114.1630600000,22.3095200000 114.1628700000,22.3095620000 114.1626800000,22.3095720000 114.1625300000,22.3095630000 114.1623890000,22.3095220000 114.1622560000,22.3094600000 114.1621400000,22.3093800000 114.1620300000,22.3092800000 114.1619300000,22.3091600000 114.1618960000,22.3091100000 114.1618570000,22.3090580000 114.1618230000,22.3090070000 114.1615500000,22.3085540000 114.1614530000,22.3084310000 114.1613690000,22.3082830000 114.1613030000,22.3081770000 114.1612580000,22.3081130000 114.1612190000,22.3079850000 114.1611350000,22.3077140000 114.1610650000,22.3074870000 114.1609840000,22.3072940000 114.1608400000,22.3069860000 114.1607610000,22.3068140000 114.1606820000,22.3066440000 114.1606230000,22.3065180000 114.1604320000,22.3061120000 114.1601860000,22.3056400000 114.1601500000,22.3054820000 114.1601260000,22.3053790000 114.1600330000,22.3051960000 114.1598820000,22.3050400000 114.1597500000,22.3049160000 114.1594580000,22.3043950000 114.1590380000,22.3037070000 114.1589210000,22.3035410000 114.1588210000,22.3033850000 114.1587790000,22.3033330000 114.1587290000,22.3032580000 114.1586820000,22.3031860000 114.1584390000,22.3028540000 114.1582710000,22.3026750000 114.1580860000,22.3025020000 114.1578670000,22.3023060000 114.1576670000,22.3021240000 114.1573770000,22.3018260000 114.1573160000,22.3017620000 114.1570200000,22.3014420000 114.1567160000,22.3011410000 114.1561410000,22.3005100000 114.1466970000,22.2902980000 114.1464940000,22.2900780000 114.1462180000,22.2897960000 114.1460110000,22.2896560000 114.1457910000,22.2895310000 114.1455600000,22.2894220000 114.1453200000,22.2893320000 114.1450730000,22.2892600000 114.1448200000,22.2892070000 114.1445630000,22.2891750000 114.1443050000,22.2891610000 114.1440460000,22.2891680000 114.1437880000,22.2891950000 114.1435340000,22.2892410000 114.1434400000,22.2892660000 114.1432930000,22.2893050000 114.1431720000,22.2893380000 114.1430560000,22.2893800000 114.1429890000,22.2894070000 114.1427890000,22.2894970000 114.1424550000,22.2896580000 114.1423480000,22.2897090000 114.1421420000,22.2898940000 114.1420960000,22.2899290000 114.1419130000,22.2900500000 114.1417650000,22.2901340000 114.1416830000,22.2901740000 114.1416110000,22.2902030000 114.1415520000,22.2902230000 114.1414750000,22.2902430000 114.1414010000,22.2902570000 114.1413120000,22.2902670000 114.1412340000,22.2902660000 114.1411520000,22.2902570000 114.1410740000,22.2902410000 114.1409980000,22.2902170000 114.1409280000,22.2901860000 114.1408620000,22.2901480000 114.1408000000,22.2901040000 114.1407410000,22.2900480000 114.1407000000,22.2900020000 114.1406620000,22.2899490000 114.1406280000,22.2898920000 114.1406000000,22.2898270000 114.1405800000,22.2897690000 114.1405680000,22.2897060000 114.1405610000,22.2896430000 114.1405610000,22.2895810000 114.1405700000,22.2895070000 114.1405860000,22.2894330000 114.1406090000,22.2893680000 114.1406370000,22.2893090000 114.1406700000,22.2892550000 114.1407120000,22.2892020000 114.1407600000,22.2891530000 114.1408120000,22.2891100000 114.1408700000,22.2890710000 114.1409310000,22.2890390000 114.1410100000,22.2890100000 114.1410920000,22.2889900000 114.1411640000,22.2889810000 114.1412360000,22.2889780000 114.1413350000,22.2889970000 114.1414320000,22.2890190000 114.1415290000,22.2890430000 114.1416010000,22.2890620000 114.1417210000,22.2890970000 114.1418460000,22.2891370000 114.1419730000,22.2891710000 114.1421020000,22.2891970000 114.1422320000,22.2892170000 114.1423640000,22.2892290000 114.1424960000,22.2892340000 114.1426280000,22.2892320000 114.1428230000,22.2892320000 114.1430190000,22.2892310000 114.1433170000,22.2891960000 114.1433840000,22.2891890000 114.1436430000,22.2891610000 114.1437730000,22.2891450000 114.1438430000,22.2891370000 114.1440640000,22.2890990000 114.1441870000,22.2890640000 114.1442750000,22.2890270000 114.1443640000,22.2889810000 114.1444990000,22.2889040000 114.1445740000,22.2888680000 114.1446490000,22.2888410000 114.1447140000,22.2888250000 114.1447870000,22.2888160000 114.1452310000,22.2887700000 114.1454040000,22.2887520000 114.1456810000,22.2887600000 114.1458200000,22.2887620000 114.1458680000,22.2887630000 114.1459820000,22.2887620000 114.1465690000,22.2887230000 114.1467750000,22.2887040000 114.1469550000,22.2886850000 114.1470650000,22.2886680000 114.1473640000,22.2886250000 114.1477580000,22.2885750000 114.1482620000,22.2884840000 114.1484340000,22.2884570000 114.1496810000,22.2881250000 114.1500790000,22.2880250000 114.1505060000,22.2879080000 114.1507870000,22.2878240000 114.1510070000,22.2877570000 114.1518340000,22.2875020000 114.1523580000,22.2873400000 114.1531290000,22.2871000000 114.1532370000,22.2870710000 114.1533270000,22.2870530000 114.1534360000,22.2870390000 114.1537640000,22.2870110000 114.1539470000,22.2870040000 114.1540900000,22.2870070000 114.1542410000,22.2870160000 114.1545950000,22.2870570000 114.1547710000,22.2870780000 114.1548730000,22.2870910000 114.1551040000,22.2871210000 114.1553890000,22.2871580000 114.1555250000,22.2871760000 114.1556170000,22.2871880000 114.1557410000,22.2872010000 114.1559860000,22.2872050000 114.1560330000,22.2872040000 114.1560600000,22.2872040000 114.1561800000,22.2872000000 114.1564360000,22.2871850000 114.1566220000,22.2871670000 114.1568490000,22.2871310000 114.1569920000,22.2871030000 114.1571850000,22.2870570000 114.1572880000,22.2870290000 114.1575590000,22.2869480000 114.1576330000,22.2869280000 114.1577710000,22.2868920000 114.1582190000,22.2867120000 114.1585550000,22.2865150000 114.1586590000,22.2864510000 114.1590830000,22.2861850000 114.1601100000,22.2855380000 114.1603830000,22.2853670000 114.1613200000,22.2848360000 114.1631300000,22.2838110000 114.1638350000,22.2834740000 114.1641470000,22.2833390000 114.1644930000,22.2832060000 114.1651340000,22.2829870000 114.1656200000,22.2828430000 114.1661460000,22.2827110000 114.1665970000,22.2826160000 114.1668810000,22.2825640000 114.1670640000,22.2825310000 114.1677350000,22.2824530000 114.1680670000,22.2824220000 114.1684300000,22.2823990000 114.1690810000,22.2823640000 114.1704260000,22.2822970000 114.1711440000,22.2822770000 114.1723810000,22.2822790000 114.1733180000,22.2823150000 114.1742830000,22.2823780000 114.1747660000,22.2824220000 114.1751810000,22.2824690000 114.1755770000,22.2825230000 114.1768630000,22.2827100000 114.1813760000,22.2833180000 114.1816070000,22.2833520000 114.1818280000,22.2833890000 114.1820370000,22.2834280000 114.1822470000,22.2834710000 114.1825050000,22.2835300000 114.1827620000,22.2835940000 114.1830000000,22.2836590000 114.1832380000,22.2837290000 114.1835330000,22.2838240000 114.1838260000,22.2839270000 114.1841160000,22.2840370000 114.1844020000,22.2841550000 114.1846240000,22.2842530000 114.1848440000,22.2843550000 114.1849800000,22.2844210000 114.1851160000,22.2844890000 114.1853840000,22.2846310000 114.1856420000,22.2847750000 114.1858940000,22.2849260000 114.1860860000,22.2850460000 114.1862750000,22.2851710000 114.1864460000,22.2852870000 114.1866220000,22.2854130000 114.1868280000,22.2855680000 114.1870320000,22.2857260000 114.1872380000,22.2858950000 114.1874430000,22.2860710000 114.1879160000,22.2865160000 114.1885910000,22.2872130000 114.1888910000,22.2875400000 114.1906150000,22.2893660000 114.1907590000,22.2894960000 114.1915190000,22.2901840000 114.1917040000,22.2903580000 114.1918520000,22.2904860000 114.1918770000,22.2905090000 114.1921150000,22.2907240000 114.1922280000,22.2908250000 114.1925380000,22.2910950000 114.1926650000,22.2912100000 114.1927370000,22.2912730000 114.1927890000,22.2913210000 114.1928900000,22.2914230000 114.1930690000,22.2916020000 114.1931400000,22.2916730000 114.1931560000,22.2916890000 114.1931780000,22.2917110000 114.1932700000,22.2918030000 114.1933530000,22.2918870000 114.1934530000,22.2919710000 114.1935380000,22.2920420000 114.1935600000,22.2920570000 114.1935890000,22.2920770000 114.1936150000,22.2920950000 114.1937360000,22.2921760000 114.1938530000,22.2922540000 114.1939710000,22.2923350000 114.1942000000,22.2924760000 114.1942290000,22.2924940000 114.1943770000,22.2925660000 114.1944670000,22.2926100000 114.1946230000,22.2926870000 114.1946890000,22.2927190000 114.1947490000,22.2927490000 114.1949190000,22.2928180000 114.1950130000,22.2928550000 114.1951890000,22.2929160000 114.1952860000,22.2929460000 114.1954310000,22.2929870000 114.1955320000,22.2930090000 114.1956910000,22.2930430000 114.1958170000,22.2930670000 114.1960670000,22.2931130000 114.1961620000,22.2931270000 114.1963610000,22.2931600000 114.1964840000,22.2931820000 114.1966050000,22.2932070000 114.1967740000,22.2932440000 114.1968570000,22.2932610000 114.1971240000,22.2933140000 114.1979380000,22.2934830000 114.1980630000,22.2935070000 114.1981920000,22.2935260000 114.1984040000,22.2935500000 114.1985630000,22.2935620000 114.1987190000,22.2935680000 114.1989060000,22.2935720000 114.1992000000,22.2935690000 114.1994040000,22.2935740000 114.1995900000,22.2935850000 114.1997700000,22.2936020000 114.1999500000,22.2936270000 114.2001000000,22.2936520000 114.2004940000,22.2937360000 114.2005620000,22.2937500000 114.2013180000,22.2939100000 114.2015380000,22.2939610000 114.2018510000,22.2940330000 114.2020960000,22.2940870000 114.2021880000,22.2941020000 114.2025300000,22.2941540000 114.2026050000,22.2941710000 114.2028680000,22.2942240000 114.2031620000,22.2942590000 114.2034130000,22.2942700000 114.2035000000,22.2942730000 114.2037630000,22.2942770000 114.2039330000,22.2942720000 114.2040330000,22.2942680000 114.2042530000,22.2942480000 114.2045700000,22.2942130000 114.2047400000,22.2941890000 114.2049790000,22.2941720000 114.2050480000,22.2941670000 114.2052070000,22.2941560000 114.2052900000,22.2941450000 114.2057090000,22.2940920000 114.2058390000,22.2940690000 114.2059740000,22.2940410000 114.2061450000,22.2940000000 114.2063050000,22.2939520000 114.2064890000,22.2938890000 114.2073080000,22.2935620000 114.2075320000,22.2934770000 114.2077810000,22.2933920000 114.2082330000,22.2932500000 114.2085090000,22.2931560000 114.2087820000,22.2930640000 114.2089400000,22.2930070000 114.2090780000,22.2929240000 114.2092580000,22.2928120000 114.2094910000,22.2926640000 114.2097870000,22.2924670000 114.2103300000,22.2920690000 114.2107360000,22.2917730000 114.2110800000,22.2915210000 114.2112770000,22.2913910000 114.2114890000,22.2912520000 114.2115750000,22.2911980000 114.2117400000,22.2910950000 114.2120130000,22.2909330000 114.2121350000,22.2908620000 114.2122140000,22.2908150000 114.2122920000,22.2907670000 114.2124160000,22.2906960000 114.2125630000,22.2906120000 114.2128380000,22.2904560000 114.2130110000,22.2903960000 114.2131490000,22.2903480000 114.2132210000,22.2903240000 114.2132900000,22.2903010000 114.2133910000,22.2902620000 114.2136010000,22.2901930000 114.2137590000,22.2901410000 114.2141980000,22.2900120000 114.2152080000,22.2897610000 114.2154200000,22.2897020000 114.2159290000,22.2895610000 114.2159970000,22.2895460000 114.2162200000,22.2894900000 114.2167600000,22.2893500000 114.2170400000,22.2892800000 114.2175060000,22.2891330000 114.2189290000,22.2887910000 114.2192940000,22.2887030000 114.2194430000,22.2886760000 114.2201540000,22.2885500000 114.2203430000,22.2885060000 114.2205530000,22.2883420000 114.2208100000,22.2882010000 114.2209880000,22.2880670000 114.2210930000,22.2879740000 114.2211750000,22.2878860000 114.2212490000,22.2877980000 114.2213110000,22.2877160000 114.2213780000,22.2876130000 114.2214340000,22.2875140000 114.2214840000,22.2874070000 114.2215330000,22.2872850000 114.2215700000,22.2871650000 114.2215990000,22.2870380000 114.2216080000,22.2869900000 114.2216280000,22.2868730000 114.2216450000,22.2867330000 114.2216520000,22.2866170000 114.2216580000,22.2864770000 114.2216510000,22.2861350000 114.2216500000,22.2860650000 114.2216380000,22.2858660000 114.2216200000,22.2854930000 114.2216140000,22.2853590000 114.2216140000,22.2852130000 114.2216160000,22.2851660000 114.2216280000,22.2850660000 114.2216390000,22.2849920000 114.2216570000,22.2848460000 114.2217290000,22.2845120000 114.2217890000,22.2843640000 114.2218960000,22.2841760000 114.2219450000,22.2841040000 114.2220630000,22.2839340000 114.2221160000,22.2838690000 114.2221460000,22.2838240000 114.2222370000,22.2836940000 114.2222670000,22.2836510000 114.2223440000,22.2835590000 114.2223620000,22.2835380000 114.2223730000,22.2835240000 114.2223880000,22.2835040000 114.2224460000,22.2834310000 114.2226780000,22.2831370000 114.2226920000,22.2831200000 114.2227110000,22.2830960000 114.2227220000,22.2830820000 114.2227410000,22.2830550000 114.2227590000,22.2830340000 114.2228740000,22.2828890000 114.2229740000,22.2827720000 114.2229900000,22.2827530000 114.2230080000,22.2827300000 114.2230210000,22.2827140000 114.2230430000,22.2826850000 114.2230730000,22.2826460000 114.2233830000,22.2822570000 114.2234250000,22.2822120000 114.2234720000,22.2821710000 114.2235200000,22.2821390000 114.2235640000,22.2821160000 114.2236100000,22.2821000000 114.2237010000,22.2820770000 114.2237620000,22.2820600000 114.2238280000,22.2820370000 114.2237650000,22.2819390000 114.2237250000,22.2818940000 114.2236870000,22.2818570000 114.2236620000,22.2818350000 114.2232990000,22.2815190000 114.2233350000,22.2814810000 114.2233760000,22.2814420000 114.2234200000,22.2814090000 114.2241980000,22.2810420000 114.2242150000,22.2810340000 114.2244540000,22.2809170000 114.2246870000,22.2808020000 114.2247450000,22.2807590000 114.2247690000,22.2807140000 114.2247600000,22.2806390000 114.2247220000,22.2804780000 114.2247130000,22.2804400000 114.2247070000,22.2804170000 114.2249550000,22.2803650000 114.2252120000,22.2803100000 114.2252810000,22.2802910000 114.2253510000,22.2802590000 114.2254130000,22.2802190000 114.2254540000,22.2801860000 114.2254940000,22.2801420000 114.2255160000,22.2801150000 114.2255370000,22.2800870000 114.2255930000,22.2799970000 114.2255990000,22.2799890000 114.2257570000,22.2797370000 114.2258160000,22.2796400000 114.2260390000,22.2792770000 114.2262930000,22.2788620000 114.2263540000,22.2787620000 114.2263630000,22.2787480000 114.2265830000,22.2783890000 114.2266320000,22.2783090000 114.2268930000,22.2778750000 114.2269840000,22.2777290000 114.2270500000,22.2776460000 114.2271230000,22.2775830000 114.2271790000,22.2775490000 114.2280260000,22.2771020000 114.2282110000,22.2770180000 114.2283010000,22.2774100000 114.2283630000,22.2776890000 114.2283800000,22.2777640000 114.2284600000,22.2781250000 114.2285230000,22.2785590000 114.2285270000,22.2785860000 114.2285440000,22.2786080000 114.2285680000,22.2786210000 114.2285910000,22.2786250000 114.2286670000,22.2786110000 114.2286960000,22.2786050000 114.2293950000,22.2784670000 114.2294480000,22.2784680000 114.2294770000,22.2784720000 114.2294940000,22.2784750000 114.2295370000,22.2784940000 114.2295710000,22.2785230000 114.2295950000,22.2785610000 114.2296120000,22.2786150000 114.2295850000,22.2787370000 114.2295290000,22.2789140000 114.2295080000,22.2789760000 114.2294920000,22.2790300000 114.2294060000,22.2791840000 114.2293970000,22.2792240000 114.2293570000,22.2794130000 114.2292300000,22.2795300000 114.2293100000,22.2795900000 114.2294290000,22.2796800000 114.2295100000,22.2797600000 114.2295520000,22.2798080000 114.2296550000,22.2799400000 114.2297420000,22.2800680000 114.2297780000,22.2801320000 114.2298130000,22.2802020000 114.2298420000,22.2802660000 114.2298740000,22.2803520000 114.2299010000,22.2804370000 114.2299170000,22.2804950000 114.2299330000,22.2805620000 114.2299410000,22.2805970000 114.2300030000,22.2809180000 114.2300500000,22.2811300000 114.2300730000,22.2812100000 114.2301070000,22.2813110000 114.2301400000,22.2813940000 114.2301830000,22.2814960000 114.2302210000,22.2815740000 114.2302600000,22.2816500000 114.2303700000,22.2818200000 114.2304280000,22.2819000000 114.2305050000,22.2820000000 114.2305870000,22.2821030000 114.2307350000,22.2822550000 114.2307890000,22.2823010000 114.2309070000,22.2823960000 114.2310740000,22.2825110000 114.2312140000,22.2825940000 114.2313210000,22.2826500000 114.2315310000,22.2827430000 114.2316140000,22.2827750000 114.2317800000,22.2828230000 114.2320170000,22.2828760000 114.2321590000,22.2828980000 114.2323530000,22.2829130000 114.2324960000,22.2829130000 114.2326390000,22.2829020000 114.2328300000,22.2828820000 114.2329290000,22.2828660000 114.2330780000,22.2828400000 114.2332440000,22.2828050000 114.2334290000,22.2827570000 114.2335300000,22.2827260000 114.2336390000,22.2826870000 114.2337690000,22.2826310000 114.2339410000,22.2825410000 114.2340650000,22.2824680000 114.2342450000,22.2823430000 114.2343940000,22.2822240000 114.2344850000,22.2821390000 114.2345960000,22.2820270000 114.2347550000,22.2818300000 114.2349220000,22.2815870000 114.2349950000,22.2814670000 114.2351760000,22.2811350000 114.2352730000,22.2809770000 114.2354100000,22.2807870000 114.2355000000,22.2806650000 114.2359260000,22.2800860000 114.2360840000,22.2798690000 114.2361770000,22.2797450000 114.2363150000,22.2795400000 114.2363990000,22.2794150000 114.2364910000,22.2792560000 114.2365360000,22.2791650000 114.2365860000,22.2790520000 114.2366270000,22.2789410000 114.2366600000,22.2788280000 114.2366730000,22.2787680000 114.2367000000,22.2786580000 114.2367090000,22.2786230000 114.2367190000,22.2785830000 114.2367290000,22.2785440000 114.2368860000,22.2779410000 114.2369140000,22.2778420000 114.2369490000,22.2777280000 114.2369920000,22.2776060000 114.2370430000,22.2774730000 114.2371080000,22.2773270000 114.2371880000,22.2771640000 114.2373350000,22.2769080000 114.2375000000,22.2766770000 114.2388040000,22.2751210000 114.2390540000,22.2747850000 114.2392060000,22.2745190000 114.2393160000,22.2742690000 114.2393840000,22.2740700000 114.2394400000,22.2738550000 114.2394720000,22.2736770000 114.2394930000,22.2734740000 114.2394940000,22.2732460000 114.2394770000,22.2730170000 114.2394400000,22.2727910000 114.2393280000,22.2723540000 114.2391500000,22.2715110000 114.2388360000,22.2704010000 114.2387550000,22.2701890000 114.2386460000,22.2699870000 114.2385180000,22.2697700000 114.2381780000,22.2691370000 114.2380110000,22.2688260000 114.2379500000,22.2686950000 114.2379090000,22.2686000000 114.2378750000,22.2685210000 114.2378180000,22.2683540000 114.2377990000,22.2682910000 114.2377500000,22.2681220000 114.2377190000,22.2679750000 114.2377000000,22.2678510000 114.2376830000,22.2676750000 114.2376830000,22.2676470000 114.2376810000,22.2675450000 114.2376810000,22.2675240000 114.2376780000,22.2673930000 114.2376850000,22.2671900000 114.2376930000,22.2670450000 114.2377100000,22.2669040000 114.2377280000,22.2667790000 114.2378460000,22.2661540000 114.2378630000,22.2660380000 114.2378740000,22.2659330000 114.2378750000,22.2658500000 114.2378730000,22.2657370000 114.2378640000,22.2656500000 114.2378500000,22.2655640000 114.2378320000,22.2654880000 114.2378070000,22.2654070000 114.2376440000,22.2649390000 114.2376160000,22.2648520000 114.2375930000,22.2647560000 114.2375780000,22.2646700000 114.2375680000,22.2645970000 114.2375630000,22.2645380000 114.2375630000,22.2644620000 114.2375660000,22.2643860000 114.2375800000,22.2642740000 114.2375940000,22.2641890000 114.2376100000,22.2641200000 114.2376350000,22.2640440000 114.2376610000,22.2639780000 114.2376980000,22.2638950000 114.2378020000,22.2636820000 114.2378250000,22.2636360000 114.2378790000,22.2635620000 114.2379430000,22.2634950000 114.2380250000,22.2634190000 114.2380720000,22.2633830000 114.2381180000,22.2633570000 114.2381660000,22.2633340000 114.2382460000,22.2633050000 114.2383220000,22.2632900000 114.2383850000,22.2632830000 114.2386550000,22.2632730000 114.2387300000,22.2632740000 114.2387960000,22.2632790000 114.2388840000,22.2632910000 114.2389810000,22.2633100000 114.2390720000,22.2633330000 114.2391440000,22.2633560000 114.2392150000,22.2633860000 114.2392780000,22.2634160000 114.2393860000,22.2634700000 114.2394760000,22.2635200000 114.2395630000,22.2635810000 114.2397530000,22.2637190000 114.2399460000,22.2638600000 114.2402520000,22.2640810000 114.2404460000,22.2642240000 114.2406180000,22.2643500000 114.2406860000,22.2643990000 114.2407800000,22.2644710000 114.2408980000,22.2645580000 114.2417990000,22.2652170000 114.2420970000,22.2654330000 114.2424540000,22.2656840000 114.2426890000,22.2658520000 114.2430770000,22.2661400000 114.2432580000,22.2662660000 114.2433210000,22.2661860000 114.2434650000,22.2660400000 114.2435860000,22.2659580000 114.2437200000,22.2658920000 114.2439200000,22.2658210000 114.2441220000,22.2657760000 114.2442580000,22.2657640000 114.2443920000,22.2657650000 114.2445640000,22.2657840000 114.2446780000,22.2658060000 114.2450480000,22.2658850000 114.2451570000,22.2659060000 114.2452690000,22.2659240000 114.2453750000,22.2659370000 114.2454740000,22.2659430000 114.2456320000,22.2659460000 114.2457800000,22.2659400000 114.2460000000,22.2659200000 114.2461500000,22.2659000000 114.2462900000,22.2658700000 114.2465210000,22.2657970000 114.2465730000,22.2657960000 114.2466070000,22.2657940000 114.2466450000,22.2657990000 114.2466810000,22.2658070000 114.2467100000,22.2658190000 114.2467440000,22.2658410000 114.2467710000,22.2658670000 114.2467970000,22.2659020000 114.2468220000,22.2659450000 114.2468600000,22.2660630000 114.2468480000,22.2665550000 114.2468460000,22.2666590000 114.2468460000,22.2667430000 114.2469380000,22.2667420000 114.2470000000,22.2667410000 114.2470180000,22.2667400000 114.2470680000,22.2666990000 114.2471160000,22.2666970000 114.2474430000,22.2667080000 114.2475990000,22.2666980000 114.2477540000,22.2667160000 114.2478230000,22.2667010000 114.2480400000,22.2666500000 114.2494280000,22.2662880000 114.2495250000,22.2662610000 114.2496040000,22.2662350000 114.2496980000,22.2662030000 114.2497690000,22.2661770000 114.2498340000,22.2661510000 114.2498930000,22.2661260000 114.2499900000,22.2660790000 114.2501000000,22.2660200000 114.2501800000,22.2659800000 114.2502910000,22.2659150000 114.2503810000,22.2658590000 114.2504630000,22.2658080000 114.2507000000,22.2656300000 114.2510300000,22.2653900000 114.2510440000,22.2653780000 114.2512310000,22.2652240000 114.2513580000,22.2651160000 114.2514460000,22.2650310000 114.2514780000,22.2649990000 114.2515530000,22.2649270000 114.2516370000,22.2648430000 114.2517150000,22.2647630000 114.2518020000,22.2646640000 114.2518690000,22.2645750000 114.2519360000,22.2644730000 114.2519830000,22.2643880000 114.2520200000,22.2643080000 114.2520510000,22.2642220000 114.2520690000,22.2641590000 114.2520870000,22.2640590000 114.2520920000,22.2639300000 114.2520880000,22.2638460000 114.2520750000,22.2637580000 114.2520580000,22.2636850000 114.2520300000,22.2636060000 114.2519700000,22.2634800000 114.2518700000,22.2633400000 114.2517600000,22.2632000000 114.2516780000,22.2631020000 114.2514900000,22.2629200000 114.2513000000,22.2627600000 114.2511230000,22.2626400000 114.2510590000,22.2626010000 114.2510290000,22.2625820000 114.2509570000,22.2625430000 114.2507590000,22.2624500000 114.2506510000,22.2624100000 114.2505720000,22.2623880000 114.2504930000,22.2623730000 114.2504050000,22.2623650000 114.2503160000,22.2623630000 114.2502430000,22.2623670000 114.2501650000,22.2623750000 114.2500900000,22.2623880000 114.2500170000,22.2624070000 114.2499430000,22.2624320000 114.2498730000,22.2624610000 114.2498600000,22.2624670000 114.2498060000,22.2624940000 114.2497420000,22.2625300000 114.2496880000,22.2625670000 114.2496330000,22.2626120000 114.2495920000,22.2626490000 114.2495200000,22.2627260000 114.2494530000,22.2628080000 114.2493870000,22.2629030000 114.2490580000,22.2633780000 114.2488640000,22.2636700000 114.2486910000,22.2639140000 114.2486510000,22.2639690000 114.2485890000,22.2640520000 114.2485390000,22.2641120000 114.2484630000,22.2642030000 114.2482520000,22.2644350000 114.2481500000,22.2645390000 114.2479950000,22.2646900000 114.2478000000,22.2648700000 114.2477080000,22.2649560000 114.2475670000,22.2650840000 114.2474400000,22.2651860000 114.2473420000,22.2652610000 114.2472500000,22.2653250000 114.2471530000,22.2653880000 114.2470560000,22.2654430000 114.2469590000,22.2654930000 114.2468950000,22.2655250000 114.2468110000,22.2655690000 114.2467400000,22.2656020000 114.2467800000,22.2656910000 114.2468210000,22.2657780000 114.2468420000,22.2658270000 114.2468530000,22.2658640000 114.2468590000,22.2658970000 114.2468610000,22.2659350000 114.2468620000,22.2659860000 114.2468600000,22.2660630000 114.2468480000,22.2665550000 114.2468460000,22.2666590000 114.2467370000,22.2666610000 114.2462900000,22.2666430000 114.2460510000,22.2666390000 114.2459900000,22.2666410000 114.2459320000,22.2666480000 114.2458800000,22.2666640000 114.2458270000,22.2666850000 114.2457780000,22.2667120000 114.2457380000,22.2667410000 114.2457080000,22.2668170000 114.2455140000,22.2670430000 114.2454710000,22.2670920000 114.2454000000,22.2671790000 114.2453320000,22.2671260000 114.2450790000,22.2669290000</coordinates>
                </LineString>
                <ExtendedData>
                    <Data name="duration">
                        <value>01:06:24</value>
                    </Data>
                    <Data name="length">
                        <value>53018.634616294585</value>
                    </Data>
                </ExtendedData>
            </Placemark>
        </Document>
    </Document>
</kml>