<?xml version="1.0" encoding="UTF-8"?>
<kml xmlns="http://www.opengis.net/kml/2.2" xmlns:gx="http://www.google.com/kml/ext/2.2">
    <Document>
        <name>Route</name>
        <Folder>
            <name>Route Request</name>
            <Placemark>
                <address>Chai Wan (East), On Yip Street, Chai Wan East Industrial Area, Chai Wan District, Eastern District, Hong Kong Island, Hong Kong, China</address>
                <Point>
                    <coordinates>114.2450833547,22.2664524737</coordinates>
                </Point>
                <ExtendedData>
                    <Data name="amenity">
                        <value>Chai Wan (East)</value>
                    </Data>
                    <Data name="ISO3166-2-lvl3">
                        <value>CN-HK</value>
                    </Data>
                    <Data name="road">
                        <value>On Yip Street</value>
                    </Data>
                    <Data name="city_district">
                        <value>Eastern District</value>
                    </Data>
                    <Data name="city">
                        <value>Hong Kong Island</value>
                    </Data>
                    <Data name="country">
                        <value>China</value>
                    </Data>
                    <Data name="country_code">
                        <value>cn</value>
                    </Data>
                    <Data name="quarter">
                        <value>Chai Wan East Industrial Area</value>
                    </Data>
                    <Data name="borough">
                        <value>Chai Wan District</value>
                    </Data>
                    <Data name="state">
                        <value>Hong Kong</value>
                    </Data>
                </ExtendedData>
            </Placemark>
            <Placemark>
                <address>Shing Tai Road, Chai Wan Industrial Area, Chai Wan, Eastern District, Hong Kong Island, Hong Kong, China</address>
                <Point>
                    <coordinates>114.2385209394,22.2705707980</coordinates>
                </Point>
                <ExtendedData>
                    <Data name="ISO3166-2-lvl3">
                        <value>CN-HK</value>
                    </Data>
                    <Data name="road">
                        <value>Shing Tai Road</value>
                    </Data>
                    <Data name="city_district">
                        <value>Eastern District</value>
                    </Data>
                    <Data name="city">
                        <value>Hong Kong Island</value>
                    </Data>
                    <Data name="country">
                        <value>China</value>
                    </Data>
                    <Data name="country_code">
                        <value>cn</value>
                    </Data>
                    <Data name="quarter">
                        <value>Chai Wan Industrial Area</value>
                    </Data>
                    <Data name="suburb">
                        <value>Chai Wan</value>
                    </Data>
                    <Data name="state">
                        <value>Hong Kong</value>
                    </Data>
                </ExtendedData>
            </Placemark>
            <Placemark>
                <Point>
                    <coordinates>114.2301932062,22.2784480449</coordinates>
                </Point>
            </Placemark>
            <Placemark>
                <address>Kei Wan Primary School, 63, Sai Wan Ho Street, Aldrich Bay, Sai Wan Ho, Eastern District, Hong Kong Island, Hong Kong, 000000, China</address>
                <Point>
                    <coordinates>114.2220856065,22.2809527992</coordinates>
                </Point>
                <ExtendedData>
                    <Data name="amenity">
                        <value>Kei Wan Primary School</value>
                    </Data>
                    <Data name="house_number">
                        <value>63</value>
                    </Data>
                    <Data name="ISO3166-2-lvl3">
                        <value>CN-HK</value>
                    </Data>
                    <Data name="road">
                        <value>Sai Wan Ho Street</value>
                    </Data>
                    <Data name="city_district">
                        <value>Eastern District</value>
                    </Data>
                    <Data name="city">
                        <value>Hong Kong Island</value>
                    </Data>
                    <Data name="country">
                        <value>China</value>
                    </Data>
                    <Data name="country_code">
                        <value>cn</value>
                    </Data>
                    <Data name="neighbourhood">
                        <value>Aldrich Bay</value>
                    </Data>
                    <Data name="postcode">
                        <value>000000</value>
                    </Data>
                    <Data name="suburb">
                        <value>Sai Wan Ho</value>
                    </Data>
                    <Data name="state">
                        <value>Hong Kong</value>
                    </Data>
                </ExtendedData>
            </Placemark>
            <Placemark>
                <Point>
                    <coordinates>114.1619566864,22.2842515470</coordinates>
                </Point>
            </Placemark>
            <Placemark>
                <address>Lin Cheung Road, West Kowloon, Yau Ma Tei, Yau Tsim Mong District, Kowloon, Hong Kong, 000000, China</address>
                <Point>
                    <coordinates>114.1641639252,22.3029722463</coordinates>
                </Point>
                <ExtendedData>
                    <Data name="ISO3166-2-lvl3">
                        <value>CN-HK</value>
                    </Data>
                    <Data name="road">
                        <value>Lin Cheung Road</value>
                    </Data>
                    <Data name="city_district">
                        <value>Yau Tsim Mong District</value>
                    </Data>
                    <Data name="city">
                        <value>Kowloon</value>
                    </Data>
                    <Data name="country">
                        <value>China</value>
                    </Data>
                    <Data name="country_code">
                        <value>cn</value>
                    </Data>
                    <Data name="postcode">
                        <value>000000</value>
                    </Data>
                    <Data name="quarter">
                        <value>West Kowloon</value>
                    </Data>
                    <Data name="suburb">
                        <value>Yau Ma Tei</value>
                    </Data>
                    <Data name="state">
                        <value>Hong Kong</value>
                    </Data>
                </ExtendedData>
            </Placemark>
            <Placemark>
                <address>41, Haiphong Road, Kwun Chung, Tsim Sha Tsui, Yau Tsim Mong District, Kowloon, Hong Kong, 000000, China</address>
                <Point>
                    <coordinates>114.1712514671,22.2982665612</coordinates>
                </Point>
                <ExtendedData>
                    <Data name="house_number">
                        <value>41</value>
                    </Data>
                    <Data name="ISO3166-2-lvl3">
                        <value>CN-HK</value>
                    </Data>
                    <Data name="road">
                        <value>Haiphong Road</value>
                    </Data>
                    <Data name="city_district">
                        <value>Yau Tsim Mong District</value>
                    </Data>
                    <Data name="city">
                        <value>Kowloon</value>
                    </Data>
                    <Data name="country">
                        <value>China</value>
                    </Data>
                    <Data name="country_code">
                        <value>cn</value>
                    </Data>
                    <Data name="neighbourhood">
                        <value>Kwun Chung</value>
                    </Data>
                    <Data name="postcode">
                        <value>000000</value>
                    </Data>
                    <Data name="suburb">
                        <value>Tsim Sha Tsui</value>
                    </Data>
                    <Data name="state">
                        <value>Hong Kong</value>
                    </Data>
                </ExtendedData>
            </Placemark>
            <Placemark>
                <address>Phase 2, 9, Shung King Street, Whampoa Garden, Hung Hom, Kowloon City District, Kowloon, Hong Kong, 000000, China</address>
                <Point>
                    <coordinates>114.1893499796,22.3051681652</coordinates>
                </Point>
                <ExtendedData>
                    <Data name="house_number">
                        <value>9</value>
                    </Data>
                    <Data name="ISO3166-2-lvl3">
                        <value>CN-HK</value>
                    </Data>
                    <Data name="road">
                        <value>Shung King Street</value>
                    </Data>
                    <Data name="city_district">
                        <value>Kowloon City District</value>
                    </Data>
                    <Data name="place">
                        <value>Phase 2</value>
                    </Data>
                    <Data name="residential">
                        <value>Whampoa Garden</value>
                    </Data>
                    <Data name="city">
                        <value>Kowloon</value>
                    </Data>
                    <Data name="country">
                        <value>China</value>
                    </Data>
                    <Data name="country_code">
                        <value>cn</value>
                    </Data>
                    <Data name="postcode">
                        <value>000000</value>
                    </Data>
                    <Data name="suburb">
                        <value>Hung Hom</value>
                    </Data>
                    <Data name="state">
                        <value>Hong Kong</value>
                    </Data>
                </ExtendedData>
            </Placemark>
            <Placemark>
                <address>Kerry Hotel Hong Kong, Hung Luen Road, Tai Wan, Hung Hom, Kowloon City District, Kowloon, Hong Kong, 000000, China</address>
                <Point>
                    <coordinates>114.1891638394,22.3010162626</coordinates>
                </Point>
                <ExtendedData>
                    <Data name="tourism">
                        <value>Kerry Hotel Hong Kong</value>
                    </Data>
                    <Data name="ISO3166-2-lvl3">
                        <value>CN-HK</value>
                    </Data>
                    <Data name="road">
                        <value>Hung Luen Road</value>
                    </Data>
                    <Data name="city_district">
                        <value>Kowloon City District</value>
                    </Data>
                    <Data name="city">
                        <value>Kowloon</value>
                    </Data>
                    <Data name="country">
                        <value>China</value>
                    </Data>
                    <Data name="country_code">
                        <value>cn</value>
                    </Data>
                    <Data name="neighbourhood">
                        <value>Tai Wan</value>
                    </Data>
                    <Data name="postcode">
                        <value>000000</value>
                    </Data>
                    <Data name="suburb">
                        <value>Hung Hom</value>
                    </Data>
                    <Data name="state">
                        <value>Hong Kong</value>
                    </Data>
                </ExtendedData>
            </Placemark>
            <Placemark>
                <address>Hung Hom South Road, Tai Wan, Hung Hom, Kowloon City District, Kowloon, Hong Kong, 000000, China</address>
                <Point>
                    <coordinates>114.1873718089,22.3039415478</coordinates>
                </Point>
                <ExtendedData>
                    <Data name="ISO3166-2-lvl3">
                        <value>CN-HK</value>
                    </Data>
                    <Data name="road">
                        <value>Hung Hom South Road</value>
                    </Data>
                    <Data name="city_district">
                        <value>Kowloon City District</value>
                    </Data>
                    <Data name="city">
                        <value>Kowloon</value>
                    </Data>
                    <Data name="country">
                        <value>China</value>
                    </Data>
                    <Data name="country_code">
                        <value>cn</value>
                    </Data>
                    <Data name="neighbourhood">
                        <value>Tai Wan</value>
                    </Data>
                    <Data name="postcode">
                        <value>000000</value>
                    </Data>
                    <Data name="suburb">
                        <value>Hung Hom</value>
                    </Data>
                    <Data name="state">
                        <value>Hong Kong</value>
                    </Data>
                </ExtendedData>
            </Placemark>
            <Placemark>
                <address>Hung Hom Station Intercity Through Train Concourse / Exit C Concourse, 8, Cheong Wan Road, Hung Hom Bay, Tsim Sha Tsui, Yau Tsim Mong District, Kowloon, Hong Kong, 000000, China</address>
                <Point>
                    <coordinates>114.1821488939,22.3020224633</coordinates>
                </Point>
                <ExtendedData>
                    <Data name="house_number">
                        <value>8</value>
                    </Data>
                    <Data name="ISO3166-2-lvl3">
                        <value>CN-HK</value>
                    </Data>
                    <Data name="road">
                        <value>Cheong Wan Road</value>
                    </Data>
                    <Data name="building">
                        <value>Hung Hom Station Intercity Through Train Concourse / Exit C Concourse</value>
                    </Data>
                    <Data name="city_district">
                        <value>Yau Tsim Mong District</value>
                    </Data>
                    <Data name="city">
                        <value>Kowloon</value>
                    </Data>
                    <Data name="country">
                        <value>China</value>
                    </Data>
                    <Data name="country_code">
                        <value>cn</value>
                    </Data>
                    <Data name="postcode">
                        <value>000000</value>
                    </Data>
                    <Data name="quarter">
                        <value>Hung Hom Bay</value>
                    </Data>
                    <Data name="suburb">
                        <value>Tsim Sha Tsui</value>
                    </Data>
                    <Data name="state">
                        <value>Hong Kong</value>
                    </Data>
                </ExtendedData>
            </Placemark>
            <Placemark>
                <address>Centenary Garden, Mody Road, East Tsim Sha Tsui, Tsim Sha Tsui, Yau Tsim Mong District, Kowloon, Hong Kong, 000000, China</address>
                <Point>
                    <coordinates>114.1759308529,22.2991401211</coordinates>
                </Point>
                <ExtendedData>
                    <Data name="ISO3166-2-lvl3">
                        <value>CN-HK</value>
                    </Data>
                    <Data name="road">
                        <value>Mody Road</value>
                    </Data>
                    <Data name="city_district">
                        <value>Yau Tsim Mong District</value>
                    </Data>
                    <Data name="city">
                        <value>Kowloon</value>
                    </Data>
                    <Data name="country">
                        <value>China</value>
                    </Data>
                    <Data name="country_code">
                        <value>cn</value>
                    </Data>
                    <Data name="leisure">
                        <value>Centenary Garden</value>
                    </Data>
                    <Data name="postcode">
                        <value>000000</value>
                    </Data>
                    <Data name="quarter">
                        <value>East Tsim Sha Tsui</value>
                    </Data>
                    <Data name="suburb">
                        <value>Tsim Sha Tsui</value>
                    </Data>
                    <Data name="state">
                        <value>Hong Kong</value>
                    </Data>
                </ExtendedData>
            </Placemark>
            <Placemark>
                <address>Salisbury Road, Tsim Sha Tsui, Yau Tsim Mong District, Kowloon, Hong Kong, 000000, China</address>
                <Point>
                    <coordinates>114.1686893081,22.2942353727</coordinates>
                </Point>
                <ExtendedData>
                    <Data name="ISO3166-2-lvl3">
                        <value>CN-HK</value>
                    </Data>
                    <Data name="road">
                        <value>Salisbury Road</value>
                    </Data>
                    <Data name="city_district">
                        <value>Yau Tsim Mong District</value>
                    </Data>
                    <Data name="city">
                        <value>Kowloon</value>
                    </Data>
                    <Data name="country">
                        <value>China</value>
                    </Data>
                    <Data name="country_code">
                        <value>cn</value>
                    </Data>
                    <Data name="postcode">
                        <value>000000</value>
                    </Data>
                    <Data name="suburb">
                        <value>Tsim Sha Tsui</value>
                    </Data>
                    <Data name="state">
                        <value>Hong Kong</value>
                    </Data>
                </ExtendedData>
            </Placemark>
            <Placemark>
                <address>Mannings, 33, Canton Road, Kwun Chung, Tsim Sha Tsui, Yau Tsim Mong District, Kowloon, Hong Kong, 000000, China</address>
                <Point>
                    <coordinates>114.1682255133,22.3002792788</coordinates>
                </Point>
                <ExtendedData>
                    <Data name="amenity">
                        <value>Mannings</value>
                    </Data>
                    <Data name="house_number">
                        <value>33</value>
                    </Data>
                    <Data name="ISO3166-2-lvl3">
                        <value>CN-HK</value>
                    </Data>
                    <Data name="road">
                        <value>Canton Road</value>
                    </Data>
                    <Data name="city_district">
                        <value>Yau Tsim Mong District</value>
                    </Data>
                    <Data name="city">
                        <value>Kowloon</value>
                    </Data>
                    <Data name="country">
                        <value>China</value>
                    </Data>
                    <Data name="country_code">
                        <value>cn</value>
                    </Data>
                    <Data name="neighbourhood">
                        <value>Kwun Chung</value>
                    </Data>
                    <Data name="postcode">
                        <value>000000</value>
                    </Data>
                    <Data name="suburb">
                        <value>Tsim Sha Tsui</value>
                    </Data>
                    <Data name="state">
                        <value>Hong Kong</value>
                    </Data>
                </ExtendedData>
            </Placemark>
            <Placemark>
                <address>Lin Cheung Road, West Kowloon, Yau Ma Tei, Yau Tsim Mong District, Kowloon, Hong Kong, 000000, China</address>
                <Point>
                    <coordinates>114.1636467349,22.3028996148</coordinates>
                </Point>
                <ExtendedData>
                    <Data name="ISO3166-2-lvl3">
                        <value>CN-HK</value>
                    </Data>
                    <Data name="road">
                        <value>Lin Cheung Road</value>
                    </Data>
                    <Data name="city_district">
                        <value>Yau Tsim Mong District</value>
                    </Data>
                    <Data name="city">
                        <value>Kowloon</value>
                    </Data>
                    <Data name="country">
                        <value>China</value>
                    </Data>
                    <Data name="country_code">
                        <value>cn</value>
                    </Data>
                    <Data name="postcode">
                        <value>000000</value>
                    </Data>
                    <Data name="quarter">
                        <value>West Kowloon</value>
                    </Data>
                    <Data name="suburb">
                        <value>Yau Ma Tei</value>
                    </Data>
                    <Data name="state">
                        <value>Hong Kong</value>
                    </Data>
                </ExtendedData>
            </Placemark>
            <Placemark>
                <Point>
                    <coordinates>114.1668931286,22.2826230448</coordinates>
                </Point>
            </Placemark>
            <Placemark>
                <Point>
                    <coordinates>114.1918734614,22.2905133308</coordinates>
                </Point>
            </Placemark>
            <Placemark>
                <address>163, Shau Kei Wan Road, Aldrich Bay, Sai Wan Ho, Eastern District, Hong Kong Island, Hong Kong, 000000, China</address>
                <Point>
                    <coordinates>114.2243808893,22.2808938107</coordinates>
                </Point>
                <ExtendedData>
                    <Data name="house_number">
                        <value>163</value>
                    </Data>
                    <Data name="ISO3166-2-lvl3">
                        <value>CN-HK</value>
                    </Data>
                    <Data name="road">
                        <value>Shau Kei Wan Road</value>
                    </Data>
                    <Data name="city_district">
                        <value>Eastern District</value>
                    </Data>
                    <Data name="city">
                        <value>Hong Kong Island</value>
                    </Data>
                    <Data name="country">
                        <value>China</value>
                    </Data>
                    <Data name="country_code">
                        <value>cn</value>
                    </Data>
                    <Data name="neighbourhood">
                        <value>Aldrich Bay</value>
                    </Data>
                    <Data name="postcode">
                        <value>000000</value>
                    </Data>
                    <Data name="suburb">
                        <value>Sai Wan Ho</value>
                    </Data>
                    <Data name="state">
                        <value>Hong Kong</value>
                    </Data>
                </ExtendedData>
            </Placemark>
            <Placemark>
                <Point>
                    <coordinates>114.2294558949,22.2785883299</coordinates>
                </Point>
            </Placemark>
            <Placemark>
                <address>Island Eastern Corridor, Chai Wan Industrial Area, Chai Wan, Eastern District, Hong Kong Island, Hong Kong, China</address>
                <Point>
                    <coordinates>114.2382106528,22.2692267488</coordinates>
                </Point>
                <ExtendedData>
                    <Data name="ISO3166-2-lvl3">
                        <value>CN-HK</value>
                    </Data>
                    <Data name="road">
                        <value>Island Eastern Corridor</value>
                    </Data>
                    <Data name="city_district">
                        <value>Eastern District</value>
                    </Data>
                    <Data name="city">
                        <value>Hong Kong Island</value>
                    </Data>
                    <Data name="country">
                        <value>China</value>
                    </Data>
                    <Data name="country_code">
                        <value>cn</value>
                    </Data>
                    <Data name="quarter">
                        <value>Chai Wan Industrial Area</value>
                    </Data>
                    <Data name="suburb">
                        <value>Chai Wan</value>
                    </Data>
                    <Data name="state">
                        <value>Hong Kong</value>
                    </Data>
                </ExtendedData>
            </Placemark>
            <Placemark>
                <Point>
                    <coordinates>114.2495580325,22.2626812995</coordinates>
                </Point>
            </Placemark>
            <Placemark>
                <address>Chai Wan (East), On Yip Street, Chai Wan East Industrial Area, Chai Wan District, Eastern District, Hong Kong Island, Hong Kong, China</address>
                <Point>
                    <coordinates>114.2451422377,22.2664248562</coordinates>
                </Point>
                <ExtendedData>
                    <Data name="amenity">
                        <value>Chai Wan (East)</value>
                    </Data>
                    <Data name="ISO3166-2-lvl3">
                        <value>CN-HK</value>
                    </Data>
                    <Data name="road">
                        <value>On Yip Street</value>
                    </Data>
                    <Data name="city_district">
                        <value>Eastern District</value>
                    </Data>
                    <Data name="city">
                        <value>Hong Kong Island</value>
                    </Data>
                    <Data name="country">
                        <value>China</value>
                    </Data>
                    <Data name="country_code">
                        <value>cn</value>
                    </Data>
                    <Data name="quarter">
                        <value>Chai Wan East Industrial Area</value>
                    </Data>
                    <Data name="borough">
                        <value>Chai Wan District</value>
                    </Data>
                    <Data name="state">
                        <value>Hong Kong</value>
                    </Data>
                </ExtendedData>
            </Placemark>
        </Folder>
        <Document>
            <name>52.3 km; 01:10 h (OSRM)</name>
            <Placemark>
                <name>Route</name>
                <LineString>
                    <coordinates>114.2446760000,22.2665070000 114.2446760000,22.2665070000 114.2444890000,22.2663770000 114.2444410000,22.2663440000 114.2444000000,22.2663160000 114.2444510000,22.2662340000 114.2444820000,22.2661610000 114.2445030000,22.2661020000 114.2445250000,22.2659830000 114.2445340000,22.2659400000 114.2445430000,22.2658970000 114.2445480000,22.2658710000 114.2445640000,22.2657840000 114.2445830000,22.2656860000 114.2444610000,22.2656650000 114.2443480000,22.2656500000 114.2442310000,22.2656440000 114.2441230000,22.2656460000 114.2440380000,22.2656630000 114.2432950000,22.2657930000 114.2432330000,22.2657930000 114.2430970000,22.2657930000 114.2428720000,22.2657590000 114.2427740000,22.2657300000 114.2426260000,22.2656880000 114.2421620000,22.2653560000 114.2417790000,22.2650770000 114.2414720000,22.2648500000 114.2408530000,22.2643850000 114.2407250000,22.2642900000 114.2403230000,22.2639950000 114.2399550000,22.2637210000 114.2396690000,22.2635200000 114.2396370000,22.2634960000 114.2395440000,22.2634350000 114.2393700000,22.2633300000 114.2392770000,22.2632900000 114.2391920000,22.2632610000 114.2390980000,22.2632350000 114.2389870000,22.2632100000 114.2388990000,22.2631950000 114.2388450000,22.2631900000 114.2387840000,22.2631890000 114.2385890000,22.2631970000 114.2382660000,22.2632180000 114.2381350000,22.2632220000 114.2380060000,22.2632190000 114.2379430000,22.2632090000 114.2378740000,22.2631960000 114.2378270000,22.2631830000 114.2377900000,22.2631510000 114.2377380000,22.2631200000 114.2376740000,22.2630890000 114.2376130000,22.2630670000 114.2375550000,22.2630490000 114.2375030000,22.2630380000 114.2374530000,22.2630320000 114.2374110000,22.2630320000 114.2373780000,22.2630350000 114.2373380000,22.2630440000 114.2373020000,22.2630550000 114.2372610000,22.2630750000 114.2372150000,22.2631020000 114.2371500000,22.2631500000 114.2371070000,22.2632200000 114.2371010000,22.2632700000 114.2371030000,22.2633200000 114.2371210000,22.2634300000 114.2371700000,22.2635300000 114.2373260000,22.2636430000 114.2373870000,22.2637250000 114.2374300000,22.2637880000 114.2374570000,22.2638390000 114.2374770000,22.2638840000 114.2374910000,22.2639240000 114.2375000000,22.2639690000 114.2375050000,22.2640160000 114.2375040000,22.2640640000 114.2375000000,22.2641120000 114.2374870000,22.2641950000 114.2374760000,22.2642820000 114.2374700000,22.2643800000 114.2374690000,22.2644800000 114.2374730000,22.2645780000 114.2374940000,22.2647200000 114.2375140000,22.2648110000 114.2375430000,22.2649080000 114.2376610000,22.2652300000 114.2376850000,22.2653060000 114.2377070000,22.2653830000 114.2377320000,22.2655220000 114.2377410000,22.2656050000 114.2377470000,22.2657190000 114.2377460000,22.2659060000 114.2377380000,22.2660120000 114.2376060000,22.2670930000 114.2375970000,22.2671950000 114.2375920000,22.2672940000 114.2375900000,22.2673860000 114.2375920000,22.2674860000 114.2376050000,22.2676770000 114.2376190000,22.2678380000 114.2376300000,22.2679220000 114.2376520000,22.2680540000 114.2376710000,22.2681440000 114.2377090000,22.2683070000 114.2377400000,22.2684200000 114.2377620000,22.2684930000 114.2377960000,22.2685930000 114.2378550000,22.2687500000 114.2379080000,22.2688700000 114.2380560000,22.2691820000 114.2381230000,22.2693340000 114.2382440000,22.2696400000 114.2383310000,22.2698500000 114.2383950000,22.2700280000 114.2384450000,22.2701930000 114.2385130000,22.2704720000 114.2385440000,22.2705650000 114.2385690000,22.2706410000 114.2388440000,22.2713530000 114.2391590000,22.2722780000 114.2392430000,22.2725450000 114.2392910000,22.2727140000 114.2393240000,22.2728570000 114.2393460000,22.2729910000 114.2393630000,22.2731330000 114.2393730000,22.2732560000 114.2393750000,22.2733820000 114.2393710000,22.2735130000 114.2393540000,22.2736650000 114.2393250000,22.2738250000 114.2392870000,22.2739860000 114.2392450000,22.2741240000 114.2392050000,22.2742440000 114.2391490000,22.2743750000 114.2390890000,22.2745010000 114.2390290000,22.2746120000 114.2389630000,22.2747230000 114.2388870000,22.2748380000 114.2388160000,22.2749360000 114.2387520000,22.2750200000 114.2386830000,22.2751040000 114.2375420000,22.2764650000 114.2374170000,22.2766210000 114.2373250000,22.2767460000 114.2372560000,22.2768480000 114.2371670000,22.2769930000 114.2371030000,22.2771070000 114.2370510000,22.2772100000 114.2369960000,22.2773260000 114.2369350000,22.2774750000 114.2368700000,22.2776600000 114.2367930000,22.2779100000 114.2366440000,22.2785280000 114.2366360000,22.2785600000 114.2366210000,22.2786070000 114.2366090000,22.2786410000 114.2365730000,22.2787530000 114.2364020000,22.2791420000 114.2363310000,22.2792660000 114.2358180000,22.2800200000 114.2353720000,22.2806110000 114.2352810000,22.2807320000 114.2350780000,22.2809760000 114.2349990000,22.2810520000 114.2347300000,22.2813150000 114.2346850000,22.2813650000 114.2341840000,22.2819110000 114.2340320000,22.2820830000 114.2339610000,22.2821620000 114.2338720000,22.2822490000 114.2337240000,22.2823760000 114.2336700000,22.2824180000 114.2335430000,22.2824980000 114.2334740000,22.2825340000 114.2333690000,22.2825800000 114.2332080000,22.2826370000 114.2330380000,22.2826830000 114.2329580000,22.2827020000 114.2328190000,22.2827250000 114.2326230000,22.2827470000 114.2325270000,22.2827500000 114.2323140000,22.2827490000 114.2321960000,22.2827400000 114.2320070000,22.2827130000 114.2318020000,22.2826670000 114.2316750000,22.2826280000 114.2315320000,22.2825670000 114.2313730000,22.2825000000 114.2311590000,22.2823790000 114.2310290000,22.2822890000 114.2309240000,22.2822020000 114.2308170000,22.2821010000 114.2307780000,22.2820630000 114.2306970000,22.2819790000 114.2305900000,22.2818500000 114.2305900000,22.2818000000 114.2305990000,22.2816610000 114.2306620000,22.2812030000 114.2306690000,22.2811510000 114.2307060000,22.2810020000 114.2307090000,22.2809760000 114.2307160000,22.2808810000 114.2307160000,22.2808510000 114.2307110000,22.2808160000 114.2306910000,22.2807700000 114.2304250000,22.2802420000 114.2303860000,22.2801660000 114.2303610000,22.2801150000 114.2303360000,22.2800580000 114.2300040000,22.2792050000 114.2299950000,22.2791760000 114.2299910000,22.2791470000 114.2299890000,22.2791220000 114.2299900000,22.2791030000 114.2299950000,22.2790800000 114.2301940000,22.2784480000 114.2302940000,22.2781290000 114.2303080000,22.2780610000 114.2303090000,22.2779920000 114.2302980000,22.2779240000 114.2302750000,22.2778590000 114.2302660000,22.2778330000 114.2302470000,22.2777770000 114.2301150000,22.2775820000 114.2299150000,22.2772160000 114.2298700000,22.2771350000 114.2298610000,22.2771190000 114.2298470000,22.2770930000 114.2298140000,22.2770340000 114.2297770000,22.2769710000 114.2296810000,22.2768130000 114.2296350000,22.2767650000 114.2295540000,22.2767220000 114.2294920000,22.2767040000 114.2294340000,22.2766990000 114.2293830000,22.2767020000 114.2292630000,22.2767190000 114.2291160000,22.2767500000 114.2290490000,22.2767110000 114.2290310000,22.2767140000 114.2288600000,22.2767470000 114.2288360000,22.2767520000 114.2288050000,22.2767580000 114.2287530000,22.2767850000 114.2286510000,22.2768050000 114.2285640000,22.2768210000 114.2284640000,22.2768420000 114.2283180000,22.2768910000 114.2282020000,22.2769410000 114.2278120000,22.2771210000 114.2272170000,22.2774260000 114.2271020000,22.2774880000 114.2270670000,22.2775080000 114.2270000000,22.2775590000 114.2269410000,22.2776260000 114.2269050000,22.2776770000 114.2265440000,22.2782660000 114.2264970000,22.2783430000 114.2262700000,22.2787140000 114.2261680000,22.2788810000 114.2257310000,22.2795960000 114.2256930000,22.2796580000 114.2255780000,22.2795980000 114.2253800000,22.2794940000 114.2252630000,22.2796930000 114.2252350000,22.2797150000 114.2251930000,22.2797290000 114.2249420000,22.2797820000 114.2249130000,22.2797880000 114.2245710000,22.2798590000 114.2242080000,22.2799350000 114.2237390000,22.2800800000 114.2233260000,22.2802600000 114.2231440000,22.2803470000 114.2226450000,22.2805910000 114.2226090000,22.2806110000 114.2223930000,22.2807400000 114.2222230000,22.2808700000 114.2221130000,22.2809670000 114.2221080000,22.2809720000 114.2219660000,22.2811160000 114.2219410000,22.2811470000 114.2219340000,22.2811820000 114.2219420000,22.2812100000 114.2215880000,22.2816670000 114.2215430000,22.2817240000 114.2215020000,22.2817760000 114.2211920000,22.2821620000 114.2211420000,22.2821940000 114.2210660000,22.2822420000 114.2207770000,22.2826090000 114.2209860000,22.2827500000 114.2211510000,22.2828620000 114.2212030000,22.2828980000 114.2212480000,22.2829300000 114.2212680000,22.2829440000 114.2213170000,22.2829780000 114.2213770000,22.2830200000 114.2215850000,22.2831620000 114.2216600000,22.2832130000 114.2218290000,22.2833290000 114.2218720000,22.2833580000 114.2219410000,22.2834050000 114.2219920000,22.2834400000 114.2221230000,22.2835410000 114.2221380000,22.2835530000 114.2221560000,22.2835670000 114.2221720000,22.2835790000 114.2222160000,22.2836120000 114.2221830000,22.2836590000 114.2220860000,22.2837970000 114.2220570000,22.2838370000 114.2220100000,22.2839020000 114.2218850000,22.2840740000 114.2218230000,22.2841580000 114.2217290000,22.2843330000 114.2216600000,22.2845010000 114.2215600000,22.2848340000 114.2215110000,22.2849770000 114.2214870000,22.2850440000 114.2214500000,22.2851530000 114.2214290000,22.2852100000 114.2214170000,22.2852420000 114.2213990000,22.2852830000 114.2213850000,22.2853120000 114.2213590000,22.2853570000 114.2213530000,22.2855080000 114.2213570000,22.2858410000 114.2213610000,22.2860780000 114.2213760000,22.2866650000 114.2213690000,22.2867960000 114.2213550000,22.2869820000 114.2213220000,22.2871970000 114.2212320000,22.2874440000 114.2211840000,22.2875360000 114.2211090000,22.2876640000 114.2210020000,22.2877990000 114.2209110000,22.2878780000 114.2207880000,22.2879490000 114.2206690000,22.2880380000 114.2204850000,22.2881450000 114.2203750000,22.2882000000 114.2202220000,22.2882780000 114.2200180000,22.2883510000 114.2198480000,22.2883900000 114.2198020000,22.2884010000 114.2197290000,22.2884130000 114.2196740000,22.2884270000 114.2194880000,22.2884760000 114.2192360000,22.2885300000 114.2190490000,22.2885710000 114.2185110000,22.2886880000 114.2180910000,22.2887630000 114.2172060000,22.2889130000 114.2168690000,22.2889320000 114.2167970000,22.2889440000 114.2163450000,22.2890210000 114.2160060000,22.2890940000 114.2159010000,22.2891190000 114.2157740000,22.2891470000 114.2153060000,22.2892730000 114.2151250000,22.2893220000 114.2147580000,22.2894410000 114.2142880000,22.2896070000 114.2137820000,22.2898170000 114.2134510000,22.2899700000 114.2133040000,22.2900230000 114.2131690000,22.2900720000 114.2127380000,22.2903170000 114.2124830000,22.2904610000 114.2123200000,22.2905530000 114.2122130000,22.2906180000 114.2121310000,22.2906670000 114.2120320000,22.2907270000 114.2119230000,22.2907940000 114.2116530000,22.2909590000 114.2114960000,22.2910550000 114.2114030000,22.2911130000 114.2111810000,22.2912530000 114.2110560000,22.2913310000 114.2109730000,22.2913830000 114.2106220000,22.2916380000 114.2102020000,22.2919430000 114.2096790000,22.2923280000 114.2094250000,22.2924890000 114.2091620000,22.2926270000 114.2088160000,22.2927860000 114.2086880000,22.2928400000 114.2084250000,22.2929190000 114.2081530000,22.2930010000 114.2077170000,22.2931270000 114.2072230000,22.2932690000 114.2071640000,22.2932870000 114.2066740000,22.2934340000 114.2061700000,22.2935940000 114.2056640000,22.2937480000 114.2053700000,22.2938370000 114.2050060000,22.2939470000 114.2049120000,22.2939730000 114.2046900000,22.2940290000 114.2045330000,22.2940650000 114.2042430000,22.2941180000 114.2040330000,22.2941470000 114.2039120000,22.2941540000 114.2037320000,22.2941650000 114.2035270000,22.2941680000 114.2034090000,22.2941650000 114.2032010000,22.2941380000 114.2031730000,22.2941340000 114.2030020000,22.2941110000 114.2029330000,22.2941020000 114.2028290000,22.2940850000 114.2026460000,22.2940560000 114.2025500000,22.2940360000 114.2022170000,22.2939690000 114.2021190000,22.2939490000 114.2018350000,22.2938920000 114.2015540000,22.2938360000 114.2013450000,22.2937940000 114.2005900000,22.2936420000 114.2005170000,22.2936260000 114.2000710000,22.2935390000 114.1999040000,22.2935110000 114.1997390000,22.2934890000 114.1995910000,22.2934740000 114.1994500000,22.2934640000 114.1992990000,22.2934600000 114.1989250000,22.2934630000 114.1987990000,22.2934610000 114.1986680000,22.2934560000 114.1984820000,22.2934470000 114.1983720000,22.2934380000 114.1982150000,22.2934210000 114.1980750000,22.2933990000 114.1971540000,22.2932100000 114.1968890000,22.2931570000 114.1966340000,22.2931040000 114.1963890000,22.2930500000 114.1963650000,22.2930450000 114.1962830000,22.2930270000 114.1961050000,22.2929900000 114.1958550000,22.2929350000 114.1956370000,22.2928790000 114.1955750000,22.2928640000 114.1955000000,22.2928430000 114.1953420000,22.2928020000 114.1950760000,22.2927130000 114.1949500000,22.2926590000 114.1948340000,22.2926050000 114.1947770000,22.2925780000 114.1947230000,22.2925510000 114.1945570000,22.2924640000 114.1944720000,22.2924140000 114.1943380000,22.2923400000 114.1943010000,22.2923180000 114.1940990000,22.2921780000 114.1939740000,22.2920840000 114.1938490000,22.2919940000 114.1937010000,22.2918840000 114.1936750000,22.2918610000 114.1936060000,22.2918030000 114.1935350000,22.2917410000 114.1934410000,22.2916610000 114.1933890000,22.2916150000 114.1933500000,22.2915810000 114.1933240000,22.2915550000 114.1933070000,22.2915380000 114.1932510000,22.2914830000 114.1931350000,22.2913490000 114.1930370000,22.2912980000 114.1930000000,22.2912790000 114.1929650000,22.2912600000 114.1928810000,22.2911910000 114.1927960000,22.2911220000 114.1926510000,22.2909900000 114.1923350000,22.2907120000 114.1922120000,22.2906020000 114.1918270000,22.2902610000 114.1916300000,22.2900770000 114.1908750000,22.2893900000 114.1907350000,22.2892620000 114.1890040000,22.2874280000 114.1877620000,22.2861010000 114.1876340000,22.2859670000 114.1875060000,22.2858380000 114.1873510000,22.2856890000 114.1871940000,22.2855440000 114.1869480000,22.2853310000 114.1868230000,22.2852280000 114.1866980000,22.2851280000 114.1864830000,22.2849650000 114.1862650000,22.2848080000 114.1860420000,22.2846580000 114.1858230000,22.2845190000 114.1856130000,22.2843930000 114.1854010000,22.2842730000 114.1851740000,22.2841520000 114.1849430000,22.2840370000 114.1847330000,22.2839390000 114.1845230000,22.2838460000 114.1841940000,22.2837120000 114.1838710000,22.2835940000 114.1835380000,22.2834860000 114.1832060000,22.2833900000 114.1830230000,22.2833420000 114.1828410000,22.2832980000 114.1826170000,22.2832480000 114.1823210000,22.2831920000 114.1820230000,22.2831430000 114.1814740000,22.2830780000 114.1805170000,22.2830320000 114.1768450000,22.2825330000 114.1755490000,22.2823780000 114.1749950000,22.2823150000 114.1743800000,22.2822580000 114.1728910000,22.2821650000 114.1715990000,22.2821360000 114.1711640000,22.2821470000 114.1704020000,22.2821530000 114.1698050000,22.2821850000 114.1683210000,22.2822580000 114.1678140000,22.2822960000 114.1672620000,22.2823610000 114.1666010000,22.2824650000 114.1661110000,22.2825700000 114.1655820000,22.2826990000 114.1650590000,22.2828520000 114.1644680000,22.2830590000 114.1640640000,22.2832160000 114.1636710000,22.2833830000 114.1630590000,22.2836830000 114.1619830000,22.2842920000 114.1612520000,22.2847050000 114.1603510000,22.2852150000 114.1600340000,22.2854100000 114.1590010000,22.2860480000 114.1585600000,22.2863200000 114.1584600000,22.2863770000 114.1581200000,22.2865700000 114.1577150000,22.2867660000 114.1574210000,22.2868850000 114.1573240000,22.2869170000 114.1572250000,22.2869470000 114.1570690000,22.2869880000 114.1569330000,22.2870180000 114.1568290000,22.2870380000 114.1567060000,22.2870580000 114.1565900000,22.2870730000 114.1564660000,22.2870850000 114.1563510000,22.2870940000 114.1561880000,22.2870990000 114.1560630000,22.2871000000 114.1559410000,22.2870980000 114.1557750000,22.2870900000 114.1556520000,22.2870800000 114.1555310000,22.2870680000 114.1551870000,22.2870330000 114.1551000000,22.2870220000 114.1548880000,22.2869920000 114.1547980000,22.2869790000 114.1546200000,22.2869530000 114.1542500000,22.2869200000 114.1540900000,22.2869130000 114.1539550000,22.2869130000 114.1537930000,22.2869190000 114.1536620000,22.2869260000 114.1535390000,22.2869390000 114.1533250000,22.2869710000 114.1532130000,22.2869840000 114.1529020000,22.2870700000 114.1526480000,22.2871460000 114.1525440000,22.2871770000 114.1523260000,22.2872420000 114.1518070000,22.2873960000 114.1510010000,22.2876360000 114.1507380000,22.2877100000 114.1504730000,22.2877840000 114.1500380000,22.2879030000 114.1496450000,22.2880000000 114.1488010000,22.2882260000 114.1483480000,22.2883170000 114.1482760000,22.2883440000 114.1481130000,22.2883980000 114.1480310000,22.2884120000 114.1477010000,22.2884540000 114.1464610000,22.2885810000 114.1463690000,22.2885890000 114.1458940000,22.2886340000 114.1452760000,22.2886290000 114.1452130000,22.2886340000 114.1449270000,22.2886610000 114.1431340000,22.2888430000 114.1429290000,22.2888530000 114.1427240000,22.2888580000 114.1425180000,22.2888600000 114.1421640000,22.2888570000 114.1416570000,22.2888120000 114.1415230000,22.2888160000 114.1414030000,22.2888230000 114.1412830000,22.2888350000 114.1411630000,22.2888530000 114.1410450000,22.2888770000 114.1409610000,22.2889020000 114.1408800000,22.2889360000 114.1408030000,22.2889780000 114.1407310000,22.2890280000 114.1406660000,22.2890840000 114.1406080000,22.2891460000 114.1405650000,22.2892050000 114.1405280000,22.2892690000 114.1404990000,22.2893310000 114.1404750000,22.2893920000 114.1404580000,22.2894540000 114.1404480000,22.2895140000 114.1404430000,22.2895770000 114.1404430000,22.2896440000 114.1404490000,22.2897100000 114.1404610000,22.2897730000 114.1404780000,22.2898340000 114.1405030000,22.2898980000 114.1405360000,22.2899620000 114.1405750000,22.2900230000 114.1406370000,22.2901030000 114.1406880000,22.2901540000 114.1407440000,22.2902010000 114.1408050000,22.2902430000 114.1408760000,22.2902830000 114.1409480000,22.2903160000 114.1410200000,22.2903410000 114.1410970000,22.2903600000 114.1411730000,22.2903710000 114.1412540000,22.2903750000 114.1413400000,22.2903730000 114.1414220000,22.2903640000 114.1414930000,22.2903500000 114.1415690000,22.2903300000 114.1416550000,22.2902980000 114.1417490000,22.2902570000 114.1421090000,22.2900830000 114.1422010000,22.2900160000 114.1424570000,22.2898400000 114.1427260000,22.2896770000 114.1428510000,22.2896110000 114.1429780000,22.2895520000 114.1430950000,22.2895030000 114.1432150000,22.2894610000 114.1433370000,22.2894270000 114.1435660000,22.2893660000 114.1437070000,22.2893400000 114.1438090000,22.2893220000 114.1440550000,22.2892960000 114.1443030000,22.2892900000 114.1445500000,22.2893020000 114.1447950000,22.2893330000 114.1450370000,22.2893840000 114.1452730000,22.2894520000 114.1455020000,22.2895390000 114.1457230000,22.2896420000 114.1459340000,22.2897630000 114.1461330000,22.2898990000 114.1463680000,22.2901390000 114.1554730000,22.2999560000 114.1558600000,22.3003730000 114.1566150000,22.3012230000 114.1568940000,22.3015430000 114.1571420000,22.3018730000 114.1572490000,22.3020230000 114.1575930000,22.3024530000 114.1577020000,22.3028840000 114.1577620000,22.3030120000 114.1578060000,22.3031000000 114.1578300000,22.3031390000 114.1578540000,22.3031790000 114.1579030000,22.3032450000 114.1580640000,22.3034560000 114.1581690000,22.3035830000 114.1582330000,22.3036610000 114.1582880000,22.3037260000 114.1584670000,22.3039760000 114.1585340000,22.3042790000 114.1585510000,22.3043510000 114.1585680000,22.3043950000 114.1585960000,22.3044280000 114.1586450000,22.3044950000 114.1586880000,22.3045520000 114.1591550000,22.3051380000 114.1591730000,22.3051590000 114.1592100000,22.3052050000 114.1595050000,22.3055000000 114.1595570000,22.3055560000 114.1595950000,22.3055940000 114.1596460000,22.3056460000 114.1596740000,22.3056760000 114.1597050000,22.3057080000 114.1598520000,22.3058650000 114.1598920000,22.3059420000 114.1599530000,22.3060580000 114.1600520000,22.3062540000 114.1603690000,22.3068550000 114.1605800000,22.3073870000 114.1606170000,22.3074920000 114.1606430000,22.3075640000 114.1606840000,22.3076830000 114.1608100000,22.3076410000 114.1611340000,22.3075320000 114.1612040000,22.3075080000 114.1612510000,22.3074920000 114.1622100000,22.3071700000 114.1627530000,22.3069810000 114.1629910000,22.3069510000 114.1631700000,22.3068850000 114.1634500000,22.3067800000 114.1636270000,22.3067330000 114.1637800000,22.3066980000 114.1640550000,22.3066380000 114.1640500000,22.3064760000 114.1640540000,22.3064130000 114.1640530000,22.3063950000 114.1640620000,22.3062010000 114.1640680000,22.3061150000 114.1640680000,22.3060440000 114.1640680000,22.3059720000 114.1640550000,22.3058800000 114.1640530000,22.3057290000 114.1640550000,22.3056250000 114.1640510000,22.3055630000 114.1640410000,22.3053940000 114.1640400000,22.3052980000 114.1640190000,22.3038620000 114.1640190000,22.3037830000 114.1640340000,22.3031660000 114.1640910000,22.3030560000 114.1641530000,22.3029640000 114.1641550000,22.3029620000 114.1642770000,22.3028660000 114.1643950000,22.3028050000 114.1645310000,22.3027450000 114.1648800000,22.3027770000 114.1652440000,22.3028070000 114.1655170000,22.3028310000 114.1659290000,22.3028860000 114.1660860000,22.3028980000 114.1662510000,22.3029090000 114.1664110000,22.3029210000 114.1666940000,22.3029440000 114.1667800000,22.3029510000 114.1668730000,22.3029600000 114.1669990000,22.3029730000 114.1670690000,22.3029800000 114.1672420000,22.3029880000 114.1673600000,22.3029920000 114.1674210000,22.3029940000 114.1675150000,22.3030000000 114.1678020000,22.3030180000 114.1678790000,22.3030200000 114.1679360000,22.3030230000 114.1679570000,22.3030230000 114.1681170000,22.3030320000 114.1681220000,22.3029490000 114.1681140000,22.3026690000 114.1681090000,22.3025550000 114.1680930000,22.3024290000 114.1680580000,22.3022310000 114.1680440000,22.3021150000 114.1680390000,22.3020070000 114.1680440000,22.3018860000 114.1680590000,22.3017460000 114.1680790000,22.3016450000 114.1681110000,22.3014750000 114.1682430000,22.3008020000 114.1682750000,22.3006900000 114.1683120000,22.3005930000 114.1683780000,22.3004640000 114.1684770000,22.3003270000 114.1685580000,22.3002210000 114.1685440000,22.3000600000 114.1685320000,22.2999880000 114.1684790000,22.2998740000 114.1684640000,22.2998350000 114.1684570000,22.2998160000 114.1684470000,22.2997560000 114.1684490000,22.2996950000 114.1684640000,22.2996350000 114.1685240000,22.2993620000 114.1685990000,22.2990250000 114.1687610000,22.2982960000 114.1688130000,22.2980620000 114.1688290000,22.2979910000 114.1689540000,22.2979980000 114.1695580000,22.2980310000 114.1697870000,22.2980450000 114.1704680000,22.2980770000 114.1710380000,22.2981100000 114.1712600000,22.2981220000 114.1715130000,22.2981360000 114.1720040000,22.2981560000 114.1720390000,22.2981570000 114.1720860000,22.2981590000 114.1721680000,22.2981630000 114.1722520000,22.2981650000 114.1726080000,22.2981750000 114.1726350000,22.2981790000 114.1736430000,22.2984750000 114.1736850000,22.2984820000 114.1737330000,22.2984710000 114.1738680000,22.2984170000 114.1739140000,22.2984080000 114.1739510000,22.2984120000 114.1739890000,22.2984150000 114.1752990000,22.2987790000 114.1753310000,22.2987850000 114.1753620000,22.2987890000 114.1753910000,22.2987890000 114.1755800000,22.2987660000 114.1756630000,22.2987540000 114.1757280000,22.2987450000 114.1758230000,22.2993390000 114.1758310000,22.2993840000 114.1758460000,22.2994780000 114.1758730000,22.2995770000 114.1759570000,22.2998780000 114.1759790000,22.2999560000 114.1759950000,22.3000120000 114.1760030000,22.3000400000 114.1760260000,22.3001230000 114.1760420000,22.3001800000 114.1761080000,22.3003070000 114.1761250000,22.3003720000 114.1761680000,22.3005240000 114.1762140000,22.3006930000 114.1762530000,22.3008340000 114.1762880000,22.3009720000 114.1763190000,22.3010630000 114.1763510000,22.3011570000 114.1764440000,22.3014360000 114.1764610000,22.3014870000 114.1764880000,22.3015650000 114.1765320000,22.3016970000 114.1766200000,22.3019540000 114.1767510000,22.3023170000 114.1768240000,22.3025180000 114.1768960000,22.3026660000 114.1769300000,22.3026890000 114.1769850000,22.3027260000 114.1770410000,22.3028180000 114.1770560000,22.3028420000 114.1771180000,22.3029390000 114.1771680000,22.3029600000 114.1771940000,22.3029690000 114.1772150000,22.3029750000 114.1772340000,22.3029800000 114.1772570000,22.3029820000 114.1773640000,22.3029320000 114.1774100000,22.3029110000 114.1775230000,22.3028720000 114.1780480000,22.3026490000 114.1782670000,22.3025620000 114.1783360000,22.3025380000 114.1785210000,22.3024470000 114.1786690000,22.3023870000 114.1788540000,22.3023280000 114.1790780000,22.3022770000 114.1791890000,22.3022560000 114.1792950000,22.3022400000 114.1806750000,22.3021140000 114.1808370000,22.3021050000 114.1808950000,22.3021040000 114.1809760000,22.3021120000 114.1810220000,22.3021430000 114.1810440000,22.3021650000 114.1810580000,22.3021790000 114.1810990000,22.3022830000 114.1811510000,22.3025380000 114.1812110000,22.3031350000 114.1812440000,22.3035020000 114.1812820000,22.3036560000 114.1813000000,22.3037120000 114.1813710000,22.3038440000 114.1814220000,22.3039420000 114.1815220000,22.3040680000 114.1815730000,22.3041190000 114.1816170000,22.3041410000 114.1817100000,22.3041590000 114.1818940000,22.3041440000 114.1820000000,22.3041690000 114.1820230000,22.3041890000 114.1820330000,22.3042090000 114.1820370000,22.3042310000 114.1820400000,22.3042600000 114.1820500000,22.3044200000 114.1820550000,22.3044600000 114.1820660000,22.3045110000 114.1820850000,22.3045800000 114.1821090000,22.3046500000 114.1821390000,22.3047200000 114.1821570000,22.3047500000 114.1821820000,22.3047900000 114.1822400000,22.3048590000 114.1823000000,22.3049100000 114.1823570000,22.3049520000 114.1823890000,22.3049720000 114.1824200000,22.3049890000 114.1824570000,22.3050060000 114.1824890000,22.3050190000 114.1825190000,22.3050300000 114.1825710000,22.3050440000 114.1826600000,22.3050690000 114.1827250000,22.3050890000 114.1827580000,22.3051020000 114.1827900000,22.3051210000 114.1828660000,22.3051890000 114.1830450000,22.3053490000 114.1832110000,22.3054990000 114.1833320000,22.3056030000 114.1834430000,22.3057170000 114.1835430000,22.3058380000 114.1836260000,22.3059510000 114.1836920000,22.3060520000 114.1836970000,22.3060590000 114.1837110000,22.3060830000 114.1837580000,22.3061660000 114.1838230000,22.3062810000 114.1838930000,22.3063760000 114.1840920000,22.3066660000 114.1841190000,22.3067050000 114.1841640000,22.3067710000 114.1841930000,22.3068120000 114.1842190000,22.3068500000 114.1842420000,22.3068780000 114.1842920000,22.3069420000 114.1843660000,22.3070370000 114.1844290000,22.3071240000 114.1845630000,22.3073060000 114.1846990000,22.3074920000 114.1848440000,22.3076960000 114.1848850000,22.3077520000 114.1849860000,22.3078950000 114.1850610000,22.3078500000 114.1852100000,22.3077550000 114.1854610000,22.3075960000 114.1855980000,22.3075100000 114.1857240000,22.3074310000 114.1857490000,22.3074160000 114.1859000000,22.3073220000 114.1859740000,22.3072750000 114.1861110000,22.3071890000 114.1864450000,22.3069800000 114.1864640000,22.3069680000 114.1865900000,22.3068890000 114.1867000000,22.3068210000 114.1867410000,22.3067950000 114.1870340000,22.3066050000 114.1870650000,22.3065850000 114.1871610000,22.3065230000 114.1872560000,22.3064630000 114.1873020000,22.3064330000 114.1874730000,22.3063240000 114.1875610000,22.3062680000 114.1876850000,22.3061880000 114.1878320000,22.3060970000 114.1879860000,22.3060000000 114.1880000000,22.3059910000 114.1880420000,22.3059650000 114.1881140000,22.3059200000 114.1881870000,22.3058740000 114.1882340000,22.3058450000 114.1885100000,22.3056720000 114.1885690000,22.3056350000 114.1886140000,22.3056070000 114.1887060000,22.3055490000 114.1888160000,22.3054800000 114.1888740000,22.3054440000 114.1890120000,22.3053570000 114.1893390000,22.3051530000 114.1899420000,22.3047760000 114.1899680000,22.3047600000 114.1900650000,22.3046990000 114.1899750000,22.3045750000 114.1895890000,22.3040490000 114.1893920000,22.3037790000 114.1893660000,22.3037440000 114.1892980000,22.3036520000 114.1892420000,22.3035730000 114.1892140000,22.3035330000 114.1890560000,22.3033170000 114.1888990000,22.3031090000 114.1888190000,22.3029090000 114.1888030000,22.3028830000 114.1887830000,22.3027760000 114.1887690000,22.3026870000 114.1887590000,22.3026310000 114.1887510000,22.3025850000 114.1887380000,22.3025380000 114.1887280000,22.3023660000 114.1887070000,22.3022820000 114.1886780000,22.3021940000 114.1886520000,22.3021280000 114.1886240000,22.3020630000 114.1886570000,22.3020520000 114.1887240000,22.3020090000 114.1887500000,22.3019930000 114.1889180000,22.3018810000 114.1891460000,22.3017280000 114.1891570000,22.3017170000 114.1891610000,22.3017020000 114.1891590000,22.3016860000 114.1891490000,22.3016740000 114.1891340000,22.3016660000 114.1891170000,22.3016660000 114.1891020000,22.3016720000 114.1889430000,22.3017780000 114.1888890000,22.3017930000 114.1887650000,22.3014100000 114.1887570000,22.3013870000 114.1887430000,22.3013670000 114.1887430000,22.3013670000 114.1887240000,22.3013500000 114.1887010000,22.3013370000 114.1885030000,22.3012600000 114.1884790000,22.3012560000 114.1884550000,22.3012600000 114.1884330000,22.3012710000 114.1884160000,22.3012870000 114.1884050000,22.3013080000 114.1884020000,22.3013310000 114.1884070000,22.3013530000 114.1884480000,22.3014150000 114.1884670000,22.3014320000 114.1884900000,22.3014430000 114.1886640000,22.3015110000 114.1886970000,22.3015270000 114.1887250000,22.3015490000 114.1887420000,22.3015700000 114.1887540000,22.3015920000 114.1887620000,22.3016170000 114.1888240000,22.3018110000 114.1887920000,22.3018200000 114.1886750000,22.3018980000 114.1886550000,22.3019110000 114.1886290000,22.3019290000 114.1885700000,22.3019680000 114.1885350000,22.3019160000 114.1885230000,22.3018840000 114.1884920000,22.3018540000 114.1884670000,22.3018250000 114.1884530000,22.3018090000 114.1883730000,22.3017320000 114.1882790000,22.3017010000 114.1881390000,22.3016210000 114.1880290000,22.3015670000 114.1872900000,22.3012360000 114.1869350000,22.3011060000 114.1867000000,22.3010010000 114.1866150000,22.3009710000 114.1865280000,22.3009590000 114.1863860000,22.3009760000 114.1858500000,22.3009870000 114.1856210000,22.3009740000 114.1855210000,22.3009720000 114.1853640000,22.3009590000 114.1852590000,22.3009530000 114.1850340000,22.3009400000 114.1849210000,22.3009280000 114.1848130000,22.3009110000 114.1847290000,22.3008920000 114.1846530000,22.3008640000 114.1845300000,22.3008020000 114.1844750000,22.3007620000 114.1844100000,22.3007400000 114.1843570000,22.3007350000 114.1842810000,22.3007450000 114.1842100000,22.3007780000 114.1841510000,22.3008450000 114.1841260000,22.3009190000 114.1841210000,22.3009830000 114.1841490000,22.3010560000 114.1841870000,22.3010950000 114.1842310000,22.3011260000 114.1842710000,22.3011430000 114.1843490000,22.3011570000 114.1843950000,22.3011530000 114.1844390000,22.3011450000 114.1845000000,22.3011130000 114.1846660000,22.3010730000 114.1847360000,22.3010650000 114.1848040000,22.3010670000 114.1849360000,22.3010960000 114.1851370000,22.3011600000 114.1853160000,22.3012580000 114.1853650000,22.3012910000 114.1854080000,22.3013250000 114.1854660000,22.3013780000 114.1854890000,22.3014030000 114.1855150000,22.3014360000 114.1855330000,22.3014680000 114.1855480000,22.3015060000 114.1856090000,22.3017590000 114.1856020000,22.3018320000 114.1855730000,22.3021610000 114.1855670000,22.3022200000 114.1855610000,22.3022650000 114.1855390000,22.3023600000 114.1855000000,22.3025450000 114.1854340000,22.3028020000 114.1853560000,22.3029920000 114.1852090000,22.3033340000 114.1850000000,22.3036310000 114.1848690000,22.3037790000 114.1848540000,22.3038090000 114.1848430000,22.3039060000 114.1847600000,22.3040280000 114.1848510000,22.3040680000 114.1849240000,22.3041060000 114.1851900000,22.3042070000 114.1853100000,22.3042860000 114.1854040000,22.3043520000 114.1854740000,22.3044170000 114.1856450000,22.3045810000 114.1857100000,22.3046570000 114.1857260000,22.3046760000 114.1858370000,22.3048100000 114.1859470000,22.3048910000 114.1860270000,22.3048280000 114.1861550000,22.3047180000 114.1862730000,22.3046410000 114.1866890000,22.3043010000 114.1868930000,22.3041450000 114.1870750000,22.3040130000 114.1871220000,22.3039830000 114.1871680000,22.3039620000 114.1872160000,22.3039490000 114.1872670000,22.3039410000 114.1873190000,22.3039400000 114.1873720000,22.3039410000 114.1874120000,22.3039420000 114.1875680000,22.3039790000 114.1876820000,22.3041350000 114.1878910000,22.3044240000 114.1879510000,22.3045030000 114.1880550000,22.3046460000 114.1884160000,22.3051430000 114.1886010000,22.3054020000 114.1886290000,22.3054390000 114.1887060000,22.3055490000 114.1886140000,22.3056070000 114.1885690000,22.3056350000 114.1885100000,22.3056720000 114.1882340000,22.3058450000 114.1881870000,22.3058740000 114.1881140000,22.3059200000 114.1880420000,22.3059650000 114.1880000000,22.3059910000 114.1879860000,22.3060000000 114.1878320000,22.3060970000 114.1876850000,22.3061880000 114.1875610000,22.3062680000 114.1874730000,22.3063240000 114.1873020000,22.3064330000 114.1872560000,22.3064630000 114.1871610000,22.3065230000 114.1870650000,22.3065850000 114.1870340000,22.3066050000 114.1867410000,22.3067950000 114.1867000000,22.3068210000 114.1865900000,22.3068890000 114.1864640000,22.3069680000 114.1864450000,22.3069800000 114.1861110000,22.3071890000 114.1859740000,22.3072750000 114.1859000000,22.3073220000 114.1857490000,22.3074160000 114.1857240000,22.3074310000 114.1855980000,22.3075100000 114.1854610000,22.3075960000 114.1852100000,22.3077550000 114.1850610000,22.3078500000 114.1849620000,22.3077100000 114.1847760000,22.3074600000 114.1847120000,22.3073140000 114.1844050000,22.3068810000 114.1843500000,22.3068020000 114.1843300000,22.3067760000 114.1843090000,22.3067460000 114.1842730000,22.3066960000 114.1842320000,22.3066400000 114.1842060000,22.3066050000 114.1840360000,22.3063710000 114.1839820000,22.3062970000 114.1838710000,22.3061440000 114.1838370000,22.3060900000 114.1838210000,22.3060650000 114.1837860000,22.3060070000 114.1837320000,22.3059260000 114.1835950000,22.3057760000 114.1834410000,22.3056240000 114.1832480000,22.3054540000 114.1830810000,22.3053180000 114.1828920000,22.3051640000 114.1828000000,22.3050900000 114.1827770000,22.3050750000 114.1827440000,22.3050610000 114.1826760000,22.3050410000 114.1825800000,22.3050140000 114.1825300000,22.3049980000 114.1824900000,22.3049800000 114.1824390000,22.3049500000 114.1823800000,22.3049110000 114.1823270000,22.3048710000 114.1822900000,22.3048400000 114.1822600000,22.3048100000 114.1822100000,22.3047500000 114.1821800000,22.3047100000 114.1821610000,22.3046810000 114.1821450000,22.3046500000 114.1821300000,22.3046140000 114.1821200000,22.3045820000 114.1821040000,22.3045100000 114.1820960000,22.3044650000 114.1820900000,22.3044190000 114.1820870000,22.3042580000 114.1820940000,22.3042150000 114.1821090000,22.3041800000 114.1821380000,22.3041520000 114.1822190000,22.3041010000 114.1824100000,22.3040920000 114.1825430000,22.3040880000 114.1826760000,22.3040870000 114.1827390000,22.3040760000 114.1827910000,22.3040580000 114.1828430000,22.3040190000 114.1828740000,22.3039720000 114.1828960000,22.3038980000 114.1829170000,22.3036560000 114.1829250000,22.3034700000 114.1829270000,22.3033710000 114.1829110000,22.3032350000 114.1828980000,22.3026050000 114.1828790000,22.3024910000 114.1828460000,22.3023920000 114.1828210000,22.3023290000 114.1827910000,22.3022560000 114.1827450000,22.3021620000 114.1827110000,22.3021120000 114.1826680000,22.3020600000 114.1826390000,22.3020420000 114.1826060000,22.3020260000 114.1825790000,22.3020170000 114.1825410000,22.3020100000 114.1824640000,22.3020000000 114.1824040000,22.3020030000 114.1823370000,22.3020080000 114.1823070000,22.3020100000 114.1821490000,22.3020190000 114.1817490000,22.3020420000 114.1815420000,22.3020510000 114.1812080000,22.3020500000 114.1811220000,22.3020480000 114.1810090000,22.3020540000 114.1808410000,22.3020500000 114.1792990000,22.3021850000 114.1791770000,22.3022050000 114.1790560000,22.3022290000 114.1788480000,22.3022800000 114.1786160000,22.3023520000 114.1784600000,22.3024090000 114.1781090000,22.3025230000 114.1777830000,22.3026590000 114.1776440000,22.3027030000 114.1775130000,22.3027570000 114.1773340000,22.3027550000 114.1772690000,22.3027450000 114.1772200000,22.3027290000 114.1771760000,22.3027090000 114.1771250000,22.3026830000 114.1770440000,22.3026400000 114.1770290000,22.3026120000 114.1769630000,22.3024940000 114.1768730000,22.3022870000 114.1767330000,22.3019130000 114.1765970000,22.3015200000 114.1764680000,22.3011410000 114.1764460000,22.3010740000 114.1763410000,22.3007860000 114.1762860000,22.3005720000 114.1762730000,22.3005190000 114.1761990000,22.3002410000 114.1761270000,22.3000400000 114.1760230000,22.2996640000 114.1759620000,22.2994470000 114.1759550000,22.2994030000 114.1759490000,22.2993670000 114.1759130000,22.2991430000 114.1758460000,22.2987300000 114.1758400000,22.2986960000 114.1756840000,22.2977320000 114.1756270000,22.2973770000 114.1756060000,22.2972480000 114.1755690000,22.2970750000 114.1753590000,22.2958870000 114.1753470000,22.2958230000 114.1753300000,22.2957270000 114.1753180000,22.2956490000 114.1753050000,22.2955550000 114.1753020000,22.2955140000 114.1752980000,22.2954300000 114.1753110000,22.2953000000 114.1753430000,22.2951790000 114.1752390000,22.2951450000 114.1751020000,22.2950780000 114.1748800000,22.2949940000 114.1746380000,22.2949190000 114.1745140000,22.2948810000 114.1744310000,22.2948550000 114.1743150000,22.2948230000 114.1741970000,22.2947940000 114.1740730000,22.2947640000 114.1740360000,22.2947560000 114.1739470000,22.2947340000 114.1736990000,22.2946930000 114.1736200000,22.2946840000 114.1735590000,22.2946750000 114.1735110000,22.2946700000 114.1734700000,22.2946700000 114.1733380000,22.2946800000 114.1732530000,22.2946820000 114.1732060000,22.2946800000 114.1730690000,22.2946790000 114.1728200000,22.2946600000 114.1727250000,22.2946290000 114.1726240000,22.2946050000 114.1725630000,22.2946030000 114.1724380000,22.2945970000 114.1723130000,22.2946120000 114.1721830000,22.2946050000 114.1720950000,22.2946020000 114.1720520000,22.2946010000 114.1719760000,22.2946110000 114.1717580000,22.2946050000 114.1712830000,22.2945910000 114.1712170000,22.2945920000 114.1711520000,22.2945940000 114.1710770000,22.2945750000 114.1709850000,22.2945530000 114.1709050000,22.2945340000 114.1708270000,22.2945240000 114.1706590000,22.2945070000 114.1705620000,22.2945080000 114.1704440000,22.2945130000 114.1702890000,22.2945060000 114.1697930000,22.2944290000 114.1697220000,22.2944140000 114.1696660000,22.2943960000 114.1696180000,22.2943730000 114.1695740000,22.2943490000 114.1695320000,22.2943250000 114.1694850000,22.2942900000 114.1694380000,22.2942420000 114.1694010000,22.2941880000 114.1693730000,22.2940240000 114.1693290000,22.2938930000 114.1693140000,22.2938480000 114.1692860000,22.2937950000 114.1692530000,22.2937470000 114.1691930000,22.2937050000 114.1691530000,22.2936910000 114.1691070000,22.2936810000 114.1690520000,22.2936820000 114.1690460000,22.2936840000 114.1690330000,22.2936870000 114.1689700000,22.2937110000 114.1689480000,22.2937270000 114.1689330000,22.2937430000 114.1689000000,22.2937770000 114.1688520000,22.2938310000 114.1688460000,22.2938390000 114.1688270000,22.2938660000 114.1688120000,22.2938870000 114.1687820000,22.2939290000 114.1687490000,22.2939660000 114.1687320000,22.2939850000 114.1687160000,22.2940040000 114.1686820000,22.2940410000 114.1686720000,22.2940790000 114.1686770000,22.2941020000 114.1686810000,22.2941180000 114.1687320000,22.2941800000 114.1687450000,22.2941960000 114.1688120000,22.2942790000 114.1688180000,22.2942830000 114.1688330000,22.2942970000 114.1688460000,22.2943080000 114.1688900000,22.2943340000 114.1689360000,22.2943520000 114.1690130000,22.2943690000 114.1690910000,22.2943850000 114.1691590000,22.2944000000 114.1691680000,22.2944020000 114.1691910000,22.2944040000 114.1692360000,22.2944080000 114.1694200000,22.2944230000 114.1694750000,22.2944440000 114.1695170000,22.2944610000 114.1696060000,22.2944960000 114.1701180000,22.2945840000 114.1702870000,22.2946130000 114.1704400000,22.2946400000 114.1704680000,22.2946800000 114.1704980000,22.2947230000 114.1705310000,22.2947670000 114.1705650000,22.2948220000 114.1705770000,22.2948530000 114.1705900000,22.2948820000 114.1704380000,22.2954400000 114.1704140000,22.2955260000 114.1703030000,22.2959040000 114.1702450000,22.2960440000 114.1702110000,22.2961670000 114.1702050000,22.2962670000 114.1700410000,22.2968150000 114.1699350000,22.2971620000 114.1699110000,22.2972370000 114.1699010000,22.2972720000 114.1698350000,22.2974530000 114.1695200000,22.2983280000 114.1694530000,22.2985460000 114.1693980000,22.2987260000 114.1693600000,22.2988320000 114.1691630000,22.2992010000 114.1689890000,22.2994740000 114.1687780000,22.2997140000 114.1687370000,22.2997660000 114.1686280000,22.2998980000 114.1686000000,22.2999280000 114.1685320000,22.2999880000 114.1684610000,22.3000410000 114.1683890000,22.3001130000 114.1682730000,22.3002840000 114.1682650000,22.3002980000 114.1682080000,22.3003950000 114.1681660000,22.3004790000 114.1681280000,22.3005660000 114.1680870000,22.3006810000 114.1680530000,22.3008150000 114.1680030000,22.3010470000 114.1679710000,22.3012440000 114.1679670000,22.3014440000 114.1679250000,22.3017340000 114.1679000000,22.3019880000 114.1679170000,22.3022510000 114.1679540000,22.3025530000 114.1679630000,22.3026800000 114.1679690000,22.3028280000 114.1679670000,22.3029380000 114.1678070000,22.3029280000 114.1672750000,22.3028780000 114.1671350000,22.3028570000 114.1670200000,22.3028450000 114.1668860000,22.3028280000 114.1668060000,22.3028180000 114.1667230000,22.3028070000 114.1664200000,22.3027200000 114.1662420000,22.3026980000 114.1661130000,22.3026830000 114.1659810000,22.3026650000 114.1655230000,22.3026160000 114.1652540000,22.3025760000 114.1648460000,22.3025150000 114.1645670000,22.3024950000 114.1642590000,22.3025000000 114.1639480000,22.3025770000 114.1638140000,22.3026740000 114.1636900000,22.3028350000 114.1636730000,22.3029050000 114.1636390000,22.3030440000 114.1636330000,22.3033440000 114.1636600000,22.3038970000 114.1636890000,22.3047980000 114.1637170000,22.3050670000 114.1637980000,22.3053690000 114.1638250000,22.3056110000 114.1638340000,22.3058970000 114.1637620000,22.3074540000 114.1637160000,22.3084750000 114.1637070000,22.3085450000 114.1636880000,22.3086690000 114.1636590000,22.3088560000 114.1636060000,22.3089960000 114.1635820000,22.3090550000 114.1635260000,22.3091690000 114.1633720000,22.3093210000 114.1632990000,22.3093930000 114.1632300000,22.3094400000 114.1630600000,22.3095200000 114.1628700000,22.3095620000 114.1626800000,22.3095720000 114.1625300000,22.3095630000 114.1623890000,22.3095220000 114.1622560000,22.3094600000 114.1621400000,22.3093800000 114.1620300000,22.3092800000 114.1619300000,22.3091600000 114.1618960000,22.3091100000 114.1618570000,22.3090580000 114.1618230000,22.3090070000 114.1615500000,22.3085540000 114.1614530000,22.3084310000 114.1613690000,22.3082830000 114.1613030000,22.3081770000 114.1612580000,22.3081130000 114.1612190000,22.3079850000 114.1611350000,22.3077140000 114.1610650000,22.3074870000 114.1609840000,22.3072940000 114.1608400000,22.3069860000 114.1607610000,22.3068140000 114.1606820000,22.3066440000 114.1606230000,22.3065180000 114.1604320000,22.3061120000 114.1601860000,22.3056400000 114.1601500000,22.3054820000 114.1601260000,22.3053790000 114.1600330000,22.3051960000 114.1598820000,22.3050400000 114.1597500000,22.3049160000 114.1594580000,22.3043950000 114.1590380000,22.3037070000 114.1589210000,22.3035410000 114.1588210000,22.3033850000 114.1587790000,22.3033330000 114.1587290000,22.3032580000 114.1586820000,22.3031860000 114.1584390000,22.3028540000 114.1582710000,22.3026750000 114.1580860000,22.3025020000 114.1578670000,22.3023060000 114.1576670000,22.3021240000 114.1573770000,22.3018260000 114.1573160000,22.3017620000 114.1570200000,22.3014420000 114.1567160000,22.3011410000 114.1561410000,22.3005100000 114.1466970000,22.2902980000 114.1464940000,22.2900780000 114.1462180000,22.2897960000 114.1460110000,22.2896560000 114.1457910000,22.2895310000 114.1455600000,22.2894220000 114.1453200000,22.2893320000 114.1450730000,22.2892600000 114.1448200000,22.2892070000 114.1445630000,22.2891750000 114.1443050000,22.2891610000 114.1440460000,22.2891680000 114.1437880000,22.2891950000 114.1435340000,22.2892410000 114.1434400000,22.2892660000 114.1432930000,22.2893050000 114.1431720000,22.2893380000 114.1430560000,22.2893800000 114.1429890000,22.2894070000 114.1427890000,22.2894970000 114.1424550000,22.2896580000 114.1423480000,22.2897090000 114.1421420000,22.2898940000 114.1420960000,22.2899290000 114.1419130000,22.2900500000 114.1417650000,22.2901340000 114.1416830000,22.2901740000 114.1416110000,22.2902030000 114.1415520000,22.2902230000 114.1414750000,22.2902430000 114.1414010000,22.2902570000 114.1413120000,22.2902670000 114.1412340000,22.2902660000 114.1411520000,22.2902570000 114.1410740000,22.2902410000 114.1409980000,22.2902170000 114.1409280000,22.2901860000 114.1408620000,22.2901480000 114.1408000000,22.2901040000 114.1407410000,22.2900480000 114.1407000000,22.2900020000 114.1406620000,22.2899490000 114.1406280000,22.2898920000 114.1406000000,22.2898270000 114.1405800000,22.2897690000 114.1405680000,22.2897060000 114.1405610000,22.2896430000 114.1405610000,22.2895810000 114.1405700000,22.2895070000 114.1405860000,22.2894330000 114.1406090000,22.2893680000 114.1406370000,22.2893090000 114.1406700000,22.2892550000 114.1407120000,22.2892020000 114.1407600000,22.2891530000 114.1408120000,22.2891100000 114.1408700000,22.2890710000 114.1409310000,22.2890390000 114.1410100000,22.2890100000 114.1410920000,22.2889900000 114.1411640000,22.2889810000 114.1412360000,22.2889780000 114.1413350000,22.2889970000 114.1414320000,22.2890190000 114.1415290000,22.2890430000 114.1416010000,22.2890620000 114.1417210000,22.2890970000 114.1418460000,22.2891370000 114.1419730000,22.2891710000 114.1421020000,22.2891970000 114.1422320000,22.2892170000 114.1423640000,22.2892290000 114.1424960000,22.2892340000 114.1426280000,22.2892320000 114.1428230000,22.2892320000 114.1430190000,22.2892310000 114.1433170000,22.2891960000 114.1433840000,22.2891890000 114.1436430000,22.2891610000 114.1437730000,22.2891450000 114.1438430000,22.2891370000 114.1440640000,22.2890990000 114.1441870000,22.2890640000 114.1442750000,22.2890270000 114.1443640000,22.2889810000 114.1444990000,22.2889040000 114.1445740000,22.2888680000 114.1446490000,22.2888410000 114.1447140000,22.2888250000 114.1447870000,22.2888160000 114.1452310000,22.2887700000 114.1454040000,22.2887520000 114.1456810000,22.2887600000 114.1458200000,22.2887620000 114.1458680000,22.2887630000 114.1459820000,22.2887620000 114.1465690000,22.2887230000 114.1467750000,22.2887040000 114.1469550000,22.2886850000 114.1470650000,22.2886680000 114.1473640000,22.2886250000 114.1477580000,22.2885750000 114.1482620000,22.2884840000 114.1484340000,22.2884570000 114.1496810000,22.2881250000 114.1500790000,22.2880250000 114.1505060000,22.2879080000 114.1507870000,22.2878240000 114.1510070000,22.2877570000 114.1518340000,22.2875020000 114.1523580000,22.2873400000 114.1531290000,22.2871000000 114.1532370000,22.2870710000 114.1533270000,22.2870530000 114.1534360000,22.2870390000 114.1537640000,22.2870110000 114.1539470000,22.2870040000 114.1540900000,22.2870070000 114.1542410000,22.2870160000 114.1545950000,22.2870570000 114.1547710000,22.2870780000 114.1548730000,22.2870910000 114.1551040000,22.2871210000 114.1553890000,22.2871580000 114.1555250000,22.2871760000 114.1556170000,22.2871880000 114.1557410000,22.2872010000 114.1559860000,22.2872050000 114.1560330000,22.2872040000 114.1560600000,22.2872040000 114.1561800000,22.2872000000 114.1564360000,22.2871850000 114.1566220000,22.2871670000 114.1568490000,22.2871310000 114.1569920000,22.2871030000 114.1571850000,22.2870570000 114.1572880000,22.2870290000 114.1575590000,22.2869480000 114.1576330000,22.2869280000 114.1577710000,22.2868920000 114.1582190000,22.2867120000 114.1585550000,22.2865150000 114.1586590000,22.2864510000 114.1590830000,22.2861850000 114.1601100000,22.2855380000 114.1603830000,22.2853670000 114.1613200000,22.2848360000 114.1631300000,22.2838110000 114.1638350000,22.2834740000 114.1641470000,22.2833390000 114.1644930000,22.2832060000 114.1651340000,22.2829870000 114.1656200000,22.2828430000 114.1661460000,22.2827110000 114.1665970000,22.2826160000 114.1668810000,22.2825640000 114.1670640000,22.2825310000 114.1677350000,22.2824530000 114.1680670000,22.2824220000 114.1684300000,22.2823990000 114.1690810000,22.2823640000 114.1704260000,22.2822970000 114.1711440000,22.2822770000 114.1723810000,22.2822790000 114.1733180000,22.2823150000 114.1742830000,22.2823780000 114.1747660000,22.2824220000 114.1751810000,22.2824690000 114.1755770000,22.2825230000 114.1768630000,22.2827100000 114.1813760000,22.2833180000 114.1816070000,22.2833520000 114.1818280000,22.2833890000 114.1820370000,22.2834280000 114.1822470000,22.2834710000 114.1825050000,22.2835300000 114.1827620000,22.2835940000 114.1830000000,22.2836590000 114.1832380000,22.2837290000 114.1835330000,22.2838240000 114.1838260000,22.2839270000 114.1841160000,22.2840370000 114.1844020000,22.2841550000 114.1846240000,22.2842530000 114.1848440000,22.2843550000 114.1849800000,22.2844210000 114.1851160000,22.2844890000 114.1853840000,22.2846310000 114.1856420000,22.2847750000 114.1858940000,22.2849260000 114.1860860000,22.2850460000 114.1862750000,22.2851710000 114.1864460000,22.2852870000 114.1866220000,22.2854130000 114.1868280000,22.2855680000 114.1870320000,22.2857260000 114.1872380000,22.2858950000 114.1874430000,22.2860710000 114.1879160000,22.2865160000 114.1885910000,22.2872130000 114.1888910000,22.2875400000 114.1906150000,22.2893660000 114.1907590000,22.2894960000 114.1915190000,22.2901840000 114.1917040000,22.2903580000 114.1918520000,22.2904860000 114.1918770000,22.2905090000 114.1921150000,22.2907240000 114.1922280000,22.2908250000 114.1925380000,22.2910950000 114.1926650000,22.2912100000 114.1927370000,22.2912730000 114.1927890000,22.2913210000 114.1928900000,22.2914230000 114.1930690000,22.2916020000 114.1931400000,22.2916730000 114.1931560000,22.2916890000 114.1931780000,22.2917110000 114.1932700000,22.2918030000 114.1933530000,22.2918870000 114.1934530000,22.2919710000 114.1935380000,22.2920420000 114.1935600000,22.2920570000 114.1935890000,22.2920770000 114.1936150000,22.2920950000 114.1937360000,22.2921760000 114.1938530000,22.2922540000 114.1939710000,22.2923350000 114.1942000000,22.2924760000 114.1942290000,22.2924940000 114.1943770000,22.2925660000 114.1944670000,22.2926100000 114.1946230000,22.2926870000 114.1946890000,22.2927190000 114.1947490000,22.2927490000 114.1949190000,22.2928180000 114.1950130000,22.2928550000 114.1951890000,22.2929160000 114.1952860000,22.2929460000 114.1954310000,22.2929870000 114.1955320000,22.2930090000 114.1956910000,22.2930430000 114.1958170000,22.2930670000 114.1960670000,22.2931130000 114.1961620000,22.2931270000 114.1963610000,22.2931600000 114.1964840000,22.2931820000 114.1966050000,22.2932070000 114.1967740000,22.2932440000 114.1968570000,22.2932610000 114.1971240000,22.2933140000 114.1979380000,22.2934830000 114.1980630000,22.2935070000 114.1981920000,22.2935260000 114.1984040000,22.2935500000 114.1985630000,22.2935620000 114.1987190000,22.2935680000 114.1989060000,22.2935720000 114.1992000000,22.2935690000 114.1994040000,22.2935740000 114.1995900000,22.2935850000 114.1997700000,22.2936020000 114.1999500000,22.2936270000 114.2001000000,22.2936520000 114.2004940000,22.2937360000 114.2005620000,22.2937500000 114.2013180000,22.2939100000 114.2015380000,22.2939610000 114.2018510000,22.2940330000 114.2020960000,22.2940870000 114.2021880000,22.2941020000 114.2025300000,22.2941540000 114.2026050000,22.2941710000 114.2028680000,22.2942240000 114.2031620000,22.2942590000 114.2034130000,22.2942700000 114.2035000000,22.2942730000 114.2037630000,22.2942770000 114.2039330000,22.2942720000 114.2040330000,22.2942680000 114.2042530000,22.2942480000 114.2045700000,22.2942130000 114.2047400000,22.2941890000 114.2049790000,22.2941720000 114.2050480000,22.2941670000 114.2052070000,22.2941560000 114.2052900000,22.2941450000 114.2057090000,22.2940920000 114.2058390000,22.2940690000 114.2059740000,22.2940410000 114.2061450000,22.2940000000 114.2063050000,22.2939520000 114.2064890000,22.2938890000 114.2073080000,22.2935620000 114.2075320000,22.2934770000 114.2077810000,22.2933920000 114.2082330000,22.2932500000 114.2085090000,22.2931560000 114.2087820000,22.2930640000 114.2089400000,22.2930070000 114.2090780000,22.2929240000 114.2092580000,22.2928120000 114.2094910000,22.2926640000 114.2097870000,22.2924670000 114.2103300000,22.2920690000 114.2107360000,22.2917730000 114.2110800000,22.2915210000 114.2112770000,22.2913910000 114.2114890000,22.2912520000 114.2115750000,22.2911980000 114.2117400000,22.2910950000 114.2120130000,22.2909330000 114.2121350000,22.2908620000 114.2122140000,22.2908150000 114.2122920000,22.2907670000 114.2124160000,22.2906960000 114.2125630000,22.2906120000 114.2128380000,22.2904560000 114.2130110000,22.2903960000 114.2131490000,22.2903480000 114.2132210000,22.2903240000 114.2132900000,22.2903010000 114.2133910000,22.2902620000 114.2136010000,22.2901930000 114.2137590000,22.2901410000 114.2141980000,22.2900120000 114.2152080000,22.2897610000 114.2154200000,22.2897020000 114.2159290000,22.2895610000 114.2159970000,22.2895460000 114.2162200000,22.2894900000 114.2167600000,22.2893500000 114.2170400000,22.2892800000 114.2175060000,22.2891330000 114.2189290000,22.2887910000 114.2192940000,22.2887030000 114.2194430000,22.2886760000 114.2201540000,22.2885500000 114.2203430000,22.2885060000 114.2205530000,22.2883420000 114.2208100000,22.2882010000 114.2209880000,22.2880670000 114.2210930000,22.2879740000 114.2211750000,22.2878860000 114.2212490000,22.2877980000 114.2213110000,22.2877160000 114.2213780000,22.2876130000 114.2214340000,22.2875140000 114.2214840000,22.2874070000 114.2215330000,22.2872850000 114.2215700000,22.2871650000 114.2215990000,22.2870380000 114.2216080000,22.2869900000 114.2216280000,22.2868730000 114.2216450000,22.2867330000 114.2216520000,22.2866170000 114.2216580000,22.2864770000 114.2216510000,22.2861350000 114.2216500000,22.2860650000 114.2216380000,22.2858660000 114.2216200000,22.2854930000 114.2216140000,22.2853590000 114.2216140000,22.2852130000 114.2216160000,22.2851660000 114.2216280000,22.2850660000 114.2216390000,22.2849920000 114.2216570000,22.2848460000 114.2217290000,22.2845120000 114.2217890000,22.2843640000 114.2218960000,22.2841760000 114.2219450000,22.2841040000 114.2220630000,22.2839340000 114.2221160000,22.2838690000 114.2221460000,22.2838240000 114.2222370000,22.2836940000 114.2222670000,22.2836510000 114.2223440000,22.2835590000 114.2223620000,22.2835380000 114.2223730000,22.2835240000 114.2223880000,22.2835040000 114.2224460000,22.2834310000 114.2226780000,22.2831370000 114.2226920000,22.2831200000 114.2227110000,22.2830960000 114.2227220000,22.2830820000 114.2227410000,22.2830550000 114.2227590000,22.2830340000 114.2228740000,22.2828890000 114.2229740000,22.2827720000 114.2229900000,22.2827530000 114.2230080000,22.2827300000 114.2230210000,22.2827140000 114.2230430000,22.2826850000 114.2230730000,22.2826460000 114.2233830000,22.2822570000 114.2234250000,22.2822120000 114.2234720000,22.2821710000 114.2235200000,22.2821390000 114.2235640000,22.2821160000 114.2236100000,22.2821000000 114.2237010000,22.2820770000 114.2237620000,22.2820600000 114.2238280000,22.2820370000 114.2237650000,22.2819390000 114.2237250000,22.2818940000 114.2236870000,22.2818570000 114.2236620000,22.2818350000 114.2232990000,22.2815190000 114.2233350000,22.2814810000 114.2233760000,22.2814420000 114.2234200000,22.2814090000 114.2241980000,22.2810420000 114.2242150000,22.2810340000 114.2244070000,22.2809400000 114.2246870000,22.2808020000 114.2247450000,22.2807590000 114.2247690000,22.2807140000 114.2247600000,22.2806390000 114.2247220000,22.2804780000 114.2247130000,22.2804400000 114.2247070000,22.2804170000 114.2249550000,22.2803650000 114.2252120000,22.2803100000 114.2252810000,22.2802910000 114.2253510000,22.2802590000 114.2254130000,22.2802190000 114.2254540000,22.2801860000 114.2254940000,22.2801420000 114.2255160000,22.2801150000 114.2255370000,22.2800870000 114.2255930000,22.2799970000 114.2255990000,22.2799890000 114.2257570000,22.2797370000 114.2258160000,22.2796400000 114.2260390000,22.2792770000 114.2262930000,22.2788620000 114.2263540000,22.2787620000 114.2263630000,22.2787480000 114.2265830000,22.2783890000 114.2266320000,22.2783090000 114.2268930000,22.2778750000 114.2269840000,22.2777290000 114.2270500000,22.2776460000 114.2271230000,22.2775830000 114.2271790000,22.2775490000 114.2280260000,22.2771020000 114.2282110000,22.2770180000 114.2283010000,22.2774100000 114.2283630000,22.2776890000 114.2283800000,22.2777640000 114.2284600000,22.2781250000 114.2285230000,22.2785590000 114.2285270000,22.2785860000 114.2285440000,22.2786080000 114.2285680000,22.2786210000 114.2285910000,22.2786250000 114.2286670000,22.2786110000 114.2286960000,22.2786050000 114.2293950000,22.2784670000 114.2294480000,22.2784680000 114.2294770000,22.2784720000 114.2294940000,22.2784750000 114.2295370000,22.2784940000 114.2295710000,22.2785230000 114.2295950000,22.2785610000 114.2296120000,22.2786150000 114.2295850000,22.2787370000 114.2295290000,22.2789140000 114.2295080000,22.2789760000 114.2294920000,22.2790300000 114.2294060000,22.2791840000 114.2293970000,22.2792240000 114.2293570000,22.2794130000 114.2292300000,22.2795300000 114.2293100000,22.2795900000 114.2294290000,22.2796800000 114.2295100000,22.2797600000 114.2295520000,22.2798080000 114.2296550000,22.2799400000 114.2297420000,22.2800680000 114.2297780000,22.2801320000 114.2298130000,22.2802020000 114.2298420000,22.2802660000 114.2298740000,22.2803520000 114.2299010000,22.2804370000 114.2299170000,22.2804950000 114.2299330000,22.2805620000 114.2299410000,22.2805970000 114.2300030000,22.2809180000 114.2300500000,22.2811300000 114.2300730000,22.2812100000 114.2301070000,22.2813110000 114.2301400000,22.2813940000 114.2301830000,22.2814960000 114.2302210000,22.2815740000 114.2302600000,22.2816500000 114.2303700000,22.2818200000 114.2304280000,22.2819000000 114.2305050000,22.2820000000 114.2305870000,22.2821030000 114.2307350000,22.2822550000 114.2307890000,22.2823010000 114.2309070000,22.2823960000 114.2310740000,22.2825110000 114.2312140000,22.2825940000 114.2313210000,22.2826500000 114.2315310000,22.2827430000 114.2316140000,22.2827750000 114.2317800000,22.2828230000 114.2320170000,22.2828760000 114.2321590000,22.2828980000 114.2323530000,22.2829130000 114.2324960000,22.2829130000 114.2326390000,22.2829020000 114.2328300000,22.2828820000 114.2329290000,22.2828660000 114.2330780000,22.2828400000 114.2332440000,22.2828050000 114.2334290000,22.2827570000 114.2335300000,22.2827260000 114.2336390000,22.2826870000 114.2337690000,22.2826310000 114.2339410000,22.2825410000 114.2340650000,22.2824680000 114.2342450000,22.2823430000 114.2343940000,22.2822240000 114.2344850000,22.2821390000 114.2345960000,22.2820270000 114.2347550000,22.2818300000 114.2349220000,22.2815870000 114.2349950000,22.2814670000 114.2351760000,22.2811350000 114.2352730000,22.2809770000 114.2354100000,22.2807870000 114.2355000000,22.2806650000 114.2359260000,22.2800860000 114.2360840000,22.2798690000 114.2361770000,22.2797450000 114.2363150000,22.2795400000 114.2363990000,22.2794150000 114.2364910000,22.2792560000 114.2365360000,22.2791650000 114.2365860000,22.2790520000 114.2366270000,22.2789410000 114.2366600000,22.2788280000 114.2366730000,22.2787680000 114.2367000000,22.2786580000 114.2367090000,22.2786230000 114.2367190000,22.2785830000 114.2367290000,22.2785440000 114.2368860000,22.2779410000 114.2369140000,22.2778420000 114.2369490000,22.2777280000 114.2369920000,22.2776060000 114.2370430000,22.2774730000 114.2371080000,22.2773270000 114.2371880000,22.2771640000 114.2373350000,22.2769080000 114.2375000000,22.2766770000 114.2388040000,22.2751210000 114.2390540000,22.2747850000 114.2392060000,22.2745190000 114.2393160000,22.2742690000 114.2393840000,22.2740700000 114.2394400000,22.2738550000 114.2394720000,22.2736770000 114.2394930000,22.2734740000 114.2394940000,22.2732460000 114.2394770000,22.2730170000 114.2394400000,22.2727910000 114.2393280000,22.2723540000 114.2391500000,22.2715110000 114.2388360000,22.2704010000 114.2387550000,22.2701890000 114.2386460000,22.2699870000 114.2385180000,22.2697700000 114.2382230000,22.2692210000 114.2380110000,22.2688260000 114.2379500000,22.2686950000 114.2379090000,22.2686000000 114.2378750000,22.2685210000 114.2378180000,22.2683540000 114.2377990000,22.2682910000 114.2377500000,22.2681220000 114.2377190000,22.2679750000 114.2377000000,22.2678510000 114.2376830000,22.2676750000 114.2376830000,22.2676470000 114.2376810000,22.2675450000 114.2376810000,22.2675240000 114.2376780000,22.2673930000 114.2376850000,22.2671900000 114.2376930000,22.2670450000 114.2377100000,22.2669040000 114.2377280000,22.2667790000 114.2378460000,22.2661540000 114.2378630000,22.2660380000 114.2378740000,22.2659330000 114.2378750000,22.2658500000 114.2378730000,22.2657370000 114.2378640000,22.2656500000 114.2378500000,22.2655640000 114.2378320000,22.2654880000 114.2378070000,22.2654070000 114.2376440000,22.2649390000 114.2376160000,22.2648520000 114.2375930000,22.2647560000 114.2375780000,22.2646700000 114.2375680000,22.2645970000 114.2375630000,22.2645380000 114.2375630000,22.2644620000 114.2375660000,22.2643860000 114.2375800000,22.2642740000 114.2375940000,22.2641890000 114.2376100000,22.2641200000 114.2376350000,22.2640440000 114.2376610000,22.2639780000 114.2376980000,22.2638950000 114.2378020000,22.2636820000 114.2378250000,22.2636360000 114.2378790000,22.2635620000 114.2379430000,22.2634950000 114.2380250000,22.2634190000 114.2380720000,22.2633830000 114.2381180000,22.2633570000 114.2381660000,22.2633340000 114.2382460000,22.2633050000 114.2383220000,22.2632900000 114.2383850000,22.2632830000 114.2386550000,22.2632730000 114.2387300000,22.2632740000 114.2387960000,22.2632790000 114.2388840000,22.2632910000 114.2389810000,22.2633100000 114.2390720000,22.2633330000 114.2391440000,22.2633560000 114.2392150000,22.2633860000 114.2392780000,22.2634160000 114.2393860000,22.2634700000 114.2394760000,22.2635200000 114.2395630000,22.2635810000 114.2397530000,22.2637190000 114.2399460000,22.2638600000 114.2402520000,22.2640810000 114.2404460000,22.2642240000 114.2406180000,22.2643500000 114.2406860000,22.2643990000 114.2407800000,22.2644710000 114.2408980000,22.2645580000 114.2417990000,22.2652170000 114.2420970000,22.2654330000 114.2424540000,22.2656840000 114.2426890000,22.2658520000 114.2430770000,22.2661400000 114.2432580000,22.2662660000 114.2433210000,22.2661860000 114.2434650000,22.2660400000 114.2435860000,22.2659580000 114.2437200000,22.2658920000 114.2439200000,22.2658210000 114.2441220000,22.2657760000 114.2442580000,22.2657640000 114.2443920000,22.2657650000 114.2445640000,22.2657840000 114.2446780000,22.2658060000 114.2450480000,22.2658850000 114.2451570000,22.2659060000 114.2452690000,22.2659240000 114.2453750000,22.2659370000 114.2454740000,22.2659430000 114.2456320000,22.2659460000 114.2457800000,22.2659400000 114.2460000000,22.2659200000 114.2461500000,22.2659000000 114.2462900000,22.2658700000 114.2465210000,22.2657970000 114.2465730000,22.2657960000 114.2466070000,22.2657940000 114.2466450000,22.2657990000 114.2466810000,22.2658070000 114.2467100000,22.2658190000 114.2467440000,22.2658410000 114.2467710000,22.2658670000 114.2467970000,22.2659020000 114.2468220000,22.2659450000 114.2468600000,22.2660630000 114.2468480000,22.2665550000 114.2468460000,22.2666590000 114.2468460000,22.2667430000 114.2469380000,22.2667420000 114.2470000000,22.2667410000 114.2470180000,22.2667400000 114.2470680000,22.2666990000 114.2471160000,22.2666970000 114.2474430000,22.2667080000 114.2475990000,22.2666980000 114.2477540000,22.2667160000 114.2478230000,22.2667010000 114.2480400000,22.2666500000 114.2494280000,22.2662880000 114.2495250000,22.2662610000 114.2496040000,22.2662350000 114.2496980000,22.2662030000 114.2497690000,22.2661770000 114.2498340000,22.2661510000 114.2498930000,22.2661260000 114.2499900000,22.2660790000 114.2501000000,22.2660200000 114.2501800000,22.2659800000 114.2502910000,22.2659150000 114.2503810000,22.2658590000 114.2504630000,22.2658080000 114.2507000000,22.2656300000 114.2510300000,22.2653900000 114.2510440000,22.2653780000 114.2512310000,22.2652240000 114.2513580000,22.2651160000 114.2514460000,22.2650310000 114.2514780000,22.2649990000 114.2515530000,22.2649270000 114.2516370000,22.2648430000 114.2517150000,22.2647630000 114.2518020000,22.2646640000 114.2518690000,22.2645750000 114.2519360000,22.2644730000 114.2519830000,22.2643880000 114.2520200000,22.2643080000 114.2520510000,22.2642220000 114.2520690000,22.2641590000 114.2520870000,22.2640590000 114.2520920000,22.2639300000 114.2520880000,22.2638460000 114.2520750000,22.2637580000 114.2520580000,22.2636850000 114.2520300000,22.2636060000 114.2519700000,22.2634800000 114.2518700000,22.2633400000 114.2517600000,22.2632000000 114.2516780000,22.2631020000 114.2514900000,22.2629200000 114.2513000000,22.2627600000 114.2511230000,22.2626400000 114.2510590000,22.2626010000 114.2510290000,22.2625820000 114.2509570000,22.2625430000 114.2507590000,22.2624500000 114.2506510000,22.2624100000 114.2505720000,22.2623880000 114.2504930000,22.2623730000 114.2504050000,22.2623650000 114.2503160000,22.2623630000 114.2502430000,22.2623670000 114.2501650000,22.2623750000 114.2500900000,22.2623880000 114.2500170000,22.2624070000 114.2499430000,22.2624320000 114.2498730000,22.2624610000 114.2498060000,22.2624940000 114.2497420000,22.2625300000 114.2496880000,22.2625670000 114.2496330000,22.2626120000 114.2495920000,22.2626490000 114.2495600000,22.2626830000 114.2495200000,22.2627260000 114.2494530000,22.2628080000 114.2493870000,22.2629030000 114.2490580000,22.2633780000 114.2488640000,22.2636700000 114.2486910000,22.2639140000 114.2486510000,22.2639690000 114.2485890000,22.2640520000 114.2485390000,22.2641120000 114.2484630000,22.2642030000 114.2482520000,22.2644350000 114.2481500000,22.2645390000 114.2479950000,22.2646900000 114.2478000000,22.2648700000 114.2477080000,22.2649560000 114.2475670000,22.2650840000 114.2474400000,22.2651860000 114.2473420000,22.2652610000 114.2472500000,22.2653250000 114.2471530000,22.2653880000 114.2470560000,22.2654430000 114.2469590000,22.2654930000 114.2468950000,22.2655250000 114.2468110000,22.2655690000 114.2467400000,22.2656020000 114.2467800000,22.2656910000 114.2468210000,22.2657780000 114.2468420000,22.2658270000 114.2468530000,22.2658640000 114.2468590000,22.2658970000 114.2468610000,22.2659350000 114.2468620000,22.2659860000 114.2468600000,22.2660630000 114.2468480000,22.2665550000 114.2468460000,22.2666590000 114.2467370000,22.2666610000 114.2462900000,22.2666430000 114.2460510000,22.2666390000 114.2459900000,22.2666410000 114.2459320000,22.2666480000 114.2458800000,22.2666640000 114.2458270000,22.2666850000 114.2457780000,22.2667120000 114.2457380000,22.2667410000 114.2457080000,22.2668170000 114.2455140000,22.2670430000 114.2454710000,22.2670920000 114.2454000000,22.2671790000 114.2452580000,22.2673510000 114.2452060000,22.2674120000 114.2451760000,22.2674310000 114.2451430000,22.2674450000 114.2451100000,22.2674580000 114.2450760000,22.2674660000 114.2447780000,22.2672620000 114.2443300000,22.2669450000 114.2444970000,22.2667390000 114.2446760000,22.2665070000</coordinates>
                </LineString>
                <ExtendedData>
                    <Data name="duration">
                        <value>01:10:08</value>
                    </Data>
                    <Data name="length">
                        <value>52277.44934419954</value>
                    </Data>
                </ExtendedData>
            </Placemark>
        </Document>
    </Document>
</kml>