<?xml version="1.0" encoding="UTF-8"?>
<kml xmlns="http://www.opengis.net/kml/2.2" xmlns:gx="http://www.google.com/kml/ext/2.2">
    <Document>
        <name>Route</name>
        <Folder>
            <name>Route Request</name>
            <Placemark>
                <address>Marine Police Regional Headquarters, Tai Hong Street, Aldrich Bay, Sai Wan Ho, Eastern District, Hong Kong Island, Hong Kong, 000000, China</address>
                <Point>
                    <coordinates>114.2247809518,22.2851909418</coordinates>
                </Point>
                <ExtendedData>
                    <Data name="amenity">
                        <value>Marine Police Regional Headquarters</value>
                    </Data>
                    <Data name="neighbourhood">
                        <value>Aldrich Bay</value>
                    </Data>
                    <Data name="country">
                        <value>China</value>
                    </Data>
                    <Data name="suburb">
                        <value>Sai Wan Ho</value>
                    </Data>
                    <Data name="city">
                        <value>Hong Kong Island</value>
                    </Data>
                    <Data name="road">
                        <value>Tai Hong Street</value>
                    </Data>
                    <Data name="state">
                        <value>Hong Kong</value>
                    </Data>
                    <Data name="city_district">
                        <value>Eastern District</value>
                    </Data>
                    <Data name="country_code">
                        <value>cn</value>
                    </Data>
                    <Data name="ISO3166-2-lvl3">
                        <value>CN-HK</value>
                    </Data>
                    <Data name="postcode">
                        <value>000000</value>
                    </Data>
                </ExtendedData>
            </Placemark>
            <Placemark>
                <address>7, Kam Wa Street, Aldrich Bay, Shau Kei Wan, Eastern District, Hong Kong Island, Hong Kong, China</address>
                <Point>
                    <coordinates>114.2301769681,22.2781300558</coordinates>
                </Point>
                <ExtendedData>
                    <Data name="neighbourhood">
                        <value>Aldrich Bay</value>
                    </Data>
                    <Data name="country">
                        <value>China</value>
                    </Data>
                    <Data name="suburb">
                        <value>Shau Kei Wan</value>
                    </Data>
                    <Data name="city">
                        <value>Hong Kong Island</value>
                    </Data>
                    <Data name="road">
                        <value>Kam Wa Street</value>
                    </Data>
                    <Data name="state">
                        <value>Hong Kong</value>
                    </Data>
                    <Data name="house_number">
                        <value>7</value>
                    </Data>
                    <Data name="city_district">
                        <value>Eastern District</value>
                    </Data>
                    <Data name="country_code">
                        <value>cn</value>
                    </Data>
                    <Data name="ISO3166-2-lvl3">
                        <value>CN-HK</value>
                    </Data>
                </ExtendedData>
            </Placemark>
            <Placemark>
                <address>Yiu Hing Road, Yiu Tung Estate, Sai Wan Ho, Eastern District, Hong Kong Island, Hong Kong, 000000, China</address>
                <Point>
                    <coordinates>114.2204467797,22.2790729602</coordinates>
                </Point>
                <ExtendedData>
                    <Data name="residential">
                        <value>Yiu Tung Estate</value>
                    </Data>
                    <Data name="country">
                        <value>China</value>
                    </Data>
                    <Data name="suburb">
                        <value>Sai Wan Ho</value>
                    </Data>
                    <Data name="city">
                        <value>Hong Kong Island</value>
                    </Data>
                    <Data name="road">
                        <value>Yiu Hing Road</value>
                    </Data>
                    <Data name="state">
                        <value>Hong Kong</value>
                    </Data>
                    <Data name="city_district">
                        <value>Eastern District</value>
                    </Data>
                    <Data name="country_code">
                        <value>cn</value>
                    </Data>
                    <Data name="ISO3166-2-lvl3">
                        <value>CN-HK</value>
                    </Data>
                    <Data name="postcode">
                        <value>000000</value>
                    </Data>
                </ExtendedData>
            </Placemark>
            <Placemark>
                <address>Taikoo Shing Interchange, Kornhill, Quarry Bay, Eastern District, Hong Kong Island, Hong Kong, 000000, China</address>
                <Point>
                    <coordinates>114.2162028769,22.2889504606</coordinates>
                </Point>
                <ExtendedData>
                    <Data name="quarter">
                        <value>Kornhill</value>
                    </Data>
                    <Data name="country">
                        <value>China</value>
                    </Data>
                    <Data name="suburb">
                        <value>Quarry Bay</value>
                    </Data>
                    <Data name="city">
                        <value>Hong Kong Island</value>
                    </Data>
                    <Data name="road">
                        <value>Taikoo Shing Interchange</value>
                    </Data>
                    <Data name="state">
                        <value>Hong Kong</value>
                    </Data>
                    <Data name="city_district">
                        <value>Eastern District</value>
                    </Data>
                    <Data name="country_code">
                        <value>cn</value>
                    </Data>
                    <Data name="ISO3166-2-lvl3">
                        <value>CN-HK</value>
                    </Data>
                    <Data name="postcode">
                        <value>000000</value>
                    </Data>
                </ExtendedData>
            </Placemark>
            <Placemark>
                <address>Farm Road, Kau Pui Lung, Ma Tau Chung, Kowloon City District, Kowloon, Hong Kong, 000000, China</address>
                <Point>
                    <coordinates>114.1853650170,22.3205157449</coordinates>
                </Point>
                <ExtendedData>
                    <Data name="neighbourhood">
                        <value>Kau Pui Lung</value>
                    </Data>
                    <Data name="country">
                        <value>China</value>
                    </Data>
                    <Data name="suburb">
                        <value>Ma Tau Chung</value>
                    </Data>
                    <Data name="city">
                        <value>Kowloon</value>
                    </Data>
                    <Data name="road">
                        <value>Farm Road</value>
                    </Data>
                    <Data name="state">
                        <value>Hong Kong</value>
                    </Data>
                    <Data name="city_district">
                        <value>Kowloon City District</value>
                    </Data>
                    <Data name="country_code">
                        <value>cn</value>
                    </Data>
                    <Data name="ISO3166-2-lvl3">
                        <value>CN-HK</value>
                    </Data>
                    <Data name="postcode">
                        <value>000000</value>
                    </Data>
                </ExtendedData>
            </Placemark>
            <Placemark>
                <address>Argyle Street, Kau Pui Shek, Ma Tau Wai, Kowloon City District, Kowloon, Hong Kong, 000000, China</address>
                <Point>
                    <coordinates>114.1903728387,22.3275479527</coordinates>
                </Point>
                <ExtendedData>
                    <Data name="neighbourhood">
                        <value>Kau Pui Shek</value>
                    </Data>
                    <Data name="country">
                        <value>China</value>
                    </Data>
                    <Data name="suburb">
                        <value>Ma Tau Wai</value>
                    </Data>
                    <Data name="city">
                        <value>Kowloon</value>
                    </Data>
                    <Data name="road">
                        <value>Argyle Street</value>
                    </Data>
                    <Data name="state">
                        <value>Hong Kong</value>
                    </Data>
                    <Data name="city_district">
                        <value>Kowloon City District</value>
                    </Data>
                    <Data name="country_code">
                        <value>cn</value>
                    </Data>
                    <Data name="ISO3166-2-lvl3">
                        <value>CN-HK</value>
                    </Data>
                    <Data name="postcode">
                        <value>000000</value>
                    </Data>
                </ExtendedData>
            </Placemark>
            <Placemark>
                <address>Choi Hung Road, Nga Tsin Wai, San Po Kong, Wong Tai Sin District, Kowloon, Hong Kong, 000000, China</address>
                <Point>
                    <coordinates>114.1959932027,22.3384038729</coordinates>
                </Point>
                <ExtendedData>
                    <Data name="neighbourhood">
                        <value>Nga Tsin Wai</value>
                    </Data>
                    <Data name="country">
                        <value>China</value>
                    </Data>
                    <Data name="suburb">
                        <value>San Po Kong</value>
                    </Data>
                    <Data name="city">
                        <value>Kowloon</value>
                    </Data>
                    <Data name="road">
                        <value>Choi Hung Road</value>
                    </Data>
                    <Data name="state">
                        <value>Hong Kong</value>
                    </Data>
                    <Data name="city_district">
                        <value>Wong Tai Sin District</value>
                    </Data>
                    <Data name="country_code">
                        <value>cn</value>
                    </Data>
                    <Data name="ISO3166-2-lvl3">
                        <value>CN-HK</value>
                    </Data>
                    <Data name="postcode">
                        <value>000000</value>
                    </Data>
                </ExtendedData>
            </Placemark>
            <Placemark>
                <address>Fung Tak Road, Tai Hom, Hammer Hill, Wong Tai Sin District, Kowloon, Hong Kong, 000000, China</address>
                <Point>
                    <coordinates>114.2061225072,22.3395021707</coordinates>
                </Point>
                <ExtendedData>
                    <Data name="neighbourhood">
                        <value>Tai Hom</value>
                    </Data>
                    <Data name="country">
                        <value>China</value>
                    </Data>
                    <Data name="suburb">
                        <value>Hammer Hill</value>
                    </Data>
                    <Data name="city">
                        <value>Kowloon</value>
                    </Data>
                    <Data name="road">
                        <value>Fung Tak Road</value>
                    </Data>
                    <Data name="state">
                        <value>Hong Kong</value>
                    </Data>
                    <Data name="city_district">
                        <value>Wong Tai Sin District</value>
                    </Data>
                    <Data name="country_code">
                        <value>cn</value>
                    </Data>
                    <Data name="ISO3166-2-lvl3">
                        <value>CN-HK</value>
                    </Data>
                    <Data name="postcode">
                        <value>000000</value>
                    </Data>
                </ExtendedData>
            </Placemark>
            <Placemark>
                <address>Tsz Wan Shan Road, Fung Wong New Village, Tsz Wan Shan, Wong Tai Sin District, Kowloon, Hong Kong, 000000, China</address>
                <Point>
                    <coordinates>114.1977979571,22.3511069789</coordinates>
                </Point>
                <ExtendedData>
                    <Data name="neighbourhood">
                        <value>Fung Wong New Village</value>
                    </Data>
                    <Data name="country">
                        <value>China</value>
                    </Data>
                    <Data name="suburb">
                        <value>Tsz Wan Shan</value>
                    </Data>
                    <Data name="city">
                        <value>Kowloon</value>
                    </Data>
                    <Data name="road">
                        <value>Tsz Wan Shan Road</value>
                    </Data>
                    <Data name="state">
                        <value>Hong Kong</value>
                    </Data>
                    <Data name="city_district">
                        <value>Wong Tai Sin District</value>
                    </Data>
                    <Data name="country_code">
                        <value>cn</value>
                    </Data>
                    <Data name="ISO3166-2-lvl3">
                        <value>CN-HK</value>
                    </Data>
                    <Data name="postcode">
                        <value>000000</value>
                    </Data>
                </ExtendedData>
            </Placemark>
            <Placemark>
                <address>Fung Tak Road, Tai Hom, Hammer Hill, Wong Tai Sin District, Kowloon, Hong Kong, 000000, China</address>
                <Point>
                    <coordinates>114.2060061564,22.3393912481</coordinates>
                </Point>
                <ExtendedData>
                    <Data name="neighbourhood">
                        <value>Tai Hom</value>
                    </Data>
                    <Data name="country">
                        <value>China</value>
                    </Data>
                    <Data name="suburb">
                        <value>Hammer Hill</value>
                    </Data>
                    <Data name="city">
                        <value>Kowloon</value>
                    </Data>
                    <Data name="road">
                        <value>Fung Tak Road</value>
                    </Data>
                    <Data name="state">
                        <value>Hong Kong</value>
                    </Data>
                    <Data name="city_district">
                        <value>Wong Tai Sin District</value>
                    </Data>
                    <Data name="country_code">
                        <value>cn</value>
                    </Data>
                    <Data name="ISO3166-2-lvl3">
                        <value>CN-HK</value>
                    </Data>
                    <Data name="postcode">
                        <value>000000</value>
                    </Data>
                </ExtendedData>
            </Placemark>
            <Placemark>
                <address>Prince Edward Road East, Tung Tau, San Po Kong, Wong Tai Sin District, Kowloon, Hong Kong, 000000, China</address>
                <Point>
                    <coordinates>114.1964809486,22.3320852389</coordinates>
                </Point>
                <ExtendedData>
                    <Data name="neighbourhood">
                        <value>Tung Tau</value>
                    </Data>
                    <Data name="country">
                        <value>China</value>
                    </Data>
                    <Data name="suburb">
                        <value>San Po Kong</value>
                    </Data>
                    <Data name="city">
                        <value>Kowloon</value>
                    </Data>
                    <Data name="road">
                        <value>Prince Edward Road East</value>
                    </Data>
                    <Data name="state">
                        <value>Hong Kong</value>
                    </Data>
                    <Data name="city_district">
                        <value>Wong Tai Sin District</value>
                    </Data>
                    <Data name="country_code">
                        <value>cn</value>
                    </Data>
                    <Data name="ISO3166-2-lvl3">
                        <value>CN-HK</value>
                    </Data>
                    <Data name="postcode">
                        <value>000000</value>
                    </Data>
                </ExtendedData>
            </Placemark>
            <Placemark>
                <address>Argyle Street, Kau Pui Shek, Ma Tau Wai, Kowloon City District, Kowloon, Hong Kong, 000000, China</address>
                <Point>
                    <coordinates>114.1895886902,22.3271817398</coordinates>
                </Point>
                <ExtendedData>
                    <Data name="neighbourhood">
                        <value>Kau Pui Shek</value>
                    </Data>
                    <Data name="country">
                        <value>China</value>
                    </Data>
                    <Data name="suburb">
                        <value>Ma Tau Wai</value>
                    </Data>
                    <Data name="city">
                        <value>Kowloon</value>
                    </Data>
                    <Data name="road">
                        <value>Argyle Street</value>
                    </Data>
                    <Data name="state">
                        <value>Hong Kong</value>
                    </Data>
                    <Data name="city_district">
                        <value>Kowloon City District</value>
                    </Data>
                    <Data name="country_code">
                        <value>cn</value>
                    </Data>
                    <Data name="ISO3166-2-lvl3">
                        <value>CN-HK</value>
                    </Data>
                    <Data name="postcode">
                        <value>000000</value>
                    </Data>
                </ExtendedData>
            </Placemark>
            <Placemark>
                <address>Kowloon West Regional Police Headquarters, 190, Argyle Street, Tai Shek Ku, Ma Tau Wai, Kowloon City District, Kowloon, Hong Kong, 000000, China</address>
                <Point>
                    <coordinates>114.1841965367,22.3233136474</coordinates>
                </Point>
                <ExtendedData>
                    <Data name="amenity">
                        <value>Kowloon West Regional Police Headquarters</value>
                    </Data>
                    <Data name="neighbourhood">
                        <value>Tai Shek Ku</value>
                    </Data>
                    <Data name="country">
                        <value>China</value>
                    </Data>
                    <Data name="suburb">
                        <value>Ma Tau Wai</value>
                    </Data>
                    <Data name="city">
                        <value>Kowloon</value>
                    </Data>
                    <Data name="road">
                        <value>Argyle Street</value>
                    </Data>
                    <Data name="state">
                        <value>Hong Kong</value>
                    </Data>
                    <Data name="house_number">
                        <value>190</value>
                    </Data>
                    <Data name="city_district">
                        <value>Kowloon City District</value>
                    </Data>
                    <Data name="country_code">
                        <value>cn</value>
                    </Data>
                    <Data name="ISO3166-2-lvl3">
                        <value>CN-HK</value>
                    </Data>
                    <Data name="postcode">
                        <value>000000</value>
                    </Data>
                </ExtendedData>
            </Placemark>
            <Placemark>
                <address>Chung Hau Street, Ho Man Tin Hill, Ho Man Tin, Kowloon City District, Kowloon, Hong Kong, 000000, China</address>
                <Point>
                    <coordinates>114.1782453507,22.3152237611</coordinates>
                </Point>
                <ExtendedData>
                    <Data name="neighbourhood">
                        <value>Ho Man Tin Hill</value>
                    </Data>
                    <Data name="country">
                        <value>China</value>
                    </Data>
                    <Data name="suburb">
                        <value>Ho Man Tin</value>
                    </Data>
                    <Data name="city">
                        <value>Kowloon</value>
                    </Data>
                    <Data name="road">
                        <value>Chung Hau Street</value>
                    </Data>
                    <Data name="state">
                        <value>Hong Kong</value>
                    </Data>
                    <Data name="city_district">
                        <value>Kowloon City District</value>
                    </Data>
                    <Data name="country_code">
                        <value>cn</value>
                    </Data>
                    <Data name="ISO3166-2-lvl3">
                        <value>CN-HK</value>
                    </Data>
                    <Data name="postcode">
                        <value>000000</value>
                    </Data>
                </ExtendedData>
            </Placemark>
            <Placemark>
                <address>Tai Wing Avenue, Kornhill, Sai Wan Ho, Eastern District, Hong Kong Island, Hong Kong, 000000, China</address>
                <Point>
                    <coordinates>114.2199785082,22.2865354349</coordinates>
                </Point>
                <ExtendedData>
                    <Data name="quarter">
                        <value>Kornhill</value>
                    </Data>
                    <Data name="country">
                        <value>China</value>
                    </Data>
                    <Data name="suburb">
                        <value>Sai Wan Ho</value>
                    </Data>
                    <Data name="city">
                        <value>Hong Kong Island</value>
                    </Data>
                    <Data name="road">
                        <value>Tai Wing Avenue</value>
                    </Data>
                    <Data name="state">
                        <value>Hong Kong</value>
                    </Data>
                    <Data name="city_district">
                        <value>Eastern District</value>
                    </Data>
                    <Data name="country_code">
                        <value>cn</value>
                    </Data>
                    <Data name="ISO3166-2-lvl3">
                        <value>CN-HK</value>
                    </Data>
                    <Data name="postcode">
                        <value>000000</value>
                    </Data>
                </ExtendedData>
            </Placemark>
            <Placemark>
                <address>Yiu Hing Road, Yiu Tung Estate, Sai Wan Ho, Eastern District, Hong Kong Island, Hong Kong, 000000, China</address>
                <Point>
                    <coordinates>114.2227740620,22.2785045089</coordinates>
                </Point>
                <ExtendedData>
                    <Data name="residential">
                        <value>Yiu Tung Estate</value>
                    </Data>
                    <Data name="country">
                        <value>China</value>
                    </Data>
                    <Data name="suburb">
                        <value>Sai Wan Ho</value>
                    </Data>
                    <Data name="city">
                        <value>Hong Kong Island</value>
                    </Data>
                    <Data name="road">
                        <value>Yiu Hing Road</value>
                    </Data>
                    <Data name="state">
                        <value>Hong Kong</value>
                    </Data>
                    <Data name="city_district">
                        <value>Eastern District</value>
                    </Data>
                    <Data name="country_code">
                        <value>cn</value>
                    </Data>
                    <Data name="ISO3166-2-lvl3">
                        <value>CN-HK</value>
                    </Data>
                    <Data name="postcode">
                        <value>000000</value>
                    </Data>
                </ExtendedData>
            </Placemark>
            <Placemark>
                <address>Watsons, 102-104, Shau Kei Wan Main Street East, Aldrich Bay, Shau Kei Wan, Eastern District, Hong Kong Island, Hong Kong, China</address>
                <Point>
                    <coordinates>114.2295496566,22.2785721242</coordinates>
                </Point>
                <ExtendedData>
                    <Data name="neighbourhood">
                        <value>Aldrich Bay</value>
                    </Data>
                    <Data name="shop">
                        <value>Watsons</value>
                    </Data>
                    <Data name="country">
                        <value>China</value>
                    </Data>
                    <Data name="suburb">
                        <value>Shau Kei Wan</value>
                    </Data>
                    <Data name="city">
                        <value>Hong Kong Island</value>
                    </Data>
                    <Data name="road">
                        <value>Shau Kei Wan Main Street East</value>
                    </Data>
                    <Data name="state">
                        <value>Hong Kong</value>
                    </Data>
                    <Data name="house_number">
                        <value>102-104</value>
                    </Data>
                    <Data name="city_district">
                        <value>Eastern District</value>
                    </Data>
                    <Data name="country_code">
                        <value>cn</value>
                    </Data>
                    <Data name="ISO3166-2-lvl3">
                        <value>CN-HK</value>
                    </Data>
                </ExtendedData>
            </Placemark>
            <Placemark>
                <address>Marine Police Regional Headquarters, Tai Hong Street, Aldrich Bay, Sai Wan Ho, Eastern District, Hong Kong Island, Hong Kong, 000000, China</address>
                <Point>
                    <coordinates>114.2247518769,22.2851632099</coordinates>
                </Point>
                <ExtendedData>
                    <Data name="amenity">
                        <value>Marine Police Regional Headquarters</value>
                    </Data>
                    <Data name="neighbourhood">
                        <value>Aldrich Bay</value>
                    </Data>
                    <Data name="country">
                        <value>China</value>
                    </Data>
                    <Data name="suburb">
                        <value>Sai Wan Ho</value>
                    </Data>
                    <Data name="city">
                        <value>Hong Kong Island</value>
                    </Data>
                    <Data name="road">
                        <value>Tai Hong Street</value>
                    </Data>
                    <Data name="state">
                        <value>Hong Kong</value>
                    </Data>
                    <Data name="city_district">
                        <value>Eastern District</value>
                    </Data>
                    <Data name="country_code">
                        <value>cn</value>
                    </Data>
                    <Data name="ISO3166-2-lvl3">
                        <value>CN-HK</value>
                    </Data>
                    <Data name="postcode">
                        <value>000000</value>
                    </Data>
                </ExtendedData>
            </Placemark>
        </Folder>
        <Document>
            <name>44.6 km; 01:03 h (OSRM)</name>
            <Placemark>
                <name>Route</name>
                <LineString>
                    <coordinates>114.2246960000,22.2851130000 114.2250140000,22.2848190000 114.2250140000,22.2847870000 114.2248820000,22.2846650000 114.2248120000,22.2845980000 114.2247150000,22.2845090000 114.2246300000,22.2844180000 114.2246180000,22.2844050000 114.2245920000,22.2843800000 114.2245470000,22.2843370000 114.2246000000,22.2842870000 114.2246700000,22.2842220000 114.2247400000,22.2841560000 114.2253850000,22.2835570000 114.2255720000,22.2833790000 114.2259270000,22.2830390000 114.2260540000,22.2829170000 114.2261230000,22.2828650000 114.2261950000,22.2828360000 114.2262630000,22.2828200000 114.2263400000,22.2828140000 114.2265340000,22.2828140000 114.2267100000,22.2828140000 114.2269200000,22.2828140000 114.2270100000,22.2828140000 114.2271400000,22.2828140000 114.2276070000,22.2828140000 114.2279000000,22.2828140000 114.2279780000,22.2828110000 114.2280340000,22.2827940000 114.2280720000,22.2827710000 114.2280980000,22.2827470000 114.2281240000,22.2827150000 114.2281410000,22.2826810000 114.2281490000,22.2826480000 114.2281500000,22.2826000000 114.2281500000,22.2824000000 114.2281500000,22.2823000000 114.2281700000,22.2822500000 114.2282000000,22.2822000000 114.2282200000,22.2821700000 114.2283780000,22.2821710000 114.2288050000,22.2821700000 114.2293200000,22.2821750000 114.2295580000,22.2821770000 114.2297270000,22.2821820000 114.2298550000,22.2821850000 114.2299290000,22.2821830000 114.2299790000,22.2821750000 114.2300580000,22.2821580000 114.2301170000,22.2821350000 114.2301690000,22.2821120000 114.2303360000,22.2820300000 114.2303870000,22.2820140000 114.2304140000,22.2820100000 114.2304300000,22.2820070000 114.2305050000,22.2820000000 114.2306970000,22.2819790000 114.2305900000,22.2818500000 114.2305900000,22.2818000000 114.2305990000,22.2816610000 114.2306620000,22.2812030000 114.2306690000,22.2811510000 114.2307060000,22.2810020000 114.2307090000,22.2809760000 114.2307160000,22.2808810000 114.2307160000,22.2808510000 114.2307110000,22.2808160000 114.2306910000,22.2807700000 114.2304250000,22.2802420000 114.2303860000,22.2801660000 114.2303610000,22.2801150000 114.2303360000,22.2800580000 114.2300040000,22.2792050000 114.2299950000,22.2791760000 114.2299910000,22.2791470000 114.2299890000,22.2791220000 114.2299900000,22.2791030000 114.2299950000,22.2790800000 114.2302850000,22.2781590000 114.2302940000,22.2781290000 114.2303080000,22.2780610000 114.2303090000,22.2779920000 114.2302980000,22.2779240000 114.2302750000,22.2778590000 114.2302660000,22.2778330000 114.2302470000,22.2777770000 114.2301150000,22.2775820000 114.2299150000,22.2772160000 114.2298700000,22.2771350000 114.2298610000,22.2771190000 114.2298470000,22.2770930000 114.2298140000,22.2770340000 114.2297770000,22.2769710000 114.2296810000,22.2768130000 114.2296350000,22.2767650000 114.2295540000,22.2767220000 114.2294920000,22.2767040000 114.2294340000,22.2766990000 114.2293830000,22.2767020000 114.2292630000,22.2767190000 114.2291160000,22.2767500000 114.2290490000,22.2767110000 114.2290310000,22.2767140000 114.2288600000,22.2767470000 114.2288360000,22.2767520000 114.2288050000,22.2767580000 114.2287530000,22.2767850000 114.2286510000,22.2768050000 114.2285640000,22.2768210000 114.2284640000,22.2768420000 114.2283180000,22.2768910000 114.2282020000,22.2769410000 114.2278120000,22.2771210000 114.2272170000,22.2774260000 114.2271020000,22.2774880000 114.2270670000,22.2775080000 114.2270000000,22.2775590000 114.2269410000,22.2776260000 114.2269050000,22.2776770000 114.2265440000,22.2782660000 114.2264770000,22.2782310000 114.2258150000,22.2778840000 114.2261350000,22.2772840000 114.2264440000,22.2767300000 114.2264970000,22.2766290000 114.2265310000,22.2765210000 114.2265450000,22.2764090000 114.2265380000,22.2762970000 114.2265120000,22.2761880000 114.2264660000,22.2760840000 114.2264020000,22.2759880000 114.2263220000,22.2759040000 114.2262500000,22.2758360000 114.2262120000,22.2758010000 114.2259880000,22.2756550000 114.2258660000,22.2755990000 114.2257380000,22.2755580000 114.2256050000,22.2755320000 114.2254690000,22.2755210000 114.2253340000,22.2755260000 114.2251990000,22.2755470000 114.2250690000,22.2755830000 114.2249450000,22.2756330000 114.2248670000,22.2756830000 114.2247870000,22.2757420000 114.2246690000,22.2758460000 114.2245940000,22.2759270000 114.2245270000,22.2760110000 114.2240730000,22.2766150000 114.2239530000,22.2767740000 114.2237760000,22.2770100000 114.2235780000,22.2772730000 114.2234000000,22.2775100000 114.2232270000,22.2777400000 114.2229610000,22.2780950000 114.2228310000,22.2782670000 114.2225930000,22.2785830000 114.2225580000,22.2786280000 114.2224680000,22.2787440000 114.2223960000,22.2788260000 114.2223140000,22.2789120000 114.2222170000,22.2789970000 114.2221050000,22.2790740000 114.2219900000,22.2791410000 114.2218680000,22.2791960000 114.2217470000,22.2792410000 114.2216490000,22.2792680000 114.2215490000,22.2792900000 114.2214500000,22.2793030000 114.2213570000,22.2793070000 114.2212660000,22.2793050000 114.2211810000,22.2792970000 114.2211010000,22.2792810000 114.2210200000,22.2792610000 114.2207330000,22.2791700000 114.2205760000,22.2791210000 114.2204450000,22.2790790000 114.2203930000,22.2790630000 114.2202670000,22.2790240000 114.2201640000,22.2789990000 114.2200670000,22.2789840000 114.2193150000,22.2788900000 114.2192350000,22.2788840000 114.2191630000,22.2788820000 114.2190800000,22.2788840000 114.2190050000,22.2788900000 114.2189190000,22.2789040000 114.2188480000,22.2789220000 114.2187800000,22.2789440000 114.2187030000,22.2789800000 114.2186260000,22.2790230000 114.2185580000,22.2790720000 114.2185130000,22.2791120000 114.2184740000,22.2791510000 114.2184290000,22.2792050000 114.2183880000,22.2792620000 114.2180700000,22.2797380000 114.2180390000,22.2797840000 114.2180100000,22.2798320000 114.2179850000,22.2798820000 114.2179550000,22.2799640000 114.2179350000,22.2800510000 114.2179240000,22.2801330000 114.2179210000,22.2801940000 114.2179250000,22.2802730000 114.2179350000,22.2803440000 114.2179500000,22.2804150000 114.2179740000,22.2804870000 114.2180050000,22.2805570000 114.2180420000,22.2806250000 114.2180850000,22.2806910000 114.2181690000,22.2807920000 114.2182200000,22.2808370000 114.2182870000,22.2808860000 114.2183540000,22.2809270000 114.2184190000,22.2809590000 114.2184760000,22.2809830000 114.2185300000,22.2810020000 114.2186840000,22.2810500000 114.2187490000,22.2810610000 114.2187970000,22.2810670000 114.2188400000,22.2810700000 114.2188920000,22.2810690000 114.2189690000,22.2810600000 114.2190470000,22.2810450000 114.2191210000,22.2810220000 114.2191860000,22.2810020000 114.2192280000,22.2809880000 114.2192900000,22.2809810000 114.2193410000,22.2809560000 114.2194200000,22.2809000000 114.2195400000,22.2808000000 114.2196300000,22.2807000000 114.2196900000,22.2806100000 114.2197400000,22.2805100000 114.2198000000,22.2804000000 114.2198400000,22.2803200000 114.2199100000,22.2802000000 114.2199790000,22.2801000000 114.2200460000,22.2800140000 114.2200750000,22.2799830000 114.2201060000,22.2799570000 114.2201450000,22.2799290000 114.2201870000,22.2799050000 114.2202330000,22.2798850000 114.2202840000,22.2798680000 114.2203350000,22.2798560000 114.2203770000,22.2798520000 114.2204200000,22.2798500000 114.2204650000,22.2798510000 114.2205090000,22.2798580000 114.2205530000,22.2798680000 114.2206110000,22.2798900000 114.2206640000,22.2799170000 114.2207000000,22.2799410000 114.2207310000,22.2799660000 114.2207600000,22.2799950000 114.2207890000,22.2800290000 114.2208210000,22.2800750000 114.2208450000,22.2801180000 114.2208660000,22.2801750000 114.2208800000,22.2802320000 114.2208800000,22.2803320000 114.2208720000,22.2803840000 114.2208590000,22.2804370000 114.2208370000,22.2804940000 114.2208140000,22.2805430000 114.2207930000,22.2805820000 114.2207700000,22.2806160000 114.2206180000,22.2808160000 114.2205920000,22.2808530000 114.2205680000,22.2808930000 114.2205430000,22.2809400000 114.2205180000,22.2809940000 114.2204930000,22.2810660000 114.2204850000,22.2811170000 114.2204770000,22.2812540000 114.2204780000,22.2813210000 114.2204800000,22.2813480000 114.2205420000,22.2817920000 114.2205200000,22.2819500000 114.2204530000,22.2821940000 114.2203470000,22.2823170000 114.2200110000,22.2827420000 114.2196810000,22.2831480000 114.2201130000,22.2834400000 114.2204770000,22.2836880000 114.2205070000,22.2837080000 114.2205490000,22.2837380000 114.2200900000,22.2843030000 114.2200800000,22.2843170000 114.2200130000,22.2843980000 114.2199520000,22.2844710000 114.2199860000,22.2845140000 114.2200030000,22.2845330000 114.2200420000,22.2845750000 114.2201460000,22.2846610000 114.2203450000,22.2847870000 114.2205850000,22.2849490000 114.2206420000,22.2850000000 114.2207080000,22.2850680000 114.2207320000,22.2851010000 114.2207490000,22.2851280000 114.2207900000,22.2852180000 114.2208170000,22.2852780000 114.2208360000,22.2853380000 114.2208490000,22.2854010000 114.2208640000,22.2854750000 114.2208290000,22.2858090000 114.2208070000,22.2859380000 114.2207910000,22.2859980000 114.2207620000,22.2860600000 114.2207130000,22.2861120000 114.2206530000,22.2861540000 114.2205900000,22.2861730000 114.2205180000,22.2861800000 114.2203900000,22.2861820000 114.2202670000,22.2861820000 114.2202180000,22.2861820000 114.2200950000,22.2861650000 114.2199370000,22.2861630000 114.2198340000,22.2861800000 114.2196670000,22.2861800000 114.2189230000,22.2861760000 114.2188590000,22.2861760000 114.2182620000,22.2861790000 114.2182300000,22.2861790000 114.2181500000,22.2861800000 114.2180590000,22.2861800000 114.2179500000,22.2861800000 114.2177700000,22.2861780000 114.2175490000,22.2861790000 114.2173990000,22.2861810000 114.2173450000,22.2861810000 114.2171390000,22.2861810000 114.2169160000,22.2861780000 114.2167300000,22.2861790000 114.2165420000,22.2861780000 114.2165430000,22.2862890000 114.2165460000,22.2866140000 114.2165480000,22.2869510000 114.2165490000,22.2869990000 114.2165500000,22.2873050000 114.2165560000,22.2873300000 114.2165710000,22.2873500000 114.2166690000,22.2873470000 114.2171050000,22.2873390000 114.2172160000,22.2874010000 114.2172520000,22.2874430000 114.2172740000,22.2874690000 114.2172800000,22.2875020000 114.2172880000,22.2875500000 114.2172930000,22.2875940000 114.2173000000,22.2876500000 114.2172940000,22.2877650000 114.2172920000,22.2878000000 114.2172810000,22.2878660000 114.2172710000,22.2879300000 114.2172030000,22.2880520000 114.2171500000,22.2881400000 114.2170960000,22.2882060000 114.2169670000,22.2883570000 114.2166860000,22.2886740000 114.2166490000,22.2887030000 114.2165010000,22.2888220000 114.2163630000,22.2888880000 114.2162000000,22.2889420000 114.2160260000,22.2889990000 114.2159000000,22.2890340000 114.2158250000,22.2890530000 114.2157560000,22.2890700000 114.2152900000,22.2892520000 114.2151250000,22.2893220000 114.2147580000,22.2894410000 114.2142880000,22.2896070000 114.2137820000,22.2898170000 114.2134510000,22.2899700000 114.2133040000,22.2900230000 114.2131690000,22.2900720000 114.2127380000,22.2903170000 114.2124830000,22.2904610000 114.2123200000,22.2905530000 114.2122130000,22.2906180000 114.2121310000,22.2906670000 114.2120320000,22.2907270000 114.2119230000,22.2907940000 114.2116530000,22.2909590000 114.2114960000,22.2910550000 114.2114030000,22.2911130000 114.2111810000,22.2912530000 114.2110560000,22.2913310000 114.2109730000,22.2913830000 114.2106220000,22.2916380000 114.2102020000,22.2919430000 114.2096790000,22.2923280000 114.2094250000,22.2924890000 114.2091620000,22.2926270000 114.2088160000,22.2927860000 114.2086880000,22.2928400000 114.2084250000,22.2929190000 114.2081530000,22.2930010000 114.2077170000,22.2931270000 114.2072230000,22.2932690000 114.2071640000,22.2932870000 114.2066740000,22.2934340000 114.2061700000,22.2935940000 114.2056640000,22.2937480000 114.2053700000,22.2938370000 114.2050060000,22.2939470000 114.2049120000,22.2939730000 114.2046900000,22.2940290000 114.2045330000,22.2940650000 114.2042430000,22.2941180000 114.2040330000,22.2941470000 114.2039120000,22.2941540000 114.2037320000,22.2941650000 114.2035270000,22.2941680000 114.2034090000,22.2941650000 114.2032010000,22.2941380000 114.2031730000,22.2941340000 114.2030020000,22.2941110000 114.2029330000,22.2941020000 114.2028290000,22.2940850000 114.2026460000,22.2940560000 114.2025500000,22.2940360000 114.2022170000,22.2939690000 114.2021190000,22.2939490000 114.2018350000,22.2938920000 114.2015540000,22.2938360000 114.2013450000,22.2937940000 114.2005900000,22.2936420000 114.2005170000,22.2936260000 114.2000710000,22.2935390000 114.1999040000,22.2935110000 114.1997390000,22.2934890000 114.1995910000,22.2934740000 114.1994500000,22.2934640000 114.1992990000,22.2934600000 114.1989250000,22.2934630000 114.1987990000,22.2934610000 114.1986680000,22.2934560000 114.1984820000,22.2934470000 114.1983720000,22.2934380000 114.1982150000,22.2934210000 114.1980750000,22.2933990000 114.1971540000,22.2932100000 114.1968890000,22.2931570000 114.1966340000,22.2931040000 114.1963890000,22.2930500000 114.1963650000,22.2930450000 114.1962830000,22.2930270000 114.1961050000,22.2929900000 114.1958550000,22.2929350000 114.1956370000,22.2928790000 114.1955750000,22.2928640000 114.1955000000,22.2928430000 114.1953420000,22.2928020000 114.1950760000,22.2927130000 114.1949500000,22.2926590000 114.1948340000,22.2926050000 114.1947770000,22.2925780000 114.1947230000,22.2925510000 114.1945570000,22.2924640000 114.1944720000,22.2924140000 114.1943380000,22.2923400000 114.1943010000,22.2923180000 114.1940990000,22.2921780000 114.1939740000,22.2920840000 114.1938490000,22.2919940000 114.1937010000,22.2918840000 114.1936750000,22.2918610000 114.1936060000,22.2918030000 114.1935350000,22.2917410000 114.1934410000,22.2916610000 114.1933890000,22.2916150000 114.1933500000,22.2915810000 114.1933240000,22.2915550000 114.1933070000,22.2915380000 114.1932510000,22.2914830000 114.1931350000,22.2913490000 114.1931050000,22.2912530000 114.1930930000,22.2912180000 114.1930760000,22.2911620000 114.1930060000,22.2910820000 114.1929330000,22.2909960000 114.1928030000,22.2908470000 114.1922990000,22.2903210000 114.1915880000,22.2895560000 114.1913760000,22.2893230000 114.1912520000,22.2891910000 114.1906770000,22.2885810000 114.1903320000,22.2882150000 114.1900190000,22.2878880000 114.1899830000,22.2878420000 114.1898890000,22.2877330000 114.1898310000,22.2876540000 114.1897600000,22.2875550000 114.1896840000,22.2874280000 114.1896380000,22.2873400000 114.1895570000,22.2872390000 114.1894580000,22.2870630000 114.1894350000,22.2869950000 114.1894190000,22.2869350000 114.1894020000,22.2868650000 114.1893850000,22.2867830000 114.1893780000,22.2867270000 114.1893710000,22.2866570000 114.1893630000,22.2865650000 114.1893570000,22.2864690000 114.1893520000,22.2863510000 114.1893440000,22.2860110000 114.1893380000,22.2859370000 114.1893310000,22.2858670000 114.1893190000,22.2857830000 114.1893060000,22.2857010000 114.1892870000,22.2856040000 114.1892600000,22.2854970000 114.1892280000,22.2853930000 114.1891830000,22.2852740000 114.1891130000,22.2851340000 114.1890310000,22.2850070000 114.1889800000,22.2849320000 114.1888980000,22.2848300000 114.1888130000,22.2847440000 114.1887120000,22.2846530000 114.1885960000,22.2845670000 114.1884740000,22.2844880000 114.1883480000,22.2844200000 114.1882350000,22.2843700000 114.1880960000,22.2843140000 114.1879710000,22.2842690000 114.1877860000,22.2842120000 114.1876240000,22.2841670000 114.1871890000,22.2840570000 114.1871400000,22.2840320000 114.1870940000,22.2839960000 114.1869060000,22.2839590000 114.1866430000,22.2839070000 114.1865190000,22.2838830000 114.1864390000,22.2838650000 114.1863640000,22.2838430000 114.1862310000,22.2837970000 114.1860990000,22.2837360000 114.1859880000,22.2836800000 114.1859020000,22.2836190000 114.1857900000,22.2835350000 114.1854100000,22.2832190000 114.1852890000,22.2831460000 114.1851240000,22.2830460000 114.1849060000,22.2828830000 114.1846060000,22.2826830000 114.1843680000,22.2825090000 114.1842400000,22.2824220000 114.1840550000,22.2823030000 114.1836400000,22.2821430000 114.1835710000,22.2821150000 114.1834410000,22.2820630000 114.1832710000,22.2819960000 114.1831930000,22.2819650000 114.1831000000,22.2819290000 114.1830130000,22.2818950000 114.1828970000,22.2818500000 114.1827910000,22.2818100000 114.1826870000,22.2817690000 114.1823980000,22.2816580000 114.1823200000,22.2816240000 114.1822920000,22.2816120000 114.1821640000,22.2815570000 114.1820580000,22.2815120000 114.1819390000,22.2814620000 114.1817580000,22.2814670000 114.1816580000,22.2814320000 114.1815200000,22.2813820000 114.1814670000,22.2813630000 114.1813150000,22.2812770000 114.1811800000,22.2812110000 114.1810540000,22.2811500000 114.1800580000,22.2807610000 114.1796200000,22.2806000000 114.1795710000,22.2805850000 114.1794800000,22.2805700000 114.1794090000,22.2805690000 114.1793400000,22.2805780000 114.1792630000,22.2806030000 114.1792260000,22.2806200000 114.1791860000,22.2806420000 114.1791530000,22.2806670000 114.1791200000,22.2806960000 114.1790920000,22.2807260000 114.1790680000,22.2807570000 114.1790490000,22.2807880000 114.1790290000,22.2808300000 114.1790150000,22.2808690000 114.1790060000,22.2809110000 114.1790020000,22.2809550000 114.1790010000,22.2809950000 114.1790060000,22.2810350000 114.1790140000,22.2810750000 114.1790280000,22.2811150000 114.1790480000,22.2811590000 114.1790770000,22.2812040000 114.1791100000,22.2812430000 114.1791460000,22.2812770000 114.1791890000,22.2813090000 114.1792900000,22.2813700000 114.1793740000,22.2814240000 114.1794250000,22.2814600000 114.1794750000,22.2815000000 114.1795260000,22.2815420000 114.1795510000,22.2815650000 114.1796030000,22.2816130000 114.1796570000,22.2816450000 114.1798350000,22.2817540000 114.1799150000,22.2818260000 114.1800940000,22.2819710000 114.1801660000,22.2820270000 114.1802920000,22.2821160000 114.1803920000,22.2821730000 114.1805370000,22.2822540000 114.1806070000,22.2822890000 114.1807590000,22.2823570000 114.1808980000,22.2824090000 114.1812320000,22.2825350000 114.1813560000,22.2825920000 114.1816190000,22.2827130000 114.1817210000,22.2827590000 114.1818540000,22.2828140000 114.1819240000,22.2828400000 114.1820490000,22.2828630000 114.1821240000,22.2829190000 114.1822060000,22.2829790000 114.1823110000,22.2830580000 114.1825200000,22.2832500000 114.1826800000,22.2834390000 114.1828320000,22.2836720000 114.1829370000,22.2838430000 114.1830020000,22.2839850000 114.1830590000,22.2841840000 114.1830780000,22.2844020000 114.1830720000,22.2846470000 114.1806980000,22.2989440000 114.1806730000,22.2990920000 114.1805720000,22.2997000000 114.1805210000,22.3000220000 114.1804640000,22.3003030000 114.1804000000,22.3006310000 114.1803430000,22.3009300000 114.1803200000,22.3010250000 114.1802890000,22.3011400000 114.1802140000,22.3014050000 114.1801790000,22.3015530000 114.1801530000,22.3016760000 114.1801400000,22.3017910000 114.1801360000,22.3018780000 114.1801380000,22.3019650000 114.1801460000,22.3020750000 114.1801540000,22.3021540000 114.1801620000,22.3022260000 114.1801920000,22.3024230000 114.1802050000,22.3024820000 114.1802330000,22.3025680000 114.1802730000,22.3026660000 114.1803180000,22.3027620000 114.1804000000,22.3029190000 114.1804680000,22.3030560000 114.1805290000,22.3031830000 114.1806650000,22.3034930000 114.1807410000,22.3036910000 114.1808830000,22.3040220000 114.1809580000,22.3042040000 114.1810410000,22.3044040000 114.1810810000,22.3045000000 114.1812550000,22.3049180000 114.1813230000,22.3050740000 114.1813360000,22.3051100000 114.1813800000,22.3052320000 114.1814070000,22.3053050000 114.1814280000,22.3053970000 114.1814380000,22.3054730000 114.1814440000,22.3055590000 114.1814390000,22.3056370000 114.1814300000,22.3057050000 114.1814090000,22.3057990000 114.1813920000,22.3058580000 114.1813690000,22.3059310000 114.1813510000,22.3059780000 114.1813150000,22.3060570000 114.1812740000,22.3061340000 114.1812300000,22.3062010000 114.1811750000,22.3062730000 114.1810960000,22.3063670000 114.1810260000,22.3064440000 114.1809730000,22.3064970000 114.1808990000,22.3065600000 114.1806580000,22.3067340000 114.1805550000,22.3067940000 114.1802390000,22.3069830000 114.1801530000,22.3070380000 114.1800590000,22.3071030000 114.1799460000,22.3071860000 114.1798500000,22.3072620000 114.1797640000,22.3073360000 114.1796870000,22.3074140000 114.1796030000,22.3075060000 114.1795300000,22.3075940000 114.1794420000,22.3077070000 114.1793680000,22.3078070000 114.1793140000,22.3079040000 114.1792590000,22.3080050000 114.1791840000,22.3081620000 114.1790810000,22.3084240000 114.1789920000,22.3086810000 114.1788840000,22.3089380000 114.1787570000,22.3091990000 114.1785440000,22.3095790000 114.1783110000,22.3099560000 114.1782110000,22.3101170000 114.1781210000,22.3102650000 114.1779240000,22.3105740000 114.1777900000,22.3107980000 114.1776410000,22.3110180000 114.1775100000,22.3111670000 114.1770530000,22.3116690000 114.1769260000,22.3118140000 114.1768250000,22.3119850000 114.1767820000,22.3120930000 114.1767430000,22.3122230000 114.1767280000,22.3123840000 114.1767280000,22.3125270000 114.1767410000,22.3126960000 114.1767540000,22.3128610000 114.1767860000,22.3130320000 114.1768080000,22.3131500000 114.1771200000,22.3149370000 114.1771440000,22.3150510000 114.1771530000,22.3150850000 114.1771660000,22.3151340000 114.1771710000,22.3151500000 114.1771820000,22.3151930000 114.1771890000,22.3152140000 114.1772200000,22.3153140000 114.1772410000,22.3153660000 114.1772710000,22.3154390000 114.1772890000,22.3154830000 114.1773890000,22.3156280000 114.1774170000,22.3156640000 114.1774830000,22.3157500000 114.1775830000,22.3158590000 114.1776360000,22.3159100000 114.1776910000,22.3159620000 114.1778580000,22.3161170000 114.1780290000,22.3163160000 114.1781060000,22.3164410000 114.1781780000,22.3166040000 114.1782100000,22.3166930000 114.1782590000,22.3168300000 114.1783210000,22.3170850000 114.1783310000,22.3171250000 114.1783600000,22.3172490000 114.1783680000,22.3172830000 114.1784120000,22.3174160000 114.1785350000,22.3176760000 114.1785630000,22.3178230000 114.1785680000,22.3178770000 114.1785630000,22.3179020000 114.1785480000,22.3179350000 114.1785330000,22.3179570000 114.1785120000,22.3179790000 114.1784870000,22.3179960000 114.1784630000,22.3180090000 114.1784270000,22.3180220000 114.1783880000,22.3180240000 114.1783660000,22.3180240000 114.1783430000,22.3180220000 114.1783190000,22.3180160000 114.1781570000,22.3179720000 114.1781220000,22.3179590000 114.1780860000,22.3179430000 114.1780580000,22.3179240000 114.1780300000,22.3179000000 114.1779890000,22.3178390000 114.1779300000,22.3177520000 114.1780020000,22.3177230000 114.1780950000,22.3176850000 114.1782430000,22.3176240000 114.1788350000,22.3173910000 114.1789540000,22.3173400000 114.1790380000,22.3173100000 114.1791140000,22.3172840000 114.1793810000,22.3171840000 114.1798070000,22.3170080000 114.1798770000,22.3171470000 114.1801700000,22.3177300000 114.1804970000,22.3182980000 114.1806550000,22.3185400000 114.1811550000,22.3193030000 114.1812070000,22.3193820000 114.1812950000,22.3194980000 114.1813900000,22.3195860000 114.1814980000,22.3196700000 114.1815870000,22.3197290000 114.1816770000,22.3197720000 114.1817620000,22.3198030000 114.1818520000,22.3198270000 114.1821530000,22.3198990000 114.1822660000,22.3199260000 114.1824760000,22.3199770000 114.1828540000,22.3200690000 114.1829440000,22.3200860000 114.1830150000,22.3200960000 114.1831580000,22.3201030000 114.1832230000,22.3201000000 114.1832880000,22.3200890000 114.1833570000,22.3200720000 114.1834450000,22.3200460000 114.1835260000,22.3200150000 114.1836050000,22.3199770000 114.1836760000,22.3199330000 114.1843140000,22.3194580000 114.1843850000,22.3194120000 114.1844440000,22.3193840000 114.1845130000,22.3193610000 114.1845840000,22.3193470000 114.1846470000,22.3193420000 114.1847190000,22.3193410000 114.1847930000,22.3193450000 114.1848470000,22.3193510000 114.1849000000,22.3193620000 114.1849450000,22.3193740000 114.1850090000,22.3193990000 114.1850660000,22.3194330000 114.1851270000,22.3194830000 114.1851790000,22.3195350000 114.1855590000,22.3199800000 114.1856430000,22.3200800000 114.1855400000,22.3201470000 114.1855020000,22.3201950000 114.1854430000,22.3202700000 114.1853760000,22.3204380000 114.1853480000,22.3205100000 114.1852070000,22.3208790000 114.1851560000,22.3210120000 114.1851120000,22.3211180000 114.1850670000,22.3212280000 114.1847840000,22.3220370000 114.1847760000,22.3220600000 114.1846640000,22.3223480000 114.1846170000,22.3224510000 114.1846100000,22.3224650000 114.1842340000,22.3231580000 114.1841190000,22.3233490000 114.1839190000,22.3236800000 114.1838230000,22.3238400000 114.1838010000,22.3238760000 114.1837310000,22.3239890000 114.1836700000,22.3240910000 114.1838870000,22.3242090000 114.1843340000,22.3244210000 114.1848650000,22.3246550000 114.1852570000,22.3248310000 114.1854710000,22.3249280000 114.1855090000,22.3249450000 114.1856430000,22.3250130000 114.1857740000,22.3250880000 114.1859310000,22.3251820000 114.1861450000,22.3253030000 114.1867510000,22.3256670000 114.1868280000,22.3257130000 114.1869240000,22.3257690000 114.1870380000,22.3258360000 114.1871470000,22.3259010000 114.1871850000,22.3259230000 114.1872550000,22.3259640000 114.1874720000,22.3260910000 114.1876580000,22.3261930000 114.1876840000,22.3262100000 114.1877950000,22.3262780000 114.1882680000,22.3264990000 114.1883780000,22.3265610000 114.1890660000,22.3269280000 114.1892870000,22.3270440000 114.1895120000,22.3271520000 114.1897400000,22.3272550000 114.1899720000,22.3273500000 114.1902070000,22.3274390000 114.1903900000,22.3275110000 114.1909700000,22.3277410000 114.1911940000,22.3278860000 114.1913320000,22.3279760000 114.1914350000,22.3280580000 114.1915460000,22.3281250000 114.1915900000,22.3282210000 114.1917150000,22.3283260000 114.1918480000,22.3284390000 114.1919310000,22.3285090000 114.1920190000,22.3285830000 114.1920990000,22.3286510000 114.1921880000,22.3287260000 114.1922850000,22.3288080000 114.1923800000,22.3288890000 114.1924150000,22.3289200000 114.1924910000,22.3289940000 114.1925510000,22.3290440000 114.1926090000,22.3290970000 114.1926460000,22.3291330000 114.1928810000,22.3293500000 114.1929100000,22.3293780000 114.1942640000,22.3306620000 114.1954070000,22.3318070000 114.1955660000,22.3319550000 114.1957650000,22.3321480000 114.1958980000,22.3323650000 114.1959370000,22.3324700000 114.1959610000,22.3325950000 114.1959430000,22.3327310000 114.1958640000,22.3328640000 114.1958060000,22.3329410000 114.1957900000,22.3329540000 114.1956700000,22.3330610000 114.1955110000,22.3332150000 114.1953970000,22.3333250000 114.1953350000,22.3333850000 114.1952960000,22.3334720000 114.1951830000,22.3335850000 114.1950430000,22.3337240000 114.1948560000,22.3338960000 114.1948280000,22.3339260000 114.1945280000,22.3342050000 114.1943770000,22.3343610000 114.1942740000,22.3344870000 114.1941950000,22.3346080000 114.1941380000,22.3347890000 114.1941280000,22.3349370000 114.1941490000,22.3352290000 114.1941750000,22.3353720000 114.1942110000,22.3355210000 114.1942660000,22.3357100000 114.1942840000,22.3357480000 114.1943850000,22.3359610000 114.1944990000,22.3361490000 114.1949290000,22.3367490000 114.1950150000,22.3368680000 114.1950630000,22.3369330000 114.1951800000,22.3370930000 114.1952860000,22.3372360000 114.1959800000,22.3381780000 114.1960980000,22.3383380000 114.1961240000,22.3383740000 114.1962030000,22.3384700000 114.1962630000,22.3385410000 114.1963190000,22.3386060000 114.1963770000,22.3386600000 114.1964470000,22.3387150000 114.1965300000,22.3387730000 114.1966310000,22.3388380000 114.1968100000,22.3389440000 114.1968750000,22.3389770000 114.1970660000,22.3390680000 114.1971490000,22.3391040000 114.1973410000,22.3391800000 114.1974900000,22.3392420000 114.1976120000,22.3393040000 114.1977190000,22.3393740000 114.1977790000,22.3394230000 114.1978230000,22.3394640000 114.1978770000,22.3395180000 114.1979200000,22.3395700000 114.1979570000,22.3396230000 114.1979970000,22.3396930000 114.1980380000,22.3397650000 114.1980660000,22.3398230000 114.1981090000,22.3399530000 114.1981250000,22.3400160000 114.1981470000,22.3401050000 114.1981650000,22.3402270000 114.1981780000,22.3403170000 114.1981980000,22.3404530000 114.1982060000,22.3405070000 114.1982110000,22.3405440000 114.1982140000,22.3405630000 114.1982180000,22.3405930000 114.1982210000,22.3406150000 114.1982320000,22.3406880000 114.1982480000,22.3407820000 114.1982560000,22.3408230000 114.1983260000,22.3412300000 114.1983620000,22.3414140000 114.1984240000,22.3417610000 114.1984570000,22.3419020000 114.1984780000,22.3420050000 114.1984850000,22.3420410000 114.1984920000,22.3421000000 114.1985020000,22.3421540000 114.1985120000,22.3422190000 114.1985200000,22.3422550000 114.1985260000,22.3422930000 114.1985300000,22.3423220000 114.1985270000,22.3423460000 114.1985250000,22.3423690000 114.1985210000,22.3423920000 114.1985170000,22.3424220000 114.1985220000,22.3424520000 114.1985290000,22.3424980000 114.1985420000,22.3425730000 114.1985570000,22.3426750000 114.1985820000,22.3428480000 114.1986130000,22.3430310000 114.1986380000,22.3431710000 114.1986780000,22.3432480000 114.1987770000,22.3432330000 114.1988860000,22.3432200000 114.1997560000,22.3431150000 114.2000340000,22.3430810000 114.2000520000,22.3430790000 114.2001490000,22.3430680000 114.2005430000,22.3430070000 114.2006090000,22.3429940000 114.2006510000,22.3429840000 114.2007500000,22.3429330000 114.2008290000,22.3429130000 114.2008880000,22.3428950000 114.2009470000,22.3428780000 114.2010300000,22.3428490000 114.2011430000,22.3427980000 114.2012620000,22.3427440000 114.2013990000,22.3426820000 114.2016590000,22.3425640000 114.2018000000,22.3424880000 114.2019250000,22.3424170000 114.2020470000,22.3423410000 114.2023430000,22.3421160000 114.2026220000,22.3417790000 114.2028020000,22.3414280000 114.2028400000,22.3413580000 114.2030710000,22.3409370000 114.2032200000,22.3407590000 114.2033830000,22.3406050000 114.2035000000,22.3405260000 114.2035550000,22.3404890000 114.2035720000,22.3404770000 114.2036320000,22.3404410000 114.2036580000,22.3404250000 114.2037670000,22.3403580000 114.2040230000,22.3402180000 114.2041030000,22.3401740000 114.2041880000,22.3401270000 114.2042440000,22.3400960000 114.2042690000,22.3400820000 114.2043130000,22.3400580000 114.2043860000,22.3400200000 114.2044050000,22.3400080000 114.2047300000,22.3398400000 114.2051070000,22.3396540000 114.2052370000,22.3395990000 114.2054560000,22.3395740000 114.2057020000,22.3395670000 114.2057310000,22.3395670000 114.2058570000,22.3395460000 114.2059740000,22.3394970000 114.2061020000,22.3394520000 114.2062360000,22.3394050000 114.2063600000,22.3393810000 114.2064270000,22.3393810000 114.2064910000,22.3393650000 114.2066510000,22.3393410000 114.2067290000,22.3393430000 114.2068020000,22.3393580000 114.2068810000,22.3393820000 114.2070130000,22.3394360000 114.2071180000,22.3395270000 114.2072900000,22.3396780000 114.2073190000,22.3397050000 114.2076500000,22.3400330000 114.2076760000,22.3400570000 114.2077810000,22.3401550000 114.2078380000,22.3402100000 114.2082160000,22.3405480000 114.2083100000,22.3406450000 114.2083760000,22.3407400000 114.2084150000,22.3408330000 114.2084430000,22.3409130000 114.2084710000,22.3411120000 114.2084670000,22.3412070000 114.2084340000,22.3413580000 114.2083480000,22.3415850000 114.2082020000,22.3419750000 114.2081320000,22.3421590000 114.2080500000,22.3423780000 114.2080280000,22.3424380000 114.2079630000,22.3426450000 114.2079430000,22.3427090000 114.2077960000,22.3431790000 114.2077420000,22.3433450000 114.2075530000,22.3439510000 114.2075210000,22.3440610000 114.2074690000,22.3442240000 114.2073910000,22.3443900000 114.2073700000,22.3444140000 114.2071650000,22.3446470000 114.2071160000,22.3446970000 114.2066280000,22.3452090000 114.2064590000,22.3453860000 114.2063610000,22.3454890000 114.2062130000,22.3456430000 114.2060910000,22.3457580000 114.2060640000,22.3457850000 114.2059310000,22.3458970000 114.2058210000,22.3459770000 114.2057620000,22.3460210000 114.2056370000,22.3461020000 114.2055120000,22.3461820000 114.2052410000,22.3463130000 114.2051070000,22.3463610000 114.2050490000,22.3463790000 114.2048710000,22.3464360000 114.2047530000,22.3464580000 114.2046400000,22.3464740000 114.2045260000,22.3464780000 114.2044180000,22.3464820000 114.2041760000,22.3464750000 114.2041860000,22.3467970000 114.2041900000,22.3469590000 114.2041950000,22.3471140000 114.2041970000,22.3472260000 114.2042000000,22.3473670000 114.2042020000,22.3474750000 114.2042040000,22.3475700000 114.2042090000,22.3478650000 114.2042100000,22.3479450000 114.2042120000,22.3480790000 114.2042080000,22.3481810000 114.2041920000,22.3482580000 114.2041590000,22.3483360000 114.2041290000,22.3483910000 114.2040980000,22.3484320000 114.2040590000,22.3484700000 114.2040180000,22.3485020000 114.2039760000,22.3485270000 114.2039290000,22.3485470000 114.2038880000,22.3485600000 114.2038410000,22.3485700000 114.2037970000,22.3485750000 114.2033320000,22.3486090000 114.2029590000,22.3486300000 114.2029490000,22.3486300000 114.2028520000,22.3486390000 114.2028230000,22.3486410000 114.2028140000,22.3486420000 114.2026900000,22.3486620000 114.2025840000,22.3486860000 114.2025230000,22.3487080000 114.2024560000,22.3487380000 114.2023950000,22.3487740000 114.2023180000,22.3488280000 114.2022670000,22.3488700000 114.2022230000,22.3489190000 114.2021840000,22.3489680000 114.2021390000,22.3490410000 114.2020200000,22.3492570000 114.2019580000,22.3493570000 114.2018900000,22.3494620000 114.2018320000,22.3495370000 114.2017700000,22.3496080000 114.2016620000,22.3497180000 114.2015960000,22.3497800000 114.2015130000,22.3498510000 114.2014310000,22.3499180000 114.2013440000,22.3499820000 114.2013100000,22.3500040000 114.2012270000,22.3500530000 114.2011510000,22.3500900000 114.2010720000,22.3501230000 114.2009770000,22.3501580000 114.2008720000,22.3501960000 114.2008330000,22.3502100000 114.2008020000,22.3502210000 114.2006850000,22.3502620000 114.2003710000,22.3503790000 114.2002330000,22.3504220000 114.1997020000,22.3506260000 114.1995240000,22.3506860000 114.1993260000,22.3507520000 114.1992340000,22.3507830000 114.1991120000,22.3508190000 114.1989970000,22.3508410000 114.1988380000,22.3508580000 114.1987230000,22.3508600000 114.1985850000,22.3508580000 114.1985200000,22.3508500000 114.1985090000,22.3508810000 114.1985030000,22.3508960000 114.1984940000,22.3509220000 114.1984700000,22.3509640000 114.1983670000,22.3510990000 114.1983450000,22.3511150000 114.1983200000,22.3511260000 114.1982930000,22.3511250000 114.1982930000,22.3511250000 114.1983200000,22.3511260000 114.1983450000,22.3511150000 114.1983670000,22.3510990000 114.1984700000,22.3509640000 114.1984940000,22.3509220000 114.1985030000,22.3508960000 114.1985090000,22.3508810000 114.1985200000,22.3508500000 114.1985850000,22.3508580000 114.1987230000,22.3508600000 114.1988380000,22.3508580000 114.1989970000,22.3508410000 114.1991120000,22.3508190000 114.1992340000,22.3507830000 114.1993260000,22.3507520000 114.1995240000,22.3506860000 114.1997020000,22.3506260000 114.2002330000,22.3504220000 114.2003710000,22.3503790000 114.2006850000,22.3502620000 114.2008020000,22.3502210000 114.2008330000,22.3502100000 114.2008720000,22.3501960000 114.2009770000,22.3501580000 114.2010720000,22.3501230000 114.2011510000,22.3500900000 114.2012270000,22.3500530000 114.2013100000,22.3500040000 114.2013440000,22.3499820000 114.2014310000,22.3499180000 114.2015130000,22.3498510000 114.2015960000,22.3497800000 114.2016620000,22.3497180000 114.2017700000,22.3496080000 114.2018320000,22.3495370000 114.2018900000,22.3494620000 114.2019580000,22.3493570000 114.2020200000,22.3492570000 114.2021390000,22.3490410000 114.2021840000,22.3489680000 114.2022230000,22.3489190000 114.2022670000,22.3488700000 114.2023180000,22.3488280000 114.2023950000,22.3487740000 114.2024560000,22.3487380000 114.2025230000,22.3487080000 114.2025840000,22.3486860000 114.2026900000,22.3486620000 114.2028140000,22.3486420000 114.2028230000,22.3486410000 114.2028520000,22.3486390000 114.2029490000,22.3486300000 114.2029590000,22.3486300000 114.2033320000,22.3486090000 114.2037970000,22.3485750000 114.2038410000,22.3485700000 114.2038880000,22.3485600000 114.2039290000,22.3485470000 114.2039760000,22.3485270000 114.2040180000,22.3485020000 114.2040590000,22.3484700000 114.2040980000,22.3484320000 114.2041290000,22.3483910000 114.2041590000,22.3483360000 114.2041920000,22.3482580000 114.2042080000,22.3481810000 114.2042120000,22.3480790000 114.2042100000,22.3479450000 114.2042090000,22.3478650000 114.2042040000,22.3475700000 114.2042020000,22.3474750000 114.2042000000,22.3473670000 114.2041970000,22.3472260000 114.2041950000,22.3471140000 114.2041900000,22.3469590000 114.2041860000,22.3467970000 114.2041760000,22.3464750000 114.2044180000,22.3464820000 114.2045260000,22.3464780000 114.2046400000,22.3464740000 114.2047530000,22.3464580000 114.2048710000,22.3464360000 114.2050490000,22.3463790000 114.2051070000,22.3463610000 114.2052410000,22.3463130000 114.2055120000,22.3461820000 114.2056370000,22.3461020000 114.2057620000,22.3460210000 114.2058210000,22.3459770000 114.2059310000,22.3458970000 114.2060640000,22.3457850000 114.2060910000,22.3457580000 114.2062130000,22.3456430000 114.2063610000,22.3454890000 114.2064590000,22.3453860000 114.2066280000,22.3452090000 114.2071160000,22.3446970000 114.2071650000,22.3446470000 114.2073700000,22.3444140000 114.2073910000,22.3443900000 114.2074690000,22.3442240000 114.2075210000,22.3440610000 114.2075530000,22.3439510000 114.2077420000,22.3433450000 114.2077960000,22.3431790000 114.2079430000,22.3427090000 114.2079630000,22.3426450000 114.2080280000,22.3424380000 114.2080500000,22.3423780000 114.2081320000,22.3421590000 114.2082020000,22.3419750000 114.2083480000,22.3415850000 114.2084340000,22.3413580000 114.2084670000,22.3412070000 114.2084710000,22.3411120000 114.2084430000,22.3409130000 114.2084150000,22.3408330000 114.2083760000,22.3407400000 114.2083100000,22.3406450000 114.2082160000,22.3405480000 114.2078380000,22.3402100000 114.2077810000,22.3401550000 114.2076760000,22.3400570000 114.2076500000,22.3400330000 114.2073190000,22.3397050000 114.2072900000,22.3396780000 114.2071180000,22.3395270000 114.2070130000,22.3394360000 114.2068320000,22.3392770000 114.2067660000,22.3392230000 114.2067100000,22.3391780000 114.2066470000,22.3391330000 114.2066330000,22.3390720000 114.2066030000,22.3390160000 114.2065580000,22.3389700000 114.2065010000,22.3389360000 114.2064370000,22.3389180000 114.2063930000,22.3389140000 114.2063500000,22.3389180000 114.2063080000,22.3389280000 114.2062670000,22.3389460000 114.2062300000,22.3389700000 114.2061980000,22.3390000000 114.2061710000,22.3390370000 114.2061520000,22.3390780000 114.2061420000,22.3391280000 114.2061100000,22.3392290000 114.2060930000,22.3392980000 114.2060470000,22.3393770000 114.2060320000,22.3394040000 114.2060220000,22.3394210000 114.2059740000,22.3394970000 114.2058570000,22.3395460000 114.2057310000,22.3395670000 114.2057020000,22.3395670000 114.2054560000,22.3395740000 114.2052370000,22.3395990000 114.2051070000,22.3396540000 114.2047300000,22.3398400000 114.2044050000,22.3400080000 114.2043860000,22.3400200000 114.2043130000,22.3400580000 114.2042690000,22.3400820000 114.2042440000,22.3400960000 114.2041880000,22.3401270000 114.2041030000,22.3401740000 114.2040230000,22.3402180000 114.2037670000,22.3403580000 114.2036580000,22.3404250000 114.2036320000,22.3404410000 114.2035720000,22.3404770000 114.2035550000,22.3404890000 114.2035000000,22.3405260000 114.2033830000,22.3406050000 114.2032200000,22.3407590000 114.2030710000,22.3409370000 114.2028400000,22.3413580000 114.2028020000,22.3414280000 114.2026220000,22.3417790000 114.2023430000,22.3421160000 114.2020470000,22.3423410000 114.2019250000,22.3424170000 114.2018000000,22.3424880000 114.2016590000,22.3425640000 114.2013990000,22.3426820000 114.2012620000,22.3427440000 114.2011430000,22.3427980000 114.2010300000,22.3428490000 114.2009470000,22.3428780000 114.2008880000,22.3428950000 114.2008290000,22.3429130000 114.2007500000,22.3429330000 114.2006410000,22.3429170000 114.2005970000,22.3429220000 114.2005370000,22.3429300000 114.1996060000,22.3430550000 114.1994310000,22.3430700000 114.1988700000,22.3431370000 114.1987620000,22.3431470000 114.1987270000,22.3429030000 114.1987150000,22.3428030000 114.1987030000,22.3427290000 114.1986870000,22.3426350000 114.1986560000,22.3424300000 114.1986510000,22.3424070000 114.1986440000,22.3423710000 114.1986370000,22.3423340000 114.1986320000,22.3423090000 114.1986280000,22.3422800000 114.1986200000,22.3422350000 114.1986140000,22.3422010000 114.1986010000,22.3421440000 114.1985890000,22.3420800000 114.1985890000,22.3420230000 114.1985900000,22.3419830000 114.1985740000,22.3418850000 114.1985470000,22.3417230000 114.1984780000,22.3413780000 114.1984360000,22.3410920000 114.1984210000,22.3410070000 114.1984070000,22.3409380000 114.1983860000,22.3408180000 114.1983740000,22.3407580000 114.1983600000,22.3406690000 114.1983480000,22.3406000000 114.1983450000,22.3405770000 114.1983400000,22.3405490000 114.1983390000,22.3405390000 114.1983370000,22.3405280000 114.1983340000,22.3404960000 114.1983290000,22.3404460000 114.1982850000,22.3402100000 114.1982670000,22.3400830000 114.1982510000,22.3399810000 114.1982290000,22.3399050000 114.1981920000,22.3398030000 114.1981670000,22.3397400000 114.1981550000,22.3397090000 114.1981410000,22.3396760000 114.1980810000,22.3395780000 114.1980180000,22.3394950000 114.1979740000,22.3394430000 114.1979220000,22.3393900000 114.1978450000,22.3393250000 114.1977750000,22.3392790000 114.1976990000,22.3392400000 114.1975850000,22.3391860000 114.1975540000,22.3391760000 114.1974720000,22.3391480000 114.1973890000,22.3391190000 114.1972680000,22.3390730000 114.1971650000,22.3390280000 114.1970280000,22.3389680000 114.1969800000,22.3389460000 114.1967950000,22.3388550000 114.1966320000,22.3387500000 114.1964470000,22.3385870000 114.1963700000,22.3385120000 114.1963420000,22.3384870000 114.1962220000,22.3383580000 114.1961370000,22.3382600000 114.1960500000,22.3381520000 114.1956070000,22.3375620000 114.1955360000,22.3374680000 114.1952840000,22.3370880000 114.1952400000,22.3370320000 114.1951490000,22.3369090000 114.1950840000,22.3368230000 114.1948030000,22.3364910000 114.1947060000,22.3363540000 114.1946260000,22.3362350000 114.1945610000,22.3361270000 114.1945090000,22.3360320000 114.1944670000,22.3359460000 114.1943960000,22.3357900000 114.1943370000,22.3356410000 114.1942950000,22.3355150000 114.1942640000,22.3353990000 114.1942460000,22.3353160000 114.1942330000,22.3352460000 114.1942200000,22.3351590000 114.1942100000,22.3350670000 114.1942060000,22.3350090000 114.1942040000,22.3349440000 114.1942090000,22.3348730000 114.1942200000,22.3348060000 114.1942420000,22.3347300000 114.1942680000,22.3346660000 114.1943000000,22.3346020000 114.1943400000,22.3345360000 114.1943860000,22.3344750000 114.1944390000,22.3344180000 114.1947090000,22.3341400000 114.1947420000,22.3341070000 114.1948660000,22.3339800000 114.1950180000,22.3338250000 114.1950930000,22.3337530000 114.1951420000,22.3337080000 114.1951780000,22.3336750000 114.1955010000,22.3334050000 114.1957370000,22.3332070000 114.1958140000,22.3331480000 114.1958940000,22.3330930000 114.1959590000,22.3330520000 114.1960120000,22.3330230000 114.1960620000,22.3329980000 114.1961320000,22.3329670000 114.1961960000,22.3329430000 114.1965230000,22.3328400000 114.1965860000,22.3328180000 114.1966380000,22.3327960000 114.1966830000,22.3327710000 114.1967260000,22.3327410000 114.1967680000,22.3327000000 114.1968080000,22.3326480000 114.1968350000,22.3325950000 114.1968530000,22.3325390000 114.1968620000,22.3324840000 114.1968620000,22.3324280000 114.1968510000,22.3323730000 114.1968350000,22.3323270000 114.1968120000,22.3322810000 114.1967870000,22.3322460000 114.1967580000,22.3322140000 114.1967250000,22.3321850000 114.1966880000,22.3321600000 114.1966490000,22.3321390000 114.1965910000,22.3321150000 114.1965090000,22.3320900000 114.1964820000,22.3320830000 114.1963830000,22.3320570000 114.1961340000,22.3320070000 114.1960020000,22.3319440000 114.1959150000,22.3318900000 114.1957720000,22.3317670000 114.1956350000,22.3316390000 114.1925430000,22.3286200000 114.1920190000,22.3281890000 114.1917280000,22.3280510000 114.1914630000,22.3279270000 114.1913020000,22.3278640000 114.1909700000,22.3277410000 114.1902070000,22.3274390000 114.1899720000,22.3273500000 114.1897400000,22.3272550000 114.1895870000,22.3271860000 114.1895120000,22.3271520000 114.1892870000,22.3270440000 114.1890660000,22.3269280000 114.1883780000,22.3265610000 114.1882680000,22.3264990000 114.1878620000,22.3261910000 114.1870200000,22.3256960000 114.1869820000,22.3256750000 114.1868790000,22.3256140000 114.1858660000,22.3250030000 114.1858250000,22.3249790000 114.1856710000,22.3248940000 114.1856170000,22.3248670000 114.1855990000,22.3248580000 114.1855560000,22.3248380000 114.1853300000,22.3247310000 114.1853160000,22.3247240000 114.1853050000,22.3247190000 114.1849810000,22.3245700000 114.1847230000,22.3244510000 114.1846980000,22.3244400000 114.1840630000,22.3241470000 114.1839430000,22.3240920000 114.1839120000,22.3240780000 114.1838670000,22.3240560000 114.1837310000,22.3239890000 114.1838010000,22.3238760000 114.1838230000,22.3238400000 114.1839190000,22.3236800000 114.1841190000,22.3233490000 114.1841540000,22.3232920000 114.1842340000,22.3231580000 114.1846100000,22.3224650000 114.1846170000,22.3224510000 114.1846640000,22.3223480000 114.1847760000,22.3220600000 114.1847840000,22.3220370000 114.1850670000,22.3212280000 114.1851120000,22.3211180000 114.1851560000,22.3210120000 114.1852070000,22.3208790000 114.1853760000,22.3204380000 114.1854430000,22.3202700000 114.1855020000,22.3201950000 114.1855400000,22.3201470000 114.1856430000,22.3200800000 114.1855590000,22.3199800000 114.1851790000,22.3195350000 114.1851270000,22.3194830000 114.1850660000,22.3194330000 114.1850090000,22.3193990000 114.1849450000,22.3193740000 114.1849000000,22.3193620000 114.1848470000,22.3193510000 114.1847930000,22.3193450000 114.1847190000,22.3193410000 114.1846470000,22.3193420000 114.1845840000,22.3193470000 114.1845130000,22.3193610000 114.1844440000,22.3193840000 114.1843850000,22.3194120000 114.1843140000,22.3194580000 114.1836760000,22.3199330000 114.1836050000,22.3199770000 114.1835260000,22.3200150000 114.1834450000,22.3200460000 114.1833570000,22.3200720000 114.1832880000,22.3200890000 114.1832230000,22.3201000000 114.1831580000,22.3201030000 114.1830150000,22.3200960000 114.1829440000,22.3200860000 114.1828540000,22.3200690000 114.1824760000,22.3199770000 114.1822660000,22.3199260000 114.1821530000,22.3198990000 114.1818520000,22.3198270000 114.1817620000,22.3198030000 114.1816770000,22.3197720000 114.1815870000,22.3197290000 114.1814980000,22.3196700000 114.1813900000,22.3195860000 114.1812950000,22.3194980000 114.1812070000,22.3193820000 114.1811550000,22.3193030000 114.1806550000,22.3185400000 114.1804970000,22.3182980000 114.1801700000,22.3177300000 114.1798770000,22.3171470000 114.1798070000,22.3170080000 114.1799580000,22.3169360000 114.1799950000,22.3169220000 114.1800370000,22.3168460000 114.1800960000,22.3168210000 114.1803010000,22.3167270000 114.1804360000,22.3166800000 114.1805770000,22.3166030000 114.1807270000,22.3165030000 114.1808330000,22.3164270000 114.1809490000,22.3163250000 114.1810260000,22.3162970000 114.1810570000,22.3162710000 114.1811340000,22.3162100000 114.1811740000,22.3161740000 114.1812210000,22.3161400000 114.1813050000,22.3160380000 114.1813210000,22.3160070000 114.1814180000,22.3157250000 114.1814820000,22.3154930000 114.1814990000,22.3154310000 114.1815420000,22.3152660000 114.1815610000,22.3150650000 114.1815820000,22.3149390000 114.1816700000,22.3146000000 114.1816840000,22.3145400000 114.1815620000,22.3145250000 114.1814030000,22.3145010000 114.1810480000,22.3144310000 114.1808910000,22.3144290000 114.1807450000,22.3144720000 114.1806420000,22.3145150000 114.1805500000,22.3145850000 114.1802620000,22.3149280000 114.1801560000,22.3150450000 114.1800750000,22.3151500000 114.1798300000,22.3154530000 114.1796050000,22.3157350000 114.1793780000,22.3158750000 114.1792420000,22.3159060000 114.1790120000,22.3158990000 114.1788830000,22.3158610000 114.1787620000,22.3158120000 114.1781860000,22.3153820000 114.1781280000,22.3153000000 114.1781250000,22.3152950000 114.1780920000,22.3152480000 114.1780260000,22.3151330000 114.1780020000,22.3150760000 114.1779760000,22.3150150000 114.1779640000,22.3149560000 114.1778470000,22.3149760000 114.1775450000,22.3150290000 114.1774380000,22.3150270000 114.1773830000,22.3150070000 114.1773440000,22.3149920000 114.1772910000,22.3149530000 114.1772330000,22.3148730000 114.1770630000,22.3139380000 114.1769150000,22.3131280000 114.1768650000,22.3128560000 114.1768370000,22.3127060000 114.1768310000,22.3125380000 114.1768250000,22.3123970000 114.1768410000,22.3122680000 114.1768950000,22.3120730000 114.1769070000,22.3120380000 114.1769380000,22.3119700000 114.1769820000,22.3119000000 114.1770830000,22.3117760000 114.1771870000,22.3116480000 114.1775890000,22.3112340000 114.1777210000,22.3110810000 114.1777990000,22.3109680000 114.1778720000,22.3108620000 114.1780290000,22.3106120000 114.1781720000,22.3103920000 114.1783190000,22.3101550000 114.1783980000,22.3100270000 114.1786940000,22.3095310000 114.1788740000,22.3092720000 114.1789220000,22.3091900000 114.1789900000,22.3090770000 114.1790480000,22.3089950000 114.1791270000,22.3088840000 114.1792070000,22.3087590000 114.1793480000,22.3085360000 114.1798750000,22.3077350000 114.1801110000,22.3074550000 114.1803940000,22.3071640000 114.1804360000,22.3071340000 114.1804970000,22.3070880000 114.1805860000,22.3070260000 114.1807290000,22.3068940000 114.1808620000,22.3067720000 114.1810730000,22.3065680000 114.1812630000,22.3063860000 114.1813080000,22.3063380000 114.1813610000,22.3062810000 114.1814090000,22.3062230000 114.1814490000,22.3061710000 114.1814840000,22.3061160000 114.1815140000,22.3060580000 114.1815420000,22.3059900000 114.1815670000,22.3059130000 114.1815920000,22.3058110000 114.1816060000,22.3056980000 114.1816080000,22.3055890000 114.1816010000,22.3054770000 114.1815650000,22.3052920000 114.1815260000,22.3051840000 114.1814670000,22.3050200000 114.1814080000,22.3048800000 114.1812890000,22.3045890000 114.1812230000,22.3044290000 114.1811770000,22.3043200000 114.1810530000,22.3040210000 114.1809930000,22.3038730000 114.1809360000,22.3037350000 114.1808900000,22.3036240000 114.1808400000,22.3035040000 114.1807830000,22.3033620000 114.1807300000,22.3032180000 114.1806440000,22.3029870000 114.1806030000,22.3028740000 114.1805500000,22.3027100000 114.1805070000,22.3025540000 114.1804750000,22.3024230000 114.1804530000,22.3023080000 114.1804350000,22.3021960000 114.1804260000,22.3021210000 114.1804160000,22.3020450000 114.1804020000,22.3018950000 114.1803980000,22.3017820000 114.1803990000,22.3016660000 114.1804090000,22.3015520000 114.1804320000,22.3013570000 114.1804590000,22.3011640000 114.1804730000,22.3010600000 114.1804850000,22.3009530000 114.1805300000,22.3006570000 114.1805970000,22.3003290000 114.1806470000,22.3000300000 114.1806970000,22.2997190000 114.1808220000,22.2989630000 114.1831870000,22.2846590000 114.1831980000,22.2843750000 114.1831770000,22.2841610000 114.1831280000,22.2839770000 114.1830550000,22.2838110000 114.1829730000,22.2836590000 114.1829470000,22.2836110000 114.1827730000,22.2833600000 114.1825870000,22.2831320000 114.1824230000,22.2829760000 114.1823130000,22.2828680000 114.1822550000,22.2828120000 114.1821940000,22.2827520000 114.1821280000,22.2826880000 114.1819500000,22.2825150000 114.1819420000,22.2824480000 114.1819340000,22.2823960000 114.1819310000,22.2823660000 114.1819280000,22.2823360000 114.1819270000,22.2823030000 114.1819350000,22.2822500000 114.1819500000,22.2822000000 114.1819740000,22.2821500000 114.1820100000,22.2821000000 114.1820560000,22.2820570000 114.1821100000,22.2820250000 114.1821600000,22.2820070000 114.1822100000,22.2819980000 114.1822600000,22.2819970000 114.1823100000,22.2820000000 114.1826170000,22.2820720000 114.1826950000,22.2820640000 114.1827980000,22.2820550000 114.1829230000,22.2820710000 114.1830180000,22.2821070000 114.1831550000,22.2821590000 114.1833640000,22.2822340000 114.1835080000,22.2822920000 114.1835630000,22.2823140000 114.1838660000,22.2824360000 114.1840860000,22.2825590000 114.1842650000,22.2826710000 114.1844800000,22.2828210000 114.1845330000,22.2828740000 114.1846660000,22.2830090000 114.1849700000,22.2832450000 114.1852740000,22.2834880000 114.1855820000,22.2837280000 114.1856950000,22.2837910000 114.1857960000,22.2838410000 114.1859320000,22.2838970000 114.1860540000,22.2839410000 114.1861730000,22.2839750000 114.1862920000,22.2840060000 114.1864260000,22.2840350000 114.1864880000,22.2840470000 114.1866930000,22.2840500000 114.1867750000,22.2840620000 114.1869530000,22.2841100000 114.1871010000,22.2841500000 114.1876080000,22.2842870000 114.1877600000,22.2843330000 114.1878710000,22.2843690000 114.1879750000,22.2844070000 114.1880870000,22.2844520000 114.1882060000,22.2845030000 114.1883220000,22.2845600000 114.1884160000,22.2846110000 114.1885120000,22.2846740000 114.1886060000,22.2847470000 114.1886940000,22.2848230000 114.1887610000,22.2848880000 114.1888380000,22.2849770000 114.1889120000,22.2850790000 114.1889710000,22.2851710000 114.1890180000,22.2852520000 114.1890540000,22.2853340000 114.1890910000,22.2854260000 114.1891200000,22.2855190000 114.1891440000,22.2856130000 114.1891730000,22.2857430000 114.1891900000,22.2858510000 114.1892000000,22.2859350000 114.1892080000,22.2860240000 114.1892130000,22.2861140000 114.1892260000,22.2864900000 114.1892310000,22.2865770000 114.1892390000,22.2866600000 114.1892520000,22.2867540000 114.1892640000,22.2868280000 114.1892800000,22.2869010000 114.1892930000,22.2869560000 114.1893120000,22.2870220000 114.1893520000,22.2871420000 114.1893760000,22.2872080000 114.1894130000,22.2872940000 114.1894620000,22.2874010000 114.1895110000,22.2875030000 114.1896410000,22.2877610000 114.1897480000,22.2879730000 114.1897680000,22.2880120000 114.1899050000,22.2882920000 114.1900860000,22.2886490000 114.1902500000,22.2889500000 114.1903820000,22.2891680000 114.1904500000,22.2892800000 114.1905550000,22.2894300000 114.1905900000,22.2894800000 114.1907500000,22.2896800000 114.1910500000,22.2900000000 114.1913660000,22.2902870000 114.1921570000,22.2909910000 114.1923870000,22.2911680000 114.1924300000,22.2912020000 114.1925570000,22.2913050000 114.1926230000,22.2913590000 114.1926890000,22.2914090000 114.1928130000,22.2914980000 114.1930120000,22.2916410000 114.1930980000,22.2917060000 114.1931220000,22.2917220000 114.1931500000,22.2917410000 114.1931790000,22.2917610000 114.1933530000,22.2918870000 114.1934530000,22.2919710000 114.1935380000,22.2920420000 114.1935600000,22.2920570000 114.1935890000,22.2920770000 114.1936150000,22.2920950000 114.1937360000,22.2921760000 114.1938530000,22.2922540000 114.1939710000,22.2923350000 114.1942000000,22.2924760000 114.1942290000,22.2924940000 114.1943770000,22.2925660000 114.1944670000,22.2926100000 114.1946230000,22.2926870000 114.1946890000,22.2927190000 114.1947490000,22.2927490000 114.1949190000,22.2928180000 114.1950130000,22.2928550000 114.1951890000,22.2929160000 114.1952860000,22.2929460000 114.1954310000,22.2929870000 114.1955320000,22.2930090000 114.1956910000,22.2930430000 114.1958170000,22.2930670000 114.1960670000,22.2931130000 114.1961620000,22.2931270000 114.1963610000,22.2931600000 114.1964840000,22.2931820000 114.1966050000,22.2932070000 114.1967740000,22.2932440000 114.1968570000,22.2932610000 114.1971240000,22.2933140000 114.1979380000,22.2934830000 114.1980630000,22.2935070000 114.1981920000,22.2935260000 114.1984040000,22.2935500000 114.1985630000,22.2935620000 114.1987190000,22.2935680000 114.1989060000,22.2935720000 114.1992000000,22.2935690000 114.1994040000,22.2935740000 114.1995900000,22.2935850000 114.1997700000,22.2936020000 114.1999500000,22.2936270000 114.2001000000,22.2936520000 114.2004940000,22.2937360000 114.2005620000,22.2937500000 114.2013180000,22.2939100000 114.2015380000,22.2939610000 114.2018510000,22.2940330000 114.2020960000,22.2940870000 114.2021880000,22.2941020000 114.2025300000,22.2941540000 114.2026050000,22.2941710000 114.2028680000,22.2942240000 114.2031620000,22.2942590000 114.2034130000,22.2942700000 114.2035000000,22.2942730000 114.2037630000,22.2942770000 114.2039330000,22.2942720000 114.2040330000,22.2942680000 114.2042530000,22.2942480000 114.2045700000,22.2942130000 114.2047400000,22.2941890000 114.2049790000,22.2941720000 114.2050480000,22.2941670000 114.2052070000,22.2941560000 114.2052900000,22.2941450000 114.2057090000,22.2940920000 114.2058390000,22.2940690000 114.2059740000,22.2940410000 114.2061450000,22.2940000000 114.2063050000,22.2939520000 114.2064890000,22.2938890000 114.2073080000,22.2935620000 114.2075320000,22.2934770000 114.2077810000,22.2933920000 114.2082330000,22.2932500000 114.2085090000,22.2931560000 114.2087820000,22.2930640000 114.2089400000,22.2930070000 114.2090780000,22.2929240000 114.2092580000,22.2928120000 114.2094910000,22.2926640000 114.2097870000,22.2924670000 114.2103300000,22.2920690000 114.2107360000,22.2917730000 114.2110800000,22.2915210000 114.2112770000,22.2913910000 114.2114890000,22.2912520000 114.2115750000,22.2911980000 114.2117400000,22.2910950000 114.2120130000,22.2909330000 114.2121350000,22.2908620000 114.2122140000,22.2908150000 114.2122920000,22.2907670000 114.2124160000,22.2906960000 114.2125630000,22.2906120000 114.2128380000,22.2904560000 114.2130110000,22.2903960000 114.2131490000,22.2903480000 114.2132210000,22.2903240000 114.2132900000,22.2903010000 114.2133910000,22.2902620000 114.2136010000,22.2901930000 114.2137590000,22.2901410000 114.2141980000,22.2900120000 114.2152080000,22.2897610000 114.2154240000,22.2897280000 114.2159460000,22.2896540000 114.2160260000,22.2896450000 114.2161080000,22.2896380000 114.2162670000,22.2896280000 114.2166020000,22.2896030000 114.2170400000,22.2895700000 114.2171000000,22.2895620000 114.2171530000,22.2895500000 114.2172130000,22.2895330000 114.2172700000,22.2895140000 114.2173290000,22.2894890000 114.2173810000,22.2894610000 114.2174300000,22.2894300000 114.2175000000,22.2893800000 114.2175550000,22.2893300000 114.2176300000,22.2892450000 114.2176690000,22.2891890000 114.2177020000,22.2891300000 114.2177250000,22.2890800000 114.2177500000,22.2890170000 114.2177690000,22.2889300000 114.2177780000,22.2888600000 114.2177800000,22.2887800000 114.2177700000,22.2886800000 114.2177600000,22.2886300000 114.2177370000,22.2885600000 114.2175500000,22.2881700000 114.2175170000,22.2880910000 114.2174800000,22.2880000000 114.2174590000,22.2879490000 114.2174350000,22.2878720000 114.2173790000,22.2877600000 114.2173660000,22.2876510000 114.2173680000,22.2875890000 114.2173800000,22.2875460000 114.2173920000,22.2874990000 114.2174100000,22.2874690000 114.2174320000,22.2874290000 114.2174970000,22.2873740000 114.2176570000,22.2873410000 114.2179050000,22.2873370000 114.2181070000,22.2873370000 114.2182350000,22.2873320000 114.2182700000,22.2873310000 114.2183340000,22.2873280000 114.2184010000,22.2873250000 114.2184840000,22.2873100000 114.2185470000,22.2873110000 114.2185970000,22.2873110000 114.2190420000,22.2873100000 114.2191380000,22.2873100000 114.2192960000,22.2873100000 114.2194000000,22.2873130000 114.2195030000,22.2873120000 114.2196070000,22.2873130000 114.2197320000,22.2873160000 114.2198100000,22.2872940000 114.2198610000,22.2872740000 114.2199090000,22.2872440000 114.2199600000,22.2872010000 114.2200110000,22.2871370000 114.2200130000,22.2868910000 114.2200120000,22.2865350000 114.2200110000,22.2863590000 114.2200110000,22.2862790000 114.2200570000,22.2862150000 114.2200900000,22.2861960000 114.2202180000,22.2861820000 114.2202670000,22.2861820000 114.2203900000,22.2861820000 114.2205180000,22.2861800000 114.2205900000,22.2861730000 114.2206530000,22.2861540000 114.2207130000,22.2861120000 114.2207620000,22.2860600000 114.2207910000,22.2859980000 114.2208070000,22.2859380000 114.2208290000,22.2858090000 114.2208640000,22.2854750000 114.2208860000,22.2853770000 114.2208840000,22.2852970000 114.2208760000,22.2852260000 114.2208620000,22.2851730000 114.2208430000,22.2851320000 114.2208140000,22.2850660000 114.2207850000,22.2850220000 114.2207500000,22.2849790000 114.2206980000,22.2849220000 114.2206400000,22.2848690000 114.2204410000,22.2847260000 114.2202330000,22.2845770000 114.2202180000,22.2845660000 114.2201230000,22.2844980000 114.2202410000,22.2843540000 114.2206620000,22.2838130000 114.2209860000,22.2834030000 114.2212450000,22.2830700000 114.2213170000,22.2829780000 114.2213770000,22.2830200000 114.2215850000,22.2831620000 114.2216600000,22.2832130000 114.2218290000,22.2833290000 114.2218720000,22.2833580000 114.2219410000,22.2834050000 114.2219920000,22.2834400000 114.2220730000,22.2834370000 114.2221090000,22.2834310000 114.2221420000,22.2834160000 114.2221540000,22.2834040000 114.2221700000,22.2833910000 114.2221820000,22.2833740000 114.2222390000,22.2833020000 114.2223100000,22.2832170000 114.2226330000,22.2828100000 114.2226580000,22.2827760000 114.2226740000,22.2827410000 114.2226800000,22.2826990000 114.2226780000,22.2826860000 114.2226750000,22.2826710000 114.2226670000,22.2826480000 114.2226230000,22.2825280000 114.2225770000,22.2824960000 114.2224410000,22.2823990000 114.2223970000,22.2823670000 114.2222020000,22.2822340000 114.2220900000,22.2821170000 114.2220320000,22.2820670000 114.2219660000,22.2820180000 114.2219480000,22.2820030000 114.2219190000,22.2819810000 114.2218830000,22.2819540000 114.2218190000,22.2819120000 114.2215430000,22.2817240000 114.2214800000,22.2816820000 114.2212590000,22.2815320000 114.2208440000,22.2812560000 114.2207680000,22.2812020000 114.2207070000,22.2811590000 114.2206690000,22.2811300000 114.2206400000,22.2811040000 114.2206160000,22.2810750000 114.2206070000,22.2810490000 114.2206050000,22.2810190000 114.2206100000,22.2809900000 114.2206200000,22.2809640000 114.2206380000,22.2809290000 114.2206600000,22.2808940000 114.2206850000,22.2808590000 114.2207790000,22.2807370000 114.2208180000,22.2806790000 114.2208710000,22.2805850000 114.2209090000,22.2805070000 114.2209290000,22.2804550000 114.2209440000,22.2804090000 114.2209540000,22.2803530000 114.2209600000,22.2803000000 114.2209570000,22.2802290000 114.2209330000,22.2801380000 114.2209170000,22.2800980000 114.2208980000,22.2800600000 114.2208780000,22.2800280000 114.2208550000,22.2799970000 114.2208280000,22.2799670000 114.2207980000,22.2799350000 114.2207610000,22.2799030000 114.2207200000,22.2798740000 114.2206840000,22.2798540000 114.2206420000,22.2798350000 114.2206000000,22.2798190000 114.2205520000,22.2798050000 114.2205030000,22.2797940000 114.2204530000,22.2797870000 114.2204030000,22.2797840000 114.2203520000,22.2797880000 114.2203000000,22.2797980000 114.2202000000,22.2798300000 114.2201000000,22.2798820000 114.2200700000,22.2799000000 114.2199780000,22.2799980000 114.2198990000,22.2801000000 114.2198400000,22.2802000000 114.2197800000,22.2803000000 114.2197500000,22.2803760000 114.2197400000,22.2804000000 114.2196900000,22.2805000000 114.2196300000,22.2806000000 114.2195600000,22.2807000000 114.2194700000,22.2808000000 114.2193920000,22.2808610000 114.2193130000,22.2809060000 114.2192630000,22.2809340000 114.2192280000,22.2809880000 114.2191860000,22.2810020000 114.2191210000,22.2810220000 114.2190470000,22.2810450000 114.2189690000,22.2810600000 114.2188920000,22.2810690000 114.2188400000,22.2810700000 114.2187970000,22.2810670000 114.2187490000,22.2810610000 114.2186840000,22.2810500000 114.2185300000,22.2810020000 114.2184760000,22.2809830000 114.2184190000,22.2809590000 114.2183540000,22.2809270000 114.2182870000,22.2808860000 114.2182200000,22.2808370000 114.2181690000,22.2807920000 114.2180850000,22.2806910000 114.2180420000,22.2806250000 114.2180050000,22.2805570000 114.2179740000,22.2804870000 114.2179500000,22.2804150000 114.2179350000,22.2803440000 114.2179250000,22.2802730000 114.2179210000,22.2801940000 114.2179240000,22.2801330000 114.2179350000,22.2800510000 114.2179550000,22.2799640000 114.2179850000,22.2798820000 114.2180100000,22.2798320000 114.2180390000,22.2797840000 114.2180700000,22.2797380000 114.2183880000,22.2792620000 114.2184290000,22.2792050000 114.2184740000,22.2791510000 114.2185130000,22.2791120000 114.2185580000,22.2790720000 114.2186260000,22.2790230000 114.2187030000,22.2789800000 114.2187800000,22.2789440000 114.2188480000,22.2789220000 114.2189190000,22.2789040000 114.2190050000,22.2788900000 114.2190800000,22.2788840000 114.2191630000,22.2788820000 114.2192350000,22.2788840000 114.2193150000,22.2788900000 114.2200670000,22.2789840000 114.2201640000,22.2789990000 114.2202670000,22.2790240000 114.2203930000,22.2790630000 114.2205760000,22.2791210000 114.2207330000,22.2791700000 114.2210200000,22.2792610000 114.2211010000,22.2792810000 114.2211810000,22.2792970000 114.2212660000,22.2793050000 114.2213570000,22.2793070000 114.2214500000,22.2793030000 114.2215490000,22.2792900000 114.2216490000,22.2792680000 114.2217470000,22.2792410000 114.2218680000,22.2791960000 114.2219900000,22.2791410000 114.2221050000,22.2790740000 114.2222170000,22.2789970000 114.2223140000,22.2789120000 114.2223960000,22.2788260000 114.2224680000,22.2787440000 114.2225580000,22.2786280000 114.2225930000,22.2785830000 114.2226920000,22.2784520000 114.2228310000,22.2782670000 114.2229610000,22.2780950000 114.2232270000,22.2777400000 114.2234000000,22.2775100000 114.2235780000,22.2772730000 114.2237760000,22.2770100000 114.2239530000,22.2767740000 114.2240730000,22.2766150000 114.2245270000,22.2760110000 114.2245940000,22.2759270000 114.2246690000,22.2758460000 114.2247870000,22.2757420000 114.2248670000,22.2756830000 114.2249450000,22.2756330000 114.2250690000,22.2755830000 114.2251990000,22.2755470000 114.2253340000,22.2755260000 114.2254690000,22.2755210000 114.2256050000,22.2755320000 114.2257380000,22.2755580000 114.2258660000,22.2755990000 114.2259880000,22.2756550000 114.2262120000,22.2758010000 114.2262500000,22.2758360000 114.2263220000,22.2759040000 114.2264020000,22.2759880000 114.2264660000,22.2760840000 114.2265120000,22.2761880000 114.2265380000,22.2762970000 114.2265450000,22.2764090000 114.2265310000,22.2765210000 114.2264970000,22.2766290000 114.2264440000,22.2767300000 114.2261350000,22.2772840000 114.2258150000,22.2778840000 114.2264770000,22.2782310000 114.2265440000,22.2782660000 114.2265870000,22.2782860000 114.2266080000,22.2782970000 114.2266320000,22.2783090000 114.2268930000,22.2778750000 114.2269840000,22.2777290000 114.2270500000,22.2776460000 114.2271230000,22.2775830000 114.2271790000,22.2775490000 114.2280260000,22.2771020000 114.2282110000,22.2770180000 114.2283010000,22.2774100000 114.2283630000,22.2776890000 114.2283800000,22.2777640000 114.2284600000,22.2781250000 114.2285230000,22.2785590000 114.2285270000,22.2785860000 114.2285440000,22.2786080000 114.2285680000,22.2786210000 114.2285910000,22.2786250000 114.2286670000,22.2786110000 114.2286960000,22.2786050000 114.2293950000,22.2784670000 114.2294480000,22.2784680000 114.2294940000,22.2784750000 114.2295370000,22.2784940000 114.2295710000,22.2785230000 114.2295890000,22.2785510000 114.2295950000,22.2785610000 114.2296120000,22.2786150000 114.2295850000,22.2787370000 114.2295290000,22.2789140000 114.2295080000,22.2789760000 114.2294920000,22.2790300000 114.2294060000,22.2791840000 114.2293970000,22.2792240000 114.2293570000,22.2794130000 114.2292300000,22.2795300000 114.2291820000,22.2795590000 114.2291560000,22.2795740000 114.2291300000,22.2795900000 114.2284740000,22.2795940000 114.2284150000,22.2795950000 114.2283740000,22.2795950000 114.2282210000,22.2796040000 114.2281310000,22.2796040000 114.2281300000,22.2796800000 114.2281300000,22.2798400000 114.2281300000,22.2803200000 114.2281300000,22.2809750000 114.2281300000,22.2814700000 114.2281300000,22.2819650000 114.2281300000,22.2821700000 114.2281500000,22.2823000000 114.2281500000,22.2824000000 114.2281500000,22.2826000000 114.2281490000,22.2826480000 114.2281410000,22.2826810000 114.2281240000,22.2827150000 114.2280980000,22.2827470000 114.2280720000,22.2827710000 114.2280340000,22.2827940000 114.2279780000,22.2828110000 114.2279000000,22.2828140000 114.2276070000,22.2828140000 114.2271400000,22.2828140000 114.2270100000,22.2828140000 114.2269200000,22.2828140000 114.2267100000,22.2828140000 114.2265340000,22.2828140000 114.2263400000,22.2828140000 114.2262630000,22.2828200000 114.2261950000,22.2828360000 114.2261230000,22.2828650000 114.2260540000,22.2829170000 114.2259270000,22.2830390000 114.2255720000,22.2833790000 114.2253850000,22.2835570000 114.2247400000,22.2841560000 114.2246700000,22.2842220000 114.2246000000,22.2842870000 114.2245470000,22.2843370000 114.2237840000,22.2850610000 114.2240400000,22.2853030000 114.2241030000,22.2853620000 114.2241900000,22.2854430000 114.2242630000,22.2855100000 114.2242980000,22.2854780000 114.2243400000,22.2854420000 114.2246970000,22.2851120000</coordinates>
                </LineString>
                <ExtendedData>
                    <Data name="length">
                        <value>44607.471736816326</value>
                    </Data>
                    <Data name="duration">
                        <value>01:03:00</value>
                    </Data>
                </ExtendedData>
            </Placemark>
        </Document>
    </Document>
</kml>