<?xml version="1.0" encoding="UTF-8"?>
<kml xmlns="http://www.opengis.net/kml/2.2" xmlns:gx="http://www.google.com/kml/ext/2.2">
    <Document>
        <name>Route</name>
        <Folder>
            <name>Route Request</name>
            <Placemark>
                <address>Jubilee Battery, Victoria Road, Mount Davis, Central and Western District, Hong Kong Island, Hong Kong, China</address>
                <Point>
                    <coordinates>114.1167372502,22.2747266876</coordinates>
                </Point>
                <ExtendedData>
                    <Data name="city_district">
                        <value>Central and Western District</value>
                    </Data>
                    <Data name="city">
                        <value>Hong Kong Island</value>
                    </Data>
                    <Data name="state">
                        <value>Hong Kong</value>
                    </Data>
                    <Data name="country_code">
                        <value>cn</value>
                    </Data>
                    <Data name="suburb">
                        <value>Mount Davis</value>
                    </Data>
                    <Data name="country">
                        <value>China</value>
                    </Data>
                    <Data name="road">
                        <value>Victoria Road</value>
                    </Data>
                    <Data name="ISO3166-2-lvl3">
                        <value>CN-HK</value>
                    </Data>
                    <Data name="historic">
                        <value>Jubilee Battery</value>
                    </Data>
                </ExtendedData>
            </Placemark>
            <Placemark>
                <address>Ka Yue Building, 63-65, Des Voeux Road West, Tai Ping Shan, Sheung Wan, Central and Western District, Hong Kong Island, Hong Kong, China</address>
                <Point>
                    <coordinates>114.1463113166,22.2878350729</coordinates>
                </Point>
                <ExtendedData>
                    <Data name="city_district">
                        <value>Central and Western District</value>
                    </Data>
                    <Data name="house_number">
                        <value>63-65</value>
                    </Data>
                    <Data name="city">
                        <value>Hong Kong Island</value>
                    </Data>
                    <Data name="state">
                        <value>Hong Kong</value>
                    </Data>
                    <Data name="country_code">
                        <value>cn</value>
                    </Data>
                    <Data name="suburb">
                        <value>Sheung Wan</value>
                    </Data>
                    <Data name="country">
                        <value>China</value>
                    </Data>
                    <Data name="road">
                        <value>Des Voeux Road West</value>
                    </Data>
                    <Data name="ISO3166-2-lvl3">
                        <value>CN-HK</value>
                    </Data>
                    <Data name="building">
                        <value>Ka Yue Building</value>
                    </Data>
                    <Data name="neighbourhood">
                        <value>Tai Ping Shan</value>
                    </Data>
                </ExtendedData>
            </Placemark>
            <Placemark>
                <address>MacLehose Dental Centre, 286, Queen's Road East, Morrison Hill, Wan Chai, Wan Chai District, Hong Kong Island, Hong Kong, 000000, China</address>
                <Point>
                    <coordinates>114.1786454981,22.2749293828</coordinates>
                </Point>
                <ExtendedData>
                    <Data name="city_district">
                        <value>Wan Chai District</value>
                    </Data>
                    <Data name="house_number">
                        <value>286</value>
                    </Data>
                    <Data name="city">
                        <value>Hong Kong Island</value>
                    </Data>
                    <Data name="state">
                        <value>Hong Kong</value>
                    </Data>
                    <Data name="postcode">
                        <value>000000</value>
                    </Data>
                    <Data name="amenity">
                        <value>MacLehose Dental Centre</value>
                    </Data>
                    <Data name="country_code">
                        <value>cn</value>
                    </Data>
                    <Data name="quarter">
                        <value>Morrison Hill</value>
                    </Data>
                    <Data name="suburb">
                        <value>Wan Chai</value>
                    </Data>
                    <Data name="country">
                        <value>China</value>
                    </Data>
                    <Data name="road">
                        <value>Queen's Road East</value>
                    </Data>
                    <Data name="ISO3166-2-lvl3">
                        <value>CN-HK</value>
                    </Data>
                </ExtendedData>
            </Placemark>
            <Placemark>
                <address>1, East Point, Causeway Bay, Wan Chai District, Hong Kong Island, Hong Kong, 000000, China</address>
                <Point>
                    <coordinates>114.1816997598,22.2825894027</coordinates>
                </Point>
                <ExtendedData>
                    <Data name="city_district">
                        <value>Wan Chai District</value>
                    </Data>
                    <Data name="city">
                        <value>Hong Kong Island</value>
                    </Data>
                    <Data name="state">
                        <value>Hong Kong</value>
                    </Data>
                    <Data name="postcode">
                        <value>000000</value>
                    </Data>
                    <Data name="country_code">
                        <value>cn</value>
                    </Data>
                    <Data name="suburb">
                        <value>Causeway Bay</value>
                    </Data>
                    <Data name="country">
                        <value>China</value>
                    </Data>
                    <Data name="road">
                        <value>1</value>
                    </Data>
                    <Data name="ISO3166-2-lvl3">
                        <value>CN-HK</value>
                    </Data>
                    <Data name="neighbourhood">
                        <value>East Point</value>
                    </Data>
                </ExtendedData>
            </Placemark>
            <Placemark>
                <address>Tang King Po School, 16, Tin Kwong Road, Kau Pui Lung, Ho Man Tin, Kowloon City District, Kowloon, Hong Kong, 000000, China</address>
                <Point>
                    <coordinates>114.1850714298,22.3197289509</coordinates>
                </Point>
                <ExtendedData>
                    <Data name="city_district">
                        <value>Kowloon City District</value>
                    </Data>
                    <Data name="house_number">
                        <value>16</value>
                    </Data>
                    <Data name="city">
                        <value>Kowloon</value>
                    </Data>
                    <Data name="state">
                        <value>Hong Kong</value>
                    </Data>
                    <Data name="postcode">
                        <value>000000</value>
                    </Data>
                    <Data name="amenity">
                        <value>Tang King Po School</value>
                    </Data>
                    <Data name="country_code">
                        <value>cn</value>
                    </Data>
                    <Data name="suburb">
                        <value>Ho Man Tin</value>
                    </Data>
                    <Data name="country">
                        <value>China</value>
                    </Data>
                    <Data name="road">
                        <value>Tin Kwong Road</value>
                    </Data>
                    <Data name="ISO3166-2-lvl3">
                        <value>CN-HK</value>
                    </Data>
                    <Data name="neighbourhood">
                        <value>Kau Pui Lung</value>
                    </Data>
                </ExtendedData>
            </Placemark>
            <Placemark>
                <address>Kerry Hotel Hong Kong, Hung Luen Road, Tai Wan, Hung Hom, Kowloon City District, Kowloon, Hong Kong, 000000, China</address>
                <Point>
                    <coordinates>114.1889656336,22.3010046108</coordinates>
                </Point>
                <ExtendedData>
                    <Data name="city_district">
                        <value>Kowloon City District</value>
                    </Data>
                    <Data name="city">
                        <value>Kowloon</value>
                    </Data>
                    <Data name="state">
                        <value>Hong Kong</value>
                    </Data>
                    <Data name="postcode">
                        <value>000000</value>
                    </Data>
                    <Data name="country_code">
                        <value>cn</value>
                    </Data>
                    <Data name="suburb">
                        <value>Hung Hom</value>
                    </Data>
                    <Data name="country">
                        <value>China</value>
                    </Data>
                    <Data name="road">
                        <value>Hung Luen Road</value>
                    </Data>
                    <Data name="ISO3166-2-lvl3">
                        <value>CN-HK</value>
                    </Data>
                    <Data name="tourism">
                        <value>Kerry Hotel Hong Kong</value>
                    </Data>
                    <Data name="neighbourhood">
                        <value>Tai Wan</value>
                    </Data>
                </ExtendedData>
            </Placemark>
            <Placemark>
                <address>Ma Tau Wai Road, Tai Wan, Hung Hom, Kowloon City District, Kowloon, Hong Kong, 000000, China</address>
                <Point>
                    <coordinates>114.1873559430,22.3080199444</coordinates>
                </Point>
                <ExtendedData>
                    <Data name="city_district">
                        <value>Kowloon City District</value>
                    </Data>
                    <Data name="city">
                        <value>Kowloon</value>
                    </Data>
                    <Data name="state">
                        <value>Hong Kong</value>
                    </Data>
                    <Data name="postcode">
                        <value>000000</value>
                    </Data>
                    <Data name="country_code">
                        <value>cn</value>
                    </Data>
                    <Data name="suburb">
                        <value>Hung Hom</value>
                    </Data>
                    <Data name="country">
                        <value>China</value>
                    </Data>
                    <Data name="road">
                        <value>Ma Tau Wai Road</value>
                    </Data>
                    <Data name="ISO3166-2-lvl3">
                        <value>CN-HK</value>
                    </Data>
                    <Data name="neighbourhood">
                        <value>Tai Wan</value>
                    </Data>
                </ExtendedData>
            </Placemark>
            <Placemark>
                <address>St. Eugene De Mazenod Oblate Primary School, 24, Tin Kwong Road, Kau Pui Lung, Ma Tau Wai, Kowloon City District, Kowloon, Hong Kong, 000000, China</address>
                <Point>
                    <coordinates>114.1859821934,22.3199639648</coordinates>
                </Point>
                <ExtendedData>
                    <Data name="city_district">
                        <value>Kowloon City District</value>
                    </Data>
                    <Data name="house_number">
                        <value>24</value>
                    </Data>
                    <Data name="city">
                        <value>Kowloon</value>
                    </Data>
                    <Data name="state">
                        <value>Hong Kong</value>
                    </Data>
                    <Data name="postcode">
                        <value>000000</value>
                    </Data>
                    <Data name="amenity">
                        <value>St. Eugene De Mazenod Oblate Primary School</value>
                    </Data>
                    <Data name="country_code">
                        <value>cn</value>
                    </Data>
                    <Data name="suburb">
                        <value>Ma Tau Wai</value>
                    </Data>
                    <Data name="country">
                        <value>China</value>
                    </Data>
                    <Data name="road">
                        <value>Tin Kwong Road</value>
                    </Data>
                    <Data name="ISO3166-2-lvl3">
                        <value>CN-HK</value>
                    </Data>
                    <Data name="neighbourhood">
                        <value>Kau Pui Lung</value>
                    </Data>
                </ExtendedData>
            </Placemark>
            <Placemark>
                <address>Princess Margaret Road, Ho Man Tin Hill, Ho Man Tin, Kowloon City District, Kowloon, Hong Kong, 000000, China</address>
                <Point>
                    <coordinates>114.1773980952,22.3149853489</coordinates>
                </Point>
                <ExtendedData>
                    <Data name="city_district">
                        <value>Kowloon City District</value>
                    </Data>
                    <Data name="city">
                        <value>Kowloon</value>
                    </Data>
                    <Data name="state">
                        <value>Hong Kong</value>
                    </Data>
                    <Data name="postcode">
                        <value>000000</value>
                    </Data>
                    <Data name="country_code">
                        <value>cn</value>
                    </Data>
                    <Data name="suburb">
                        <value>Ho Man Tin</value>
                    </Data>
                    <Data name="country">
                        <value>China</value>
                    </Data>
                    <Data name="road">
                        <value>Princess Margaret Road</value>
                    </Data>
                    <Data name="ISO3166-2-lvl3">
                        <value>CN-HK</value>
                    </Data>
                    <Data name="neighbourhood">
                        <value>Ho Man Tin Hill</value>
                    </Data>
                </ExtendedData>
            </Placemark>
            <Placemark>
                <address>Queen's Road East, Wan Chai South, Wan Chai, Wan Chai District, Hong Kong Island, Hong Kong, China</address>
                <Point>
                    <coordinates>114.1740634088,22.2744431121</coordinates>
                </Point>
                <ExtendedData>
                    <Data name="city_district">
                        <value>Wan Chai District</value>
                    </Data>
                    <Data name="city">
                        <value>Hong Kong Island</value>
                    </Data>
                    <Data name="state">
                        <value>Hong Kong</value>
                    </Data>
                    <Data name="country_code">
                        <value>cn</value>
                    </Data>
                    <Data name="quarter">
                        <value>Wan Chai South</value>
                    </Data>
                    <Data name="suburb">
                        <value>Wan Chai</value>
                    </Data>
                    <Data name="country">
                        <value>China</value>
                    </Data>
                    <Data name="road">
                        <value>Queen's Road East</value>
                    </Data>
                    <Data name="ISO3166-2-lvl3">
                        <value>CN-HK</value>
                    </Data>
                </ExtendedData>
            </Placemark>
            <Placemark>
                <address>Jubilee Battery, Victoria Road, Mount Davis, Central and Western District, Hong Kong Island, Hong Kong, China</address>
                <Point>
                    <coordinates>114.1168001927,22.2747175775</coordinates>
                </Point>
                <ExtendedData>
                    <Data name="city_district">
                        <value>Central and Western District</value>
                    </Data>
                    <Data name="city">
                        <value>Hong Kong Island</value>
                    </Data>
                    <Data name="state">
                        <value>Hong Kong</value>
                    </Data>
                    <Data name="country_code">
                        <value>cn</value>
                    </Data>
                    <Data name="suburb">
                        <value>Mount Davis</value>
                    </Data>
                    <Data name="country">
                        <value>China</value>
                    </Data>
                    <Data name="road">
                        <value>Victoria Road</value>
                    </Data>
                    <Data name="ISO3166-2-lvl3">
                        <value>CN-HK</value>
                    </Data>
                    <Data name="historic">
                        <value>Jubilee Battery</value>
                    </Data>
                </ExtendedData>
            </Placemark>
        </Folder>
        <Document>
            <name>35.0 km; 00:51 h (OSRM)</name>
            <Placemark>
                <name>Route</name>
                <LineString>
                    <coordinates>114.1167990000,22.2747620000 114.1167070000,22.2749040000 114.1166380000,22.2750830000 114.1166160000,22.2752060000 114.1166210000,22.2753410000 114.1166800000,22.2754640000 114.1167170000,22.2755550000 114.1168140000,22.2756780000 114.1169320000,22.2758570000 114.1169820000,22.2762980000 114.1169280000,22.2768070000 114.1168130000,22.2772610000 114.1168790000,22.2775590000 114.1170190000,22.2777350000 114.1171040000,22.2777710000 114.1171250000,22.2777810000 114.1172230000,22.2778230000 114.1173610000,22.2778690000 114.1174140000,22.2779110000 114.1174680000,22.2779610000 114.1174990000,22.2780140000 114.1175450000,22.2781290000 114.1175770000,22.2782170000 114.1175920000,22.2782620000 114.1176260000,22.2782700000 114.1176520000,22.2782720000 114.1176670000,22.2783450000 114.1178570000,22.2790470000 114.1179630000,22.2794000000 114.1180130000,22.2795750000 114.1180820000,22.2797360000 114.1181390000,22.2798290000 114.1182280000,22.2799410000 114.1182860000,22.2799980000 114.1183660000,22.2800680000 114.1189700000,22.2805490000 114.1189910000,22.2805640000 114.1190260000,22.2805890000 114.1191030000,22.2806370000 114.1195070000,22.2808490000 114.1195860000,22.2808850000 114.1196750000,22.2809180000 114.1197580000,22.2809420000 114.1198730000,22.2809570000 114.1198870000,22.2809570000 114.1199480000,22.2809530000 114.1200380000,22.2809400000 114.1200770000,22.2809340000 114.1201870000,22.2809220000 114.1202550000,22.2809170000 114.1202970000,22.2809170000 114.1204300000,22.2809290000 114.1205000000,22.2809440000 114.1205690000,22.2809660000 114.1206520000,22.2810030000 114.1208030000,22.2810790000 114.1211150000,22.2812430000 114.1212310000,22.2812930000 114.1212530000,22.2813020000 114.1213780000,22.2813460000 114.1216200000,22.2814180000 114.1216300000,22.2814200000 114.1219360000,22.2815020000 114.1222630000,22.2815660000 114.1225410000,22.2816350000 114.1226650000,22.2816680000 114.1227510000,22.2816920000 114.1228780000,22.2817260000 114.1230010000,22.2817590000 114.1231190000,22.2817850000 114.1232330000,22.2818120000 114.1233260000,22.2818340000 114.1235150000,22.2818670000 114.1244040000,22.2820220000 114.1246630000,22.2820690000 114.1247550000,22.2820850000 114.1252720000,22.2821650000 114.1254140000,22.2821880000 114.1256030000,22.2822180000 114.1259310000,22.2822710000 114.1260040000,22.2823340000 114.1260410000,22.2823870000 114.1260500000,22.2824220000 114.1260450000,22.2824670000 114.1259710000,22.2828030000 114.1259470000,22.2829080000 114.1260270000,22.2829220000 114.1265380000,22.2830030000 114.1266020000,22.2830130000 114.1267500000,22.2830530000 114.1268260000,22.2830770000 114.1279170000,22.2832710000 114.1279450000,22.2832760000 114.1280620000,22.2832960000 114.1281420000,22.2833110000 114.1284830000,22.2833700000 114.1286130000,22.2833930000 114.1288280000,22.2834330000 114.1288470000,22.2834360000 114.1289220000,22.2834510000 114.1290370000,22.2834740000 114.1291660000,22.2834970000 114.1292560000,22.2835260000 114.1292990000,22.2835450000 114.1293240000,22.2835610000 114.1294720000,22.2836870000 114.1294970000,22.2837080000 114.1295940000,22.2838020000 114.1296550000,22.2838570000 114.1299210000,22.2841000000 114.1301010000,22.2842480000 114.1305780000,22.2846300000 114.1306400000,22.2846810000 114.1309020000,22.2848870000 114.1312600000,22.2851680000 114.1313460000,22.2852370000 114.1313680000,22.2852550000 114.1314290000,22.2853070000 114.1315330000,22.2853990000 114.1316110000,22.2854880000 114.1316670000,22.2855770000 114.1318710000,22.2859360000 114.1322340000,22.2866270000 114.1322960000,22.2867370000 114.1324090000,22.2869350000 114.1324240000,22.2869650000 114.1324770000,22.2870480000 114.1325300000,22.2871190000 114.1325890000,22.2871820000 114.1326490000,22.2872340000 114.1327140000,22.2872790000 114.1327860000,22.2873190000 114.1328580000,22.2873490000 114.1329470000,22.2873760000 114.1330370000,22.2873910000 114.1331150000,22.2873960000 114.1331820000,22.2873980000 114.1332480000,22.2873930000 114.1333270000,22.2873830000 114.1336790000,22.2873160000 114.1337030000,22.2873120000 114.1337840000,22.2872940000 114.1338000000,22.2872910000 114.1338780000,22.2872750000 114.1345940000,22.2871300000 114.1347110000,22.2871030000 114.1347410000,22.2870950000 114.1349660000,22.2870170000 114.1349890000,22.2870090000 114.1350970000,22.2869690000 114.1353030000,22.2869060000 114.1354480000,22.2868700000 114.1355090000,22.2868550000 114.1357450000,22.2868100000 114.1357790000,22.2868020000 114.1359970000,22.2867550000 114.1360770000,22.2867370000 114.1361140000,22.2867360000 114.1361580000,22.2867440000 114.1364240000,22.2868240000 114.1365090000,22.2868490000 114.1365380000,22.2868580000 114.1365510000,22.2868620000 114.1367810000,22.2869260000 114.1369960000,22.2869850000 114.1374180000,22.2871050000 114.1375140000,22.2871310000 114.1376110000,22.2871570000 114.1382790000,22.2873430000 114.1384740000,22.2873970000 114.1386770000,22.2874510000 114.1386980000,22.2874560000 114.1388050000,22.2874850000 114.1389140000,22.2875110000 114.1389410000,22.2875180000 114.1390400000,22.2875420000 114.1393260000,22.2876120000 114.1394070000,22.2876330000 114.1394490000,22.2876430000 114.1400520000,22.2878080000 114.1402960000,22.2878840000 114.1404120000,22.2879170000 114.1405540000,22.2879550000 114.1405850000,22.2879630000 114.1406440000,22.2879780000 114.1407040000,22.2879890000 114.1407350000,22.2879940000 114.1407810000,22.2880000000 114.1408280000,22.2880040000 114.1409090000,22.2880040000 114.1412500000,22.2879930000 114.1418750000,22.2879730000 114.1422510000,22.2879610000 114.1423360000,22.2879590000 114.1430030000,22.2879370000 114.1436650000,22.2879170000 114.1436840000,22.2879160000 114.1437740000,22.2879130000 114.1438640000,22.2879100000 114.1447620000,22.2878820000 114.1448540000,22.2878790000 114.1453350000,22.2878580000 114.1458390000,22.2878190000 114.1459200000,22.2878120000 114.1463050000,22.2877790000 114.1466000000,22.2877530000 114.1470370000,22.2877160000 114.1470760000,22.2877130000 114.1471310000,22.2877090000 114.1471510000,22.2877080000 114.1472420000,22.2877020000 114.1472720000,22.2877040000 114.1473050000,22.2877140000 114.1473420000,22.2877360000 114.1478030000,22.2880740000 114.1478900000,22.2881380000 114.1479530000,22.2881840000 114.1479960000,22.2882180000 114.1480730000,22.2883040000 114.1480890000,22.2883430000 114.1481370000,22.2884650000 114.1483350000,22.2884430000 114.1485520000,22.2884030000 114.1488350000,22.2883360000 114.1494260000,22.2881900000 114.1495090000,22.2881700000 114.1500860000,22.2880280000 114.1503900000,22.2879490000 114.1505430000,22.2879040000 114.1512830000,22.2876770000 114.1515710000,22.2875940000 114.1516850000,22.2875580000 114.1519040000,22.2874890000 114.1519860000,22.2874630000 114.1522920000,22.2873700000 114.1523810000,22.2873410000 114.1525100000,22.2873010000 114.1527610000,22.2872270000 114.1532200000,22.2870900000 114.1533330000,22.2870650000 114.1534050000,22.2870010000 114.1534330000,22.2869540000 114.1534450000,22.2868460000 114.1534140000,22.2867260000 114.1534100000,22.2867100000 114.1533970000,22.2866670000 114.1533460000,22.2864880000 114.1533370000,22.2864570000 114.1533300000,22.2864320000 114.1533190000,22.2863950000 114.1533070000,22.2863470000 114.1532980000,22.2862950000 114.1533470000,22.2862720000 114.1533950000,22.2862460000 114.1536090000,22.2861220000 114.1538310000,22.2859930000 114.1540740000,22.2858520000 114.1547170000,22.2854780000 114.1548210000,22.2854180000 114.1551100000,22.2852490000 114.1552520000,22.2851670000 114.1553130000,22.2851290000 114.1553650000,22.2850890000 114.1554490000,22.2850040000 114.1557010000,22.2846970000 114.1557210000,22.2846710000 114.1557800000,22.2846000000 114.1558320000,22.2845360000 114.1558520000,22.2845130000 114.1558890000,22.2844680000 114.1559300000,22.2844190000 114.1559920000,22.2843430000 114.1560220000,22.2843060000 114.1560450000,22.2842770000 114.1561130000,22.2841940000 114.1561510000,22.2841470000 114.1562840000,22.2839810000 114.1564810000,22.2837360000 114.1565030000,22.2837100000 114.1565300000,22.2836750000 114.1565550000,22.2836430000 114.1565820000,22.2836080000 114.1567600000,22.2833830000 114.1568590000,22.2832570000 114.1570290000,22.2830420000 114.1571430000,22.2828960000 114.1574510000,22.2825030000 114.1574890000,22.2824530000 114.1575660000,22.2823580000 114.1576590000,22.2822430000 114.1576780000,22.2822190000 114.1576940000,22.2822000000 114.1578280000,22.2820330000 114.1579440000,22.2819950000 114.1580810000,22.2819560000 114.1581520000,22.2819350000 114.1583830000,22.2818690000 114.1584100000,22.2818610000 114.1584940000,22.2818370000 114.1585230000,22.2818290000 114.1585450000,22.2818220000 114.1586800000,22.2817840000 114.1588020000,22.2817490000 114.1588690000,22.2817320000 114.1588900000,22.2817260000 114.1589800000,22.2817010000 114.1590740000,22.2816910000 114.1591530000,22.2816700000 114.1595070000,22.2815690000 114.1595440000,22.2815590000 114.1595940000,22.2815460000 114.1596490000,22.2815310000 114.1597490000,22.2815060000 114.1598080000,22.2815050000 114.1599740000,22.2814610000 114.1601270000,22.2814200000 114.1602600000,22.2813880000 114.1602980000,22.2813790000 114.1603590000,22.2813630000 114.1604530000,22.2813530000 114.1605890000,22.2813180000 114.1606310000,22.2813040000 114.1606770000,22.2812900000 114.1607050000,22.2812830000 114.1607420000,22.2812730000 114.1607960000,22.2812350000 114.1608520000,22.2812180000 114.1609520000,22.2811900000 114.1610490000,22.2811630000 114.1612430000,22.2811110000 114.1613660000,22.2810790000 114.1615170000,22.2810390000 114.1619060000,22.2809410000 114.1619460000,22.2809280000 114.1620010000,22.2808790000 114.1620420000,22.2807810000 114.1619590000,22.2806210000 114.1617930000,22.2800600000 114.1617640000,22.2799740000 114.1617610000,22.2799440000 114.1617670000,22.2798980000 114.1618210000,22.2798220000 114.1619180000,22.2797670000 114.1622910000,22.2796350000 114.1625660000,22.2795200000 114.1627940000,22.2794240000 114.1630800000,22.2792270000 114.1632720000,22.2790910000 114.1634860000,22.2789320000 114.1636320000,22.2788350000 114.1637480000,22.2787750000 114.1637880000,22.2787560000 114.1639140000,22.2786900000 114.1640790000,22.2786140000 114.1641980000,22.2785630000 114.1643650000,22.2784940000 114.1644550000,22.2784640000 114.1646060000,22.2784170000 114.1647480000,22.2783810000 114.1650100000,22.2783170000 114.1650660000,22.2783010000 114.1651810000,22.2782750000 114.1654420000,22.2782290000 114.1656290000,22.2782060000 114.1659150000,22.2781710000 114.1661510000,22.2781340000 114.1663180000,22.2781070000 114.1669630000,22.2780500000 114.1671340000,22.2780250000 114.1672900000,22.2779990000 114.1673230000,22.2779720000 114.1673730000,22.2779330000 114.1673980000,22.2779050000 114.1674650000,22.2778220000 114.1676070000,22.2777350000 114.1676380000,22.2777150000 114.1680270000,22.2774750000 114.1680410000,22.2774670000 114.1681050000,22.2774330000 114.1683290000,22.2772810000 114.1684790000,22.2771850000 114.1685820000,22.2771190000 114.1687350000,22.2770170000 114.1689060000,22.2769030000 114.1690390000,22.2768190000 114.1693520000,22.2766090000 114.1696130000,22.2764320000 114.1697480000,22.2763480000 114.1701250000,22.2760990000 114.1701900000,22.2760530000 114.1702410000,22.2760140000 114.1702840000,22.2759830000 114.1706320000,22.2757140000 114.1708500000,22.2755910000 114.1708620000,22.2755840000 114.1708970000,22.2755640000 114.1709480000,22.2755350000 114.1710690000,22.2754660000 114.1714090000,22.2752500000 114.1714240000,22.2752420000 114.1716660000,22.2751110000 114.1719840000,22.2749330000 114.1721910000,22.2748170000 114.1722380000,22.2747900000 114.1723140000,22.2747480000 114.1723550000,22.2747320000 114.1726110000,22.2746320000 114.1730880000,22.2745080000 114.1732120000,22.2744750000 114.1733120000,22.2744550000 114.1733950000,22.2744440000 114.1737370000,22.2744160000 114.1738470000,22.2744110000 114.1739120000,22.2744100000 114.1739610000,22.2744110000 114.1740020000,22.2744110000 114.1740350000,22.2744110000 114.1741330000,22.2744120000 114.1745510000,22.2744150000 114.1745890000,22.2744150000 114.1749890000,22.2744240000 114.1751480000,22.2744280000 114.1752540000,22.2744870000 114.1753310000,22.2745500000 114.1753510000,22.2745720000 114.1753820000,22.2746050000 114.1754450000,22.2746660000 114.1755620000,22.2747440000 114.1757010000,22.2748120000 114.1758250000,22.2748630000 114.1759530000,22.2748970000 114.1762470000,22.2749600000 114.1763650000,22.2749870000 114.1765830000,22.2750380000 114.1768430000,22.2750990000 114.1768670000,22.2751040000 114.1770440000,22.2751420000 114.1772340000,22.2751840000 114.1773340000,22.2752020000 114.1774210000,22.2752060000 114.1775700000,22.2751930000 114.1776950000,22.2751730000 114.1778280000,22.2751370000 114.1779130000,22.2751100000 114.1779800000,22.2750920000 114.1780690000,22.2750800000 114.1783460000,22.2749830000 114.1784960000,22.2749430000 114.1786370000,22.2749030000 114.1789400000,22.2748180000 114.1792420000,22.2747390000 114.1793470000,22.2747100000 114.1794340000,22.2746870000 114.1795040000,22.2748340000 114.1795550000,22.2749250000 114.1796460000,22.2750090000 114.1797910000,22.2751860000 114.1802850000,22.2756720000 114.1804270000,22.2758130000 114.1806800000,22.2761040000 114.1807440000,22.2761860000 114.1807750000,22.2762270000 114.1808840000,22.2763800000 114.1809130000,22.2764230000 114.1809770000,22.2765630000 114.1810110000,22.2766160000 114.1810460000,22.2766710000 114.1810590000,22.2767290000 114.1810760000,22.2768090000 114.1810840000,22.2768830000 114.1811080000,22.2771100000 114.1811200000,22.2775980000 114.1811380000,22.2777370000 114.1812100000,22.2789240000 114.1812170000,22.2790490000 114.1812190000,22.2791020000 114.1812180000,22.2791440000 114.1812080000,22.2791810000 114.1811860000,22.2792300000 114.1811830000,22.2792750000 114.1811590000,22.2794500000 114.1811140000,22.2795580000 114.1810910000,22.2796060000 114.1809900000,22.2798370000 114.1809620000,22.2799000000 114.1809190000,22.2799990000 114.1808410000,22.2801760000 114.1807490000,22.2803850000 114.1806940000,22.2805160000 114.1806350000,22.2806540000 114.1806010000,22.2807110000 114.1805830000,22.2807380000 114.1805630000,22.2807730000 114.1805510000,22.2808030000 114.1805240000,22.2808610000 114.1804410000,22.2809500000 114.1802070000,22.2811200000 114.1801760000,22.2811460000 114.1801350000,22.2811870000 114.1801030000,22.2812230000 114.1800750000,22.2812650000 114.1800440000,22.2813240000 114.1800140000,22.2814400000 114.1800220000,22.2815230000 114.1800300000,22.2815710000 114.1800420000,22.2816020000 114.1800800000,22.2816770000 114.1801350000,22.2817640000 114.1802160000,22.2818350000 114.1802810000,22.2818710000 114.1803390000,22.2818920000 114.1803840000,22.2819000000 114.1804270000,22.2819010000 114.1805030000,22.2818990000 114.1805430000,22.2818940000 114.1805860000,22.2818870000 114.1807040000,22.2818560000 114.1807530000,22.2818400000 114.1808000000,22.2818300000 114.1808500000,22.2818230000 114.1809000000,22.2818190000 114.1809500000,22.2818180000 114.1810000000,22.2818210000 114.1810500000,22.2818290000 114.1811000000,22.2818400000 114.1811500000,22.2818560000 114.1812010000,22.2818790000 114.1812510000,22.2819070000 114.1812900000,22.2819320000 114.1813250000,22.2819600000 114.1813440000,22.2819780000 114.1813640000,22.2820020000 114.1813830000,22.2820240000 114.1813970000,22.2820400000 114.1814300000,22.2820900000 114.1814550000,22.2821350000 114.1814860000,22.2821940000 114.1815000000,22.2822220000 114.1815200000,22.2822600000 114.1815590000,22.2823260000 114.1816080000,22.2823980000 114.1816510000,22.2824550000 114.1816980000,22.2825120000 114.1817390000,22.2825600000 114.1817390000,22.2825600000 114.1817780000,22.2826020000 114.1818050000,22.2826270000 114.1819810000,22.2827700000 114.1820490000,22.2828630000 114.1821240000,22.2829190000 114.1822060000,22.2829790000 114.1823110000,22.2830580000 114.1825200000,22.2832500000 114.1826800000,22.2834390000 114.1828320000,22.2836720000 114.1829370000,22.2838430000 114.1830020000,22.2839850000 114.1830590000,22.2841840000 114.1830780000,22.2844020000 114.1830720000,22.2846470000 114.1806980000,22.2989440000 114.1806730000,22.2990920000 114.1805720000,22.2997000000 114.1805210000,22.3000220000 114.1804640000,22.3003030000 114.1804000000,22.3006310000 114.1803430000,22.3009300000 114.1803200000,22.3010250000 114.1802890000,22.3011400000 114.1802140000,22.3014050000 114.1801790000,22.3015530000 114.1801530000,22.3016760000 114.1801400000,22.3017910000 114.1801360000,22.3018780000 114.1801380000,22.3019650000 114.1801460000,22.3020750000 114.1801540000,22.3021540000 114.1801620000,22.3022260000 114.1801920000,22.3024230000 114.1802050000,22.3024820000 114.1802330000,22.3025680000 114.1802730000,22.3026660000 114.1803180000,22.3027620000 114.1804000000,22.3029190000 114.1804680000,22.3030560000 114.1805290000,22.3031830000 114.1806650000,22.3034930000 114.1807410000,22.3036910000 114.1808830000,22.3040220000 114.1809580000,22.3042040000 114.1810410000,22.3044040000 114.1810810000,22.3045000000 114.1812550000,22.3049180000 114.1813230000,22.3050740000 114.1813360000,22.3051100000 114.1813800000,22.3052320000 114.1814070000,22.3053050000 114.1814280000,22.3053970000 114.1814380000,22.3054730000 114.1814440000,22.3055590000 114.1814390000,22.3056370000 114.1814300000,22.3057050000 114.1814090000,22.3057990000 114.1813920000,22.3058580000 114.1813690000,22.3059310000 114.1813510000,22.3059780000 114.1813150000,22.3060570000 114.1812740000,22.3061340000 114.1812300000,22.3062010000 114.1811750000,22.3062730000 114.1810960000,22.3063670000 114.1810260000,22.3064440000 114.1809730000,22.3064970000 114.1808990000,22.3065600000 114.1806580000,22.3067340000 114.1805550000,22.3067940000 114.1802390000,22.3069830000 114.1801530000,22.3070380000 114.1800590000,22.3071030000 114.1799460000,22.3071860000 114.1798500000,22.3072620000 114.1797640000,22.3073360000 114.1796870000,22.3074140000 114.1796030000,22.3075060000 114.1795300000,22.3075940000 114.1794420000,22.3077070000 114.1793680000,22.3078070000 114.1793140000,22.3079040000 114.1792590000,22.3080050000 114.1791840000,22.3081620000 114.1790810000,22.3084240000 114.1789920000,22.3086810000 114.1788840000,22.3089380000 114.1787570000,22.3091990000 114.1785440000,22.3095790000 114.1783110000,22.3099560000 114.1782110000,22.3101170000 114.1781210000,22.3102650000 114.1779240000,22.3105740000 114.1777900000,22.3107980000 114.1776410000,22.3110180000 114.1775100000,22.3111670000 114.1770530000,22.3116690000 114.1769260000,22.3118140000 114.1768250000,22.3119850000 114.1767820000,22.3120930000 114.1767430000,22.3122230000 114.1767280000,22.3123840000 114.1767280000,22.3125270000 114.1767410000,22.3126960000 114.1767540000,22.3128610000 114.1767860000,22.3130320000 114.1768080000,22.3131500000 114.1771200000,22.3149370000 114.1771440000,22.3150510000 114.1771530000,22.3150850000 114.1771660000,22.3151340000 114.1771710000,22.3151500000 114.1771820000,22.3151930000 114.1771890000,22.3152140000 114.1772200000,22.3153140000 114.1772410000,22.3153660000 114.1772710000,22.3154390000 114.1772890000,22.3154830000 114.1773890000,22.3156280000 114.1774170000,22.3156640000 114.1774830000,22.3157500000 114.1775830000,22.3158590000 114.1776360000,22.3159100000 114.1776910000,22.3159620000 114.1778580000,22.3161170000 114.1780290000,22.3163160000 114.1781060000,22.3164410000 114.1781780000,22.3166040000 114.1782100000,22.3166930000 114.1782590000,22.3168300000 114.1783210000,22.3170850000 114.1783310000,22.3171250000 114.1783600000,22.3172490000 114.1783680000,22.3172830000 114.1784120000,22.3174160000 114.1785350000,22.3176760000 114.1785630000,22.3178230000 114.1785680000,22.3178770000 114.1785630000,22.3179020000 114.1785480000,22.3179350000 114.1785330000,22.3179570000 114.1785120000,22.3179790000 114.1784870000,22.3179960000 114.1784630000,22.3180090000 114.1784270000,22.3180220000 114.1783880000,22.3180240000 114.1783660000,22.3180240000 114.1783430000,22.3180220000 114.1783190000,22.3180160000 114.1781570000,22.3179720000 114.1781220000,22.3179590000 114.1780860000,22.3179430000 114.1780580000,22.3179240000 114.1780300000,22.3179000000 114.1779890000,22.3178390000 114.1779300000,22.3177520000 114.1780020000,22.3177230000 114.1780950000,22.3176850000 114.1782430000,22.3176240000 114.1788350000,22.3173910000 114.1789540000,22.3173400000 114.1790380000,22.3173100000 114.1791140000,22.3172840000 114.1793810000,22.3171840000 114.1798070000,22.3170080000 114.1798770000,22.3171470000 114.1801700000,22.3177300000 114.1804970000,22.3182980000 114.1806550000,22.3185400000 114.1811550000,22.3193030000 114.1812070000,22.3193820000 114.1812950000,22.3194980000 114.1813900000,22.3195860000 114.1814980000,22.3196700000 114.1815870000,22.3197290000 114.1816770000,22.3197720000 114.1817620000,22.3198030000 114.1818520000,22.3198270000 114.1821530000,22.3198990000 114.1822660000,22.3199260000 114.1824760000,22.3199770000 114.1828540000,22.3200690000 114.1829440000,22.3200860000 114.1830150000,22.3200960000 114.1831580000,22.3201030000 114.1832230000,22.3201000000 114.1832880000,22.3200890000 114.1833570000,22.3200720000 114.1834450000,22.3200460000 114.1835260000,22.3200150000 114.1836050000,22.3199770000 114.1836760000,22.3199330000 114.1843140000,22.3194580000 114.1843850000,22.3194120000 114.1844440000,22.3193840000 114.1845130000,22.3193610000 114.1845840000,22.3193470000 114.1846470000,22.3193420000 114.1847190000,22.3193410000 114.1847930000,22.3193450000 114.1848470000,22.3193510000 114.1849000000,22.3193620000 114.1849450000,22.3193740000 114.1850090000,22.3193990000 114.1850660000,22.3194330000 114.1851270000,22.3194830000 114.1851790000,22.3195350000 114.1852400000,22.3196060000 114.1855590000,22.3199800000 114.1856430000,22.3200800000 114.1857690000,22.3200260000 114.1858720000,22.3200190000 114.1864100000,22.3200190000 114.1868750000,22.3200160000 114.1868970000,22.3200170000 114.1872300000,22.3200230000 114.1873420000,22.3200250000 114.1873990000,22.3200270000 114.1874390000,22.3200320000 114.1875120000,22.3200670000 114.1876410000,22.3201220000 114.1876410000,22.3200500000 114.1876450000,22.3199600000 114.1876310000,22.3195830000 114.1876250000,22.3193790000 114.1876240000,22.3193500000 114.1876240000,22.3192890000 114.1876220000,22.3190940000 114.1876180000,22.3184290000 114.1876160000,22.3180890000 114.1876240000,22.3180350000 114.1876430000,22.3179870000 114.1876460000,22.3177550000 114.1876480000,22.3176210000 114.1876490000,22.3174990000 114.1876500000,22.3174280000 114.1876410000,22.3164010000 114.1876430000,22.3163450000 114.1876690000,22.3161280000 114.1877020000,22.3159630000 114.1877280000,22.3158560000 114.1877410000,22.3158020000 114.1877540000,22.3157370000 114.1877990000,22.3157340000 114.1878460000,22.3157170000 114.1879440000,22.3156730000 114.1882640000,22.3155280000 114.1885400000,22.3153990000 114.1885760000,22.3153830000 114.1886580000,22.3153440000 114.1887510000,22.3152970000 114.1886630000,22.3152050000 114.1884860000,22.3150220000 114.1883320000,22.3148610000 114.1881760000,22.3146940000 114.1881070000,22.3146210000 114.1879850000,22.3144900000 114.1879130000,22.3144210000 114.1878130000,22.3143250000 114.1877820000,22.3142950000 114.1877600000,22.3142740000 114.1877180000,22.3142110000 114.1876980000,22.3141600000 114.1876790000,22.3140970000 114.1876700000,22.3140260000 114.1876700000,22.3135440000 114.1876680000,22.3134370000 114.1876830000,22.3126660000 114.1876910000,22.3124930000 114.1876920000,22.3124660000 114.1876970000,22.3123470000 114.1877000000,22.3122510000 114.1877040000,22.3121380000 114.1877050000,22.3120990000 114.1876990000,22.3120200000 114.1876410000,22.3118300000 114.1876390000,22.3117290000 114.1876380000,22.3116840000 114.1876360000,22.3116100000 114.1876340000,22.3115360000 114.1876340000,22.3115160000 114.1876320000,22.3114490000 114.1876320000,22.3114360000 114.1876310000,22.3114220000 114.1876280000,22.3112870000 114.1876250000,22.3111510000 114.1876250000,22.3107730000 114.1876230000,22.3107130000 114.1876210000,22.3106170000 114.1876190000,22.3104660000 114.1876190000,22.3104280000 114.1876140000,22.3100890000 114.1876130000,22.3099770000 114.1876100000,22.3098180000 114.1876100000,22.3098070000 114.1876080000,22.3096410000 114.1876070000,22.3095870000 114.1876030000,22.3093000000 114.1876500000,22.3091280000 114.1876490000,22.3090770000 114.1876490000,22.3090500000 114.1876480000,22.3090060000 114.1876460000,22.3089350000 114.1876450000,22.3088570000 114.1876410000,22.3086700000 114.1876390000,22.3085780000 114.1876370000,22.3084810000 114.1876340000,22.3084320000 114.1876300000,22.3083840000 114.1876190000,22.3082870000 114.1876020000,22.3081910000 114.1875860000,22.3081370000 114.1875660000,22.3080850000 114.1875460000,22.3080320000 114.1875200000,22.3079840000 114.1874930000,22.3079380000 114.1874580000,22.3078860000 114.1874240000,22.3078350000 114.1872680000,22.3076170000 114.1871230000,22.3074140000 114.1870690000,22.3073380000 114.1869480000,22.3071690000 114.1868800000,22.3070740000 114.1868510000,22.3070340000 114.1867870000,22.3069430000 114.1867000000,22.3068210000 114.1867410000,22.3067950000 114.1870340000,22.3066050000 114.1870650000,22.3065850000 114.1871610000,22.3065230000 114.1872560000,22.3064630000 114.1873020000,22.3064330000 114.1874730000,22.3063240000 114.1875610000,22.3062680000 114.1876850000,22.3061880000 114.1878320000,22.3060970000 114.1879860000,22.3060000000 114.1880000000,22.3059910000 114.1880420000,22.3059650000 114.1881140000,22.3059200000 114.1881870000,22.3058740000 114.1882340000,22.3058450000 114.1885100000,22.3056720000 114.1885690000,22.3056350000 114.1886140000,22.3056070000 114.1887060000,22.3055490000 114.1888160000,22.3054800000 114.1888740000,22.3054440000 114.1890120000,22.3053570000 114.1899420000,22.3047760000 114.1899680000,22.3047600000 114.1900650000,22.3046990000 114.1899750000,22.3045750000 114.1895890000,22.3040490000 114.1893920000,22.3037790000 114.1893660000,22.3037440000 114.1892980000,22.3036520000 114.1892420000,22.3035730000 114.1892140000,22.3035330000 114.1890560000,22.3033170000 114.1888990000,22.3031090000 114.1888190000,22.3029090000 114.1888030000,22.3028830000 114.1887830000,22.3027760000 114.1887690000,22.3026870000 114.1887590000,22.3026310000 114.1887510000,22.3025850000 114.1887380000,22.3025380000 114.1887280000,22.3023660000 114.1887070000,22.3022820000 114.1886780000,22.3021940000 114.1886520000,22.3021280000 114.1886240000,22.3020630000 114.1886570000,22.3020520000 114.1887240000,22.3020090000 114.1887500000,22.3019930000 114.1889180000,22.3018810000 114.1891460000,22.3017280000 114.1891570000,22.3017170000 114.1891610000,22.3017020000 114.1891590000,22.3016860000 114.1891490000,22.3016740000 114.1891340000,22.3016660000 114.1891170000,22.3016660000 114.1891020000,22.3016720000 114.1889430000,22.3017780000 114.1888890000,22.3017930000 114.1887650000,22.3014100000 114.1887570000,22.3013870000 114.1887430000,22.3013670000 114.1887240000,22.3013500000 114.1887240000,22.3013500000 114.1887010000,22.3013370000 114.1885030000,22.3012600000 114.1884790000,22.3012560000 114.1884550000,22.3012600000 114.1884330000,22.3012710000 114.1884160000,22.3012870000 114.1884050000,22.3013080000 114.1884020000,22.3013310000 114.1884070000,22.3013530000 114.1884480000,22.3014150000 114.1884670000,22.3014320000 114.1884900000,22.3014430000 114.1886640000,22.3015110000 114.1886970000,22.3015270000 114.1887250000,22.3015490000 114.1887420000,22.3015700000 114.1887540000,22.3015920000 114.1887620000,22.3016170000 114.1888240000,22.3018110000 114.1887920000,22.3018200000 114.1886750000,22.3018980000 114.1886550000,22.3019110000 114.1886290000,22.3019290000 114.1885700000,22.3019680000 114.1884700000,22.3020250000 114.1885020000,22.3020840000 114.1885350000,22.3021530000 114.1885860000,22.3022690000 114.1885910000,22.3024000000 114.1886320000,22.3024470000 114.1886320000,22.3024870000 114.1886200000,22.3025620000 114.1886000000,22.3026380000 114.1885740000,22.3027110000 114.1885560000,22.3027490000 114.1885370000,22.3027880000 114.1884810000,22.3028630000 114.1884360000,22.3029280000 114.1882800000,22.3031180000 114.1882330000,22.3031480000 114.1875230000,22.3036070000 114.1873030000,22.3037450000 114.1868610000,22.3040450000 114.1864780000,22.3043420000 114.1864440000,22.3043680000 114.1862700000,22.3045270000 114.1860450000,22.3046590000 114.1860290000,22.3046700000 114.1859910000,22.3046980000 114.1859220000,22.3047490000 114.1858370000,22.3048100000 114.1859470000,22.3048910000 114.1859840000,22.3049390000 114.1863390000,22.3054140000 114.1864050000,22.3055030000 114.1862910000,22.3055760000 114.1860020000,22.3057580000 114.1858420000,22.3058590000 114.1855540000,22.3060410000 114.1854800000,22.3060880000 114.1852110000,22.3062580000 114.1849230000,22.3064390000 114.1848740000,22.3064710000 114.1846350000,22.3066220000 114.1844820000,22.3067180000 114.1844460000,22.3067410000 114.1843500000,22.3068020000 114.1842420000,22.3068780000 114.1842920000,22.3069420000 114.1843660000,22.3070370000 114.1844290000,22.3071240000 114.1845630000,22.3073060000 114.1846990000,22.3074920000 114.1848440000,22.3076960000 114.1848850000,22.3077520000 114.1849860000,22.3078950000 114.1850610000,22.3078500000 114.1852100000,22.3077550000 114.1854610000,22.3075960000 114.1855980000,22.3075100000 114.1857240000,22.3074310000 114.1857490000,22.3074160000 114.1859000000,22.3073220000 114.1859740000,22.3072750000 114.1861110000,22.3071890000 114.1864450000,22.3069800000 114.1864640000,22.3069680000 114.1865800000,22.3069410000 114.1866110000,22.3069370000 114.1866410000,22.3069390000 114.1866710000,22.3069480000 114.1866970000,22.3069630000 114.1867570000,22.3070480000 114.1867790000,22.3070780000 114.1869080000,22.3072590000 114.1870700000,22.3074860000 114.1871760000,22.3076350000 114.1872590000,22.3077510000 114.1873500000,22.3078790000 114.1873840000,22.3079290000 114.1874170000,22.3079790000 114.1874220000,22.3079870000 114.1874430000,22.3080230000 114.1874650000,22.3080680000 114.1874830000,22.3081150000 114.1875000000,22.3081620000 114.1875140000,22.3082090000 114.1875300000,22.3082980000 114.1875410000,22.3083910000 114.1875470000,22.3084840000 114.1875510000,22.3085740000 114.1875550000,22.3086840000 114.1875560000,22.3087260000 114.1875580000,22.3088420000 114.1875600000,22.3089330000 114.1875630000,22.3090790000 114.1875640000,22.3091300000 114.1876030000,22.3093000000 114.1876070000,22.3095870000 114.1876080000,22.3096410000 114.1876100000,22.3098070000 114.1876100000,22.3098180000 114.1876130000,22.3099770000 114.1876140000,22.3100890000 114.1876190000,22.3104280000 114.1876190000,22.3104660000 114.1876210000,22.3106170000 114.1876230000,22.3107130000 114.1876250000,22.3107730000 114.1876250000,22.3111510000 114.1876280000,22.3112870000 114.1876310000,22.3114220000 114.1876320000,22.3114360000 114.1876320000,22.3114490000 114.1876340000,22.3115160000 114.1876340000,22.3115360000 114.1876360000,22.3116100000 114.1876380000,22.3116840000 114.1876390000,22.3117290000 114.1876410000,22.3118300000 114.1876050000,22.3120200000 114.1876070000,22.3120700000 114.1876060000,22.3120920000 114.1875930000,22.3122490000 114.1875270000,22.3122520000 114.1873560000,22.3122200000 114.1873050000,22.3122050000 114.1872700000,22.3121950000 114.1872120000,22.3122220000 114.1870500000,22.3122970000 114.1866570000,22.3124740000 114.1866170000,22.3124940000 114.1865650000,22.3125200000 114.1864030000,22.3125980000 114.1868790000,22.3133080000 114.1870720000,22.3136520000 114.1872500000,22.3139890000 114.1872930000,22.3140980000 114.1873070000,22.3141330000 114.1873530000,22.3142530000 114.1873740000,22.3143560000 114.1874510000,22.3146830000 114.1874650000,22.3147430000 114.1874690000,22.3147750000 114.1874940000,22.3149550000 114.1875020000,22.3150290000 114.1875160000,22.3154540000 114.1874980000,22.3154720000 114.1874820000,22.3154770000 114.1874520000,22.3154800000 114.1870470000,22.3154840000 114.1869800000,22.3154850000 114.1864220000,22.3154890000 114.1864220000,22.3155350000 114.1864240000,22.3157520000 114.1864210000,22.3163030000 114.1864210000,22.3164500000 114.1864230000,22.3174540000 114.1864230000,22.3178450000 114.1864230000,22.3179590000 114.1864210000,22.3183240000 114.1864200000,22.3184900000 114.1864130000,22.3195180000 114.1864110000,22.3199460000 114.1864100000,22.3200190000 114.1859820000,22.3200190000 114.1858720000,22.3200190000 114.1857690000,22.3200260000 114.1856430000,22.3200800000 114.1855590000,22.3199800000 114.1851790000,22.3195350000 114.1851270000,22.3194830000 114.1850660000,22.3194330000 114.1850090000,22.3193990000 114.1849450000,22.3193740000 114.1849000000,22.3193620000 114.1848470000,22.3193510000 114.1847930000,22.3193450000 114.1847190000,22.3193410000 114.1846470000,22.3193420000 114.1845840000,22.3193470000 114.1845130000,22.3193610000 114.1844440000,22.3193840000 114.1843850000,22.3194120000 114.1843140000,22.3194580000 114.1836760000,22.3199330000 114.1836050000,22.3199770000 114.1835260000,22.3200150000 114.1834450000,22.3200460000 114.1833570000,22.3200720000 114.1832880000,22.3200890000 114.1832230000,22.3201000000 114.1831580000,22.3201030000 114.1830150000,22.3200960000 114.1829440000,22.3200860000 114.1828540000,22.3200690000 114.1824760000,22.3199770000 114.1822660000,22.3199260000 114.1821530000,22.3198990000 114.1818520000,22.3198270000 114.1817620000,22.3198030000 114.1816770000,22.3197720000 114.1815870000,22.3197290000 114.1814980000,22.3196700000 114.1813900000,22.3195860000 114.1812950000,22.3194980000 114.1812070000,22.3193820000 114.1811550000,22.3193030000 114.1806550000,22.3185400000 114.1804970000,22.3182980000 114.1801700000,22.3177300000 114.1798770000,22.3171470000 114.1798070000,22.3170080000 114.1799580000,22.3169360000 114.1799950000,22.3169220000 114.1800370000,22.3168460000 114.1800960000,22.3168210000 114.1803010000,22.3167270000 114.1804360000,22.3166800000 114.1805770000,22.3166030000 114.1807270000,22.3165030000 114.1808330000,22.3164270000 114.1809490000,22.3163250000 114.1810260000,22.3162970000 114.1810570000,22.3162710000 114.1811340000,22.3162100000 114.1811740000,22.3161740000 114.1812210000,22.3161400000 114.1813050000,22.3160380000 114.1813210000,22.3160070000 114.1814180000,22.3157250000 114.1814820000,22.3154930000 114.1814990000,22.3154310000 114.1815420000,22.3152660000 114.1815610000,22.3150650000 114.1815820000,22.3149390000 114.1816700000,22.3146000000 114.1816840000,22.3145400000 114.1815620000,22.3145250000 114.1814030000,22.3145010000 114.1810480000,22.3144310000 114.1808910000,22.3144290000 114.1807450000,22.3144720000 114.1806420000,22.3145150000 114.1805500000,22.3145850000 114.1802620000,22.3149280000 114.1801560000,22.3150450000 114.1800750000,22.3151500000 114.1798300000,22.3154530000 114.1796050000,22.3157350000 114.1793780000,22.3158750000 114.1792420000,22.3159060000 114.1790120000,22.3158990000 114.1788830000,22.3158610000 114.1787620000,22.3158120000 114.1781860000,22.3153820000 114.1780920000,22.3152480000 114.1780260000,22.3151330000 114.1780020000,22.3150760000 114.1779760000,22.3150150000 114.1779640000,22.3149560000 114.1778470000,22.3149760000 114.1775450000,22.3150290000 114.1774380000,22.3150270000 114.1773880000,22.3150090000 114.1773830000,22.3150070000 114.1773440000,22.3149920000 114.1772910000,22.3149530000 114.1772330000,22.3148730000 114.1770630000,22.3139380000 114.1769150000,22.3131280000 114.1768650000,22.3128560000 114.1768370000,22.3127060000 114.1768310000,22.3125380000 114.1768250000,22.3123970000 114.1768410000,22.3122680000 114.1768950000,22.3120730000 114.1769070000,22.3120380000 114.1769380000,22.3119700000 114.1769820000,22.3119000000 114.1770830000,22.3117760000 114.1771870000,22.3116480000 114.1775890000,22.3112340000 114.1777210000,22.3110810000 114.1777990000,22.3109680000 114.1778720000,22.3108620000 114.1780290000,22.3106120000 114.1781720000,22.3103920000 114.1783190000,22.3101550000 114.1783980000,22.3100270000 114.1786940000,22.3095310000 114.1788740000,22.3092720000 114.1789220000,22.3091900000 114.1789900000,22.3090770000 114.1790480000,22.3089950000 114.1791270000,22.3088840000 114.1792070000,22.3087590000 114.1793480000,22.3085360000 114.1798750000,22.3077350000 114.1801110000,22.3074550000 114.1803940000,22.3071640000 114.1804360000,22.3071340000 114.1804970000,22.3070880000 114.1805860000,22.3070260000 114.1807290000,22.3068940000 114.1808620000,22.3067720000 114.1810730000,22.3065680000 114.1812630000,22.3063860000 114.1813080000,22.3063380000 114.1813610000,22.3062810000 114.1814090000,22.3062230000 114.1814490000,22.3061710000 114.1814840000,22.3061160000 114.1815140000,22.3060580000 114.1815420000,22.3059900000 114.1815670000,22.3059130000 114.1815920000,22.3058110000 114.1816060000,22.3056980000 114.1816080000,22.3055890000 114.1816010000,22.3054770000 114.1815650000,22.3052920000 114.1815260000,22.3051840000 114.1814670000,22.3050200000 114.1814080000,22.3048800000 114.1812890000,22.3045890000 114.1812230000,22.3044290000 114.1811770000,22.3043200000 114.1810530000,22.3040210000 114.1809930000,22.3038730000 114.1809360000,22.3037350000 114.1808900000,22.3036240000 114.1808400000,22.3035040000 114.1807830000,22.3033620000 114.1807300000,22.3032180000 114.1806440000,22.3029870000 114.1806030000,22.3028740000 114.1805500000,22.3027100000 114.1805070000,22.3025540000 114.1804750000,22.3024230000 114.1804530000,22.3023080000 114.1804350000,22.3021960000 114.1804260000,22.3021210000 114.1804160000,22.3020450000 114.1804020000,22.3018950000 114.1803980000,22.3017820000 114.1803990000,22.3016660000 114.1804090000,22.3015520000 114.1804320000,22.3013570000 114.1804590000,22.3011640000 114.1804730000,22.3010600000 114.1804850000,22.3009530000 114.1805300000,22.3006570000 114.1805970000,22.3003290000 114.1806470000,22.3000300000 114.1806970000,22.2997190000 114.1808220000,22.2989630000 114.1831870000,22.2846590000 114.1831980000,22.2843750000 114.1831770000,22.2841610000 114.1831280000,22.2839770000 114.1830550000,22.2838110000 114.1829730000,22.2836590000 114.1829470000,22.2836110000 114.1827730000,22.2833600000 114.1825870000,22.2831320000 114.1824230000,22.2829760000 114.1823130000,22.2828680000 114.1822550000,22.2828120000 114.1821940000,22.2827520000 114.1821280000,22.2826880000 114.1819500000,22.2825150000 114.1818960000,22.2824720000 114.1818550000,22.2824390000 114.1817800000,22.2823800000 114.1817200000,22.2823270000 114.1816670000,22.2822690000 114.1816360000,22.2822230000 114.1816090000,22.2821840000 114.1815840000,22.2821490000 114.1815520000,22.2821020000 114.1815260000,22.2820650000 114.1814960000,22.2820000000 114.1814630000,22.2819780000 114.1814260000,22.2819560000 114.1813880000,22.2819350000 114.1813600000,22.2819100000 114.1813120000,22.2818750000 114.1812500000,22.2818400000 114.1812070000,22.2818190000 114.1811530000,22.2817980000 114.1811000000,22.2817810000 114.1810500000,22.2817700000 114.1810000000,22.2817620000 114.1809400000,22.2817580000 114.1808900000,22.2817610000 114.1808200000,22.2817700000 114.1807730000,22.2817780000 114.1807440000,22.2817830000 114.1807140000,22.2817880000 114.1806790000,22.2817920000 114.1805730000,22.2818000000 114.1805330000,22.2818070000 114.1804990000,22.2818140000 114.1804220000,22.2818100000 114.1803440000,22.2817930000 114.1802970000,22.2817710000 114.1802630000,22.2817490000 114.1802180000,22.2817110000 114.1801790000,22.2816700000 114.1801590000,22.2816420000 114.1801420000,22.2816090000 114.1801310000,22.2815800000 114.1801240000,22.2815490000 114.1801190000,22.2815010000 114.1801180000,22.2814550000 114.1801220000,22.2814110000 114.1801290000,22.2813700000 114.1801400000,22.2813330000 114.1801570000,22.2812950000 114.1801800000,22.2812600000 114.1802180000,22.2812160000 114.1802490000,22.2811870000 114.1802830000,22.2811590000 114.1805500000,22.2809600000 114.1806060000,22.2808990000 114.1806440000,22.2808500000 114.1806680000,22.2808100000 114.1806840000,22.2807820000 114.1807010000,22.2807540000 114.1807390000,22.2806910000 114.1808040000,22.2805450000 114.1808610000,22.2804160000 114.1809500000,22.2802120000 114.1810290000,22.2800310000 114.1810660000,22.2799330000 114.1810880000,22.2798650000 114.1812520000,22.2794790000 114.1812860000,22.2793120000 114.1812870000,22.2790460000 114.1812860000,22.2789260000 114.1812370000,22.2779650000 114.1812260000,22.2774140000 114.1812420000,22.2772840000 114.1812720000,22.2770000000 114.1812410000,22.2767380000 114.1812130000,22.2766150000 114.1811660000,22.2764600000 114.1810800000,22.2762690000 114.1810020000,22.2761330000 114.1808920000,22.2759690000 114.1808100000,22.2758640000 114.1807350000,22.2757790000 114.1806500000,22.2756880000 114.1802450000,22.2752830000 114.1801920000,22.2752310000 114.1800030000,22.2751660000 114.1799360000,22.2750910000 114.1798290000,22.2749600000 114.1797520000,22.2748520000 114.1796820000,22.2747400000 114.1796230000,22.2746330000 114.1795220000,22.2746190000 114.1793970000,22.2746150000 114.1791540000,22.2746610000 114.1785960000,22.2748080000 114.1784700000,22.2748410000 114.1784210000,22.2748550000 114.1780130000,22.2749760000 114.1779780000,22.2749870000 114.1778800000,22.2750120000 114.1777910000,22.2750360000 114.1775420000,22.2750940000 114.1774010000,22.2751120000 114.1773060000,22.2751130000 114.1772330000,22.2751100000 114.1771560000,22.2750970000 114.1768550000,22.2750350000 114.1765850000,22.2749740000 114.1762320000,22.2748940000 114.1759660000,22.2748410000 114.1758370000,22.2748060000 114.1757230000,22.2747630000 114.1755930000,22.2746930000 114.1755400000,22.2746600000 114.1754630000,22.2746130000 114.1754150000,22.2745600000 114.1753950000,22.2745380000 114.1753310000,22.2744650000 114.1752520000,22.2744350000 114.1751480000,22.2744280000 114.1749890000,22.2744240000 114.1745890000,22.2744150000 114.1745510000,22.2744150000 114.1741330000,22.2744120000 114.1740630000,22.2744110000 114.1740350000,22.2744110000 114.1740020000,22.2744110000 114.1739610000,22.2744110000 114.1739120000,22.2744100000 114.1738470000,22.2744110000 114.1737370000,22.2744160000 114.1733950000,22.2744440000 114.1733120000,22.2744550000 114.1732120000,22.2744750000 114.1730880000,22.2745080000 114.1726110000,22.2746320000 114.1723550000,22.2747320000 114.1723140000,22.2747480000 114.1722380000,22.2747900000 114.1721910000,22.2748170000 114.1719840000,22.2749330000 114.1716660000,22.2751110000 114.1714240000,22.2752420000 114.1714090000,22.2752500000 114.1710690000,22.2754660000 114.1709480000,22.2755350000 114.1708970000,22.2755640000 114.1708620000,22.2755840000 114.1708500000,22.2755910000 114.1706320000,22.2757140000 114.1702840000,22.2759830000 114.1702410000,22.2760140000 114.1701900000,22.2760530000 114.1701250000,22.2760990000 114.1697480000,22.2763480000 114.1696130000,22.2764320000 114.1693520000,22.2766090000 114.1690390000,22.2768190000 114.1689060000,22.2769030000 114.1687350000,22.2770170000 114.1685820000,22.2771190000 114.1684790000,22.2771850000 114.1683290000,22.2772810000 114.1681050000,22.2774330000 114.1680410000,22.2774670000 114.1680270000,22.2774750000 114.1676380000,22.2777150000 114.1676070000,22.2777350000 114.1674650000,22.2778220000 114.1673240000,22.2778430000 114.1663690000,22.2779390000 114.1661220000,22.2779690000 114.1659210000,22.2779930000 114.1657880000,22.2780080000 114.1654950000,22.2780460000 114.1654670000,22.2780500000 114.1654250000,22.2780560000 114.1649730000,22.2781170000 114.1648760000,22.2781360000 114.1646860000,22.2781740000 114.1644950000,22.2782280000 114.1643070000,22.2782990000 114.1640380000,22.2784180000 114.1638230000,22.2785170000 114.1637050000,22.2785840000 114.1636400000,22.2786240000 114.1634530000,22.2787390000 114.1633770000,22.2787880000 114.1630190000,22.2790660000 114.1628030000,22.2792020000 114.1627540000,22.2792320000 114.1625970000,22.2793340000 114.1625700000,22.2793420000 114.1624630000,22.2793960000 114.1624150000,22.2794190000 114.1622890000,22.2794780000 114.1620130000,22.2795920000 114.1618520000,22.2796470000 114.1615670000,22.2797490000 114.1615240000,22.2797580000 114.1613930000,22.2797870000 114.1613130000,22.2798000000 114.1610710000,22.2798410000 114.1608870000,22.2798740000 114.1607940000,22.2799100000 114.1607310000,22.2799330000 114.1606710000,22.2799490000 114.1605230000,22.2799630000 114.1604820000,22.2799670000 114.1603650000,22.2799660000 114.1602120000,22.2799520000 114.1598470000,22.2798960000 114.1598280000,22.2798930000 114.1597000000,22.2798740000 114.1596730000,22.2798700000 114.1596530000,22.2798700000 114.1595240000,22.2798700000 114.1594410000,22.2798800000 114.1593040000,22.2799080000 114.1591270000,22.2799530000 114.1587870000,22.2800460000 114.1584870000,22.2801230000 114.1580780000,22.2802080000 114.1580240000,22.2802220000 114.1579060000,22.2802550000 114.1578680000,22.2802690000 114.1578270000,22.2802870000 114.1577870000,22.2803150000 114.1577420000,22.2803570000 114.1575190000,22.2806240000 114.1573380000,22.2808460000 114.1572550000,22.2809390000 114.1572390000,22.2809570000 114.1572080000,22.2809950000 114.1571500000,22.2810650000 114.1569830000,22.2812640000 114.1569530000,22.2812990000 114.1568840000,22.2813790000 114.1568100000,22.2814600000 114.1567690000,22.2815040000 114.1567270000,22.2815500000 114.1566540000,22.2816300000 114.1565830000,22.2817090000 114.1565660000,22.2817280000 114.1565180000,22.2817800000 114.1564860000,22.2818210000 114.1564730000,22.2818380000 114.1559090000,22.2825310000 114.1558930000,22.2825510000 114.1556900000,22.2828040000 114.1555480000,22.2829700000 114.1554840000,22.2830640000 114.1553510000,22.2832530000 114.1552360000,22.2833860000 114.1552170000,22.2834090000 114.1551300000,22.2835100000 114.1550900000,22.2835460000 114.1549400000,22.2836500000 114.1548360000,22.2837280000 114.1548060000,22.2837510000 114.1547300000,22.2838090000 114.1545130000,22.2839720000 114.1541970000,22.2841820000 114.1540630000,22.2842790000 114.1540250000,22.2843050000 114.1538510000,22.2844390000 114.1536380000,22.2846230000 114.1533510000,22.2848580000 114.1531100000,22.2850720000 114.1530510000,22.2850730000 114.1529960000,22.2850750000 114.1529140000,22.2850730000 114.1527870000,22.2850470000 114.1527040000,22.2850250000 114.1526600000,22.2850090000 114.1526190000,22.2849870000 114.1525810000,22.2849650000 114.1524440000,22.2848730000 114.1523950000,22.2848430000 114.1523430000,22.2848180000 114.1522780000,22.2847940000 114.1522100000,22.2847750000 114.1521360000,22.2847620000 114.1520310000,22.2847530000 114.1517390000,22.2847300000 114.1516890000,22.2847230000 114.1516340000,22.2847110000 114.1515810000,22.2846930000 114.1515310000,22.2846730000 114.1512270000,22.2845330000 114.1511820000,22.2845160000 114.1511430000,22.2845070000 114.1511030000,22.2845080000 114.1510640000,22.2845160000 114.1510250000,22.2845290000 114.1509760000,22.2845530000 114.1505740000,22.2847960000 114.1505370000,22.2848220000 114.1504490000,22.2849160000 114.1503700000,22.2850230000 114.1502960000,22.2851260000 114.1500900000,22.2854010000 114.1499130000,22.2856390000 114.1498620000,22.2857010000 114.1498280000,22.2857400000 114.1497470000,22.2858030000 114.1495920000,22.2859030000 114.1495370000,22.2859270000 114.1495010000,22.2859390000 114.1494290000,22.2859600000 114.1491150000,22.2860620000 114.1488870000,22.2861370000 114.1488330000,22.2861550000 114.1487550000,22.2861800000 114.1485840000,22.2863060000 114.1479590000,22.2867980000 114.1479330000,22.2868190000 114.1479010000,22.2868330000 114.1478550000,22.2868470000 114.1478080000,22.2868510000 114.1477560000,22.2868450000 114.1477010000,22.2868240000 114.1476290000,22.2867850000 114.1475670000,22.2867440000 114.1473150000,22.2865570000 114.1471410000,22.2864260000 114.1470240000,22.2863510000 114.1469750000,22.2863190000 114.1468850000,22.2862610000 114.1468380000,22.2862400000 114.1468140000,22.2862340000 114.1467880000,22.2862270000 114.1467460000,22.2862230000 114.1467050000,22.2862240000 114.1465110000,22.2862400000 114.1464420000,22.2862450000 114.1464080000,22.2862480000 114.1463730000,22.2862510000 114.1462740000,22.2862590000 114.1462220000,22.2862630000 114.1460260000,22.2862790000 114.1459570000,22.2862880000 114.1458900000,22.2863050000 114.1458260000,22.2863300000 114.1457660000,22.2863610000 114.1457100000,22.2863980000 114.1456590000,22.2864420000 114.1452830000,22.2867500000 114.1449540000,22.2870220000 114.1449030000,22.2870620000 114.1448000000,22.2871100000 114.1447520000,22.2871070000 114.1446730000,22.2870820000 114.1445480000,22.2870360000 114.1443720000,22.2869420000 114.1442390000,22.2868780000 114.1440840000,22.2868570000 114.1438650000,22.2868620000 114.1438230000,22.2868630000 114.1437220000,22.2868660000 114.1436260000,22.2868690000 114.1433180000,22.2868800000 114.1429640000,22.2868930000 114.1426580000,22.2869030000 114.1424090000,22.2869130000 114.1423900000,22.2869140000 114.1422890000,22.2869170000 114.1422010000,22.2869200000 114.1409080000,22.2869650000 114.1408480000,22.2869680000 114.1407740000,22.2869710000 114.1406830000,22.2869730000 114.1404780000,22.2869820000 114.1396850000,22.2867810000 114.1391330000,22.2866410000 114.1390610000,22.2866230000 114.1390180000,22.2866120000 114.1387240000,22.2865390000 114.1384650000,22.2864720000 114.1384030000,22.2864560000 114.1383560000,22.2864440000 114.1381110000,22.2863820000 114.1378720000,22.2863180000 114.1377360000,22.2862700000 114.1376100000,22.2862100000 114.1374100000,22.2860940000 114.1371440000,22.2859220000 114.1369220000,22.2857780000 114.1368740000,22.2857510000 114.1368430000,22.2857350000 114.1368240000,22.2857270000 114.1367990000,22.2857250000 114.1367460000,22.2857250000 114.1366740000,22.2857400000 114.1362030000,22.2858430000 114.1358610000,22.2859190000 114.1357890000,22.2859360000 114.1353680000,22.2860360000 114.1353400000,22.2860430000 114.1352590000,22.2860610000 114.1351760000,22.2860790000 114.1351310000,22.2860890000 114.1343440000,22.2862660000 114.1339130000,22.2863670000 114.1328860000,22.2865950000 114.1328050000,22.2866140000 114.1327660000,22.2865030000 114.1325610000,22.2859170000 114.1324960000,22.2857390000 114.1324690000,22.2856680000 114.1322580000,22.2851140000 114.1321200000,22.2849070000 114.1320310000,22.2848010000 114.1319760000,22.2847460000 114.1314610000,22.2843270000 114.1312440000,22.2841480000 114.1312170000,22.2841280000 114.1311790000,22.2840990000 114.1310980000,22.2840330000 114.1308910000,22.2838650000 114.1302350000,22.2833310000 114.1301860000,22.2832910000 114.1301260000,22.2832420000 114.1300610000,22.2831930000 114.1297400000,22.2829520000 114.1295960000,22.2828700000 114.1294460000,22.2828230000 114.1292150000,22.2827640000 114.1291570000,22.2827540000 114.1290620000,22.2827380000 114.1289860000,22.2827260000 114.1283200000,22.2826080000 114.1282770000,22.2826010000 114.1281970000,22.2825890000 114.1280980000,22.2825870000 114.1272020000,22.2824320000 114.1269850000,22.2823940000 114.1269510000,22.2823880000 114.1268870000,22.2823770000 114.1267600000,22.2823550000 114.1265810000,22.2823230000 114.1262970000,22.2822740000 114.1262160000,22.2822580000 114.1262030000,22.2822570000 114.1261870000,22.2822570000 114.1261200000,22.2822680000 114.1260700000,22.2822730000 114.1260240000,22.2822740000 114.1259310000,22.2822710000 114.1256030000,22.2822180000 114.1254140000,22.2821880000 114.1252720000,22.2821650000 114.1247550000,22.2820850000 114.1246630000,22.2820690000 114.1244040000,22.2820220000 114.1235150000,22.2818670000 114.1233260000,22.2818340000 114.1232330000,22.2818120000 114.1231190000,22.2817850000 114.1230010000,22.2817590000 114.1228780000,22.2817260000 114.1227510000,22.2816920000 114.1226650000,22.2816680000 114.1225410000,22.2816350000 114.1222630000,22.2815660000 114.1219360000,22.2815020000 114.1216300000,22.2814200000 114.1216200000,22.2814180000 114.1213780000,22.2813460000 114.1212530000,22.2813020000 114.1212310000,22.2812930000 114.1211150000,22.2812430000 114.1208030000,22.2810790000 114.1206520000,22.2810030000 114.1205690000,22.2809660000 114.1205000000,22.2809440000 114.1204300000,22.2809290000 114.1202970000,22.2809170000 114.1202550000,22.2809170000 114.1201870000,22.2809220000 114.1200770000,22.2809340000 114.1200380000,22.2809400000 114.1199480000,22.2809530000 114.1198870000,22.2809570000 114.1198730000,22.2809570000 114.1197580000,22.2809420000 114.1196750000,22.2809180000 114.1195860000,22.2808850000 114.1195070000,22.2808490000 114.1191030000,22.2806370000 114.1190260000,22.2805890000 114.1189910000,22.2805640000 114.1189700000,22.2805490000 114.1183660000,22.2800680000 114.1182860000,22.2799980000 114.1182280000,22.2799410000 114.1181390000,22.2798290000 114.1180820000,22.2797360000 114.1180130000,22.2795750000 114.1179630000,22.2794000000 114.1178570000,22.2790470000 114.1176670000,22.2783450000 114.1176520000,22.2782720000 114.1176260000,22.2782700000 114.1175920000,22.2782620000 114.1175770000,22.2782170000 114.1175450000,22.2781290000 114.1174990000,22.2780140000 114.1174680000,22.2779610000 114.1174140000,22.2779110000 114.1173610000,22.2778690000 114.1172230000,22.2778230000 114.1171250000,22.2777810000 114.1171040000,22.2777710000 114.1170190000,22.2777350000 114.1168790000,22.2775590000 114.1168130000,22.2772610000 114.1169280000,22.2768070000 114.1169820000,22.2762980000 114.1169320000,22.2758570000 114.1168140000,22.2756780000 114.1167170000,22.2755550000 114.1166800000,22.2754640000 114.1166210000,22.2753410000 114.1166160000,22.2752060000 114.1166380000,22.2750830000 114.1167070000,22.2749040000 114.1168200000,22.2747300000</coordinates>
                </LineString>
                <ExtendedData>
                    <Data name="duration">
                        <value>00:51:59</value>
                    </Data>
                    <Data name="length">
                        <value>35031.52245790752</value>
                    </Data>
                </ExtendedData>
            </Placemark>
        </Document>
    </Document>
</kml>