<?xml version="1.0" encoding="UTF-8"?>
<kml xmlns="http://www.opengis.net/kml/2.2" xmlns:gx="http://www.google.com/kml/ext/2.2">
    <Document>
        <name>Route</name>
        <Folder>
            <name>Route Request</name>
            <Placemark>
                <Point>
                    <coordinates>114.2245357423,22.2848539596</coordinates>
                </Point>
                <ExtendedData>
                    <Data name="routingVisited">
                        <value>false</value>
                    </Data>
                </ExtendedData>
            </Placemark>
            <Placemark>
                <Point>
                    <coordinates>114.2304721584,22.2802353828</coordinates>
                </Point>
                <ExtendedData>
                    <Data name="routingVisited">
                        <value>false</value>
                    </Data>
                </ExtendedData>
            </Placemark>
            <Placemark>
                <address>Hing Cho House, Yiu Hing Road, Hing Tung Estate, Sai Wan Ho, Eastern District, Hong Kong Island, Hong Kong, China</address>
                <Point>
                    <coordinates>114.2188149030,22.2811434946</coordinates>
                </Point>
                <ExtendedData>
                    <Data name="suburb">
                        <value>Sai Wan Ho</value>
                    </Data>
                    <Data name="city_district">
                        <value>Eastern District</value>
                    </Data>
                    <Data name="state">
                        <value>Hong Kong</value>
                    </Data>
                    <Data name="residential">
                        <value>Hing Tung Estate</value>
                    </Data>
                    <Data name="city">
                        <value>Hong Kong Island</value>
                    </Data>
                    <Data name="country_code">
                        <value>cn</value>
                    </Data>
                    <Data name="building">
                        <value>Hing Cho House</value>
                    </Data>
                    <Data name="country">
                        <value>China</value>
                    </Data>
                    <Data name="ISO3166-2-lvl3">
                        <value>CN-HK</value>
                    </Data>
                    <Data name="road">
                        <value>Yiu Hing Road</value>
                    </Data>
                </ExtendedData>
            </Placemark>
            <Placemark>
                <address>Po On Mansion, 1, Tai Yue Avenue, Kornhill, Quarry Bay, Eastern District, Hong Kong Island, Hong Kong, China</address>
                <Point>
                    <coordinates>114.2151237249,22.2866344519</coordinates>
                </Point>
                <ExtendedData>
                    <Data name="suburb">
                        <value>Quarry Bay</value>
                    </Data>
                    <Data name="city_district">
                        <value>Eastern District</value>
                    </Data>
                    <Data name="state">
                        <value>Hong Kong</value>
                    </Data>
                    <Data name="city">
                        <value>Hong Kong Island</value>
                    </Data>
                    <Data name="country_code">
                        <value>cn</value>
                    </Data>
                    <Data name="building">
                        <value>Po On Mansion</value>
                    </Data>
                    <Data name="country">
                        <value>China</value>
                    </Data>
                    <Data name="ISO3166-2-lvl3">
                        <value>CN-HK</value>
                    </Data>
                    <Data name="house_number">
                        <value>1</value>
                    </Data>
                    <Data name="quarter">
                        <value>Kornhill</value>
                    </Data>
                    <Data name="road">
                        <value>Tai Yue Avenue</value>
                    </Data>
                </ExtendedData>
            </Placemark>
            <Placemark>
                <address>Cross-Harbour Tunnel, Kellett Island, Wan Chai District, Hong Kong, HYSAN PLACE 12F, PRC</address>
                <Point>
                    <coordinates>114.1813006561,22.2905618906</coordinates>
                </Point>
                <ExtendedData>
                    <Data name="suburb">
                        <value>Kellett Island</value>
                    </Data>
                    <Data name="county">
                        <value>Wan Chai District</value>
                    </Data>
                    <Data name="postcode">
                        <value>HYSAN PLACE 12F</value>
                    </Data>
                    <Data name="country_code">
                        <value>cn</value>
                    </Data>
                    <Data name="country">
                        <value>PRC</value>
                    </Data>
                    <Data name="road">
                        <value>Cross-Harbour Tunnel</value>
                    </Data>
                </ExtendedData>
            </Placemark>
            <Placemark>
                <address>Tsim Sha Tsui Promenade, Salisbury Road, Tsim Sha Tsui, Yau Tsim Mong District, Hong Kong, 00000, PRC</address>
                <Point>
                    <coordinates>114.1797354730,22.3014821106</coordinates>
                </Point>
                <ExtendedData>
                    <Data name="suburb">
                        <value>Tsim Sha Tsui</value>
                    </Data>
                    <Data name="county">
                        <value>Yau Tsim Mong District</value>
                    </Data>
                    <Data name="postcode">
                        <value>00000</value>
                    </Data>
                    <Data name="country_code">
                        <value>cn</value>
                    </Data>
                    <Data name="country">
                        <value>PRC</value>
                    </Data>
                    <Data name="garden">
                        <value>Tsim Sha Tsui Promenade</value>
                    </Data>
                    <Data name="road">
                        <value>Salisbury Road</value>
                    </Data>
                    <Data name="routingVisited">
                        <value>false</value>
                    </Data>
                </ExtendedData>
            </Placemark>
            <Placemark>
                <address>Star Ferry, 梳士巴利道 Salisbury Road, Tsim Sha Tsui, Yau Tsim Mong District, Hong Kong, 00000, PRC</address>
                <Point>
                    <coordinates>114.1687232219,22.2941790517</coordinates>
                </Point>
                <ExtendedData>
                    <Data name="suburb">
                        <value>Tsim Sha Tsui</value>
                    </Data>
                    <Data name="county">
                        <value>Yau Tsim Mong District</value>
                    </Data>
                    <Data name="postcode">
                        <value>00000</value>
                    </Data>
                    <Data name="country_code">
                        <value>cn</value>
                    </Data>
                    <Data name="country">
                        <value>PRC</value>
                    </Data>
                    <Data name="bus_station">
                        <value>Star Ferry</value>
                    </Data>
                    <Data name="road">
                        <value>梳士巴利道 Salisbury Road</value>
                    </Data>
                </ExtendedData>
            </Placemark>
            <Placemark>
                <address>China Hong Kong City, 33, Canton Road, Kwun Chung, Tsim Sha Tsui, Yau Tsim Mong District, Kowloon, Hong Kong, 000000, China</address>
                <Point>
                    <coordinates>114.1672759729,22.3006598673</coordinates>
                </Point>
                <ExtendedData>
                    <Data name="suburb">
                        <value>Tsim Sha Tsui</value>
                    </Data>
                    <Data name="neighbourhood">
                        <value>Kwun Chung</value>
                    </Data>
                    <Data name="city_district">
                        <value>Yau Tsim Mong District</value>
                    </Data>
                    <Data name="state">
                        <value>Hong Kong</value>
                    </Data>
                    <Data name="postcode">
                        <value>000000</value>
                    </Data>
                    <Data name="city">
                        <value>Kowloon</value>
                    </Data>
                    <Data name="country_code">
                        <value>cn</value>
                    </Data>
                    <Data name="country">
                        <value>China</value>
                    </Data>
                    <Data name="shop">
                        <value>China Hong Kong City</value>
                    </Data>
                    <Data name="ISO3166-2-lvl3">
                        <value>CN-HK</value>
                    </Data>
                    <Data name="house_number">
                        <value>33</value>
                    </Data>
                    <Data name="road">
                        <value>Canton Road</value>
                    </Data>
                    <Data name="routingVisited">
                        <value>false</value>
                    </Data>
                </ExtendedData>
            </Placemark>
            <Placemark>
                <address>Bus Terminus Rooftop Garden, Lin Cheung Road, Yau Ma Tei, Yau Tsim Mong District, Hong Kong, KIL 3348, PRC</address>
                <Point>
                    <coordinates>114.1641170366,22.3093014917</coordinates>
                </Point>
                <ExtendedData>
                    <Data name="suburb">
                        <value>Yau Ma Tei</value>
                    </Data>
                    <Data name="county">
                        <value>Yau Tsim Mong District</value>
                    </Data>
                    <Data name="postcode">
                        <value>KIL 3348</value>
                    </Data>
                    <Data name="country_code">
                        <value>cn</value>
                    </Data>
                    <Data name="building">
                        <value>Bus Terminus Rooftop Garden</value>
                    </Data>
                    <Data name="country">
                        <value>PRC</value>
                    </Data>
                    <Data name="road">
                        <value>Lin Cheung Road</value>
                    </Data>
                    <Data name="routingVisited">
                        <value>false</value>
                    </Data>
                </ExtendedData>
            </Placemark>
            <Placemark>
                <Point>
                    <coordinates>114.1700978011,22.2981406610</coordinates>
                </Point>
            </Placemark>
            <Placemark>
                <Point>
                    <coordinates>114.1768258933,22.3025027448</coordinates>
                </Point>
                <ExtendedData>
                    <Data name="routingVisited">
                        <value>false</value>
                    </Data>
                </ExtendedData>
            </Placemark>
            <Placemark>
                <address>Cross-Harbour Tunnel, East Point, Causeway Bay, Wan Chai District, Hong Kong Island, Hong Kong, 000000, China</address>
                <Point>
                    <coordinates>114.1830720467,22.2888131591</coordinates>
                </Point>
                <ExtendedData>
                    <Data name="suburb">
                        <value>Causeway Bay</value>
                    </Data>
                    <Data name="neighbourhood">
                        <value>East Point</value>
                    </Data>
                    <Data name="city_district">
                        <value>Wan Chai District</value>
                    </Data>
                    <Data name="state">
                        <value>Hong Kong</value>
                    </Data>
                    <Data name="postcode">
                        <value>000000</value>
                    </Data>
                    <Data name="city">
                        <value>Hong Kong Island</value>
                    </Data>
                    <Data name="country_code">
                        <value>cn</value>
                    </Data>
                    <Data name="country">
                        <value>China</value>
                    </Data>
                    <Data name="ISO3166-2-lvl3">
                        <value>CN-HK</value>
                    </Data>
                    <Data name="road">
                        <value>Cross-Harbour Tunnel</value>
                    </Data>
                </ExtendedData>
            </Placemark>
            <Placemark>
                <address>太古城中心四座 Cityplaza 4, 12, Taikoo Wan Road, Kornhill, Quarry Bay, Eastern District, Hong Kong Island, Hong Kong, 000000, China</address>
                <Point>
                    <coordinates>114.2175698995,22.2875676219</coordinates>
                </Point>
                <ExtendedData>
                    <Data name="suburb">
                        <value>Quarry Bay</value>
                    </Data>
                    <Data name="city_district">
                        <value>Eastern District</value>
                    </Data>
                    <Data name="state">
                        <value>Hong Kong</value>
                    </Data>
                    <Data name="postcode">
                        <value>000000</value>
                    </Data>
                    <Data name="city">
                        <value>Hong Kong Island</value>
                    </Data>
                    <Data name="country_code">
                        <value>cn</value>
                    </Data>
                    <Data name="building">
                        <value>太古城中心四座 Cityplaza 4</value>
                    </Data>
                    <Data name="country">
                        <value>China</value>
                    </Data>
                    <Data name="ISO3166-2-lvl3">
                        <value>CN-HK</value>
                    </Data>
                    <Data name="house_number">
                        <value>12</value>
                    </Data>
                    <Data name="quarter">
                        <value>Kornhill</value>
                    </Data>
                    <Data name="road">
                        <value>Taikoo Wan Road</value>
                    </Data>
                </ExtendedData>
            </Placemark>
            <Placemark>
                <Point>
                    <coordinates>114.2186882489,22.2809952044</coordinates>
                </Point>
                <ExtendedData>
                    <Data name="routingVisited">
                        <value>false</value>
                    </Data>
                </ExtendedData>
            </Placemark>
            <Placemark>
                <address>Yiu Kwai House, Yiu Hing Road, Shau Kei Wan, Eastern District, Hong Kong, SIL 850, PRC</address>
                <Point>
                    <coordinates>114.2263140545,22.2759797102</coordinates>
                </Point>
                <ExtendedData>
                    <Data name="suburb">
                        <value>Shau Kei Wan</value>
                    </Data>
                    <Data name="county">
                        <value>Eastern District</value>
                    </Data>
                    <Data name="postcode">
                        <value>SIL 850</value>
                    </Data>
                    <Data name="country_code">
                        <value>cn</value>
                    </Data>
                    <Data name="building">
                        <value>Yiu Kwai House</value>
                    </Data>
                    <Data name="country">
                        <value>PRC</value>
                    </Data>
                    <Data name="road">
                        <value>Yiu Hing Road</value>
                    </Data>
                </ExtendedData>
            </Placemark>
            <Placemark>
                <address>Sun Kwong Roasted Goose Restaurant, 2, Po Man Street, Shau Kei Wan, Eastern District, Hong Kong, SL 60, PRC</address>
                <Point>
                    <coordinates>114.2291026391,22.2785066954</coordinates>
                </Point>
                <ExtendedData>
                    <Data name="suburb">
                        <value>Shau Kei Wan</value>
                    </Data>
                    <Data name="county">
                        <value>Eastern District</value>
                    </Data>
                    <Data name="postcode">
                        <value>SL 60</value>
                    </Data>
                    <Data name="restaurant">
                        <value>Sun Kwong Roasted Goose Restaurant</value>
                    </Data>
                    <Data name="country_code">
                        <value>cn</value>
                    </Data>
                    <Data name="country">
                        <value>PRC</value>
                    </Data>
                    <Data name="house_number">
                        <value>2</value>
                    </Data>
                    <Data name="road">
                        <value>Po Man Street</value>
                    </Data>
                </ExtendedData>
            </Placemark>
            <Placemark>
                <address>Oi Ping House, Oi Yin Street, Shau Kei Wan, Eastern District, Hong Kong, SL 60, PRC</address>
                <Point>
                    <coordinates>114.2280693245,22.2819764476</coordinates>
                </Point>
                <ExtendedData>
                    <Data name="suburb">
                        <value>Shau Kei Wan</value>
                    </Data>
                    <Data name="county">
                        <value>Eastern District</value>
                    </Data>
                    <Data name="postcode">
                        <value>SL 60</value>
                    </Data>
                    <Data name="country_code">
                        <value>cn</value>
                    </Data>
                    <Data name="building">
                        <value>Oi Ping House</value>
                    </Data>
                    <Data name="country">
                        <value>PRC</value>
                    </Data>
                    <Data name="road">
                        <value>Oi Yin Street</value>
                    </Data>
                </ExtendedData>
            </Placemark>
            <Placemark>
                <address>Tower 6, Tai On Street, Sai Wan Ho, Eastern District, Hong Kong, SML 5, PRC</address>
                <Point>
                    <coordinates>114.2245357433,22.2848812803</coordinates>
                </Point>
                <ExtendedData>
                    <Data name="suburb">
                        <value>Sai Wan Ho</value>
                    </Data>
                    <Data name="county">
                        <value>Eastern District</value>
                    </Data>
                    <Data name="postcode">
                        <value>SML 5</value>
                    </Data>
                    <Data name="country_code">
                        <value>cn</value>
                    </Data>
                    <Data name="building">
                        <value>Tower 6</value>
                    </Data>
                    <Data name="country">
                        <value>PRC</value>
                    </Data>
                    <Data name="road">
                        <value>Tai On Street</value>
                    </Data>
                </ExtendedData>
            </Placemark>
        </Folder>
        <Document>
            <name>35.2 km; 00:51 h (OSRM)</name>
            <Placemark>
                <name>Route</name>
                <LineString>
                    <coordinates>114.2245400000,22.2848580000 114.2248120000,22.2845980000 114.2246930000,22.2844900000 114.2246300000,22.2844180000 114.2246180000,22.2844050000 114.2245920000,22.2843800000 114.2245470000,22.2843370000 114.2246000000,22.2842870000 114.2246700000,22.2842220000 114.2247400000,22.2841560000 114.2253850000,22.2835570000 114.2255720000,22.2833790000 114.2259270000,22.2830390000 114.2260540000,22.2829170000 114.2261230000,22.2828650000 114.2261950000,22.2828360000 114.2262630000,22.2828200000 114.2263400000,22.2828140000 114.2265340000,22.2828140000 114.2267100000,22.2828140000 114.2269200000,22.2828140000 114.2270100000,22.2828140000 114.2271400000,22.2828140000 114.2276070000,22.2828140000 114.2279000000,22.2828140000 114.2279780000,22.2828110000 114.2280340000,22.2827940000 114.2280720000,22.2827710000 114.2280980000,22.2827470000 114.2281240000,22.2827150000 114.2281410000,22.2826810000 114.2281490000,22.2826480000 114.2281500000,22.2826000000 114.2281500000,22.2824000000 114.2281500000,22.2823000000 114.2281700000,22.2822500000 114.2282000000,22.2822000000 114.2282200000,22.2821700000 114.2283780000,22.2821710000 114.2288050000,22.2821700000 114.2293200000,22.2821750000 114.2295580000,22.2821770000 114.2298550000,22.2821850000 114.2299290000,22.2821830000 114.2299790000,22.2821750000 114.2300580000,22.2821580000 114.2301170000,22.2821350000 114.2301690000,22.2821120000 114.2303360000,22.2820300000 114.2303870000,22.2820140000 114.2304140000,22.2820100000 114.2304300000,22.2820070000 114.2305050000,22.2820000000 114.2306970000,22.2819790000 114.2305900000,22.2818500000 114.2305900000,22.2818000000 114.2305990000,22.2816610000 114.2306800000,22.2812070000 114.2306760000,22.2811100000 114.2307060000,22.2810020000 114.2307090000,22.2809760000 114.2307160000,22.2808810000 114.2307160000,22.2808510000 114.2307110000,22.2808160000 114.2306910000,22.2807700000 114.2304300000,22.2802530000 114.2304250000,22.2802420000 114.2303860000,22.2801660000 114.2303660000,22.2801310000 114.2303550000,22.2801080000 114.2301620000,22.2796130000 114.2300040000,22.2792050000 114.2299950000,22.2791760000 114.2299910000,22.2791470000 114.2299910000,22.2791200000 114.2299930000,22.2791050000 114.2299990000,22.2790850000 114.2300670000,22.2788510000 114.2302940000,22.2781290000 114.2303080000,22.2780610000 114.2303090000,22.2779920000 114.2302980000,22.2779240000 114.2302750000,22.2778590000 114.2302660000,22.2778330000 114.2302470000,22.2777770000 114.2301150000,22.2775820000 114.2299150000,22.2772160000 114.2298700000,22.2771350000 114.2298610000,22.2771190000 114.2298470000,22.2770930000 114.2298140000,22.2770340000 114.2297770000,22.2769710000 114.2296810000,22.2768130000 114.2296350000,22.2767650000 114.2295540000,22.2767220000 114.2294920000,22.2767040000 114.2294340000,22.2766990000 114.2293830000,22.2767020000 114.2292630000,22.2767190000 114.2291160000,22.2767500000 114.2290490000,22.2767110000 114.2290310000,22.2767140000 114.2288600000,22.2767470000 114.2288360000,22.2767520000 114.2288050000,22.2767580000 114.2287530000,22.2767850000 114.2286510000,22.2768050000 114.2285640000,22.2768210000 114.2284640000,22.2768420000 114.2283180000,22.2768910000 114.2282020000,22.2769410000 114.2278120000,22.2771210000 114.2272170000,22.2774260000 114.2271020000,22.2774880000 114.2270670000,22.2775080000 114.2270000000,22.2775590000 114.2269410000,22.2776260000 114.2269050000,22.2776770000 114.2265440000,22.2782660000 114.2264820000,22.2782330000 114.2258150000,22.2778840000 114.2261350000,22.2772840000 114.2264440000,22.2767300000 114.2264970000,22.2766290000 114.2265310000,22.2765210000 114.2265450000,22.2764090000 114.2265380000,22.2762970000 114.2265120000,22.2761880000 114.2264660000,22.2760840000 114.2264020000,22.2759880000 114.2263220000,22.2759040000 114.2262560000,22.2758380000 114.2262120000,22.2758010000 114.2259880000,22.2756550000 114.2258660000,22.2755990000 114.2257380000,22.2755580000 114.2256050000,22.2755320000 114.2254690000,22.2755210000 114.2253340000,22.2755260000 114.2251990000,22.2755470000 114.2250690000,22.2755830000 114.2249450000,22.2756330000 114.2248670000,22.2756830000 114.2247870000,22.2757420000 114.2246690000,22.2758460000 114.2245940000,22.2759270000 114.2245270000,22.2760110000 114.2240730000,22.2766150000 114.2239530000,22.2767740000 114.2237760000,22.2770100000 114.2235780000,22.2772730000 114.2234000000,22.2775100000 114.2232270000,22.2777400000 114.2229610000,22.2780950000 114.2228310000,22.2782670000 114.2225930000,22.2785830000 114.2224680000,22.2787440000 114.2223960000,22.2788260000 114.2223140000,22.2789120000 114.2222170000,22.2789970000 114.2221050000,22.2790740000 114.2219900000,22.2791410000 114.2218680000,22.2791960000 114.2217470000,22.2792410000 114.2216490000,22.2792680000 114.2215490000,22.2792900000 114.2214500000,22.2793030000 114.2213570000,22.2793070000 114.2212660000,22.2793050000 114.2211810000,22.2792970000 114.2211010000,22.2792810000 114.2210200000,22.2792610000 114.2207330000,22.2791700000 114.2205760000,22.2791210000 114.2203930000,22.2790630000 114.2203200000,22.2790400000 114.2202460000,22.2790190000 114.2201590000,22.2790030000 114.2191890000,22.2788830000 114.2191460000,22.2788790000 114.2190930000,22.2788770000 114.2189980000,22.2788820000 114.2189190000,22.2788950000 114.2188350000,22.2789180000 114.2187610000,22.2789450000 114.2186890000,22.2789780000 114.2186300000,22.2790140000 114.2185650000,22.2790650000 114.2185100000,22.2791140000 114.2184720000,22.2791530000 114.2184270000,22.2792060000 114.2183890000,22.2792590000 114.2180750000,22.2797400000 114.2180640000,22.2797560000 114.2180060000,22.2798440000 114.2179850000,22.2798820000 114.2179550000,22.2799640000 114.2179350000,22.2800510000 114.2179240000,22.2801330000 114.2179210000,22.2801940000 114.2179250000,22.2802730000 114.2179350000,22.2803440000 114.2179500000,22.2804150000 114.2179740000,22.2804870000 114.2180050000,22.2805570000 114.2180420000,22.2806250000 114.2180850000,22.2806910000 114.2181690000,22.2807920000 114.2182200000,22.2808370000 114.2182870000,22.2808860000 114.2183540000,22.2809270000 114.2184190000,22.2809590000 114.2184760000,22.2809830000 114.2185300000,22.2810020000 114.2186890000,22.2810590000 114.2187560000,22.2810730000 114.2188080000,22.2810860000 114.2188210000,22.2810870000 114.2188540000,22.2810900000 114.2189000000,22.2810900000 114.2190000000,22.2810750000 114.2191000000,22.2810450000 114.2191900000,22.2810150000 114.2193400000,22.2809500000 114.2194200000,22.2809000000 114.2195400000,22.2808000000 114.2196300000,22.2807000000 114.2196900000,22.2806100000 114.2197400000,22.2805100000 114.2198000000,22.2804000000 114.2198400000,22.2803200000 114.2199100000,22.2802000000 114.2199790000,22.2801000000 114.2200460000,22.2800140000 114.2200750000,22.2799830000 114.2201060000,22.2799570000 114.2201450000,22.2799290000 114.2201870000,22.2799050000 114.2202330000,22.2798850000 114.2202840000,22.2798680000 114.2203350000,22.2798560000 114.2203770000,22.2798520000 114.2204200000,22.2798500000 114.2204650000,22.2798510000 114.2205090000,22.2798580000 114.2205530000,22.2798680000 114.2206000000,22.2798830000 114.2206370000,22.2798990000 114.2206700000,22.2799160000 114.2207010000,22.2799360000 114.2207320000,22.2799620000 114.2207590000,22.2799890000 114.2207880000,22.2800220000 114.2208310000,22.2800830000 114.2208640000,22.2801580000 114.2208800000,22.2802320000 114.2208800000,22.2803320000 114.2208720000,22.2803840000 114.2208590000,22.2804370000 114.2208370000,22.2804940000 114.2208140000,22.2805430000 114.2207930000,22.2805820000 114.2207700000,22.2806160000 114.2206180000,22.2808160000 114.2205920000,22.2808530000 114.2205680000,22.2808930000 114.2205430000,22.2809400000 114.2205180000,22.2809940000 114.2204930000,22.2810660000 114.2204850000,22.2811170000 114.2204770000,22.2812540000 114.2204780000,22.2813210000 114.2204800000,22.2813480000 114.2205420000,22.2817920000 114.2205200000,22.2819500000 114.2204080000,22.2822400000 114.2203470000,22.2823170000 114.2200110000,22.2827420000 114.2196810000,22.2831480000 114.2201130000,22.2834400000 114.2204770000,22.2836880000 114.2205070000,22.2837080000 114.2205490000,22.2837380000 114.2200900000,22.2843030000 114.2200800000,22.2843170000 114.2200130000,22.2843980000 114.2199520000,22.2844710000 114.2199860000,22.2845140000 114.2200030000,22.2845330000 114.2200420000,22.2845750000 114.2201460000,22.2846610000 114.2203450000,22.2847870000 114.2205850000,22.2849490000 114.2206420000,22.2850000000 114.2207080000,22.2850680000 114.2207320000,22.2851010000 114.2207490000,22.2851280000 114.2207900000,22.2852180000 114.2208170000,22.2852780000 114.2208360000,22.2853380000 114.2208490000,22.2854010000 114.2208640000,22.2854750000 114.2208290000,22.2858090000 114.2208070000,22.2859380000 114.2207910000,22.2859980000 114.2207620000,22.2860600000 114.2207130000,22.2861120000 114.2206530000,22.2861540000 114.2205900000,22.2861730000 114.2205180000,22.2861800000 114.2203900000,22.2861820000 114.2202670000,22.2861820000 114.2202180000,22.2861820000 114.2200950000,22.2861650000 114.2199370000,22.2861630000 114.2198340000,22.2861800000 114.2196670000,22.2861800000 114.2189230000,22.2861760000 114.2188590000,22.2861760000 114.2182620000,22.2861790000 114.2182300000,22.2861790000 114.2181500000,22.2861800000 114.2180590000,22.2861800000 114.2179500000,22.2861800000 114.2177700000,22.2861780000 114.2175490000,22.2861790000 114.2173990000,22.2861810000 114.2173450000,22.2861810000 114.2171390000,22.2861810000 114.2169160000,22.2861780000 114.2167300000,22.2861790000 114.2165420000,22.2861780000 114.2164210000,22.2861790000 114.2159730000,22.2861760000 114.2159310000,22.2861760000 114.2157650000,22.2861770000 114.2157030000,22.2861780000 114.2155240000,22.2861770000 114.2151960000,22.2861760000 114.2151230000,22.2861940000 114.2150820000,22.2862340000 114.2150580000,22.2862680000 114.2150370000,22.2863350000 114.2150380000,22.2863680000 114.2150390000,22.2866340000 114.2150420000,22.2872300000 114.2150540000,22.2872560000 114.2150710000,22.2872850000 114.2151000000,22.2873120000 114.2151460000,22.2873460000 114.2153920000,22.2873460000 114.2155180000,22.2873460000 114.2162750000,22.2873490000 114.2164860000,22.2873500000 114.2165710000,22.2873500000 114.2166690000,22.2873470000 114.2171050000,22.2873390000 114.2172160000,22.2874010000 114.2172520000,22.2874430000 114.2172740000,22.2874690000 114.2172800000,22.2875020000 114.2172880000,22.2875500000 114.2172930000,22.2875940000 114.2173000000,22.2876500000 114.2172940000,22.2877650000 114.2172920000,22.2878000000 114.2172810000,22.2878660000 114.2172710000,22.2879300000 114.2172030000,22.2880520000 114.2171500000,22.2881400000 114.2170960000,22.2882060000 114.2169670000,22.2883570000 114.2166860000,22.2886740000 114.2166490000,22.2887030000 114.2165010000,22.2888220000 114.2163630000,22.2888880000 114.2160260000,22.2889990000 114.2159000000,22.2890340000 114.2158250000,22.2890530000 114.2157560000,22.2890700000 114.2151320000,22.2893150000 114.2147580000,22.2894410000 114.2142880000,22.2896070000 114.2137820000,22.2898170000 114.2134510000,22.2899700000 114.2133040000,22.2900230000 114.2131690000,22.2900720000 114.2127380000,22.2903170000 114.2124830000,22.2904610000 114.2123200000,22.2905530000 114.2122130000,22.2906180000 114.2121310000,22.2906670000 114.2120320000,22.2907270000 114.2119230000,22.2907940000 114.2116530000,22.2909590000 114.2114960000,22.2910550000 114.2114030000,22.2911130000 114.2111810000,22.2912530000 114.2110560000,22.2913310000 114.2109730000,22.2913830000 114.2106220000,22.2916380000 114.2102020000,22.2919430000 114.2096790000,22.2923280000 114.2094250000,22.2924890000 114.2091620000,22.2926270000 114.2088160000,22.2927860000 114.2086880000,22.2928400000 114.2084250000,22.2929190000 114.2081530000,22.2930010000 114.2077170000,22.2931270000 114.2072230000,22.2932690000 114.2071640000,22.2932870000 114.2066740000,22.2934340000 114.2061700000,22.2935940000 114.2056640000,22.2937480000 114.2053700000,22.2938370000 114.2052090000,22.2938850000 114.2051510000,22.2939030000 114.2050060000,22.2939470000 114.2049120000,22.2939730000 114.2046900000,22.2940340000 114.2044740000,22.2940870000 114.2040710000,22.2941440000 114.2037310000,22.2941630000 114.2035240000,22.2941730000 114.2034060000,22.2941670000 114.2031830000,22.2941550000 114.2029010000,22.2941180000 114.2026250000,22.2940640000 114.2025480000,22.2940480000 114.2021120000,22.2939650000 114.2005900000,22.2936420000 114.2005170000,22.2936260000 114.2000710000,22.2935390000 114.1999040000,22.2935110000 114.1997390000,22.2934890000 114.1995910000,22.2934740000 114.1994500000,22.2934640000 114.1992990000,22.2934600000 114.1989250000,22.2934630000 114.1987990000,22.2934610000 114.1986680000,22.2934560000 114.1984820000,22.2934470000 114.1983720000,22.2934380000 114.1982150000,22.2934210000 114.1980750000,22.2933990000 114.1971540000,22.2932100000 114.1968890000,22.2931570000 114.1966340000,22.2931040000 114.1963890000,22.2930500000 114.1963650000,22.2930450000 114.1962830000,22.2930270000 114.1961050000,22.2929900000 114.1958550000,22.2929350000 114.1956370000,22.2928790000 114.1955750000,22.2928640000 114.1955000000,22.2928430000 114.1953420000,22.2928020000 114.1950760000,22.2927130000 114.1949910000,22.2926820000 114.1948340000,22.2926050000 114.1947770000,22.2925780000 114.1947230000,22.2925510000 114.1945800000,22.2924720000 114.1944720000,22.2924140000 114.1943350000,22.2923380000 114.1943010000,22.2923180000 114.1940990000,22.2921780000 114.1939740000,22.2920840000 114.1938490000,22.2919940000 114.1937010000,22.2918840000 114.1936750000,22.2918610000 114.1936060000,22.2918030000 114.1935350000,22.2917410000 114.1934410000,22.2916610000 114.1933890000,22.2916150000 114.1933500000,22.2915810000 114.1933240000,22.2915550000 114.1933070000,22.2915380000 114.1932510000,22.2914830000 114.1931350000,22.2913490000 114.1931050000,22.2912530000 114.1930930000,22.2912180000 114.1930760000,22.2911620000 114.1930060000,22.2910820000 114.1929330000,22.2909960000 114.1928030000,22.2908470000 114.1922990000,22.2903210000 114.1915880000,22.2895560000 114.1913760000,22.2893230000 114.1912520000,22.2891910000 114.1906770000,22.2885810000 114.1903320000,22.2882150000 114.1900190000,22.2878880000 114.1899830000,22.2878420000 114.1898890000,22.2877330000 114.1898310000,22.2876540000 114.1897600000,22.2875550000 114.1896840000,22.2874280000 114.1896380000,22.2873400000 114.1895570000,22.2872390000 114.1894580000,22.2870630000 114.1894350000,22.2869950000 114.1894190000,22.2869350000 114.1894020000,22.2868650000 114.1893850000,22.2867830000 114.1893780000,22.2867270000 114.1893710000,22.2866570000 114.1893630000,22.2865650000 114.1893570000,22.2864690000 114.1893520000,22.2863510000 114.1893440000,22.2860110000 114.1893380000,22.2859370000 114.1893310000,22.2858670000 114.1893190000,22.2857830000 114.1893060000,22.2857010000 114.1892870000,22.2856040000 114.1892600000,22.2854970000 114.1892280000,22.2853930000 114.1891830000,22.2852740000 114.1891130000,22.2851340000 114.1890310000,22.2850070000 114.1889800000,22.2849320000 114.1888980000,22.2848300000 114.1888130000,22.2847440000 114.1887120000,22.2846530000 114.1885960000,22.2845670000 114.1884740000,22.2844880000 114.1883480000,22.2844200000 114.1882350000,22.2843700000 114.1880960000,22.2843140000 114.1879710000,22.2842690000 114.1877860000,22.2842120000 114.1876240000,22.2841670000 114.1871890000,22.2840570000 114.1871400000,22.2840320000 114.1870940000,22.2839960000 114.1869060000,22.2839590000 114.1866430000,22.2839070000 114.1865190000,22.2838830000 114.1864390000,22.2838650000 114.1863640000,22.2838430000 114.1862310000,22.2837970000 114.1860990000,22.2837360000 114.1859880000,22.2836800000 114.1859020000,22.2836190000 114.1857900000,22.2835350000 114.1854100000,22.2832190000 114.1852890000,22.2831460000 114.1851240000,22.2830460000 114.1849060000,22.2828830000 114.1846060000,22.2826830000 114.1843680000,22.2825090000 114.1842400000,22.2824220000 114.1840550000,22.2823030000 114.1836400000,22.2821430000 114.1835710000,22.2821150000 114.1834410000,22.2820630000 114.1832710000,22.2819960000 114.1831930000,22.2819650000 114.1831000000,22.2819290000 114.1830130000,22.2818950000 114.1828970000,22.2818500000 114.1827910000,22.2818100000 114.1826870000,22.2817690000 114.1823980000,22.2816580000 114.1823200000,22.2816240000 114.1822920000,22.2816120000 114.1821640000,22.2815570000 114.1820580000,22.2815120000 114.1819390000,22.2814620000 114.1817580000,22.2814670000 114.1816580000,22.2814320000 114.1815200000,22.2813820000 114.1814670000,22.2813630000 114.1813150000,22.2812770000 114.1811800000,22.2812110000 114.1810540000,22.2811500000 114.1800580000,22.2807610000 114.1796200000,22.2806000000 114.1795710000,22.2805850000 114.1794800000,22.2805700000 114.1794090000,22.2805690000 114.1793400000,22.2805780000 114.1792630000,22.2806030000 114.1792260000,22.2806200000 114.1791860000,22.2806420000 114.1791530000,22.2806670000 114.1791200000,22.2806960000 114.1790920000,22.2807260000 114.1790680000,22.2807570000 114.1790490000,22.2807880000 114.1790290000,22.2808300000 114.1790150000,22.2808690000 114.1790060000,22.2809110000 114.1790020000,22.2809550000 114.1790010000,22.2809950000 114.1790060000,22.2810350000 114.1790140000,22.2810750000 114.1790280000,22.2811150000 114.1790480000,22.2811590000 114.1790770000,22.2812040000 114.1791100000,22.2812430000 114.1791460000,22.2812770000 114.1791890000,22.2813090000 114.1792900000,22.2813700000 114.1793740000,22.2814240000 114.1794250000,22.2814600000 114.1794750000,22.2815000000 114.1795260000,22.2815420000 114.1795510000,22.2815650000 114.1796030000,22.2816130000 114.1796570000,22.2816450000 114.1798350000,22.2817540000 114.1799290000,22.2818340000 114.1800360000,22.2819260000 114.1800940000,22.2819710000 114.1801660000,22.2820270000 114.1802920000,22.2821160000 114.1803920000,22.2821730000 114.1805370000,22.2822540000 114.1806070000,22.2822890000 114.1807590000,22.2823570000 114.1808980000,22.2824090000 114.1812320000,22.2825350000 114.1813560000,22.2825920000 114.1816190000,22.2827130000 114.1817210000,22.2827590000 114.1818540000,22.2828140000 114.1819240000,22.2828400000 114.1820490000,22.2828630000 114.1821240000,22.2829190000 114.1822060000,22.2829790000 114.1823110000,22.2830580000 114.1825200000,22.2832500000 114.1826800000,22.2834390000 114.1828320000,22.2836720000 114.1829370000,22.2838430000 114.1830020000,22.2839850000 114.1830590000,22.2841840000 114.1830780000,22.2844020000 114.1830720000,22.2846470000 114.1820720000,22.2906720000 114.1806980000,22.2989440000 114.1806730000,22.2990920000 114.1805720000,22.2997000000 114.1805210000,22.3000220000 114.1804640000,22.3003030000 114.1804000000,22.3006310000 114.1803430000,22.3009300000 114.1803200000,22.3010250000 114.1802890000,22.3011400000 114.1802140000,22.3014050000 114.1801790000,22.3015530000 114.1801530000,22.3016760000 114.1801400000,22.3017910000 114.1801360000,22.3018780000 114.1801380000,22.3019650000 114.1801460000,22.3020750000 114.1801540000,22.3021540000 114.1801620000,22.3022260000 114.1801920000,22.3024230000 114.1802050000,22.3024820000 114.1802330000,22.3025680000 114.1802730000,22.3026660000 114.1803180000,22.3027620000 114.1804000000,22.3029190000 114.1804680000,22.3030560000 114.1805290000,22.3031830000 114.1806650000,22.3034930000 114.1807410000,22.3036910000 114.1808830000,22.3040220000 114.1809580000,22.3042040000 114.1810410000,22.3044040000 114.1810810000,22.3045000000 114.1812550000,22.3049180000 114.1813230000,22.3050740000 114.1813360000,22.3051100000 114.1813800000,22.3052320000 114.1814070000,22.3053050000 114.1814280000,22.3053970000 114.1814380000,22.3054730000 114.1814440000,22.3055590000 114.1814390000,22.3056370000 114.1814300000,22.3057050000 114.1814090000,22.3057990000 114.1813480000,22.3058510000 114.1813030000,22.3059030000 114.1812800000,22.3059330000 114.1812110000,22.3060340000 114.1811660000,22.3060880000 114.1810840000,22.3061790000 114.1810120000,22.3062440000 114.1809390000,22.3063110000 114.1809050000,22.3063410000 114.1808450000,22.3063940000 114.1808250000,22.3064130000 114.1808040000,22.3064350000 114.1807860000,22.3064630000 114.1807680000,22.3064980000 114.1807580000,22.3065260000 114.1807520000,22.3065530000 114.1807500000,22.3065830000 114.1807530000,22.3066140000 114.1807620000,22.3066420000 114.1807720000,22.3066650000 114.1807890000,22.3066910000 114.1808090000,22.3067130000 114.1808330000,22.3067320000 114.1808590000,22.3067480000 114.1808880000,22.3067600000 114.1809230000,22.3067690000 114.1809570000,22.3067720000 114.1809930000,22.3067700000 114.1810260000,22.3067630000 114.1810540000,22.3067530000 114.1810850000,22.3067360000 114.1811140000,22.3067180000 114.1811370000,22.3067030000 114.1812080000,22.3066490000 114.1812470000,22.3065950000 114.1813120000,22.3065030000 114.1813620000,22.3064260000 114.1814120000,22.3063370000 114.1814360000,22.3062840000 114.1814520000,22.3062400000 114.1814840000,22.3061160000 114.1815140000,22.3060580000 114.1815420000,22.3059900000 114.1815670000,22.3059130000 114.1815920000,22.3058110000 114.1816060000,22.3056980000 114.1816080000,22.3055890000 114.1816010000,22.3054770000 114.1815650000,22.3052920000 114.1815260000,22.3051840000 114.1814670000,22.3050200000 114.1814080000,22.3048800000 114.1812890000,22.3045890000 114.1812230000,22.3044290000 114.1811770000,22.3043200000 114.1811690000,22.3040960000 114.1811620000,22.3039990000 114.1811400000,22.3038590000 114.1811180000,22.3037060000 114.1810990000,22.3035630000 114.1810820000,22.3034320000 114.1810720000,22.3033400000 114.1810640000,22.3032580000 114.1810550000,22.3031450000 114.1809820000,22.3025630000 114.1809270000,22.3021540000 114.1809410000,22.3017570000 114.1808170000,22.3007620000 114.1808430000,22.3002610000 114.1808490000,22.3002110000 114.1808480000,22.3001200000 114.1808320000,22.3000450000 114.1808000000,22.2999700000 114.1807630000,22.2999090000 114.1807080000,22.2998460000 114.1806620000,22.2998080000 114.1806160000,22.2997820000 114.1805410000,22.2997770000 114.1804760000,22.2997840000 114.1804180000,22.2998060000 114.1803600000,22.2998520000 114.1803080000,22.2999350000 114.1803000000,22.3000050000 114.1802670000,22.3001330000 114.1802470000,22.3002170000 114.1801630000,22.3006400000 114.1800990000,22.3008600000 114.1800370000,22.3010270000 114.1798880000,22.3013220000 114.1798410000,22.3014150000 114.1798000000,22.3014900000 114.1797680000,22.3015150000 114.1797680000,22.3015150000 114.1796890000,22.3015760000 114.1796520000,22.3016200000 114.1795820000,22.3016900000 114.1794510000,22.3017770000 114.1793730000,22.3018290000 114.1792540000,22.3018920000 114.1790270000,22.3020100000 114.1790100000,22.3020190000 114.1788160000,22.3021190000 114.1781090000,22.3025230000 114.1777830000,22.3026590000 114.1776440000,22.3027030000 114.1775130000,22.3027570000 114.1773340000,22.3027550000 114.1772690000,22.3027450000 114.1772200000,22.3027290000 114.1771760000,22.3027090000 114.1771250000,22.3026830000 114.1770440000,22.3026400000 114.1770290000,22.3026120000 114.1769630000,22.3024940000 114.1768730000,22.3022870000 114.1767330000,22.3019130000 114.1765970000,22.3015200000 114.1764680000,22.3011410000 114.1764460000,22.3010740000 114.1763410000,22.3007860000 114.1762860000,22.3005720000 114.1762730000,22.3005190000 114.1761990000,22.3002410000 114.1761270000,22.3000400000 114.1760230000,22.2996640000 114.1759620000,22.2994470000 114.1759550000,22.2994030000 114.1759490000,22.2993670000 114.1758400000,22.2986960000 114.1758350000,22.2986620000 114.1757320000,22.2980300000 114.1756060000,22.2972480000 114.1755690000,22.2970440000 114.1753590000,22.2958870000 114.1753470000,22.2958230000 114.1753300000,22.2957270000 114.1753180000,22.2956490000 114.1753050000,22.2955550000 114.1753020000,22.2955140000 114.1752980000,22.2954300000 114.1753110000,22.2953000000 114.1753430000,22.2951790000 114.1752390000,22.2951450000 114.1751020000,22.2950780000 114.1748800000,22.2949940000 114.1746380000,22.2949190000 114.1745140000,22.2948810000 114.1744310000,22.2948550000 114.1743150000,22.2948230000 114.1741970000,22.2947940000 114.1740730000,22.2947640000 114.1740360000,22.2947560000 114.1739470000,22.2947340000 114.1736990000,22.2946930000 114.1736200000,22.2946840000 114.1735590000,22.2946750000 114.1735110000,22.2946700000 114.1734700000,22.2946700000 114.1733380000,22.2946800000 114.1732530000,22.2946820000 114.1732060000,22.2946800000 114.1730690000,22.2946790000 114.1728200000,22.2946600000 114.1727250000,22.2946290000 114.1726240000,22.2946050000 114.1725630000,22.2946030000 114.1724380000,22.2945970000 114.1723130000,22.2946120000 114.1721830000,22.2946050000 114.1720950000,22.2946020000 114.1720520000,22.2946010000 114.1719760000,22.2946110000 114.1717580000,22.2946050000 114.1716390000,22.2946010000 114.1715000000,22.2945970000 114.1713480000,22.2945930000 114.1712830000,22.2945910000 114.1712170000,22.2945920000 114.1711520000,22.2945940000 114.1710770000,22.2945750000 114.1709850000,22.2945530000 114.1709050000,22.2945340000 114.1708270000,22.2945240000 114.1706590000,22.2945070000 114.1705620000,22.2945080000 114.1704440000,22.2945130000 114.1702890000,22.2945060000 114.1697930000,22.2944290000 114.1697220000,22.2944140000 114.1696660000,22.2943960000 114.1696180000,22.2943730000 114.1695740000,22.2943490000 114.1695320000,22.2943250000 114.1694850000,22.2942900000 114.1694380000,22.2942420000 114.1694010000,22.2941880000 114.1693730000,22.2940240000 114.1693290000,22.2938930000 114.1693140000,22.2938480000 114.1692860000,22.2937950000 114.1692530000,22.2937470000 114.1691930000,22.2937050000 114.1691530000,22.2936910000 114.1691070000,22.2936810000 114.1690520000,22.2936820000 114.1690460000,22.2936840000 114.1690330000,22.2936870000 114.1689700000,22.2937110000 114.1689480000,22.2937270000 114.1689330000,22.2937430000 114.1689000000,22.2937770000 114.1688520000,22.2938310000 114.1688460000,22.2938390000 114.1688270000,22.2938660000 114.1688120000,22.2938870000 114.1687820000,22.2939290000 114.1687490000,22.2939660000 114.1687320000,22.2939850000 114.1687160000,22.2940040000 114.1686820000,22.2940410000 114.1686720000,22.2940790000 114.1686770000,22.2941020000 114.1686810000,22.2941180000 114.1687280000,22.2941750000 114.1687320000,22.2941800000 114.1688120000,22.2942790000 114.1688180000,22.2942830000 114.1688330000,22.2942970000 114.1688460000,22.2943080000 114.1688900000,22.2943340000 114.1689360000,22.2943520000 114.1690130000,22.2943690000 114.1690910000,22.2943850000 114.1691590000,22.2944000000 114.1691680000,22.2944020000 114.1691910000,22.2944040000 114.1692360000,22.2944080000 114.1694200000,22.2944230000 114.1694750000,22.2944440000 114.1695170000,22.2944610000 114.1696060000,22.2944960000 114.1701180000,22.2945840000 114.1702870000,22.2946130000 114.1704400000,22.2946400000 114.1704680000,22.2946800000 114.1704980000,22.2947230000 114.1705310000,22.2947670000 114.1705650000,22.2948220000 114.1705770000,22.2948530000 114.1705900000,22.2948820000 114.1704380000,22.2954400000 114.1704140000,22.2955260000 114.1703030000,22.2959040000 114.1702450000,22.2960440000 114.1702110000,22.2961670000 114.1702050000,22.2962670000 114.1700410000,22.2968150000 114.1699350000,22.2971620000 114.1699020000,22.2972720000 114.1698350000,22.2974530000 114.1695200000,22.2983280000 114.1694530000,22.2985460000 114.1693980000,22.2987260000 114.1693600000,22.2988320000 114.1691630000,22.2992010000 114.1689890000,22.2994740000 114.1687780000,22.2997140000 114.1687370000,22.2997660000 114.1686280000,22.2998980000 114.1686000000,22.2999280000 114.1685320000,22.2999880000 114.1684070000,22.2999870000 114.1682890000,22.2999670000 114.1682660000,22.2999630000 114.1679200000,22.2999010000 114.1678300000,22.2998820000 114.1677250000,22.2998590000 114.1676210000,22.2998370000 114.1675160000,22.2998150000 114.1673550000,22.3006730000 114.1673500000,22.3006990000 114.1674510000,22.3007170000 114.1675520000,22.3007340000 114.1676550000,22.3007520000 114.1677560000,22.3007700000 114.1679470000,22.3007980000 114.1679900000,22.3008050000 114.1680290000,22.3008110000 114.1680530000,22.3008150000 114.1680030000,22.3010470000 114.1679710000,22.3012440000 114.1679670000,22.3014440000 114.1679170000,22.3017760000 114.1679000000,22.3019880000 114.1679170000,22.3022510000 114.1679540000,22.3025530000 114.1679630000,22.3026800000 114.1679690000,22.3028280000 114.1679670000,22.3029380000 114.1679570000,22.3030230000 114.1679230000,22.3032180000 114.1678570000,22.3036210000 114.1677750000,22.3039330000 114.1677520000,22.3040220000 114.1675840000,22.3044980000 114.1675000000,22.3046390000 114.1674130000,22.3047800000 114.1673450000,22.3048890000 114.1672930000,22.3049700000 114.1671370000,22.3052070000 114.1670160000,22.3054110000 114.1669380000,22.3055620000 114.1668690000,22.3057350000 114.1668470000,22.3058560000 114.1660510000,22.3060430000 114.1657230000,22.3061140000 114.1654450000,22.3061820000 114.1653710000,22.3061990000 114.1651490000,22.3062310000 114.1650850000,22.3064080000 114.1649880000,22.3066540000 114.1649390000,22.3068200000 114.1649220000,22.3069260000 114.1648950000,22.3071020000 114.1648710000,22.3073840000 114.1648670000,22.3077490000 114.1648700000,22.3079300000 114.1648450000,22.3079710000 114.1647900000,22.3080020000 114.1647810000,22.3080070000 114.1647700000,22.3080100000 114.1645100000,22.3080360000 114.1644310000,22.3080520000 114.1643480000,22.3080930000 114.1643120000,22.3081450000 114.1642800000,22.3082180000 114.1642520000,22.3083170000 114.1640800000,22.3089820000 114.1640650000,22.3090680000 114.1640600000,22.3091360000 114.1640740000,22.3092250000 114.1641260000,22.3092800000 114.1641260000,22.3092800000 114.1642040000,22.3093050000 114.1646720000,22.3092410000 114.1648680000,22.3092100000 114.1649170000,22.3092030000 114.1649540000,22.3092000000 114.1650670000,22.3091810000 114.1652170000,22.3091560000 114.1651950000,22.3090360000 114.1651760000,22.3089480000 114.1651690000,22.3089170000 114.1651420000,22.3087820000 114.1651200000,22.3087100000 114.1650980000,22.3086380000 114.1650700000,22.3084500000 114.1650330000,22.3081900000 114.1650310000,22.3081650000 114.1650230000,22.3078750000 114.1650170000,22.3077450000 114.1650210000,22.3074230000 114.1650540000,22.3071000000 114.1650740000,22.3069190000 114.1651000000,22.3068240000 114.1651450000,22.3067130000 114.1652270000,22.3064880000 114.1652860000,22.3063690000 114.1653710000,22.3061990000 114.1654540000,22.3060530000 114.1655400000,22.3058730000 114.1657400000,22.3054690000 114.1660700000,22.3048250000 114.1661230000,22.3047260000 114.1662300000,22.3045100000 114.1665630000,22.3045940000 114.1667130000,22.3046340000 114.1668080000,22.3046590000 114.1668940000,22.3046910000 114.1670280000,22.3047420000 114.1671790000,22.3048010000 114.1673450000,22.3048890000 114.1674740000,22.3049560000 114.1675430000,22.3048490000 114.1677000000,22.3045720000 114.1677710000,22.3043700000 114.1678820000,22.3040580000 114.1679400000,22.3039040000 114.1679830000,22.3037150000 114.1680570000,22.3033900000 114.1680910000,22.3031770000 114.1681170000,22.3030320000 114.1681220000,22.3029490000 114.1681140000,22.3026690000 114.1681090000,22.3025550000 114.1680930000,22.3024290000 114.1680580000,22.3022310000 114.1680440000,22.3021150000 114.1680390000,22.3020070000 114.1680440000,22.3018860000 114.1680520000,22.3017950000 114.1680670000,22.3017000000 114.1681110000,22.3014750000 114.1682430000,22.3008020000 114.1682750000,22.3006900000 114.1683120000,22.3005930000 114.1683780000,22.3004640000 114.1684770000,22.3003270000 114.1685580000,22.3002210000 114.1685440000,22.3000600000 114.1685320000,22.2999880000 114.1684790000,22.2998740000 114.1684640000,22.2998350000 114.1684570000,22.2998160000 114.1684470000,22.2997560000 114.1684490000,22.2996950000 114.1684640000,22.2996350000 114.1685240000,22.2993620000 114.1685990000,22.2990250000 114.1688130000,22.2980620000 114.1688290000,22.2979910000 114.1689540000,22.2979980000 114.1695580000,22.2980310000 114.1697870000,22.2980450000 114.1701020000,22.2980600000 114.1704680000,22.2980770000 114.1710380000,22.2981100000 114.1715130000,22.2981360000 114.1720040000,22.2981560000 114.1720390000,22.2981570000 114.1720860000,22.2981590000 114.1721680000,22.2981630000 114.1722520000,22.2981650000 114.1726080000,22.2981750000 114.1726350000,22.2981790000 114.1736430000,22.2984750000 114.1736850000,22.2984820000 114.1737330000,22.2984710000 114.1738680000,22.2984170000 114.1739140000,22.2984080000 114.1739510000,22.2984120000 114.1739890000,22.2984150000 114.1752990000,22.2987790000 114.1753310000,22.2987850000 114.1753620000,22.2987890000 114.1753910000,22.2987890000 114.1755800000,22.2987660000 114.1756630000,22.2987540000 114.1757280000,22.2987450000 114.1758230000,22.2993390000 114.1758310000,22.2993840000 114.1758460000,22.2994780000 114.1758730000,22.2995770000 114.1759570000,22.2998780000 114.1759790000,22.2999560000 114.1759950000,22.3000120000 114.1760030000,22.3000400000 114.1760260000,22.3001230000 114.1760420000,22.3001800000 114.1761080000,22.3003070000 114.1761250000,22.3003720000 114.1761680000,22.3005240000 114.1762530000,22.3008340000 114.1762880000,22.3009720000 114.1763310000,22.3011000000 114.1763510000,22.3011570000 114.1764440000,22.3014360000 114.1764610000,22.3014870000 114.1764800000,22.3015460000 114.1765320000,22.3016970000 114.1766200000,22.3019540000 114.1767510000,22.3023170000 114.1768190000,22.3025050000 114.1768240000,22.3025180000 114.1768960000,22.3026660000 114.1769300000,22.3026890000 114.1769850000,22.3027260000 114.1770410000,22.3028180000 114.1770560000,22.3028420000 114.1771180000,22.3029390000 114.1771680000,22.3029600000 114.1771940000,22.3029690000 114.1772150000,22.3029750000 114.1772340000,22.3029800000 114.1772570000,22.3029820000 114.1773640000,22.3029320000 114.1774100000,22.3029110000 114.1775230000,22.3028720000 114.1780480000,22.3026490000 114.1782670000,22.3025620000 114.1783360000,22.3025380000 114.1784810000,22.3025080000 114.1787320000,22.3024590000 114.1791010000,22.3024240000 114.1792330000,22.3024130000 114.1792840000,22.3024160000 114.1793740000,22.3024200000 114.1794280000,22.3024560000 114.1794610000,22.3024690000 114.1794990000,22.3024820000 114.1796130000,22.3025460000 114.1796350000,22.3025600000 114.1796860000,22.3025940000 114.1797760000,22.3026680000 114.1798020000,22.3026980000 114.1798120000,22.3027100000 114.1798640000,22.3027720000 114.1801030000,22.3030870000 114.1801860000,22.3031970000 114.1802480000,22.3032700000 114.1803180000,22.3033420000 114.1804080000,22.3034230000 114.1805580000,22.3035370000 114.1807410000,22.3036910000 114.1808830000,22.3040220000 114.1809580000,22.3042040000 114.1810410000,22.3044040000 114.1810810000,22.3045000000 114.1812550000,22.3049180000 114.1813230000,22.3050740000 114.1813360000,22.3051100000 114.1813800000,22.3052320000 114.1814070000,22.3053050000 114.1814280000,22.3053970000 114.1814380000,22.3054730000 114.1814440000,22.3055590000 114.1814390000,22.3056370000 114.1814300000,22.3057050000 114.1814090000,22.3057990000 114.1813480000,22.3058510000 114.1813030000,22.3059030000 114.1812800000,22.3059330000 114.1812110000,22.3060340000 114.1811660000,22.3060880000 114.1810840000,22.3061790000 114.1810120000,22.3062440000 114.1809390000,22.3063110000 114.1809050000,22.3063410000 114.1808450000,22.3063940000 114.1808250000,22.3064130000 114.1808040000,22.3064350000 114.1807860000,22.3064630000 114.1807680000,22.3064980000 114.1807580000,22.3065260000 114.1807520000,22.3065530000 114.1807500000,22.3065830000 114.1807530000,22.3066140000 114.1807620000,22.3066420000 114.1807720000,22.3066650000 114.1807890000,22.3066910000 114.1808090000,22.3067130000 114.1808330000,22.3067320000 114.1808590000,22.3067480000 114.1808880000,22.3067600000 114.1809230000,22.3067690000 114.1809570000,22.3067720000 114.1809930000,22.3067700000 114.1810260000,22.3067630000 114.1810540000,22.3067530000 114.1810850000,22.3067360000 114.1811140000,22.3067180000 114.1811370000,22.3067030000 114.1812080000,22.3066490000 114.1812470000,22.3065950000 114.1813120000,22.3065030000 114.1813620000,22.3064260000 114.1814120000,22.3063370000 114.1814360000,22.3062840000 114.1814520000,22.3062400000 114.1814840000,22.3061160000 114.1815140000,22.3060580000 114.1815420000,22.3059900000 114.1815670000,22.3059130000 114.1815920000,22.3058110000 114.1816060000,22.3056980000 114.1816080000,22.3055890000 114.1816010000,22.3054770000 114.1815650000,22.3052920000 114.1815260000,22.3051840000 114.1814670000,22.3050200000 114.1814080000,22.3048800000 114.1812890000,22.3045890000 114.1812230000,22.3044290000 114.1811770000,22.3043200000 114.1810530000,22.3040210000 114.1809930000,22.3038730000 114.1809360000,22.3037350000 114.1808900000,22.3036240000 114.1808400000,22.3035040000 114.1807830000,22.3033620000 114.1807300000,22.3032180000 114.1806440000,22.3029870000 114.1806030000,22.3028740000 114.1805500000,22.3027100000 114.1805070000,22.3025540000 114.1804750000,22.3024230000 114.1804530000,22.3023080000 114.1804350000,22.3021960000 114.1804260000,22.3021210000 114.1804160000,22.3020450000 114.1804020000,22.3018950000 114.1803980000,22.3017820000 114.1803990000,22.3016660000 114.1804090000,22.3015520000 114.1804320000,22.3013570000 114.1804590000,22.3011640000 114.1804730000,22.3010600000 114.1804850000,22.3009530000 114.1805300000,22.3006570000 114.1805970000,22.3003290000 114.1806470000,22.3000300000 114.1806970000,22.2997190000 114.1808220000,22.2989630000 114.1825130000,22.2887340000 114.1831870000,22.2846590000 114.1831980000,22.2843750000 114.1831770000,22.2841610000 114.1831280000,22.2839770000 114.1830550000,22.2838110000 114.1829730000,22.2836590000 114.1829470000,22.2836110000 114.1827730000,22.2833600000 114.1825870000,22.2831320000 114.1824230000,22.2829760000 114.1823130000,22.2828680000 114.1822550000,22.2828120000 114.1821940000,22.2827520000 114.1821280000,22.2826880000 114.1819500000,22.2825150000 114.1819420000,22.2824480000 114.1819340000,22.2823960000 114.1819310000,22.2823660000 114.1819280000,22.2823360000 114.1819270000,22.2823030000 114.1819350000,22.2822500000 114.1819500000,22.2822000000 114.1819740000,22.2821500000 114.1820100000,22.2821000000 114.1820560000,22.2820570000 114.1821100000,22.2820250000 114.1821600000,22.2820070000 114.1822100000,22.2819980000 114.1822600000,22.2819970000 114.1823100000,22.2820000000 114.1826170000,22.2820720000 114.1826950000,22.2820640000 114.1827980000,22.2820550000 114.1829230000,22.2820710000 114.1830180000,22.2821070000 114.1830900000,22.2821340000 114.1831550000,22.2821590000 114.1833640000,22.2822340000 114.1835080000,22.2822920000 114.1835630000,22.2823140000 114.1838660000,22.2824360000 114.1840860000,22.2825590000 114.1842650000,22.2826710000 114.1844800000,22.2828210000 114.1845330000,22.2828740000 114.1846660000,22.2830090000 114.1849700000,22.2832450000 114.1852740000,22.2834880000 114.1855820000,22.2837280000 114.1856950000,22.2837910000 114.1857960000,22.2838410000 114.1859320000,22.2838970000 114.1860540000,22.2839410000 114.1861730000,22.2839750000 114.1862920000,22.2840060000 114.1864260000,22.2840350000 114.1864880000,22.2840470000 114.1866930000,22.2840500000 114.1867740000,22.2840660000 114.1869520000,22.2841070000 114.1871040000,22.2841440000 114.1876100000,22.2842750000 114.1877200000,22.2843050000 114.1878380000,22.2843420000 114.1879700000,22.2843900000 114.1880900000,22.2844370000 114.1882040000,22.2844860000 114.1883100000,22.2845400000 114.1884130000,22.2845970000 114.1885300000,22.2846700000 114.1886190000,22.2847370000 114.1886970000,22.2848020000 114.1887680000,22.2848730000 114.1888640000,22.2849840000 114.1889280000,22.2850720000 114.1889860000,22.2851690000 114.1890280000,22.2852480000 114.1890650000,22.2853290000 114.1891020000,22.2854210000 114.1891350000,22.2855250000 114.1891600000,22.2856300000 114.1891830000,22.2857430000 114.1892010000,22.2858470000 114.1892120000,22.2859280000 114.1892200000,22.2860170000 114.1892250000,22.2861030000 114.1892410000,22.2865280000 114.1892480000,22.2866600000 114.1892540000,22.2867350000 114.1892630000,22.2868160000 114.1892730000,22.2868840000 114.1892870000,22.2869540000 114.1893040000,22.2870240000 114.1893380000,22.2871190000 114.1893980000,22.2872690000 114.1894620000,22.2874010000 114.1895110000,22.2875030000 114.1896410000,22.2877610000 114.1897480000,22.2879730000 114.1897680000,22.2880120000 114.1899050000,22.2882920000 114.1900860000,22.2886490000 114.1902500000,22.2889500000 114.1903820000,22.2891680000 114.1904500000,22.2892800000 114.1905550000,22.2894300000 114.1905900000,22.2894800000 114.1907500000,22.2896800000 114.1910500000,22.2900000000 114.1913660000,22.2902870000 114.1921570000,22.2909910000 114.1923870000,22.2911680000 114.1924300000,22.2912020000 114.1925570000,22.2913050000 114.1926230000,22.2913590000 114.1926890000,22.2914090000 114.1928130000,22.2914980000 114.1930120000,22.2916410000 114.1930980000,22.2917060000 114.1931220000,22.2917220000 114.1931500000,22.2917410000 114.1931790000,22.2917610000 114.1933530000,22.2918870000 114.1934530000,22.2919710000 114.1935380000,22.2920420000 114.1935600000,22.2920570000 114.1935890000,22.2920770000 114.1936150000,22.2920950000 114.1937360000,22.2921760000 114.1938530000,22.2922540000 114.1939710000,22.2923350000 114.1942000000,22.2924760000 114.1942280000,22.2924930000 114.1943770000,22.2925660000 114.1944880000,22.2926190000 114.1946230000,22.2926870000 114.1946890000,22.2927190000 114.1947490000,22.2927490000 114.1949190000,22.2928180000 114.1950130000,22.2928550000 114.1951890000,22.2929160000 114.1952860000,22.2929460000 114.1954310000,22.2929870000 114.1955320000,22.2930090000 114.1956910000,22.2930430000 114.1958170000,22.2930670000 114.1960670000,22.2931130000 114.1961620000,22.2931270000 114.1963610000,22.2931600000 114.1964840000,22.2931820000 114.1966050000,22.2932070000 114.1967740000,22.2932440000 114.1968570000,22.2932610000 114.1971240000,22.2933140000 114.1979380000,22.2934830000 114.1980630000,22.2935070000 114.1981920000,22.2935260000 114.1984040000,22.2935500000 114.1985630000,22.2935620000 114.1987190000,22.2935680000 114.1989060000,22.2935720000 114.1992000000,22.2935690000 114.1994040000,22.2935740000 114.1995900000,22.2935850000 114.1997700000,22.2936020000 114.1999500000,22.2936270000 114.2001000000,22.2936520000 114.2004940000,22.2937360000 114.2005620000,22.2937500000 114.2020820000,22.2940720000 114.2025270000,22.2941570000 114.2026050000,22.2941710000 114.2028680000,22.2942240000 114.2031620000,22.2942590000 114.2034020000,22.2942690000 114.2035000000,22.2942730000 114.2037270000,22.2942740000 114.2040490000,22.2942660000 114.2044770000,22.2942460000 114.2047360000,22.2942070000 114.2049840000,22.2941880000 114.2050580000,22.2941820000 114.2052070000,22.2941700000 114.2052860000,22.2941600000 114.2054420000,22.2941380000 114.2056340000,22.2941100000 114.2060810000,22.2940220000 114.2063200000,22.2939500000 114.2065000000,22.2938900000 114.2069100000,22.2937200000 114.2072200000,22.2936000000 114.2075100000,22.2934900000 114.2077810000,22.2933920000 114.2082330000,22.2932500000 114.2085090000,22.2931560000 114.2087820000,22.2930640000 114.2089400000,22.2930070000 114.2090780000,22.2929240000 114.2092580000,22.2928120000 114.2094910000,22.2926640000 114.2097870000,22.2924670000 114.2103300000,22.2920690000 114.2107360000,22.2917730000 114.2110800000,22.2915210000 114.2112770000,22.2913910000 114.2114890000,22.2912520000 114.2115750000,22.2911980000 114.2117400000,22.2910950000 114.2120130000,22.2909330000 114.2121350000,22.2908620000 114.2122140000,22.2908150000 114.2122920000,22.2907670000 114.2124160000,22.2906960000 114.2125630000,22.2906120000 114.2128380000,22.2904560000 114.2130110000,22.2903960000 114.2131490000,22.2903480000 114.2132210000,22.2903240000 114.2132900000,22.2903010000 114.2133910000,22.2902620000 114.2136010000,22.2901930000 114.2137590000,22.2901410000 114.2141980000,22.2900120000 114.2152010000,22.2897580000 114.2159460000,22.2896540000 114.2160260000,22.2896450000 114.2161080000,22.2896380000 114.2162670000,22.2896280000 114.2166020000,22.2896030000 114.2170400000,22.2895700000 114.2171000000,22.2895620000 114.2171530000,22.2895500000 114.2172130000,22.2895330000 114.2172700000,22.2895140000 114.2173290000,22.2894890000 114.2173810000,22.2894610000 114.2174300000,22.2894300000 114.2175000000,22.2893800000 114.2175550000,22.2893300000 114.2176300000,22.2892450000 114.2176690000,22.2891890000 114.2177020000,22.2891300000 114.2177250000,22.2890800000 114.2177500000,22.2890170000 114.2177690000,22.2889300000 114.2177780000,22.2888600000 114.2177800000,22.2887800000 114.2177700000,22.2886800000 114.2177600000,22.2886300000 114.2177370000,22.2885600000 114.2175500000,22.2881700000 114.2175170000,22.2880910000 114.2174800000,22.2880000000 114.2174590000,22.2879490000 114.2174350000,22.2878720000 114.2173790000,22.2877600000 114.2173660000,22.2876510000 114.2173680000,22.2875890000 114.2173800000,22.2875460000 114.2173850000,22.2875270000 114.2173920000,22.2874990000 114.2174100000,22.2874690000 114.2174320000,22.2874290000 114.2174970000,22.2873740000 114.2176570000,22.2873410000 114.2179050000,22.2873370000 114.2181070000,22.2873370000 114.2182350000,22.2873320000 114.2182700000,22.2873310000 114.2183340000,22.2873280000 114.2184010000,22.2873250000 114.2184840000,22.2873100000 114.2185470000,22.2873110000 114.2185970000,22.2873110000 114.2190420000,22.2873100000 114.2191380000,22.2873100000 114.2192960000,22.2873100000 114.2194000000,22.2873130000 114.2195030000,22.2873120000 114.2196070000,22.2873130000 114.2197320000,22.2873160000 114.2198100000,22.2872940000 114.2198610000,22.2872740000 114.2199090000,22.2872440000 114.2199600000,22.2872010000 114.2200110000,22.2871370000 114.2200130000,22.2868910000 114.2200110000,22.2863590000 114.2200110000,22.2862790000 114.2200570000,22.2862150000 114.2200900000,22.2861960000 114.2202180000,22.2861820000 114.2202670000,22.2861820000 114.2203900000,22.2861820000 114.2205180000,22.2861800000 114.2205900000,22.2861730000 114.2206530000,22.2861540000 114.2207130000,22.2861120000 114.2207620000,22.2860600000 114.2207910000,22.2859980000 114.2208070000,22.2859380000 114.2208290000,22.2858090000 114.2208640000,22.2854750000 114.2208860000,22.2853770000 114.2208840000,22.2852970000 114.2208760000,22.2852260000 114.2208620000,22.2851730000 114.2208430000,22.2851320000 114.2208140000,22.2850660000 114.2207850000,22.2850220000 114.2207500000,22.2849790000 114.2206980000,22.2849220000 114.2206400000,22.2848690000 114.2204410000,22.2847260000 114.2202330000,22.2845770000 114.2202180000,22.2845660000 114.2201230000,22.2844980000 114.2202410000,22.2843540000 114.2206620000,22.2838130000 114.2209860000,22.2834030000 114.2212450000,22.2830700000 114.2213170000,22.2829780000 114.2213770000,22.2830200000 114.2215850000,22.2831620000 114.2216600000,22.2832130000 114.2218290000,22.2833290000 114.2218720000,22.2833580000 114.2219410000,22.2834050000 114.2219920000,22.2834400000 114.2220730000,22.2834370000 114.2221090000,22.2834310000 114.2221420000,22.2834160000 114.2221540000,22.2834040000 114.2221700000,22.2833910000 114.2221820000,22.2833740000 114.2222390000,22.2833020000 114.2223100000,22.2832170000 114.2226330000,22.2828100000 114.2226580000,22.2827760000 114.2226740000,22.2827410000 114.2226800000,22.2826990000 114.2226780000,22.2826860000 114.2226750000,22.2826710000 114.2226670000,22.2826480000 114.2226230000,22.2825280000 114.2225770000,22.2824960000 114.2223970000,22.2823670000 114.2222020000,22.2822340000 114.2220900000,22.2821170000 114.2220320000,22.2820670000 114.2219660000,22.2820180000 114.2219480000,22.2820030000 114.2219190000,22.2819810000 114.2218830000,22.2819540000 114.2218190000,22.2819120000 114.2215430000,22.2817240000 114.2214800000,22.2816820000 114.2212590000,22.2815320000 114.2208440000,22.2812560000 114.2207680000,22.2812020000 114.2207070000,22.2811590000 114.2206690000,22.2811300000 114.2206400000,22.2811040000 114.2206160000,22.2810750000 114.2206070000,22.2810490000 114.2206050000,22.2810190000 114.2206100000,22.2809900000 114.2206200000,22.2809640000 114.2206380000,22.2809290000 114.2206600000,22.2808940000 114.2206850000,22.2808590000 114.2207790000,22.2807370000 114.2208180000,22.2806790000 114.2208710000,22.2805850000 114.2209090000,22.2805070000 114.2209290000,22.2804550000 114.2209440000,22.2804090000 114.2209540000,22.2803530000 114.2209600000,22.2803000000 114.2209570000,22.2802290000 114.2209330000,22.2801380000 114.2209170000,22.2800980000 114.2208980000,22.2800600000 114.2208780000,22.2800280000 114.2208550000,22.2799970000 114.2208280000,22.2799670000 114.2207980000,22.2799350000 114.2207610000,22.2799030000 114.2207200000,22.2798740000 114.2206840000,22.2798540000 114.2206420000,22.2798350000 114.2206000000,22.2798190000 114.2205520000,22.2798050000 114.2205030000,22.2797940000 114.2204530000,22.2797870000 114.2204030000,22.2797840000 114.2203520000,22.2797880000 114.2203000000,22.2797980000 114.2202000000,22.2798300000 114.2201000000,22.2798820000 114.2200700000,22.2799000000 114.2199780000,22.2799980000 114.2198990000,22.2801000000 114.2198400000,22.2802000000 114.2197800000,22.2803000000 114.2197500000,22.2803760000 114.2197400000,22.2804000000 114.2196900000,22.2805000000 114.2196300000,22.2806000000 114.2195600000,22.2807000000 114.2194700000,22.2808000000 114.2193920000,22.2808610000 114.2192980000,22.2809120000 114.2192280000,22.2809450000 114.2191190000,22.2809880000 114.2190500000,22.2810090000 114.2189770000,22.2810250000 114.2189170000,22.2810300000 114.2188080000,22.2810310000 114.2186850000,22.2810180000 114.2185300000,22.2810020000 114.2184760000,22.2809830000 114.2184190000,22.2809590000 114.2183540000,22.2809270000 114.2182870000,22.2808860000 114.2182200000,22.2808370000 114.2181690000,22.2807920000 114.2180850000,22.2806910000 114.2180420000,22.2806250000 114.2180050000,22.2805570000 114.2179740000,22.2804870000 114.2179500000,22.2804150000 114.2179350000,22.2803440000 114.2179250000,22.2802730000 114.2179210000,22.2801940000 114.2179240000,22.2801330000 114.2179350000,22.2800510000 114.2179550000,22.2799640000 114.2179850000,22.2798820000 114.2180060000,22.2798440000 114.2180640000,22.2797560000 114.2180750000,22.2797400000 114.2183890000,22.2792590000 114.2184270000,22.2792060000 114.2184720000,22.2791530000 114.2185100000,22.2791140000 114.2185650000,22.2790650000 114.2186300000,22.2790140000 114.2186890000,22.2789780000 114.2187610000,22.2789450000 114.2188350000,22.2789180000 114.2189190000,22.2788950000 114.2189980000,22.2788820000 114.2190930000,22.2788770000 114.2191460000,22.2788790000 114.2191890000,22.2788830000 114.2201590000,22.2790030000 114.2202460000,22.2790190000 114.2203200000,22.2790400000 114.2203930000,22.2790630000 114.2205760000,22.2791210000 114.2207330000,22.2791700000 114.2210200000,22.2792610000 114.2211010000,22.2792810000 114.2211810000,22.2792970000 114.2212660000,22.2793050000 114.2213570000,22.2793070000 114.2214500000,22.2793030000 114.2215490000,22.2792900000 114.2216490000,22.2792680000 114.2217470000,22.2792410000 114.2218680000,22.2791960000 114.2219900000,22.2791410000 114.2221050000,22.2790740000 114.2222170000,22.2789970000 114.2223140000,22.2789120000 114.2223960000,22.2788260000 114.2224680000,22.2787440000 114.2225930000,22.2785830000 114.2228310000,22.2782670000 114.2229610000,22.2780950000 114.2232270000,22.2777400000 114.2234000000,22.2775100000 114.2235780000,22.2772730000 114.2237760000,22.2770100000 114.2239530000,22.2767740000 114.2240730000,22.2766150000 114.2245270000,22.2760110000 114.2245940000,22.2759270000 114.2246690000,22.2758460000 114.2247870000,22.2757420000 114.2248670000,22.2756830000 114.2249450000,22.2756330000 114.2250690000,22.2755830000 114.2251990000,22.2755470000 114.2253340000,22.2755260000 114.2254690000,22.2755210000 114.2256050000,22.2755320000 114.2257380000,22.2755580000 114.2258660000,22.2755990000 114.2259880000,22.2756550000 114.2262120000,22.2758010000 114.2262560000,22.2758380000 114.2263220000,22.2759040000 114.2263590000,22.2759430000 114.2264020000,22.2759880000 114.2264660000,22.2760840000 114.2265120000,22.2761880000 114.2265380000,22.2762970000 114.2265450000,22.2764090000 114.2265310000,22.2765210000 114.2264970000,22.2766290000 114.2264440000,22.2767300000 114.2261350000,22.2772840000 114.2258150000,22.2778840000 114.2264820000,22.2782330000 114.2265440000,22.2782660000 114.2265870000,22.2782860000 114.2266080000,22.2782970000 114.2266320000,22.2783090000 114.2268930000,22.2778750000 114.2269840000,22.2777290000 114.2270500000,22.2776460000 114.2271230000,22.2775830000 114.2271790000,22.2775490000 114.2280260000,22.2771020000 114.2282110000,22.2770180000 114.2283010000,22.2774100000 114.2283630000,22.2776890000 114.2283820000,22.2777750000 114.2284600000,22.2781250000 114.2285230000,22.2785590000 114.2285270000,22.2785860000 114.2285440000,22.2786080000 114.2285680000,22.2786210000 114.2285950000,22.2786220000 114.2286960000,22.2786050000 114.2291070000,22.2785240000 114.2293950000,22.2784670000 114.2294480000,22.2784680000 114.2294940000,22.2784750000 114.2295370000,22.2784940000 114.2295710000,22.2785230000 114.2295950000,22.2785610000 114.2296120000,22.2786150000 114.2295850000,22.2787370000 114.2295290000,22.2789140000 114.2295080000,22.2789760000 114.2294920000,22.2790300000 114.2294060000,22.2791840000 114.2293970000,22.2792240000 114.2293570000,22.2794130000 114.2292300000,22.2795300000 114.2291820000,22.2795590000 114.2291560000,22.2795740000 114.2291300000,22.2795900000 114.2284740000,22.2795940000 114.2284150000,22.2795950000 114.2283740000,22.2795950000 114.2282210000,22.2796040000 114.2281310000,22.2796040000 114.2281300000,22.2796800000 114.2281300000,22.2798400000 114.2281300000,22.2803200000 114.2281300000,22.2809750000 114.2281300000,22.2814700000 114.2281300000,22.2819640000 114.2281300000,22.2819760000 114.2281300000,22.2821700000 114.2281500000,22.2823000000 114.2281500000,22.2824000000 114.2281500000,22.2826000000 114.2281490000,22.2826480000 114.2281410000,22.2826810000 114.2281240000,22.2827150000 114.2280980000,22.2827470000 114.2280720000,22.2827710000 114.2280340000,22.2827940000 114.2279780000,22.2828110000 114.2279000000,22.2828140000 114.2276070000,22.2828140000 114.2271400000,22.2828140000 114.2270100000,22.2828140000 114.2269200000,22.2828140000 114.2267100000,22.2828140000 114.2265340000,22.2828140000 114.2263400000,22.2828140000 114.2262630000,22.2828200000 114.2261950000,22.2828360000 114.2261230000,22.2828650000 114.2260540000,22.2829170000 114.2259270000,22.2830390000 114.2255720000,22.2833790000 114.2253850000,22.2835570000 114.2247400000,22.2841560000 114.2246700000,22.2842220000 114.2246000000,22.2842870000 114.2245470000,22.2843370000 114.2237840000,22.2850610000 114.2240400000,22.2853030000 114.2241100000,22.2852460000 114.2243600000,22.2850300000 114.2245260000,22.2848720000</coordinates>
                </LineString>
                <ExtendedData>
                    <Data name="length">
                        <value>35180.07384367836</value>
                    </Data>
                    <Data name="duration">
                        <value>00:51:51</value>
                    </Data>
                </ExtendedData>
            </Placemark>
        </Document>
    </Document>
</kml>