<?xml version="1.0" encoding="UTF-8"?>
<kml xmlns="http://www.opengis.net/kml/2.2" xmlns:gx="http://www.google.com/kml/ext/2.2">
    <Document>
        <name>Route</name>
        <Folder>
            <name>Route Request</name>
            <Placemark>
                <Point>
                    <coordinates>114.2506309064,22.2662477411</coordinates>
                </Point>
                <ExtendedData>
                    <Data name="routingVisited">
                        <value>false</value>
                    </Data>
                </ExtendedData>
            </Placemark>
            <Placemark>
                <Point>
                    <coordinates>114.2506968405,22.2623329564</coordinates>
                </Point>
            </Placemark>
            <Placemark>
                <address>Block 47, Shing Tai Road, Chai Wan, Eastern District, Hong Kong, SIL 739, PRC</address>
                <Point>
                    <coordinates>114.2407980335,22.2760513489</coordinates>
                </Point>
                <ExtendedData>
                    <Data name="country">
                        <value>PRC</value>
                    </Data>
                    <Data name="road">
                        <value>Shing Tai Road</value>
                    </Data>
                    <Data name="suburb">
                        <value>Chai Wan</value>
                    </Data>
                    <Data name="country_code">
                        <value>cn</value>
                    </Data>
                    <Data name="postcode">
                        <value>SIL 739</value>
                    </Data>
                    <Data name="building">
                        <value>Block 47</value>
                    </Data>
                    <Data name="county">
                        <value>Eastern District</value>
                    </Data>
                </ExtendedData>
            </Placemark>
            <Placemark>
                <address>Wan Chai Interchange, Kellett Island, Wan Chai District, Hong Kong, TIMES SQUARE MALL 13F, PRC</address>
                <Point>
                    <coordinates>114.1797570467,22.2819464140</coordinates>
                </Point>
                <ExtendedData>
                    <Data name="country">
                        <value>PRC</value>
                    </Data>
                    <Data name="road">
                        <value>Wan Chai Interchange</value>
                    </Data>
                    <Data name="suburb">
                        <value>Kellett Island</value>
                    </Data>
                    <Data name="country_code">
                        <value>cn</value>
                    </Data>
                    <Data name="postcode">
                        <value>TIMES SQUARE MALL 13F</value>
                    </Data>
                    <Data name="county">
                        <value>Wan Chai District</value>
                    </Data>
                </ExtendedData>
            </Placemark>
            <Placemark>
                <address>Cross-Harbour Tunnel, Kellett Island, Wan Chai District, Hong Kong, HYSAN PLACE 12F, PRC</address>
                <Point>
                    <coordinates>114.1806235784,22.2951049793</coordinates>
                </Point>
                <ExtendedData>
                    <Data name="country">
                        <value>PRC</value>
                    </Data>
                    <Data name="road">
                        <value>Cross-Harbour Tunnel</value>
                    </Data>
                    <Data name="suburb">
                        <value>Kellett Island</value>
                    </Data>
                    <Data name="country_code">
                        <value>cn</value>
                    </Data>
                    <Data name="postcode">
                        <value>HYSAN PLACE 12F</value>
                    </Data>
                    <Data name="county">
                        <value>Wan Chai District</value>
                    </Data>
                </ExtendedData>
            </Placemark>
            <Placemark>
                <address>Garden Restaurant, Nathan Road, King's Park, Yau Tsim Mong District, Hong Kong, KIL 3348, PRC</address>
                <Point>
                    <coordinates>114.1709935548,22.3105970112</coordinates>
                </Point>
                <ExtendedData>
                    <Data name="country">
                        <value>PRC</value>
                    </Data>
                    <Data name="road">
                        <value>Nathan Road</value>
                    </Data>
                    <Data name="suburb">
                        <value>King's Park</value>
                    </Data>
                    <Data name="restaurant">
                        <value>Garden Restaurant</value>
                    </Data>
                    <Data name="country_code">
                        <value>cn</value>
                    </Data>
                    <Data name="postcode">
                        <value>KIL 3348</value>
                    </Data>
                    <Data name="county">
                        <value>Yau Tsim Mong District</value>
                    </Data>
                </ExtendedData>
            </Placemark>
            <Placemark>
                <address>Mongkok Market Complex, Argyle Street, Mong Kok, Yau Tsim Mong District, Hong Kong, KIL 3348, PRC</address>
                <Point>
                    <coordinates>114.1670097647,22.3187928832</coordinates>
                </Point>
                <ExtendedData>
                    <Data name="bus_stop">
                        <value>Mongkok Market Complex</value>
                    </Data>
                    <Data name="country">
                        <value>PRC</value>
                    </Data>
                    <Data name="road">
                        <value>Argyle Street</value>
                    </Data>
                    <Data name="suburb">
                        <value>Mong Kok</value>
                    </Data>
                    <Data name="country_code">
                        <value>cn</value>
                    </Data>
                    <Data name="postcode">
                        <value>KIL 3348</value>
                    </Data>
                    <Data name="county">
                        <value>Yau Tsim Mong District</value>
                    </Data>
                </ExtendedData>
            </Placemark>
            <Placemark>
                <address>HSBC Centre Tower 1, Sham Mong Road, Tai Kok Tsui, Yau Tsim Mong District, Hong Kong, KIL 3348, PRC</address>
                <Point>
                    <coordinates>114.1609155709,22.3184455037</coordinates>
                </Point>
                <ExtendedData>
                    <Data name="country">
                        <value>PRC</value>
                    </Data>
                    <Data name="road">
                        <value>Sham Mong Road</value>
                    </Data>
                    <Data name="suburb">
                        <value>Tai Kok Tsui</value>
                    </Data>
                    <Data name="country_code">
                        <value>cn</value>
                    </Data>
                    <Data name="postcode">
                        <value>KIL 3348</value>
                    </Data>
                    <Data name="building">
                        <value>HSBC Centre Tower 1</value>
                    </Data>
                    <Data name="county">
                        <value>Yau Tsim Mong District</value>
                    </Data>
                </ExtendedData>
            </Placemark>
            <Placemark>
                <address>Nam Cheong Park, Sham Mong Road, Sham Shui Po, Sham Shui Po District, Hong Kong, KIL 3348, PRC</address>
                <Point>
                    <coordinates>114.1573574681,22.3248056002</coordinates>
                </Point>
                <ExtendedData>
                    <Data name="bus_stop">
                        <value>Nam Cheong Park</value>
                    </Data>
                    <Data name="country">
                        <value>PRC</value>
                    </Data>
                    <Data name="road">
                        <value>Sham Mong Road</value>
                    </Data>
                    <Data name="suburb">
                        <value>Sham Shui Po</value>
                    </Data>
                    <Data name="country_code">
                        <value>cn</value>
                    </Data>
                    <Data name="postcode">
                        <value>KIL 3348</value>
                    </Data>
                    <Data name="county">
                        <value>Sham Shui Po District</value>
                    </Data>
                </ExtendedData>
            </Placemark>
            <Placemark>
                <address>Hoi Shing House, Lin Cheung Road, Cheung Sha Wan, Sham Shui Po District, Hong Kong, 852, PRC</address>
                <Point>
                    <coordinates>114.1510161735,22.3290909123</coordinates>
                </Point>
                <ExtendedData>
                    <Data name="country">
                        <value>PRC</value>
                    </Data>
                    <Data name="road">
                        <value>Lin Cheung Road</value>
                    </Data>
                    <Data name="suburb">
                        <value>Cheung Sha Wan</value>
                    </Data>
                    <Data name="country_code">
                        <value>cn</value>
                    </Data>
                    <Data name="postcode">
                        <value>852</value>
                    </Data>
                    <Data name="building">
                        <value>Hoi Shing House</value>
                    </Data>
                    <Data name="county">
                        <value>Sham Shui Po District</value>
                    </Data>
                </ExtendedData>
            </Placemark>
            <Placemark>
                <address>Cheong Chit House, Sham Mong Road, Sham Shui Po, Sham Shui Po District, Hong Kong, KIL 3348, PRC</address>
                <Point>
                    <coordinates>114.1576446736,22.3250790923</coordinates>
                </Point>
                <ExtendedData>
                    <Data name="country">
                        <value>PRC</value>
                    </Data>
                    <Data name="road">
                        <value>Sham Mong Road</value>
                    </Data>
                    <Data name="suburb">
                        <value>Sham Shui Po</value>
                    </Data>
                    <Data name="country_code">
                        <value>cn</value>
                    </Data>
                    <Data name="postcode">
                        <value>KIL 3348</value>
                    </Data>
                    <Data name="building">
                        <value>Cheong Chit House</value>
                    </Data>
                    <Data name="county">
                        <value>Sham Shui Po District</value>
                    </Data>
                </ExtendedData>
            </Placemark>
            <Placemark>
                <address>HSBC Centre Tower 1, Sham Mong Road, Tai Kok Tsui, Yau Tsim Mong District, Hong Kong, KIL 3348, PRC</address>
                <Point>
                    <coordinates>114.1609229541,22.3184455038</coordinates>
                </Point>
                <ExtendedData>
                    <Data name="country">
                        <value>PRC</value>
                    </Data>
                    <Data name="road">
                        <value>Sham Mong Road</value>
                    </Data>
                    <Data name="suburb">
                        <value>Tai Kok Tsui</value>
                    </Data>
                    <Data name="country_code">
                        <value>cn</value>
                    </Data>
                    <Data name="postcode">
                        <value>KIL 3348</value>
                    </Data>
                    <Data name="building">
                        <value>HSBC Centre Tower 1</value>
                    </Data>
                    <Data name="county">
                        <value>Yau Tsim Mong District</value>
                    </Data>
                </ExtendedData>
            </Placemark>
            <Placemark>
                <address>Mayfair Centre, Anchor Street, Mong Kok, Yau Tsim Mong District, Hong Kong, KIL 3348, PRC</address>
                <Point>
                    <coordinates>114.1646611124,22.3204228631</coordinates>
                </Point>
                <ExtendedData>
                    <Data name="country">
                        <value>PRC</value>
                    </Data>
                    <Data name="road">
                        <value>Anchor Street</value>
                    </Data>
                    <Data name="suburb">
                        <value>Mong Kok</value>
                    </Data>
                    <Data name="country_code">
                        <value>cn</value>
                    </Data>
                    <Data name="postcode">
                        <value>KIL 3348</value>
                    </Data>
                    <Data name="mall">
                        <value>Mayfair Centre</value>
                    </Data>
                    <Data name="county">
                        <value>Yau Tsim Mong District</value>
                    </Data>
                </ExtendedData>
            </Placemark>
            <Placemark>
                <address>213, Nathan Road, Mong Kok, Yau Tsim Mong District, Hong Kong, KIL 3348, PRC</address>
                <Point>
                    <coordinates>114.1701993780,22.3160062209</coordinates>
                </Point>
                <ExtendedData>
                    <Data name="post_box">
                        <value>213</value>
                    </Data>
                    <Data name="country">
                        <value>PRC</value>
                    </Data>
                    <Data name="road">
                        <value>Nathan Road</value>
                    </Data>
                    <Data name="suburb">
                        <value>Mong Kok</value>
                    </Data>
                    <Data name="country_code">
                        <value>cn</value>
                    </Data>
                    <Data name="postcode">
                        <value>KIL 3348</value>
                    </Data>
                    <Data name="county">
                        <value>Yau Tsim Mong District</value>
                    </Data>
                </ExtendedData>
            </Placemark>
            <Placemark>
                <address>Kowloon Central Post Office, Central Kowloon Route, Oi Man Estate, Kowloon, Kowloon City District, Hong Kong, KIL 3348, PRC</address>
                <Point>
                    <coordinates>114.1715825485,22.3095496818</coordinates>
                </Point>
                <ExtendedData>
                    <Data name="bus_stop">
                        <value>Kowloon Central Post Office</value>
                    </Data>
                    <Data name="country">
                        <value>PRC</value>
                    </Data>
                    <Data name="city">
                        <value>Kowloon</value>
                    </Data>
                    <Data name="country_code">
                        <value>cn</value>
                    </Data>
                    <Data name="postcode">
                        <value>KIL 3348</value>
                    </Data>
                    <Data name="construction">
                        <value>Central Kowloon Route</value>
                    </Data>
                    <Data name="residential">
                        <value>Oi Man Estate</value>
                    </Data>
                    <Data name="county">
                        <value>Kowloon City District</value>
                    </Data>
                </ExtendedData>
            </Placemark>
            <Placemark>
                <address>Cross-Harbour Tunnel, Kellett Island, Wan Chai District, Hong Kong, HYSAN PLACE 12F, PRC</address>
                <Point>
                    <coordinates>114.1830720467,22.2888131591</coordinates>
                </Point>
                <ExtendedData>
                    <Data name="country">
                        <value>PRC</value>
                    </Data>
                    <Data name="road">
                        <value>Cross-Harbour Tunnel</value>
                    </Data>
                    <Data name="suburb">
                        <value>Kellett Island</value>
                    </Data>
                    <Data name="country_code">
                        <value>cn</value>
                    </Data>
                    <Data name="postcode">
                        <value>HYSAN PLACE 12F</value>
                    </Data>
                    <Data name="county">
                        <value>Wan Chai District</value>
                    </Data>
                </ExtendedData>
            </Placemark>
            <Placemark>
                <address>Leisure and Cultural Services Department, Shing Tai Road, Chai Wan, Eastern District, Hong Kong, SIL 739, PRC</address>
                <Point>
                    <coordinates>114.2416837318,22.2748492206</coordinates>
                </Point>
                <ExtendedData>
                    <Data name="country">
                        <value>PRC</value>
                    </Data>
                    <Data name="road">
                        <value>Shing Tai Road</value>
                    </Data>
                    <Data name="toilets">
                        <value>Leisure and Cultural Services Department</value>
                    </Data>
                    <Data name="suburb">
                        <value>Chai Wan</value>
                    </Data>
                    <Data name="country_code">
                        <value>cn</value>
                    </Data>
                    <Data name="postcode">
                        <value>SIL 739</value>
                    </Data>
                    <Data name="county">
                        <value>Eastern District</value>
                    </Data>
                </ExtendedData>
            </Placemark>
            <Placemark>
                <address>Cheerful Garden Multi-Storey Car Park, Siu Sai Wan Road, Siu Sai Wan, Eastern District, Hong Kong, SIL 739, PRC</address>
                <Point>
                    <coordinates>114.2514349435,22.2631252039</coordinates>
                </Point>
                <ExtendedData>
                    <Data name="country">
                        <value>PRC</value>
                    </Data>
                    <Data name="road">
                        <value>Siu Sai Wan Road</value>
                    </Data>
                    <Data name="suburb">
                        <value>Siu Sai Wan</value>
                    </Data>
                    <Data name="country_code">
                        <value>cn</value>
                    </Data>
                    <Data name="postcode">
                        <value>SIL 739</value>
                    </Data>
                    <Data name="building">
                        <value>Cheerful Garden Multi-Storey Car Park</value>
                    </Data>
                    <Data name="county">
                        <value>Eastern District</value>
                    </Data>
                </ExtendedData>
            </Placemark>
            <Placemark>
                <address>Siu Sai Wan (Island Resort) Bus Terminus, Siu Sai Wan Road, Siu Sai Wan, Eastern District, Hong Kong, SIL 739, PRC</address>
                <Point>
                    <coordinates>114.2506087648,22.2662374959</coordinates>
                </Point>
                <ExtendedData>
                    <Data name="country">
                        <value>PRC</value>
                    </Data>
                    <Data name="road">
                        <value>Siu Sai Wan Road</value>
                    </Data>
                    <Data name="suburb">
                        <value>Siu Sai Wan</value>
                    </Data>
                    <Data name="country_code">
                        <value>cn</value>
                    </Data>
                    <Data name="postcode">
                        <value>SIL 739</value>
                    </Data>
                    <Data name="bus_station">
                        <value>Siu Sai Wan (Island Resort) Bus Terminus</value>
                    </Data>
                    <Data name="county">
                        <value>Eastern District</value>
                    </Data>
                </ExtendedData>
            </Placemark>
        </Folder>
        <Document>
            <name>42.3 km; 01:50 h (OSRM)</name>
            <Placemark>
                <name>Route</name>
                <LineString>
                    <coordinates>114.2506550000,22.2662300000 114.2506910000,22.2662700000 114.2507290000,22.2663130000 114.2507620000,22.2663510000 114.2508060000,22.2663970000 114.2512660000,22.2660090000 114.2512280000,22.2659670000 114.2511950000,22.2659310000 114.2511560000,22.2658880000 114.2511210000,22.2658510000 114.2510840000,22.2658100000 114.2510500000,22.2657730000 114.2510190000,22.2657410000 114.2509660000,22.2656830000 114.2509580000,22.2656750000 114.2509490000,22.2656700000 114.2509390000,22.2656680000 114.2509290000,22.2656670000 114.2509070000,22.2656690000 114.2508970000,22.2656710000 114.2508810000,22.2656790000 114.2508690000,22.2656860000 114.2508560000,22.2656950000 114.2508440000,22.2657050000 114.2508270000,22.2657230000 114.2508090000,22.2657420000 114.2507930000,22.2657630000 114.2507820000,22.2657850000 114.2507770000,22.2657990000 114.2507740000,22.2658140000 114.2507660000,22.2658440000 114.2507600000,22.2658590000 114.2507510000,22.2658770000 114.2507420000,22.2658910000 114.2507300000,22.2659060000 114.2507170000,22.2659170000 114.2507010000,22.2659260000 114.2506850000,22.2659340000 114.2506690000,22.2659390000 114.2506510000,22.2659430000 114.2506330000,22.2659450000 114.2506160000,22.2659450000 114.2506000000,22.2659430000 114.2505790000,22.2659320000 114.2505620000,22.2659190000 114.2505450000,22.2659040000 114.2505300000,22.2658900000 114.2504630000,22.2658080000 114.2507000000,22.2656300000 114.2510300000,22.2653900000 114.2510440000,22.2653780000 114.2513580000,22.2651160000 114.2515740000,22.2649070000 114.2516450000,22.2648310000 114.2517300000,22.2647510000 114.2518020000,22.2646640000 114.2520000000,22.2643500000 114.2520700000,22.2641700000 114.2520900000,22.2640600000 114.2520920000,22.2639300000 114.2520680000,22.2637600000 114.2520270000,22.2636050000 114.2519700000,22.2634800000 114.2518700000,22.2633400000 114.2517600000,22.2632000000 114.2516780000,22.2631020000 114.2514900000,22.2629200000 114.2513000000,22.2627600000 114.2511230000,22.2626400000 114.2510290000,22.2625820000 114.2509600000,22.2625400000 114.2509040000,22.2625130000 114.2507700000,22.2624500000 114.2506640000,22.2624130000 114.2506550000,22.2624100000 114.2505400000,22.2623800000 114.2504200000,22.2623630000 114.2503000000,22.2623600000 114.2501700000,22.2623700000 114.2500400000,22.2624000000 114.2500000000,22.2624140000 114.2499000000,22.2624500000 114.2497770000,22.2625070000 114.2496800000,22.2625700000 114.2495930000,22.2626520000 114.2495390000,22.2627160000 114.2494670000,22.2628010000 114.2494120000,22.2628820000 114.2490640000,22.2633920000 114.2488630000,22.2636760000 114.2485850000,22.2640460000 114.2485340000,22.2641040000 114.2482300000,22.2644500000 114.2481500000,22.2645390000 114.2479950000,22.2646900000 114.2478000000,22.2648700000 114.2472900000,22.2652900000 114.2471900000,22.2653600000 114.2469460000,22.2654880000 114.2468110000,22.2655690000 114.2467090000,22.2656150000 114.2465200000,22.2656900000 114.2463500000,22.2657400000 114.2462000000,22.2657810000 114.2460500000,22.2658200000 114.2457600000,22.2658400000 114.2456300000,22.2658450000 114.2453500000,22.2658300000 114.2450700000,22.2657900000 114.2449660000,22.2657710000 114.2447800000,22.2657380000 114.2445710000,22.2656960000 114.2441600000,22.2656550000 114.2441030000,22.2656560000 114.2440380000,22.2656630000 114.2438460000,22.2657250000 114.2436310000,22.2658210000 114.2434210000,22.2659490000 114.2432550000,22.2661170000 114.2431340000,22.2662970000 114.2427020000,22.2670070000 114.2420360000,22.2677890000 114.2417570000,22.2680890000 114.2416340000,22.2682040000 114.2415340000,22.2682790000 114.2413910000,22.2683650000 114.2410990000,22.2685190000 114.2406530000,22.2687170000 114.2398400000,22.2690690000 114.2397860000,22.2690900000 114.2395950000,22.2690920000 114.2394650000,22.2690060000 114.2392870000,22.2686790000 114.2391310000,22.2686130000 114.2389260000,22.2685970000 114.2388460000,22.2686320000 114.2386290000,22.2687430000 114.2385300000,22.2688420000 114.2384580000,22.2689600000 114.2384250000,22.2690920000 114.2384550000,22.2692310000 114.2385960000,22.2695010000 114.2388930000,22.2700990000 114.2389880000,22.2702510000 114.2390430000,22.2703170000 114.2391310000,22.2703750000 114.2391900000,22.2704010000 114.2392500000,22.2704170000 114.2393420000,22.2704400000 114.2394060000,22.2704510000 114.2394660000,22.2704570000 114.2395360000,22.2704540000 114.2396060000,22.2704430000 114.2396630000,22.2704250000 114.2399790000,22.2702710000 114.2402910000,22.2701490000 114.2403790000,22.2703150000 114.2406900000,22.2709730000 114.2408000000,22.2710900000 114.2410890000,22.2717740000 114.2412820000,22.2722380000 114.2414130000,22.2726530000 114.2414610000,22.2729170000 114.2414890000,22.2732080000 114.2414960000,22.2736250000 114.2414900000,22.2739670000 114.2414970000,22.2745570000 114.2415000000,22.2746270000 114.2414890000,22.2747380000 114.2414670000,22.2749260000 114.2414430000,22.2751130000 114.2414130000,22.2752090000 114.2412590000,22.2755860000 114.2412260000,22.2756430000 114.2408690000,22.2760510000 114.2408430000,22.2760830000 114.2407530000,22.2761910000 114.2405850000,22.2764070000 114.2404670000,22.2765800000 114.2403450000,22.2767240000 114.2402790000,22.2768180000 114.2402360000,22.2768320000 114.2402000000,22.2768570000 114.2401740000,22.2768910000 114.2401600000,22.2769310000 114.2400250000,22.2770640000 114.2398340000,22.2772340000 114.2395020000,22.2775980000 114.2391620000,22.2780340000 114.2390400000,22.2781900000 114.2387150000,22.2785930000 114.2386620000,22.2786540000 114.2382950000,22.2790760000 114.2382240000,22.2791270000 114.2381910000,22.2791230000 114.2381620000,22.2791380000 114.2381230000,22.2791520000 114.2380750000,22.2791570000 114.2380320000,22.2791590000 114.2380070000,22.2791840000 114.2379430000,22.2791860000 114.2378250000,22.2791700000 114.2377040000,22.2791260000 114.2374180000,22.2789670000 114.2371990000,22.2788090000 114.2368900000,22.2784930000 114.2368370000,22.2784390000 114.2361800000,22.2777400000 114.2360850000,22.2775700000 114.2360700000,22.2775000000 114.2360690000,22.2774300000 114.2360900000,22.2773500000 114.2361200000,22.2773000000 114.2361810000,22.2772320000 114.2362300000,22.2772000000 114.2362800000,22.2771780000 114.2363500000,22.2771590000 114.2364100000,22.2771520000 114.2364800000,22.2771570000 114.2365300000,22.2771700000 114.2366100000,22.2772100000 114.2366700000,22.2772600000 114.2367250000,22.2773500000 114.2367500000,22.2774600000 114.2367400000,22.2776000000 114.2364900000,22.2786900000 114.2363800000,22.2790600000 114.2361900000,22.2795100000 114.2356520000,22.2802620000 114.2353570000,22.2806520000 114.2346530000,22.2815650000 114.2344490000,22.2818170000 114.2342920000,22.2819860000 114.2341360000,22.2821330000 114.2339960000,22.2822560000 114.2338270000,22.2823820000 114.2337200000,22.2824450000 114.2336070000,22.2825090000 114.2334330000,22.2825950000 114.2333170000,22.2826400000 114.2331750000,22.2826880000 114.2330470000,22.2827210000 114.2329220000,22.2827440000 114.2327780000,22.2827650000 114.2326410000,22.2827810000 114.2325110000,22.2827910000 114.2323420000,22.2827890000 114.2321890000,22.2827760000 114.2320270000,22.2827480000 114.2317440000,22.2826820000 114.2313700000,22.2825520000 114.2311350000,22.2824080000 114.2308880000,22.2822380000 114.2306930000,22.2820470000 114.2305010000,22.2818060000 114.2303400000,22.2815190000 114.2302200000,22.2811930000 114.2301460000,22.2808690000 114.2300220000,22.2802820000 114.2299070000,22.2800690000 114.2298250000,22.2799310000 114.2296720000,22.2797500000 114.2295660000,22.2796400000 114.2293680000,22.2794710000 114.2292320000,22.2793790000 114.2290950000,22.2793000000 114.2289500000,22.2792300000 114.2287900000,22.2791700000 114.2286100000,22.2791250000 114.2284100000,22.2790890000 114.2283200000,22.2790780000 114.2282000000,22.2790720000 114.2280200000,22.2790790000 114.2278400000,22.2790980000 114.2276500000,22.2791320000 114.2274500000,22.2791960000 114.2273200000,22.2792500000 114.2271500000,22.2793410000 114.2268030000,22.2796150000 114.2265720000,22.2798450000 114.2263940000,22.2800430000 114.2261900000,22.2802580000 114.2260020000,22.2804210000 114.2257350000,22.2806190000 114.2255450000,22.2807470000 114.2251880000,22.2809320000 114.2246470000,22.2811710000 114.2242770000,22.2813510000 114.2239950000,22.2815130000 114.2237780000,22.2816570000 114.2235840000,22.2818260000 114.2233580000,22.2820850000 114.2222830000,22.2834070000 114.2218840000,22.2838670000 114.2216390000,22.2842430000 114.2215480000,22.2844190000 114.2214810000,22.2845900000 114.2214190000,22.2847590000 114.2213950000,22.2848930000 114.2213720000,22.2850060000 114.2213560000,22.2852290000 114.2213700000,22.2855360000 114.2213670000,22.2856240000 114.2213670000,22.2857330000 114.2213670000,22.2858790000 114.2213770000,22.2861640000 114.2213830000,22.2865040000 114.2213800000,22.2867150000 114.2213680000,22.2869820000 114.2213220000,22.2871970000 114.2212480000,22.2874290000 114.2211840000,22.2875360000 114.2211090000,22.2876640000 114.2210020000,22.2877990000 114.2208470000,22.2879460000 114.2206800000,22.2880740000 114.2205610000,22.2881500000 114.2201860000,22.2882970000 114.2192040000,22.2885140000 114.2183930000,22.2886590000 114.2178650000,22.2887540000 114.2175780000,22.2887990000 114.2171230000,22.2888780000 114.2163450000,22.2890210000 114.2160060000,22.2890940000 114.2157280000,22.2891530000 114.2154590000,22.2892130000 114.2149660000,22.2893430000 114.2147540000,22.2894150000 114.2142840000,22.2895810000 114.2137740000,22.2897990000 114.2132930000,22.2900340000 114.2130020000,22.2901740000 114.2112110000,22.2912520000 114.2110520000,22.2913550000 114.2102020000,22.2919430000 114.2096630000,22.2923130000 114.2094140000,22.2924730000 114.2091510000,22.2926110000 114.2088090000,22.2927710000 114.2086260000,22.2928390000 114.2066660000,22.2934180000 114.2048450000,22.2939720000 114.2044740000,22.2940720000 114.2040710000,22.2941290000 114.2036420000,22.2941610000 114.2031550000,22.2941450000 114.2025710000,22.2940510000 114.2021610000,22.2939730000 114.1999680000,22.2935100000 114.1996280000,22.2934690000 114.1992060000,22.2934470000 114.1987250000,22.2934460000 114.1983660000,22.2934260000 114.1979580000,22.2933590000 114.1975110000,22.2932730000 114.1959400000,22.2929700000 114.1956750000,22.2929240000 114.1954150000,22.2928670000 114.1952160000,22.2928310000 114.1950220000,22.2927680000 114.1948140000,22.2926860000 114.1945870000,22.2924500000 114.1942910000,22.2922790000 114.1940140000,22.2920940000 114.1938200000,22.2919420000 114.1936310000,22.2917620000 114.1934360000,22.2915500000 114.1913760000,22.2893230000 114.1906780000,22.2885800000 114.1900380000,22.2879220000 114.1899950000,22.2878760000 114.1898840000,22.2877670000 114.1897600000,22.2876110000 114.1896910000,22.2875080000 114.1896050000,22.2873530000 114.1895310000,22.2872080000 114.1894770000,22.2870600000 114.1894470000,22.2869400000 114.1894100000,22.2867400000 114.1893900000,22.2865400000 114.1893800000,22.2863000000 114.1893700000,22.2860400000 114.1893580000,22.2858800000 114.1893400000,22.2857300000 114.1893000000,22.2855400000 114.1892600000,22.2853900000 114.1892270000,22.2852900000 114.1891600000,22.2851500000 114.1890600000,22.2849900000 114.1889570000,22.2848460000 114.1888500000,22.2847300000 114.1887280000,22.2846450000 114.1884740000,22.2844880000 114.1882450000,22.2843820000 114.1878780000,22.2842520000 114.1876760000,22.2841960000 114.1875090000,22.2841560000 114.1873110000,22.2841040000 114.1871130000,22.2840510000 114.1869670000,22.2840120000 114.1866640000,22.2839420000 114.1864250000,22.2838820000 114.1863320000,22.2838520000 114.1862090000,22.2838170000 114.1860930000,22.2837730000 114.1859810000,22.2837170000 114.1858950000,22.2836560000 114.1857830000,22.2835720000 114.1855780000,22.2834100000 114.1851240000,22.2830460000 114.1846220000,22.2826700000 114.1843820000,22.2824990000 114.1840580000,22.2822790000 114.1837600000,22.2821470000 114.1836640000,22.2821110000 114.1833700000,22.2819930000 114.1829630000,22.2818350000 114.1824120000,22.2816250000 114.1822990000,22.2815810000 114.1821720000,22.2815320000 114.1819260000,22.2814400000 114.1811060000,22.2811910000 114.1807550000,22.2811180000 114.1805870000,22.2810840000 114.1804020000,22.2810790000 114.1802810000,22.2810430000 114.1800060000,22.2809560000 114.1796240000,22.2807990000 114.1794320000,22.2806980000 114.1792820000,22.2806010000 114.1790410000,22.2804470000 114.1789160000,22.2803930000 114.1787240000,22.2803290000 114.1782390000,22.2801720000 114.1779100000,22.2800700000 114.1778300000,22.2800620000 114.1777530000,22.2800610000 114.1776790000,22.2800750000 114.1776250000,22.2800920000 114.1775570000,22.2801320000 114.1775010000,22.2801960000 114.1774630000,22.2802520000 114.1774130000,22.2803370000 114.1772840000,22.2807070000 114.1772820000,22.2807940000 114.1771930000,22.2810600000 114.1771640000,22.2811660000 114.1771550000,22.2812940000 114.1771620000,22.2814360000 114.1771880000,22.2815460000 114.1772080000,22.2816510000 114.1772070000,22.2817170000 114.1772080000,22.2817930000 114.1771900000,22.2818510000 114.1771190000,22.2820280000 114.1771300000,22.2821400000 114.1771600000,22.2821800000 114.1772000000,22.2822000000 114.1773990000,22.2822220000 114.1775500000,22.2822550000 114.1777960000,22.2823350000 114.1780280000,22.2824140000 114.1781040000,22.2824390000 114.1782490000,22.2824870000 114.1783790000,22.2825000000 114.1785730000,22.2825640000 114.1787840000,22.2826160000 114.1790280000,22.2819440000 114.1791720000,22.2815900000 114.1791930000,22.2815660000 114.1792180000,22.2815460000 114.1792470000,22.2815320000 114.1792770000,22.2815270000 114.1793050000,22.2815280000 114.1793340000,22.2815340000 114.1793550000,22.2815510000 114.1793740000,22.2815700000 114.1794180000,22.2816160000 114.1796320000,22.2817910000 114.1797860000,22.2819140000 114.1799860000,22.2820740000 114.1801910000,22.2822440000 114.1803760000,22.2823450000 114.1806630000,22.2823370000 114.1810000000,22.2824630000 114.1818540000,22.2828140000 114.1820810000,22.2829300000 114.1823400000,22.2830600000 114.1825200000,22.2832500000 114.1826800000,22.2834390000 114.1828320000,22.2836720000 114.1829370000,22.2838430000 114.1830020000,22.2839850000 114.1830590000,22.2841840000 114.1830780000,22.2844020000 114.1830720000,22.2846470000 114.1813190000,22.2952040000 114.1805720000,22.2997000000 114.1805210000,22.3000220000 114.1804640000,22.3003030000 114.1804000000,22.3006310000 114.1803240000,22.3010280000 114.1802340000,22.3014170000 114.1802020000,22.3017350000 114.1801980000,22.3019790000 114.1801970000,22.3020960000 114.1802060000,22.3021790000 114.1802110000,22.3022400000 114.1802180000,22.3023130000 114.1803030000,22.3025890000 114.1804320000,22.3029150000 114.1805780000,22.3032860000 114.1807080000,22.3036310000 114.1807830000,22.3038330000 114.1809670000,22.3042120000 114.1811250000,22.3045490000 114.1812550000,22.3049180000 114.1813060000,22.3050740000 114.1813900000,22.3053210000 114.1814230000,22.3055020000 114.1814210000,22.3056390000 114.1813920000,22.3057700000 114.1812980000,22.3059560000 114.1811730000,22.3061080000 114.1808910000,22.3062780000 114.1807270000,22.3063180000 114.1806070000,22.3063090000 114.1803750000,22.3062470000 114.1802780000,22.3061990000 114.1800300000,22.3060620000 114.1798460000,22.3058880000 114.1795810000,22.3057580000 114.1794260000,22.3056960000 114.1792120000,22.3056450000 114.1790730000,22.3056450000 114.1789290000,22.3056540000 114.1787510000,22.3056930000 114.1784970000,22.3057560000 114.1783090000,22.3058240000 114.1771030000,22.3061950000 114.1769400000,22.3062170000 114.1756350000,22.3066520000 114.1752350000,22.3067430000 114.1748130000,22.3068750000 114.1742990000,22.3070360000 114.1741880000,22.3070690000 114.1739890000,22.3071280000 114.1735720000,22.3072800000 114.1731640000,22.3074440000 114.1728660000,22.3076040000 114.1728010000,22.3076450000 114.1724870000,22.3078650000 114.1724490000,22.3078940000 114.1723710000,22.3079570000 114.1720800000,22.3082760000 114.1720230000,22.3083290000 114.1719490000,22.3083870000 114.1718900000,22.3084110000 114.1718180000,22.3084250000 114.1713890000,22.3084130000 114.1712780000,22.3084120000 114.1712710000,22.3084970000 114.1711910000,22.3092030000 114.1711830000,22.3092980000 114.1711430000,22.3096650000 114.1711010000,22.3102040000 114.1710930000,22.3102910000 114.1710570000,22.3106030000 114.1710200000,22.3109160000 114.1708380000,22.3119030000 114.1706170000,22.3129600000 114.1705980000,22.3130570000 114.1704300000,22.3138660000 114.1704060000,22.3139780000 114.1703870000,22.3140810000 114.1702980000,22.3145550000 114.1702850000,22.3146150000 114.1702220000,22.3149060000 114.1701980000,22.3150140000 114.1701270000,22.3153490000 114.1701180000,22.3153940000 114.1699740000,22.3160650000 114.1699470000,22.3162200000 114.1698800000,22.3165370000 114.1698450000,22.3167110000 114.1697770000,22.3170440000 114.1696740000,22.3175180000 114.1696010000,22.3179070000 114.1695180000,22.3183090000 114.1694820000,22.3184960000 114.1693710000,22.3190360000 114.1693570000,22.3191060000 114.1693200000,22.3192930000 114.1692430000,22.3192790000 114.1688070000,22.3192060000 114.1687900000,22.3192030000 114.1687160000,22.3191900000 114.1685700000,22.3191660000 114.1683980000,22.3191380000 114.1681920000,22.3191040000 114.1681320000,22.3190940000 114.1680470000,22.3190780000 114.1678150000,22.3190330000 114.1677620000,22.3190220000 114.1676800000,22.3190060000 114.1675610000,22.3189840000 114.1671990000,22.3189160000 114.1669890000,22.3188770000 114.1669890000,22.3188770000 114.1667760000,22.3188370000 114.1665450000,22.3187940000 114.1662740000,22.3187430000 114.1662220000,22.3187350000 114.1660490000,22.3187110000 114.1654280000,22.3186910000 114.1649530000,22.3186700000 114.1646960000,22.3186640000 114.1644420000,22.3186520000 114.1642870000,22.3186450000 114.1641230000,22.3186310000 114.1639600000,22.3186090000 114.1637720000,22.3185630000 114.1636480000,22.3185360000 114.1635180000,22.3184940000 114.1634290000,22.3184570000 114.1633210000,22.3184080000 114.1631370000,22.3183250000 114.1630390000,22.3182800000 114.1629510000,22.3182060000 114.1627870000,22.3181390000 114.1624900000,22.3180800000 114.1623600000,22.3180310000 114.1621560000,22.3179530000 114.1619120000,22.3178690000 114.1617770000,22.3178200000 114.1611740000,22.3176000000 114.1609760000,22.3175350000 114.1609090000,22.3175250000 114.1608490000,22.3175310000 114.1607920000,22.3175640000 114.1607800000,22.3176520000 114.1607860000,22.3177060000 114.1608100000,22.3177500000 114.1608470000,22.3177820000 114.1610060000,22.3178500000 114.1610840000,22.3179280000 114.1611320000,22.3180310000 114.1611790000,22.3181470000 114.1612080000,22.3182500000 114.1611570000,22.3183460000 114.1610330000,22.3184340000 114.1609160000,22.3184350000 114.1606640000,22.3184380000 114.1606180000,22.3184280000 114.1605610000,22.3184080000 114.1606620000,22.3181360000 114.1607210000,22.3180280000 114.1607900000,22.3179520000 114.1608420000,22.3179160000 114.1608940000,22.3178850000 114.1610060000,22.3178500000 114.1610840000,22.3179280000 114.1611320000,22.3180310000 114.1611790000,22.3181470000 114.1612080000,22.3182500000 114.1612270000,22.3183340000 114.1612260000,22.3187460000 114.1612260000,22.3189730000 114.1612260000,22.3191570000 114.1612050000,22.3192360000 114.1610680000,22.3193790000 114.1609840000,22.3194160000 114.1609220000,22.3194300000 114.1606640000,22.3194250000 114.1604970000,22.3194250000 114.1601100000,22.3194230000 114.1600010000,22.3194220000 114.1599060000,22.3194210000 114.1598680000,22.3194870000 114.1598380000,22.3195400000 114.1598060000,22.3196010000 114.1597830000,22.3196610000 114.1597460000,22.3197850000 114.1597330000,22.3198560000 114.1597260000,22.3199180000 114.1597220000,22.3202000000 114.1597300000,22.3205240000 114.1597860000,22.3219540000 114.1597960000,22.3222130000 114.1597190000,22.3226010000 114.1595900000,22.3228500000 114.1594880000,22.3230480000 114.1594490000,22.3231210000 114.1593630000,22.3232680000 114.1593020000,22.3233400000 114.1590200000,22.3236300000 114.1589500000,22.3237100000 114.1587250000,22.3238810000 114.1580600000,22.3244110000 114.1579630000,22.3244830000 114.1578910000,22.3245340000 114.1574260000,22.3248850000 114.1574010000,22.3249040000 114.1571000000,22.3251400000 114.1566790000,22.3254560000 114.1565270000,22.3255680000 114.1560660000,22.3259010000 114.1559190000,22.3260150000 114.1557900000,22.3261000000 114.1556410000,22.3262060000 114.1550000000,22.3267000000 114.1547430000,22.3269370000 114.1546450000,22.3270570000 114.1545070000,22.3272200000 114.1544320000,22.3273110000 114.1541000000,22.3277400000 114.1540000000,22.3278500000 114.1538600000,22.3279700000 114.1528660000,22.3287560000 114.1526790000,22.3289040000 114.1525630000,22.3289940000 114.1524430000,22.3290860000 114.1521210000,22.3293210000 114.1518530000,22.3295310000 114.1513870000,22.3298800000 114.1509020000,22.3292730000 114.1508780000,22.3292090000 114.1508800000,22.3291510000 114.1509100000,22.3290670000 114.1509490000,22.3290300000 114.1509730000,22.3290080000 114.1509100000,22.3290670000 114.1508800000,22.3291510000 114.1508780000,22.3292090000 114.1509020000,22.3292730000 114.1513870000,22.3298800000 114.1514510000,22.3299510000 114.1514920000,22.3299200000 114.1524970000,22.3292240000 114.1526550000,22.3291060000 114.1527720000,22.3290200000 114.1529070000,22.3289220000 114.1536300000,22.3283400000 114.1539500000,22.3280500000 114.1541500000,22.3278500000 114.1543490000,22.3276290000 114.1547160000,22.3271950000 114.1548350000,22.3270550000 114.1549710000,22.3269110000 114.1551040000,22.3267680000 114.1554380000,22.3264960000 114.1557120000,22.3262830000 114.1557580000,22.3262510000 114.1558630000,22.3261800000 114.1559850000,22.3260950000 114.1562800000,22.3258790000 114.1575310000,22.3249480000 114.1580380000,22.3245700000 114.1581360000,22.3244960000 114.1584310000,22.3242440000 114.1588290000,22.3239120000 114.1591230000,22.3236710000 114.1593620000,22.3234420000 114.1593940000,22.3234050000 114.1594540000,22.3233320000 114.1595320000,22.3232090000 114.1595960000,22.3231060000 114.1596730000,22.3229930000 114.1598210000,22.3226190000 114.1598980000,22.3222310000 114.1598660000,22.3216760000 114.1598620000,22.3213910000 114.1598500000,22.3206810000 114.1598290000,22.3202040000 114.1598290000,22.3199340000 114.1598340000,22.3198690000 114.1598460000,22.3198000000 114.1598730000,22.3196840000 114.1598890000,22.3196270000 114.1599150000,22.3195670000 114.1599510000,22.3195070000 114.1599610000,22.3194890000 114.1600010000,22.3194220000 114.1601680000,22.3191420000 114.1602760000,22.3189840000 114.1603360000,22.3188850000 114.1604450000,22.3186340000 114.1605610000,22.3184080000 114.1606620000,22.3181360000 114.1607210000,22.3180280000 114.1607900000,22.3179520000 114.1608420000,22.3179160000 114.1608940000,22.3178850000 114.1610060000,22.3178500000 114.1610840000,22.3179280000 114.1611320000,22.3180310000 114.1611790000,22.3181470000 114.1612080000,22.3182500000 114.1611570000,22.3183460000 114.1610330000,22.3184340000 114.1609230000,22.3184350000 114.1606640000,22.3184380000 114.1606180000,22.3184280000 114.1605610000,22.3184080000 114.1606620000,22.3181360000 114.1607210000,22.3180280000 114.1607900000,22.3179520000 114.1608420000,22.3179160000 114.1608940000,22.3178850000 114.1610060000,22.3178500000 114.1610840000,22.3179280000 114.1616590000,22.3181660000 114.1618680000,22.3182400000 114.1619100000,22.3182640000 114.1619380000,22.3182870000 114.1619660000,22.3183260000 114.1619800000,22.3183980000 114.1619810000,22.3185230000 114.1619850000,22.3189950000 114.1619810000,22.3190910000 114.1619790000,22.3191530000 114.1619870000,22.3194690000 114.1619710000,22.3199870000 114.1619580000,22.3203010000 114.1619550000,22.3203360000 114.1619510000,22.3205010000 114.1620850000,22.3204970000 114.1625530000,22.3203860000 114.1630440000,22.3203030000 114.1630870000,22.3202960000 114.1635640000,22.3202160000 114.1640680000,22.3201150000 114.1646220000,22.3200240000 114.1646900000,22.3204190000 114.1647710000,22.3208830000 114.1655910000,22.3202920000 114.1656460000,22.3202680000 114.1657420000,22.3202640000 114.1659040000,22.3202660000 114.1659830000,22.3202630000 114.1660560000,22.3202780000 114.1661590000,22.3202940000 114.1664830000,22.3203410000 114.1665510000,22.3203540000 114.1667040000,22.3203830000 114.1669000000,22.3204200000 114.1672280000,22.3204820000 114.1672690000,22.3204890000 114.1673590000,22.3205500000 114.1676930000,22.3206100000 114.1677170000,22.3206140000 114.1677990000,22.3206270000 114.1679060000,22.3206450000 114.1680890000,22.3206760000 114.1683060000,22.3207120000 114.1683450000,22.3207180000 114.1684170000,22.3207310000 114.1687180000,22.3207760000 114.1688560000,22.3207970000 114.1688960000,22.3208030000 114.1690010000,22.3208190000 114.1691120000,22.3208340000 114.1691710000,22.3205520000 114.1692280000,22.3202610000 114.1693170000,22.3198470000 114.1693890000,22.3194980000 114.1694180000,22.3193590000 114.1694290000,22.3193120000 114.1694680000,22.3191260000 114.1694830000,22.3190570000 114.1695380000,22.3187820000 114.1696280000,22.3183450000 114.1696600000,22.3181870000 114.1697870000,22.3175640000 114.1697990000,22.3175010000 114.1699580000,22.3167360000 114.1699920000,22.3165510000 114.1701090000,22.3159900000 114.1702310000,22.3154080000 114.1702360000,22.3153740000 114.1703270000,22.3149370000 114.1703380000,22.3148880000 114.1703990000,22.3145700000 114.1704180000,22.3144740000 114.1704350000,22.3143890000 114.1704660000,22.3142320000 114.1705300000,22.3139010000 114.1706980000,22.3130740000 114.1707170000,22.3129770000 114.1708160000,22.3125020000 114.1708200000,22.3124780000 114.1709270000,22.3119420000 114.1711040000,22.3109890000 114.1711200000,22.3109100000 114.1712230000,22.3103170000 114.1712290000,22.3102590000 114.1712300000,22.3101390000 114.1713370000,22.3097940000 114.1714110000,22.3096150000 114.1714670000,22.3095010000 114.1715520000,22.3093280000 114.1718440000,22.3088170000 114.1721440000,22.3084560000 114.1722670000,22.3083140000 114.1725690000,22.3080150000 114.1728920000,22.3077560000 114.1732910000,22.3075360000 114.1737440000,22.3073680000 114.1739040000,22.3073270000 114.1739410000,22.3073170000 114.1742570000,22.3072330000 114.1743610000,22.3072050000 114.1746400000,22.3071330000 114.1746600000,22.3071250000 114.1750120000,22.3069940000 114.1762140000,22.3065860000 114.1763640000,22.3065210000 114.1769310000,22.3063260000 114.1773410000,22.3061850000 114.1779710000,22.3059970000 114.1783320000,22.3058940000 114.1786570000,22.3058420000 114.1788230000,22.3058180000 114.1789940000,22.3058340000 114.1791710000,22.3058600000 114.1793630000,22.3059110000 114.1795520000,22.3059890000 114.1797120000,22.3060990000 114.1798820000,22.3062330000 114.1800320000,22.3063540000 114.1803560000,22.3066220000 114.1805640000,22.3068330000 114.1806040000,22.3068750000 114.1807720000,22.3070730000 114.1808500000,22.3071800000 114.1808830000,22.3072370000 114.1809110000,22.3072970000 114.1809300000,22.3073600000 114.1809410000,22.3074260000 114.1809450000,22.3075000000 114.1809410000,22.3075660000 114.1809290000,22.3076240000 114.1809130000,22.3076750000 114.1808820000,22.3077340000 114.1808370000,22.3077890000 114.1807980000,22.3078230000 114.1807500000,22.3078510000 114.1806960000,22.3078730000 114.1806380000,22.3078870000 114.1805820000,22.3078910000 114.1805290000,22.3078850000 114.1804800000,22.3078740000 114.1804310000,22.3078550000 114.1803870000,22.3078280000 114.1803490000,22.3077960000 114.1803190000,22.3077610000 114.1802850000,22.3077110000 114.1802610000,22.3076660000 114.1802430000,22.3076140000 114.1802360000,22.3075650000 114.1802400000,22.3075080000 114.1802540000,22.3074630000 114.1802780000,22.3074120000 114.1803080000,22.3073670000 114.1803400000,22.3073250000 114.1804330000,22.3072200000 114.1805170000,22.3071360000 114.1808180000,22.3068600000 114.1809020000,22.3067620000 114.1811870000,22.3064970000 114.1813140000,22.3063650000 114.1814000000,22.3062570000 114.1814880000,22.3061120000 114.1815520000,22.3060040000 114.1815850000,22.3059030000 114.1816100000,22.3057230000 114.1816010000,22.3054770000 114.1815710000,22.3052910000 114.1814910000,22.3050070000 114.1813700000,22.3046780000 114.1812190000,22.3043060000 114.1810620000,22.3039610000 114.1808730000,22.3035850000 114.1807300000,22.3032420000 114.1806030000,22.3028740000 114.1804960000,22.3025370000 114.1804530000,22.3023080000 114.1804390000,22.3022200000 114.1804280000,22.3021570000 114.1804240000,22.3021280000 114.1804100000,22.3019510000 114.1804000000,22.3016830000 114.1804260000,22.3014080000 114.1804500000,22.3012290000 114.1804770000,22.3009960000 114.1805280000,22.3006710000 114.1805930000,22.3003530000 114.1806470000,22.3000300000 114.1806970000,22.2997190000 114.1825130000,22.2887340000 114.1831870000,22.2846590000 114.1831980000,22.2843750000 114.1831770000,22.2841610000 114.1831280000,22.2839770000 114.1830550000,22.2838110000 114.1829730000,22.2836590000 114.1829470000,22.2836110000 114.1827730000,22.2833600000 114.1825870000,22.2831320000 114.1823200000,22.2828800000 114.1820400000,22.2826100000 114.1819960000,22.2825300000 114.1819570000,22.2824500000 114.1819400000,22.2824000000 114.1819290000,22.2823500000 114.1819270000,22.2823030000 114.1819350000,22.2822500000 114.1819500000,22.2822000000 114.1819740000,22.2821500000 114.1820100000,22.2821000000 114.1820560000,22.2820570000 114.1821100000,22.2820250000 114.1821600000,22.2820070000 114.1822100000,22.2819980000 114.1822600000,22.2819970000 114.1823100000,22.2820000000 114.1835090000,22.2822820000 114.1838660000,22.2824360000 114.1840860000,22.2825590000 114.1842650000,22.2826710000 114.1844720000,22.2828070000 114.1849760000,22.2832270000 114.1852740000,22.2834880000 114.1855510000,22.2836890000 114.1857090000,22.2837860000 114.1857710000,22.2838200000 114.1858560000,22.2838560000 114.1862660000,22.2839850000 114.1864320000,22.2840370000 114.1870730000,22.2841750000 114.1872160000,22.2842060000 114.1873970000,22.2842430000 114.1875770000,22.2842870000 114.1877780000,22.2843340000 114.1879700000,22.2843900000 114.1881000000,22.2844400000 114.1882040000,22.2844860000 114.1883100000,22.2845400000 114.1884130000,22.2845970000 114.1885300000,22.2846700000 114.1886410000,22.2847590000 114.1887500000,22.2848600000 114.1888430000,22.2849570000 114.1889280000,22.2850720000 114.1889930000,22.2851900000 114.1890600000,22.2853300000 114.1891100000,22.2854500000 114.1891600000,22.2856300000 114.1891900000,22.2857900000 114.1892190000,22.2860100000 114.1892300000,22.2862100000 114.1892400000,22.2864700000 114.1892500000,22.2866700000 114.1892800000,22.2869000000 114.1893300000,22.2871200000 114.1893900000,22.2872700000 114.1894800000,22.2874700000 114.1899600000,22.2884400000 114.1902500000,22.2889500000 114.1904500000,22.2892800000 114.1905900000,22.2894800000 114.1907500000,22.2896800000 114.1910500000,22.2900000000 114.1913500000,22.2902800000 114.1921570000,22.2909910000 114.1925530000,22.2913100000 114.1930300000,22.2917050000 114.1934560000,22.2920410000 114.1938930000,22.2923930000 114.1941420000,22.2925730000 114.1943820000,22.2926650000 114.1946970000,22.2928220000 114.1950310000,22.2929330000 114.1953540000,22.2929900000 114.1955810000,22.2930280000 114.1974960000,22.2934010000 114.1979200000,22.2934800000 114.1981920000,22.2935260000 114.1983380000,22.2935420000 114.1987100000,22.2935630000 114.1992000000,22.2935690000 114.1995900000,22.2935850000 114.1997700000,22.2936020000 114.1999500000,22.2936270000 114.2001000000,22.2936520000 114.2015930000,22.2939620000 114.2024440000,22.2941380000 114.2030190000,22.2942370000 114.2035020000,22.2942680000 114.2039500000,22.2942790000 114.2043590000,22.2942530000 114.2046320000,22.2942350000 114.2056300000,22.2941000000 114.2060900000,22.2940100000 114.2063200000,22.2939500000 114.2065000000,22.2938900000 114.2069100000,22.2937200000 114.2072200000,22.2936000000 114.2075100000,22.2934900000 114.2077100000,22.2934200000 114.2084500000,22.2931800000 114.2088400000,22.2930500000 114.2090900000,22.2929400000 114.2092910000,22.2928400000 114.2094860000,22.2927210000 114.2096620000,22.2925980000 114.2110150000,22.2916200000 114.2112930000,22.2914300000 114.2115520000,22.2912760000 114.2118010000,22.2911320000 114.2126730000,22.2906220000 114.2129690000,22.2904590000 114.2131950000,22.2903500000 114.2134090000,22.2902650000 114.2137490000,22.2901430000 114.2141960000,22.2900090000 114.2148540000,22.2898400000 114.2152500000,22.2897340000 114.2155800000,22.2896460000 114.2162200000,22.2894900000 114.2167600000,22.2893500000 114.2170400000,22.2892800000 114.2176540000,22.2891050000 114.2178060000,22.2890760000 114.2183750000,22.2889240000 114.2194790000,22.2886690000 114.2198500000,22.2885910000 114.2200910000,22.2885370000 114.2204300000,22.2884520000 114.2207260000,22.2883510000 114.2209320000,22.2882420000 114.2211450000,22.2881120000 114.2213840000,22.2879030000 114.2215190000,22.2877050000 114.2216670000,22.2874450000 114.2217740000,22.2871600000 114.2218140000,22.2869840000 114.2218440000,22.2868040000 114.2218520000,22.2866160000 114.2218500000,22.2863740000 114.2217620000,22.2854180000 114.2217700000,22.2850060000 114.2217820000,22.2848680000 114.2218150000,22.2847100000 114.2218610000,22.2845360000 114.2219440000,22.2843380000 114.2220000000,22.2841940000 114.2220720000,22.2840540000 114.2233290000,22.2823980000 114.2236790000,22.2819900000 114.2238720000,22.2817700000 114.2240470000,22.2816200000 114.2243320000,22.2814590000 114.2247000000,22.2812770000 114.2254340000,22.2809570000 114.2257030000,22.2808350000 114.2258800000,22.2807090000 114.2260940000,22.2805250000 114.2262980000,22.2803310000 114.2264270000,22.2801770000 114.2266110000,22.2799630000 114.2268600000,22.2796800000 114.2269700000,22.2795800000 114.2270970000,22.2794860000 114.2272200000,22.2794110000 114.2273600000,22.2793400000 114.2275100000,22.2792800000 114.2276600000,22.2792330000 114.2277700000,22.2792090000 114.2278790000,22.2791910000 114.2279600000,22.2791820000 114.2280400000,22.2791770000 114.2282000000,22.2791720000 114.2282760000,22.2791750000 114.2283500000,22.2791800000 114.2284210000,22.2791870000 114.2284940000,22.2791960000 114.2285590000,22.2792070000 114.2286200000,22.2792200000 114.2287640000,22.2792590000 114.2289000000,22.2793100000 114.2290230000,22.2793680000 114.2291500000,22.2794400000 114.2293700000,22.2795900000 114.2294900000,22.2797000000 114.2296110000,22.2798420000 114.2296930000,22.2799500000 114.2297680000,22.2800650000 114.2298400000,22.2802000000 114.2299000000,22.2803400000 114.2299200000,22.2804020000 114.2299690000,22.2806000000 114.2300500000,22.2810000000 114.2300600000,22.2810400000 114.2300770000,22.2811000000 114.2300910000,22.2811500000 114.2301230000,22.2812500000 114.2301720000,22.2814000000 114.2301900000,22.2814500000 114.2302100000,22.2815000000 114.2302280000,22.2815400000 114.2302600000,22.2816000000 114.2302900000,22.2816500000 114.2304500000,22.2818900000 114.2306250000,22.2821000000 114.2307500000,22.2822300000 114.2308900000,22.2823500000 114.2310000000,22.2824300000 114.2311300000,22.2825120000 114.2312500000,22.2825820000 114.2313600000,22.2826400000 114.2315200000,22.2827100000 114.2317100000,22.2827700000 114.2320200000,22.2828400000 114.2321790000,22.2828660000 114.2323420000,22.2828810000 114.2325210000,22.2828840000 114.2326490000,22.2828760000 114.2327880000,22.2828590000 114.2329280000,22.2828370000 114.2330790000,22.2828040000 114.2332110000,22.2827710000 114.2333430000,22.2827270000 114.2334800000,22.2826740000 114.2336520000,22.2825940000 114.2337660000,22.2825320000 114.2338840000,22.2824530000 114.2340610000,22.2823200000 114.2342020000,22.2822000000 114.2343670000,22.2820480000 114.2345380000,22.2818780000 114.2347560000,22.2816240000 114.2353890000,22.2808190000 114.2357490000,22.2803230000 114.2365010000,22.2793280000 114.2366530000,22.2789740000 114.2367510000,22.2786090000 114.2368870000,22.2780710000 114.2369860000,22.2777080000 114.2371090000,22.2773770000 114.2372030000,22.2771620000 114.2373510000,22.2769120000 114.2375180000,22.2766730000 114.2385300000,22.2754780000 114.2390750000,22.2748040000 114.2392380000,22.2745330000 114.2393380000,22.2742810000 114.2394030000,22.2740730000 114.2394540000,22.2738640000 114.2394810000,22.2736900000 114.2395030000,22.2734760000 114.2395040000,22.2732570000 114.2394850000,22.2730260000 114.2394420000,22.2727820000 114.2393280000,22.2723540000 114.2391680000,22.2719100000 114.2388130000,22.2708060000 114.2387530000,22.2705900000 114.2387450000,22.2704250000 114.2387500000,22.2702510000 114.2387740000,22.2701080000 114.2388200000,22.2699790000 114.2389060000,22.2698140000 114.2390170000,22.2696920000 114.2391570000,22.2695780000 114.2393570000,22.2694760000 114.2395560000,22.2693690000 114.2396840000,22.2694030000 114.2397650000,22.2694320000 114.2398660000,22.2694910000 114.2399680000,22.2695910000 114.2400400000,22.2697050000 114.2401190000,22.2698460000 114.2402910000,22.2701490000 114.2403790000,22.2703150000 114.2406900000,22.2709730000 114.2408000000,22.2710900000 114.2410890000,22.2717740000 114.2412820000,22.2722380000 114.2414130000,22.2726530000 114.2414610000,22.2729170000 114.2414890000,22.2732080000 114.2414960000,22.2736250000 114.2414900000,22.2739670000 114.2414970000,22.2745570000 114.2412520000,22.2747540000 114.2411900000,22.2748880000 114.2411260000,22.2749770000 114.2410990000,22.2751050000 114.2410770000,22.2752060000 114.2411720000,22.2754520000 114.2412000000,22.2755260000 114.2412590000,22.2755860000 114.2414130000,22.2752090000 114.2414430000,22.2751130000 114.2414670000,22.2749260000 114.2414780000,22.2748280000 114.2414890000,22.2747380000 114.2415000000,22.2746270000 114.2414970000,22.2745570000 114.2414900000,22.2739670000 114.2414960000,22.2736250000 114.2414890000,22.2732080000 114.2414610000,22.2729170000 114.2414130000,22.2726530000 114.2412820000,22.2722380000 114.2410890000,22.2717740000 114.2408000000,22.2710900000 114.2407810000,22.2709370000 114.2405810000,22.2704850000 114.2404020000,22.2701060000 114.2401570000,22.2695640000 114.2401270000,22.2694950000 114.2401310000,22.2694500000 114.2401390000,22.2693500000 114.2402090000,22.2691290000 114.2403440000,22.2690120000 114.2407560000,22.2688370000 114.2408200000,22.2688160000 114.2413740000,22.2685350000 114.2414700000,22.2684830000 114.2416150000,22.2683920000 114.2417270000,22.2683150000 114.2418350000,22.2682030000 114.2419690000,22.2680340000 114.2426820000,22.2671710000 114.2427280000,22.2671120000 114.2428080000,22.2670000000 114.2431070000,22.2665200000 114.2431860000,22.2663800000 114.2432320000,22.2663050000 114.2432580000,22.2662660000 114.2433210000,22.2661860000 114.2434650000,22.2660400000 114.2435860000,22.2659580000 114.2437200000,22.2658920000 114.2439200000,22.2658210000 114.2441220000,22.2657760000 114.2443480000,22.2657740000 114.2445610000,22.2657990000 114.2447530000,22.2658340000 114.2450700000,22.2658900000 114.2452800000,22.2659200000 114.2454700000,22.2659400000 114.2457800000,22.2659400000 114.2460000000,22.2659200000 114.2461500000,22.2659000000 114.2463800000,22.2658400000 114.2465380000,22.2657990000 114.2467620000,22.2657210000 114.2468620000,22.2656740000 114.2470080000,22.2655850000 114.2471240000,22.2655150000 114.2472450000,22.2654350000 114.2473700000,22.2653500000 114.2476900000,22.2650800000 114.2478500000,22.2649400000 114.2479320000,22.2648620000 114.2480400000,22.2647600000 114.2481500000,22.2646600000 114.2482530000,22.2645530000 114.2483500000,22.2644500000 114.2484300000,22.2643700000 114.2486030000,22.2641630000 114.2486500000,22.2641000000 114.2491530000,22.2633910000 114.2494800000,22.2629300000 114.2495400000,22.2628500000 114.2496600000,22.2627300000 114.2497300000,22.2626700000 114.2498560000,22.2625810000 114.2500190000,22.2625080000 114.2500800000,22.2624880000 114.2501600000,22.2624700000 114.2502400000,22.2624600000 114.2503400000,22.2624560000 114.2505300000,22.2624800000 114.2506600000,22.2625200000 114.2509080000,22.2626240000 114.2509970000,22.2626800000 114.2511400000,22.2627700000 114.2514200000,22.2629900000 114.2515000000,22.2630660000 114.2516000000,22.2631600000 114.2517500000,22.2633350000 114.2518700000,22.2635100000 114.2519340000,22.2636440000 114.2519600000,22.2637300000 114.2519850000,22.2638900000 114.2519800000,22.2640600000 114.2519500000,22.2642000000 114.2519000000,22.2643200000 114.2517150000,22.2645870000 114.2515560000,22.2647650000 114.2514830000,22.2648440000 114.2512840000,22.2650540000 114.2511400000,22.2651840000 114.2509800000,22.2653300000 114.2506500000,22.2655700000 114.2504010000,22.2657440000 114.2503300000,22.2657950000 114.2503810000,22.2658590000 114.2504360000,22.2659340000 114.2504760000,22.2660380000 114.2505570000,22.2661250000 114.2506200000,22.2661910000 114.2506400000,22.2662130000</coordinates>
                </LineString>
                <ExtendedData>
                    <Data name="length">
                        <value>42326.89067744391</value>
                    </Data>
                    <Data name="duration">
                        <value>01:50:41</value>
                    </Data>
                </ExtendedData>
            </Placemark>
        </Document>
    </Document>
</kml>