<?xml version="1.0" encoding="UTF-8"?>
<kml xmlns="http://www.opengis.net/kml/2.2" xmlns:gx="http://www.google.com/kml/ext/2.2">
    <Document>
        <name>Route</name>
        <Folder>
            <name>Route Request</name>
            <Placemark>
                <Point>
                    <coordinates>114.1498514612,22.2428180947</coordinates>
                </Point>
                <ExtendedData>
                    <Data name="routingVisited">
                        <value>false</value>
                    </Data>
                </ExtendedData>
            </Placemark>
            <Placemark>
                <Point>
                    <coordinates>114.1564964910,22.2408617762</coordinates>
                </Point>
                <ExtendedData>
                    <Data name="routingVisited">
                        <value>false</value>
                    </Data>
                </ExtendedData>
            </Placemark>
            <Placemark>
                <address>Wong Chuk Hang Road, Wong Chuk Hang, Wong Chuk Hang San Wai, Southern District, Hong Kong, AIL 89, China</address>
                <Point>
                    <coordinates>114.1656643682,22.2485128782</coordinates>
                </Point>
                <ExtendedData>
                    <Data name="country">
                        <value>China</value>
                    </Data>
                    <Data name="suburb">
                        <value>Wong Chuk Hang</value>
                    </Data>
                    <Data name="hamlet">
                        <value>Wong Chuk Hang San Wai</value>
                    </Data>
                    <Data name="county">
                        <value>Southern District</value>
                    </Data>
                    <Data name="road">
                        <value>Wong Chuk Hang Road</value>
                    </Data>
                    <Data name="postcode">
                        <value>AIL 89</value>
                    </Data>
                    <Data name="country_code">
                        <value>cn</value>
                    </Data>
                </ExtendedData>
            </Placemark>
            <Placemark>
                <address>Cross-Harbour Tunnel, Kellett Island, Wan Chai District, Hong Kong, HYSAN PLACE 12F, China</address>
                <Point>
                    <coordinates>114.1813006561,22.2905618906</coordinates>
                </Point>
                <ExtendedData>
                    <Data name="country">
                        <value>China</value>
                    </Data>
                    <Data name="suburb">
                        <value>Kellett Island</value>
                    </Data>
                    <Data name="county">
                        <value>Wan Chai District</value>
                    </Data>
                    <Data name="road">
                        <value>Cross-Harbour Tunnel</value>
                    </Data>
                    <Data name="postcode">
                        <value>HYSAN PLACE 12F</value>
                    </Data>
                    <Data name="country_code">
                        <value>cn</value>
                    </Data>
                </ExtendedData>
            </Placemark>
            <Placemark>
                <Point>
                    <coordinates>114.1727265630,22.3192472444</coordinates>
                </Point>
                <ExtendedData>
                    <Data name="routingVisited">
                        <value>false</value>
                    </Data>
                </ExtendedData>
            </Placemark>
            <Placemark>
                <address>Mong Kok, Argyle Street, Mong Kok West, Mong Kok, Yau Tsim Mong District, Hong Kong, KIL 3348, China</address>
                <Point>
                    <coordinates>114.1689859508,22.3203834430</coordinates>
                </Point>
                <ExtendedData>
                    <Data name="country">
                        <value>China</value>
                    </Data>
                    <Data name="suburb">
                        <value>Mong Kok</value>
                    </Data>
                    <Data name="neighbourhood">
                        <value>Mong Kok West</value>
                    </Data>
                    <Data name="county">
                        <value>Yau Tsim Mong District</value>
                    </Data>
                    <Data name="road">
                        <value>Argyle Street</value>
                    </Data>
                    <Data name="station">
                        <value>Mong Kok</value>
                    </Data>
                    <Data name="postcode">
                        <value>KIL 3348</value>
                    </Data>
                    <Data name="country_code">
                        <value>cn</value>
                    </Data>
                </ExtendedData>
            </Placemark>
            <Placemark>
                <address>Lai Chi Kok Road, Un Chau, Sham Shui Po, Sham Shui Po District, Hong Kong, KIL 3348, China</address>
                <Point>
                    <coordinates>114.1597931959,22.3289628449</coordinates>
                </Point>
                <ExtendedData>
                    <Data name="country">
                        <value>China</value>
                    </Data>
                    <Data name="suburb">
                        <value>Sham Shui Po</value>
                    </Data>
                    <Data name="neighbourhood">
                        <value>Un Chau</value>
                    </Data>
                    <Data name="county">
                        <value>Sham Shui Po District</value>
                    </Data>
                    <Data name="road">
                        <value>Lai Chi Kok Road</value>
                    </Data>
                    <Data name="postcode">
                        <value>KIL 3348</value>
                    </Data>
                    <Data name="country_code">
                        <value>cn</value>
                    </Data>
                </ExtendedData>
            </Placemark>
            <Placemark>
                <Point>
                    <coordinates>114.1597396905,22.3307950786</coordinates>
                </Point>
            </Placemark>
            <Placemark>
                <address>Kiu Kiang Street, Cheung Sha Wan Road, Om Yau, Sham Shui Po, Sham Shui Po District, Hong Kong, KIL 3348, China</address>
                <Point>
                    <coordinates>114.1596158567,22.3325965004</coordinates>
                </Point>
                <ExtendedData>
                    <Data name="address29">
                        <value>Kiu Kiang Street</value>
                    </Data>
                    <Data name="country">
                        <value>China</value>
                    </Data>
                    <Data name="suburb">
                        <value>Sham Shui Po</value>
                    </Data>
                    <Data name="neighbourhood">
                        <value>Om Yau</value>
                    </Data>
                    <Data name="county">
                        <value>Sham Shui Po District</value>
                    </Data>
                    <Data name="road">
                        <value>Cheung Sha Wan Road</value>
                    </Data>
                    <Data name="postcode">
                        <value>KIL 3348</value>
                    </Data>
                    <Data name="country_code">
                        <value>cn</value>
                    </Data>
                </ExtendedData>
            </Placemark>
            <Placemark>
                <address>Lai Chi Kok, Cheung Sha Wan Road, Lai Chi Kok Bay, Cheung Sha Wan, Sham Shui Po District, Hong Kong, STTL 467, China</address>
                <Point>
                    <coordinates>114.1483526210,22.3372149541</coordinates>
                </Point>
                <ExtendedData>
                    <Data name="country">
                        <value>China</value>
                    </Data>
                    <Data name="suburb">
                        <value>Cheung Sha Wan</value>
                    </Data>
                    <Data name="neighbourhood">
                        <value>Lai Chi Kok Bay</value>
                    </Data>
                    <Data name="county">
                        <value>Sham Shui Po District</value>
                    </Data>
                    <Data name="road">
                        <value>Cheung Sha Wan Road</value>
                    </Data>
                    <Data name="station">
                        <value>Lai Chi Kok</value>
                    </Data>
                    <Data name="postcode">
                        <value>STTL 467</value>
                    </Data>
                    <Data name="country_code">
                        <value>cn</value>
                    </Data>
                </ExtendedData>
            </Placemark>
            <Placemark>
                <Point>
                    <coordinates>114.1363362392,22.3412284805</coordinates>
                </Point>
                <ExtendedData>
                    <Data name="routingVisited">
                        <value>false</value>
                    </Data>
                </ExtendedData>
            </Placemark>
            <Placemark>
                <Point>
                    <coordinates>114.1581293114,22.3341824940</coordinates>
                </Point>
                <ExtendedData>
                    <Data name="routingVisited">
                        <value>false</value>
                    </Data>
                </ExtendedData>
            </Placemark>
            <Placemark>
                <address>Bank of China, Mong Kok Road, Mong Kok West, Mong Kok, Yau Tsim Mong District, Hong Kong, KIL 3348, China</address>
                <Point>
                    <coordinates>114.1700957970,22.3196536959</coordinates>
                </Point>
                <ExtendedData>
                    <Data name="country">
                        <value>China</value>
                    </Data>
                    <Data name="suburb">
                        <value>Mong Kok</value>
                    </Data>
                    <Data name="routingVisited">
                        <value>false</value>
                    </Data>
                    <Data name="neighbourhood">
                        <value>Mong Kok West</value>
                    </Data>
                    <Data name="bank">
                        <value>Bank of China</value>
                    </Data>
                    <Data name="county">
                        <value>Yau Tsim Mong District</value>
                    </Data>
                    <Data name="road">
                        <value>Mong Kok Road</value>
                    </Data>
                    <Data name="postcode">
                        <value>KIL 3348</value>
                    </Data>
                    <Data name="country_code">
                        <value>cn</value>
                    </Data>
                </ExtendedData>
            </Placemark>
            <Placemark>
                <address>2A, Victory Avenue, Kau Pui Lung, Ho Man Tin, Kowloon City District, Hong Kong, KIL 3348, China</address>
                <Point>
                    <coordinates>114.1751236046,22.3185011362</coordinates>
                </Point>
                <ExtendedData>
                    <Data name="house_number">
                        <value>2A</value>
                    </Data>
                    <Data name="country">
                        <value>China</value>
                    </Data>
                    <Data name="suburb">
                        <value>Ho Man Tin</value>
                    </Data>
                    <Data name="neighbourhood">
                        <value>Kau Pui Lung</value>
                    </Data>
                    <Data name="county">
                        <value>Kowloon City District</value>
                    </Data>
                    <Data name="road">
                        <value>Victory Avenue</value>
                    </Data>
                    <Data name="postcode">
                        <value>KIL 3348</value>
                    </Data>
                    <Data name="country_code">
                        <value>cn</value>
                    </Data>
                </ExtendedData>
            </Placemark>
            <Placemark>
                <address>Cross-Harbour Tunnel, Kellett Island, Wan Chai District, Hong Kong, HYSAN PLACE 12F, China</address>
                <Point>
                    <coordinates>114.1830720467,22.2888131591</coordinates>
                </Point>
                <ExtendedData>
                    <Data name="country">
                        <value>China</value>
                    </Data>
                    <Data name="suburb">
                        <value>Kellett Island</value>
                    </Data>
                    <Data name="county">
                        <value>Wan Chai District</value>
                    </Data>
                    <Data name="road">
                        <value>Cross-Harbour Tunnel</value>
                    </Data>
                    <Data name="postcode">
                        <value>HYSAN PLACE 12F</value>
                    </Data>
                    <Data name="country_code">
                        <value>cn</value>
                    </Data>
                </ExtendedData>
            </Placemark>
            <Placemark>
                <address>38 Southside, 38, Wong Chuk Hang Road, Wong Chuk Hang, Wong Chuk Hang San Wai, Southern District, Hong Kong, AIL 89, China</address>
                <Point>
                    <coordinates>114.1656717498,22.2481986896</coordinates>
                </Point>
                <ExtendedData>
                    <Data name="house_number">
                        <value>38</value>
                    </Data>
                    <Data name="country">
                        <value>China</value>
                    </Data>
                    <Data name="suburb">
                        <value>Wong Chuk Hang</value>
                    </Data>
                    <Data name="building">
                        <value>38 Southside</value>
                    </Data>
                    <Data name="hamlet">
                        <value>Wong Chuk Hang San Wai</value>
                    </Data>
                    <Data name="county">
                        <value>Southern District</value>
                    </Data>
                    <Data name="road">
                        <value>Wong Chuk Hang Road</value>
                    </Data>
                    <Data name="postcode">
                        <value>AIL 89</value>
                    </Data>
                    <Data name="country_code">
                        <value>cn</value>
                    </Data>
                </ExtendedData>
            </Placemark>
            <Placemark>
                <address>Tung On House, Lei Tung Estate Road, Lei Tung Estate, Ap Lei Chau, Wong Chuk Hang San Wai, Southern District, Hong Kong, AIL 83, China</address>
                <Point>
                    <coordinates>114.1565048011,22.2408518456</coordinates>
                </Point>
                <ExtendedData>
                    <Data name="country">
                        <value>China</value>
                    </Data>
                    <Data name="suburb">
                        <value>Ap Lei Chau</value>
                    </Data>
                    <Data name="building">
                        <value>Tung On House</value>
                    </Data>
                    <Data name="hamlet">
                        <value>Wong Chuk Hang San Wai</value>
                    </Data>
                    <Data name="residential">
                        <value>Lei Tung Estate</value>
                    </Data>
                    <Data name="county">
                        <value>Southern District</value>
                    </Data>
                    <Data name="road">
                        <value>Lei Tung Estate Road</value>
                    </Data>
                    <Data name="postcode">
                        <value>AIL 83</value>
                    </Data>
                    <Data name="country_code">
                        <value>cn</value>
                    </Data>
                </ExtendedData>
            </Placemark>
            <Placemark>
                <address>Fenton Court, Lee Nam Road, Ap Lei Chau, Shui Choi Tin Village, Southern District, Hong Kong, AIL 83, China</address>
                <Point>
                    <coordinates>114.1498621901,22.2428081642</coordinates>
                </Point>
                <ExtendedData>
                    <Data name="country">
                        <value>China</value>
                    </Data>
                    <Data name="suburb">
                        <value>Ap Lei Chau</value>
                    </Data>
                    <Data name="building">
                        <value>Fenton Court</value>
                    </Data>
                    <Data name="hamlet">
                        <value>Shui Choi Tin Village</value>
                    </Data>
                    <Data name="county">
                        <value>Southern District</value>
                    </Data>
                    <Data name="road">
                        <value>Lee Nam Road</value>
                    </Data>
                    <Data name="postcode">
                        <value>AIL 83</value>
                    </Data>
                    <Data name="country_code">
                        <value>cn</value>
                    </Data>
                </ExtendedData>
            </Placemark>
        </Folder>
        <Document>
            <name>39.1 km; 00:48 h (OSRM)</name>
            <Placemark>
                <name>Route</name>
                <LineString>
                    <coordinates>114.1500390000,22.2425830000 114.1507230000,22.2430510000 114.1508990000,22.2431700000 114.1510780000,22.2432900000 114.1512460000,22.2434110000 114.1512700000,22.2434280000 114.1513500000,22.2434860000 114.1514280000,22.2435370000 114.1514980000,22.2434950000 114.1518810000,22.2433100000 114.1519930000,22.2432670000 114.1520610000,22.2432470000 114.1522640000,22.2431950000 114.1524320000,22.2431530000 114.1527090000,22.2430650000 114.1529070000,22.2429940000 114.1531790000,22.2428860000 114.1535630000,22.2427510000 114.1536940000,22.2427260000 114.1539130000,22.2427010000 114.1541050000,22.2427120000 114.1543400000,22.2427970000 114.1545170000,22.2428960000 114.1546470000,22.2429640000 114.1548760000,22.2430840000 114.1550590000,22.2431650000 114.1552760000,22.2432770000 114.1554810000,22.2433680000 114.1557370000,22.2434810000 114.1560710000,22.2435610000 114.1563140000,22.2435760000 114.1565280000,22.2435750000 114.1567570000,22.2435640000 114.1569160000,22.2435610000 114.1569560000,22.2435610000 114.1570980000,22.2435820000 114.1571610000,22.2436040000 114.1572650000,22.2436410000 114.1573360000,22.2436920000 114.1573970000,22.2436290000 114.1574870000,22.2435620000 114.1576150000,22.2434810000 114.1576550000,22.2434660000 114.1577090000,22.2434580000 114.1577460000,22.2434560000 114.1577680000,22.2434560000 114.1578720000,22.2434440000 114.1578740000,22.2433790000 114.1578740000,22.2433290000 114.1578740000,22.2432940000 114.1578730000,22.2432530000 114.1578730000,22.2431630000 114.1578850000,22.2430290000 114.1578860000,22.2429900000 114.1579070000,22.2427160000 114.1579190000,22.2423810000 114.1579010000,22.2418780000 114.1579000000,22.2418480000 114.1578980000,22.2417920000 114.1578960000,22.2416750000 114.1578900000,22.2413210000 114.1578570000,22.2411870000 114.1577860000,22.2410670000 114.1576620000,22.2409610000 114.1574950000,22.2409130000 114.1572900000,22.2409200000 114.1571480000,22.2409900000 114.1571230000,22.2410200000 114.1570140000,22.2411520000 114.1569720000,22.2413610000 114.1569720000,22.2416970000 114.1569350000,22.2418390000 114.1568730000,22.2419240000 114.1568030000,22.2419810000 114.1566810000,22.2420160000 114.1563570000,22.2420090000 114.1562870000,22.2419440000 114.1562190000,22.2418710000 114.1561740000,22.2417870000 114.1561770000,22.2414290000 114.1561770000,22.2413460000 114.1561790000,22.2412850000 114.1561850000,22.2412500000 114.1561930000,22.2412250000 114.1562080000,22.2412010000 114.1562270000,22.2411760000 114.1562860000,22.2411030000 114.1562850000,22.2408620000 114.1562850000,22.2407380000 114.1562530000,22.2407120000 114.1562030000,22.2406930000 114.1560940000,22.2406650000 114.1560160000,22.2406480000 114.1559120000,22.2406410000 114.1556660000,22.2406340000 114.1551370000,22.2406400000 114.1550660000,22.2406590000 114.1549800000,22.2406990000 114.1549490000,22.2407290000 114.1549250000,22.2407840000 114.1548980000,22.2410030000 114.1548970000,22.2412130000 114.1548960000,22.2413420000 114.1548950000,22.2414040000 114.1548810000,22.2417730000 114.1549720000,22.2418970000 114.1550850000,22.2420070000 114.1559140000,22.2420180000 114.1561410000,22.2420100000 114.1563570000,22.2420090000 114.1566810000,22.2420160000 114.1568030000,22.2419810000 114.1568730000,22.2419240000 114.1569350000,22.2418390000 114.1569720000,22.2416970000 114.1569720000,22.2413610000 114.1570140000,22.2411520000 114.1571230000,22.2410200000 114.1571480000,22.2409900000 114.1572900000,22.2409200000 114.1574950000,22.2409130000 114.1576620000,22.2409610000 114.1577860000,22.2410670000 114.1578570000,22.2411870000 114.1578900000,22.2413210000 114.1578960000,22.2416750000 114.1578980000,22.2417920000 114.1579000000,22.2418480000 114.1579010000,22.2418780000 114.1579190000,22.2423810000 114.1579070000,22.2427160000 114.1578860000,22.2429900000 114.1578850000,22.2430290000 114.1578730000,22.2431630000 114.1578730000,22.2432530000 114.1578740000,22.2432940000 114.1578740000,22.2433290000 114.1578740000,22.2433790000 114.1577730000,22.2433810000 114.1576890000,22.2433880000 114.1575920000,22.2434050000 114.1575250000,22.2434290000 114.1574230000,22.2434900000 114.1573920000,22.2435170000 114.1573220000,22.2435780000 114.1572650000,22.2436410000 114.1573360000,22.2436920000 114.1574710000,22.2438570000 114.1574940000,22.2438860000 114.1575520000,22.2439590000 114.1576940000,22.2441480000 114.1577800000,22.2442430000 114.1578860000,22.2443300000 114.1580560000,22.2444470000 114.1581240000,22.2444770000 114.1582130000,22.2445170000 114.1583320000,22.2445710000 114.1585940000,22.2446790000 114.1588260000,22.2448160000 114.1588880000,22.2448650000 114.1590380000,22.2449850000 114.1602530000,22.2461210000 114.1603470000,22.2462090000 114.1607350000,22.2465660000 114.1607970000,22.2466350000 114.1608470000,22.2466970000 114.1608920000,22.2467650000 114.1609300000,22.2468370000 114.1609650000,22.2469210000 114.1609910000,22.2470020000 114.1610080000,22.2470640000 114.1610170000,22.2471360000 114.1610070000,22.2472360000 114.1609960000,22.2473480000 114.1609920000,22.2473890000 114.1609820000,22.2474510000 114.1609550000,22.2476160000 114.1608890000,22.2477630000 114.1605990000,22.2483890000 114.1605120000,22.2484900000 114.1604890000,22.2485200000 114.1604620000,22.2485560000 114.1604360000,22.2485760000 114.1604050000,22.2485940000 114.1603840000,22.2486030000 114.1603330000,22.2486140000 114.1602770000,22.2486190000 114.1602360000,22.2486190000 114.1601890000,22.2486050000 114.1601510000,22.2485840000 114.1601340000,22.2485710000 114.1601090000,22.2485480000 114.1600760000,22.2484970000 114.1600710000,22.2484690000 114.1600730000,22.2484000000 114.1601050000,22.2483380000 114.1601420000,22.2483000000 114.1601770000,22.2482750000 114.1602230000,22.2482600000 114.1602730000,22.2482480000 114.1603250000,22.2482460000 114.1604140000,22.2482480000 114.1605270000,22.2482510000 114.1605500000,22.2482630000 114.1606150000,22.2482960000 114.1606920000,22.2483370000 114.1608540000,22.2484220000 114.1611890000,22.2485540000 114.1613640000,22.2486110000 114.1614400000,22.2486250000 114.1615660000,22.2486490000 114.1617500000,22.2486790000 114.1619530000,22.2486880000 114.1621460000,22.2486840000 114.1630580000,22.2485780000 114.1634960000,22.2485270000 114.1638150000,22.2484770000 114.1643440000,22.2484040000 114.1649260000,22.2483840000 114.1650750000,22.2483800000 114.1652210000,22.2483780000 114.1654780000,22.2484030000 114.1656620000,22.2484360000 114.1656830000,22.2484410000 114.1658240000,22.2484730000 114.1660280000,22.2485370000 114.1661500000,22.2485830000 114.1662050000,22.2486020000 114.1663980000,22.2486910000 114.1669540000,22.2489800000 114.1673330000,22.2491580000 114.1673740000,22.2491750000 114.1675140000,22.2492420000 114.1680260000,22.2494860000 114.1690450000,22.2499930000 114.1691970000,22.2500610000 114.1693480000,22.2501320000 114.1694940000,22.2501590000 114.1695740000,22.2501900000 114.1696880000,22.2502320000 114.1699640000,22.2503370000 114.1701310000,22.2503990000 114.1702710000,22.2504480000 114.1704220000,22.2504860000 114.1705870000,22.2505140000 114.1707460000,22.2505380000 114.1710520000,22.2505590000 114.1712070000,22.2505640000 114.1713720000,22.2505630000 114.1714860000,22.2505550000 114.1716430000,22.2505410000 114.1718350000,22.2505070000 114.1721200000,22.2504410000 114.1724300000,22.2503690000 114.1726490000,22.2503180000 114.1728290000,22.2502770000 114.1740970000,22.2500090000 114.1745860000,22.2499280000 114.1750090000,22.2498870000 114.1753280000,22.2498830000 114.1755490000,22.2498950000 114.1757820000,22.2499120000 114.1760340000,22.2499340000 114.1761950000,22.2499740000 114.1764750000,22.2500620000 114.1766880000,22.2501520000 114.1770180000,22.2503320000 114.1773330000,22.2505690000 114.1774910000,22.2507320000 114.1776460000,22.2509500000 114.1780100000,22.2515350000 114.1780440000,22.2515900000 114.1782310000,22.2518910000 114.1785930000,22.2524730000 114.1786850000,22.2526170000 114.1787110000,22.2526580000 114.1790350000,22.2531650000 114.1791240000,22.2533270000 114.1792610000,22.2535740000 114.1793690000,22.2537830000 114.1794600000,22.2539900000 114.1795500000,22.2542100000 114.1796300000,22.2544200000 114.1796800000,22.2545700000 114.1797300000,22.2547500000 114.1797660000,22.2549200000 114.1797900000,22.2551000000 114.1798100000,22.2552900000 114.1798200000,22.2554200000 114.1804190000,22.2697400000 114.1804200000,22.2700300000 114.1804100000,22.2703000000 114.1803900000,22.2705480000 114.1803770000,22.2706310000 114.1803610000,22.2707340000 114.1803500000,22.2708000000 114.1802930000,22.2711630000 114.1802610000,22.2713610000 114.1802310000,22.2714790000 114.1802010000,22.2715830000 114.1801400000,22.2717640000 114.1800710000,22.2719570000 114.1794830000,22.2735410000 114.1794490000,22.2736720000 114.1794210000,22.2738100000 114.1794140000,22.2740100000 114.1794250000,22.2741760000 114.1794370000,22.2743080000 114.1794680000,22.2744360000 114.1795100000,22.2745830000 114.1795570000,22.2746880000 114.1797060000,22.2749470000 114.1798050000,22.2750750000 114.1799140000,22.2751900000 114.1802720000,22.2755450000 114.1807610000,22.2760690000 114.1809280000,22.2762880000 114.1809700000,22.2763640000 114.1810010000,22.2764500000 114.1810240000,22.2765380000 114.1810440000,22.2766020000 114.1810760000,22.2767640000 114.1810940000,22.2769090000 114.1811080000,22.2771100000 114.1811280000,22.2775070000 114.1811340000,22.2776400000 114.1812170000,22.2790490000 114.1812140000,22.2791480000 114.1812010000,22.2792440000 114.1811820000,22.2793290000 114.1811490000,22.2794410000 114.1811100000,22.2795580000 114.1808490000,22.2801620000 114.1807270000,22.2804420000 114.1806280000,22.2806710000 114.1805790000,22.2807400000 114.1805000000,22.2808400000 114.1804200000,22.2809300000 114.1801850000,22.2811000000 114.1801520000,22.2811300000 114.1801180000,22.2811700000 114.1800880000,22.2812100000 114.1800600000,22.2812520000 114.1800340000,22.2813260000 114.1800140000,22.2814400000 114.1800150000,22.2815230000 114.1800300000,22.2815710000 114.1800420000,22.2816020000 114.1800790000,22.2816750000 114.1801270000,22.2817430000 114.1802210000,22.2818060000 114.1803090000,22.2818470000 114.1803960000,22.2818680000 114.1804860000,22.2818750000 114.1807000000,22.2818490000 114.1807500000,22.2818390000 114.1808000000,22.2818300000 114.1808500000,22.2818230000 114.1809000000,22.2818190000 114.1809500000,22.2818180000 114.1810000000,22.2818210000 114.1810500000,22.2818290000 114.1811000000,22.2818400000 114.1811500000,22.2818560000 114.1812010000,22.2818790000 114.1812510000,22.2819070000 114.1812900000,22.2819320000 114.1813250000,22.2819600000 114.1813600000,22.2819950000 114.1813970000,22.2820400000 114.1814300000,22.2820900000 114.1814550000,22.2821350000 114.1815200000,22.2822600000 114.1815590000,22.2823260000 114.1816080000,22.2823980000 114.1816510000,22.2824550000 114.1816980000,22.2825120000 114.1817390000,22.2825600000 114.1817780000,22.2826020000 114.1818050000,22.2826270000 114.1818300000,22.2826500000 114.1823400000,22.2830600000 114.1825200000,22.2832500000 114.1826800000,22.2834390000 114.1828320000,22.2836720000 114.1829370000,22.2838430000 114.1830020000,22.2839850000 114.1830590000,22.2841840000 114.1830780000,22.2844020000 114.1830720000,22.2846470000 114.1820710000,22.2906720000 114.1806730000,22.2990920000 114.1805720000,22.2997000000 114.1805210000,22.3000220000 114.1804640000,22.3003030000 114.1804000000,22.3006310000 114.1803430000,22.3009300000 114.1803240000,22.3010280000 114.1802500000,22.3013450000 114.1801400000,22.3017910000 114.1801310000,22.3019700000 114.1801460000,22.3020750000 114.1801590000,22.3021900000 114.1801650000,22.3022500000 114.1801920000,22.3024230000 114.1802280000,22.3025700000 114.1802940000,22.3027710000 114.1803860000,22.3029630000 114.1805780000,22.3033290000 114.1806750000,22.3035430000 114.1807030000,22.3037150000 114.1807830000,22.3038330000 114.1809670000,22.3042120000 114.1811250000,22.3045490000 114.1813140000,22.3048960000 114.1813700000,22.3050530000 114.1814690000,22.3053110000 114.1814990000,22.3054940000 114.1815000000,22.3056370000 114.1814880000,22.3057520000 114.1814230000,22.3059500000 114.1813510000,22.3060980000 114.1812750000,22.3062120000 114.1810970000,22.3063870000 114.1807830000,22.3066640000 114.1806600000,22.3067160000 114.1803800000,22.3068730000 114.1801290000,22.3070440000 114.1799340000,22.3071820000 114.1798140000,22.3072830000 114.1796820000,22.3074080000 114.1795370000,22.3075700000 114.1794300000,22.3077130000 114.1793380000,22.3078280000 114.1792590000,22.3080050000 114.1791840000,22.3081620000 114.1790810000,22.3084240000 114.1789920000,22.3086810000 114.1788840000,22.3089380000 114.1787570000,22.3091990000 114.1785440000,22.3095790000 114.1783110000,22.3099560000 114.1781210000,22.3102650000 114.1779240000,22.3105740000 114.1777900000,22.3107980000 114.1776410000,22.3110180000 114.1775100000,22.3111670000 114.1770530000,22.3116690000 114.1768720000,22.3117650000 114.1767790000,22.3118290000 114.1765960000,22.3119380000 114.1765030000,22.3119900000 114.1764180000,22.3120630000 114.1762950000,22.3121740000 114.1762310000,22.3122370000 114.1762060000,22.3122730000 114.1761930000,22.3122930000 114.1760280000,22.3125600000 114.1758580000,22.3128300000 114.1756180000,22.3132180000 114.1754370000,22.3135670000 114.1753300000,22.3138000000 114.1743530000,22.3159910000 114.1742930000,22.3161050000 114.1742180000,22.3162190000 114.1741710000,22.3162860000 114.1740960000,22.3163650000 114.1740570000,22.3164020000 114.1740030000,22.3164610000 114.1740050000,22.3165890000 114.1740080000,22.3166910000 114.1739310000,22.3168530000 114.1739090000,22.3169090000 114.1737890000,22.3171960000 114.1735610000,22.3177120000 114.1734140000,22.3180470000 114.1733570000,22.3181750000 114.1730050000,22.3189740000 114.1728920000,22.3192320000 114.1728890000,22.3192610000 114.1728790000,22.3193580000 114.1727340000,22.3197090000 114.1727170000,22.3197540000 114.1726730000,22.3198650000 114.1722280000,22.3197790000 114.1717560000,22.3197080000 114.1717120000,22.3197000000 114.1716360000,22.3196880000 114.1715140000,22.3196660000 114.1710860000,22.3195900000 114.1709030000,22.3195590000 114.1706770000,22.3195180000 114.1705260000,22.3194920000 114.1703540000,22.3194600000 114.1702260000,22.3194390000 114.1701140000,22.3194200000 114.1699770000,22.3193950000 114.1698420000,22.3193890000 114.1695810000,22.3193390000 114.1695360000,22.3193310000 114.1694290000,22.3193120000 114.1693200000,22.3192930000 114.1692700000,22.3195280000 114.1692500000,22.3196220000 114.1692170000,22.3197760000 114.1691840000,22.3199350000 114.1691760000,22.3199730000 114.1691160000,22.3202520000 114.1690870000,22.3204000000 114.1690610000,22.3205360000 114.1690480000,22.3205930000 114.1690380000,22.3206440000 114.1690220000,22.3207200000 114.1690010000,22.3208190000 114.1689870000,22.3208860000 114.1689680000,22.3209790000 114.1688970000,22.3213210000 114.1688490000,22.3215520000 114.1687620000,22.3220450000 114.1687540000,22.3220850000 114.1686850000,22.3221740000 114.1686100000,22.3222700000 114.1685140000,22.3223710000 114.1684040000,22.3224600000 114.1683630000,22.3224880000 114.1678210000,22.3228570000 114.1675100000,22.3230910000 114.1674680000,22.3231230000 114.1672860000,22.3232690000 114.1669370000,22.3235240000 114.1669100000,22.3235450000 114.1668800000,22.3235670000 114.1668120000,22.3236190000 114.1667560000,22.3236630000 114.1666260000,22.3237580000 114.1665170000,22.3238280000 114.1661530000,22.3241170000 114.1660050000,22.3242260000 114.1656400000,22.3245070000 114.1655780000,22.3245570000 114.1654250000,22.3246790000 114.1652750000,22.3248410000 114.1651000000,22.3249750000 114.1650660000,22.3250010000 114.1648720000,22.3251610000 114.1648230000,22.3251920000 114.1647420000,22.3252360000 114.1641850000,22.3256750000 114.1641070000,22.3257310000 114.1640030000,22.3258110000 114.1635230000,22.3261760000 114.1634110000,22.3262610000 114.1633250000,22.3263590000 114.1631440000,22.3264990000 114.1626370000,22.3268870000 114.1620400000,22.3273460000 114.1620060000,22.3273710000 114.1618690000,22.3274780000 114.1617100000,22.3275930000 114.1616410000,22.3276460000 114.1609370000,22.3281900000 114.1608980000,22.3282200000 114.1608060000,22.3282660000 114.1600720000,22.3288380000 114.1600270000,22.3288710000 114.1599590000,22.3289220000 114.1598420000,22.3290160000 114.1597860000,22.3290610000 114.1593110000,22.3294290000 114.1592740000,22.3294560000 114.1591150000,22.3295790000 114.1590170000,22.3296550000 114.1590790000,22.3297340000 114.1591880000,22.3298590000 114.1594340000,22.3301230000 114.1594670000,22.3301510000 114.1597600000,22.3304870000 114.1598650000,22.3306010000 114.1597180000,22.3307100000 114.1597180000,22.3307100000 114.1598650000,22.3306010000 114.1599540000,22.3307030000 114.1600990000,22.3308750000 114.1601600000,22.3309430000 114.1603810000,22.3311920000 114.1607650000,22.3316090000 114.1608020000,22.3316480000 114.1608900000,22.3317470000 114.1608040000,22.3318130000 114.1602940000,22.3322080000 114.1600780000,22.3323710000 114.1597500000,22.3326270000 114.1596880000,22.3326760000 114.1591190000,22.3331180000 114.1591050000,22.3331290000 114.1590660000,22.3331600000 114.1586680000,22.3334690000 114.1586160000,22.3335100000 114.1585460000,22.3335650000 114.1583150000,22.3337440000 114.1575840000,22.3343150000 114.1574770000,22.3343960000 114.1574310000,22.3344320000 114.1573110000,22.3345220000 114.1572090000,22.3346010000 114.1570980000,22.3346960000 114.1563230000,22.3353030000 114.1562790000,22.3353370000 114.1559960000,22.3355550000 114.1559220000,22.3356120000 114.1558520000,22.3356660000 114.1555020000,22.3359410000 114.1554360000,22.3359940000 114.1552620000,22.3361260000 114.1552040000,22.3361700000 114.1551030000,22.3362410000 114.1538210000,22.3372230000 114.1537860000,22.3372510000 114.1536520000,22.3373560000 114.1535550000,22.3374290000 114.1528600000,22.3379970000 114.1528290000,22.3380220000 114.1527240000,22.3381080000 114.1525220000,22.3382400000 114.1523750000,22.3383040000 114.1522810000,22.3383430000 114.1521820000,22.3383830000 114.1520160000,22.3384340000 114.1517580000,22.3384380000 114.1515640000,22.3383970000 114.1513800000,22.3383390000 114.1512640000,22.3382830000 114.1511440000,22.3382560000 114.1510510000,22.3382260000 114.1509290000,22.3381930000 114.1507350000,22.3381350000 114.1506270000,22.3381000000 114.1505920000,22.3380910000 114.1505570000,22.3380820000 114.1496510000,22.3377660000 114.1496120000,22.3377520000 114.1494140000,22.3376830000 114.1492940000,22.3376420000 114.1483160000,22.3373060000 114.1482860000,22.3372960000 114.1480540000,22.3372150000 114.1479910000,22.3371930000 114.1478230000,22.3371340000 114.1475380000,22.3370330000 114.1473700000,22.3369750000 114.1472300000,22.3369260000 114.1467030000,22.3367430000 114.1462130000,22.3365760000 114.1459240000,22.3364740000 114.1457050000,22.3364030000 114.1449850000,22.3361620000 114.1447600000,22.3360930000 114.1445170000,22.3360740000 114.1442060000,22.3361330000 114.1439210000,22.3362200000 114.1434850000,22.3363000000 114.1430170000,22.3364030000 114.1425200000,22.3364870000 114.1424270000,22.3365020000 114.1422030000,22.3365370000 114.1420170000,22.3365530000 114.1418910000,22.3365620000 114.1417120000,22.3365530000 114.1414680000,22.3365370000 114.1413260000,22.3365390000 114.1412600000,22.3365370000 114.1411080000,22.3365480000 114.1410430000,22.3365590000 114.1409290000,22.3365820000 114.1409000000,22.3365890000 114.1407560000,22.3366960000 114.1407070000,22.3367480000 114.1406970000,22.3367590000 114.1406730000,22.3367890000 114.1406560000,22.3368360000 114.1406510000,22.3369290000 114.1406720000,22.3370350000 114.1407100000,22.3371650000 114.1407160000,22.3371830000 114.1407390000,22.3373360000 114.1407590000,22.3374170000 114.1407720000,22.3374530000 114.1407910000,22.3375080000 114.1408050000,22.3375720000 114.1408270000,22.3376360000 114.1408620000,22.3377170000 114.1408750000,22.3378000000 114.1408830000,22.3378540000 114.1409010000,22.3378950000 114.1408920000,22.3379200000 114.1408410000,22.3380470000 114.1407900000,22.3381750000 114.1406940000,22.3384080000 114.1404550000,22.3389680000 114.1404370000,22.3390090000 114.1404240000,22.3390400000 114.1402940000,22.3393520000 114.1402190000,22.3394950000 114.1401060000,22.3396100000 114.1399330000,22.3397180000 114.1391670000,22.3400660000 114.1390540000,22.3401220000 114.1389570000,22.3401860000 114.1388710000,22.3403040000 114.1388120000,22.3404000000 114.1387270000,22.3405360000 114.1387080000,22.3405660000 114.1386660000,22.3406270000 114.1386480000,22.3406520000 114.1384250000,22.3409750000 114.1383080000,22.3411790000 114.1382820000,22.3412500000 114.1382710000,22.3412900000 114.1382510000,22.3414930000 114.1381160000,22.3414940000 114.1378410000,22.3415010000 114.1376270000,22.3414900000 114.1373950000,22.3414670000 114.1372220000,22.3414290000 114.1370540000,22.3413880000 114.1368030000,22.3413180000 114.1365580000,22.3412150000 114.1364720000,22.3411040000 114.1364190000,22.3410750000 114.1363610000,22.3410740000 114.1363270000,22.3410950000 114.1363170000,22.3411360000 114.1363350000,22.3411680000 114.1363650000,22.3411850000 114.1363750000,22.3411910000 114.1364430000,22.3412060000 114.1365580000,22.3412150000 114.1368030000,22.3413180000 114.1370540000,22.3413880000 114.1372220000,22.3414290000 114.1373950000,22.3414670000 114.1376270000,22.3414900000 114.1378410000,22.3415010000 114.1381160000,22.3414940000 114.1382510000,22.3414930000 114.1382710000,22.3412900000 114.1382820000,22.3412500000 114.1383080000,22.3411790000 114.1384250000,22.3409750000 114.1386480000,22.3406520000 114.1386660000,22.3406270000 114.1387080000,22.3405660000 114.1387270000,22.3405360000 114.1388120000,22.3404000000 114.1388710000,22.3403040000 114.1389570000,22.3401860000 114.1390540000,22.3401220000 114.1391670000,22.3400660000 114.1399330000,22.3397180000 114.1401060000,22.3396100000 114.1402190000,22.3394950000 114.1402940000,22.3393520000 114.1404240000,22.3390400000 114.1404370000,22.3390090000 114.1404550000,22.3389680000 114.1406940000,22.3384080000 114.1407900000,22.3381750000 114.1408410000,22.3380470000 114.1408920000,22.3379200000 114.1409010000,22.3378950000 114.1409500000,22.3378580000 114.1409600000,22.3377840000 114.1409500000,22.3376950000 114.1409110000,22.3376010000 114.1408930000,22.3375510000 114.1408850000,22.3374890000 114.1408880000,22.3374470000 114.1409030000,22.3373900000 114.1409210000,22.3373490000 114.1409620000,22.3372880000 114.1410210000,22.3372320000 114.1410890000,22.3371810000 114.1412030000,22.3371410000 114.1412750000,22.3371210000 114.1415820000,22.3370530000 114.1421030000,22.3368700000 114.1426010000,22.3367550000 114.1433400000,22.3366450000 114.1436690000,22.3366000000 114.1438290000,22.3365590000 114.1440080000,22.3365420000 114.1441880000,22.3365240000 114.1447300000,22.3364650000 114.1449900000,22.3364700000 114.1451340000,22.3364710000 114.1453540000,22.3364560000 114.1454690000,22.3364690000 114.1456080000,22.3364980000 114.1457010000,22.3365250000 114.1466080000,22.3368230000 114.1467920000,22.3368780000 114.1470620000,22.3369720000 114.1477910000,22.3372190000 114.1478410000,22.3372360000 114.1478890000,22.3372520000 114.1482660000,22.3373830000 114.1483610000,22.3374160000 114.1484850000,22.3374590000 114.1485360000,22.3374760000 114.1486530000,22.3375170000 114.1487080000,22.3375360000 114.1488680000,22.3375960000 114.1491460000,22.3377030000 114.1491940000,22.3377210000 114.1493720000,22.3377790000 114.1495080000,22.3378230000 114.1496190000,22.3378570000 114.1499280000,22.3379700000 114.1505410000,22.3381900000 114.1505830000,22.3382050000 114.1509590000,22.3383420000 114.1510130000,22.3383620000 114.1514460000,22.3385110000 114.1517420000,22.3386000000 114.1519950000,22.3386010000 114.1521940000,22.3385580000 114.1522950000,22.3385170000 114.1524590000,22.3384370000 114.1527030000,22.3382640000 114.1528030000,22.3381930000 114.1529110000,22.3381080000 114.1533200000,22.3377860000 114.1534750000,22.3376640000 114.1536440000,22.3375310000 114.1537460000,22.3374520000 114.1539090000,22.3373250000 114.1545640000,22.3368150000 114.1550440000,22.3364410000 114.1552880000,22.3362530000 114.1553380000,22.3362150000 114.1555370000,22.3360610000 114.1556370000,22.3359840000 114.1557340000,22.3359090000 114.1562810000,22.3354860000 114.1563140000,22.3354610000 114.1564210000,22.3353790000 114.1571400000,22.3348230000 114.1572250000,22.3347580000 114.1572980000,22.3347010000 114.1574030000,22.3346150000 114.1575920000,22.3344660000 114.1580580000,22.3341040000 114.1582930000,22.3339220000 114.1586490000,22.3336410000 114.1591120000,22.3332800000 114.1591530000,22.3332470000 114.1592260000,22.3331900000 114.1596250000,22.3328790000 114.1596780000,22.3328380000 114.1600840000,22.3325260000 114.1606830000,22.3320590000 114.1608450000,22.3319370000 114.1608740000,22.3319160000 114.1609770000,22.3318360000 114.1610660000,22.3317690000 114.1611900000,22.3316720000 114.1618810000,22.3311370000 114.1625100000,22.3306380000 114.1625910000,22.3305750000 114.1627630000,22.3304440000 114.1634510000,22.3299220000 114.1635040000,22.3298820000 114.1636730000,22.3297520000 114.1638180000,22.3296400000 114.1639000000,22.3295750000 114.1645560000,22.3290730000 114.1648550000,22.3288400000 114.1651310000,22.3286200000 114.1652130000,22.3285560000 114.1653000000,22.3284880000 114.1653860000,22.3284180000 114.1655050000,22.3283210000 114.1658240000,22.3281070000 114.1660600000,22.3279220000 114.1662820000,22.3277600000 114.1669350000,22.3272520000 114.1669910000,22.3272170000 114.1670180000,22.3272030000 114.1670600000,22.3271800000 114.1671390000,22.3271520000 114.1672430000,22.3271250000 114.1673030000,22.3271060000 114.1673530000,22.3270820000 114.1674040000,22.3270560000 114.1674530000,22.3270230000 114.1676480000,22.3268480000 114.1677440000,22.3267530000 114.1677660000,22.3267310000 114.1677730000,22.3267230000 114.1678470000,22.3266350000 114.1679190000,22.3264760000 114.1679560000,22.3263890000 114.1679690000,22.3263510000 114.1679810000,22.3263140000 114.1680030000,22.3262340000 114.1681560000,22.3255460000 114.1682260000,22.3252060000 114.1682370000,22.3251480000 114.1683990000,22.3243410000 114.1684400000,22.3241500000 114.1684440000,22.3241320000 114.1684600000,22.3240570000 114.1684820000,22.3239640000 114.1684910000,22.3239090000 114.1684940000,22.3238980000 114.1685080000,22.3238270000 114.1686590000,22.3231130000 114.1687020000,22.3229210000 114.1687200000,22.3228230000 114.1687320000,22.3227660000 114.1687860000,22.3224820000 114.1688690000,22.3220630000 114.1690550000,22.3210920000 114.1690630000,22.3210530000 114.1690950000,22.3209060000 114.1691120000,22.3208340000 114.1692930000,22.3208660000 114.1695650000,22.3209200000 114.1696760000,22.3208810000 114.1696830000,22.3208300000 114.1697390000,22.3205510000 114.1697660000,22.3204200000 114.1697770000,22.3203660000 114.1698170000,22.3202010000 114.1698730000,22.3199500000 114.1699060000,22.3197850000 114.1699200000,22.3197130000 114.1699510000,22.3196460000 114.1699570000,22.3196220000 114.1699680000,22.3195820000 114.1699770000,22.3195490000 114.1700030000,22.3195240000 114.1700350000,22.3195080000 114.1700710000,22.3195020000 114.1701000000,22.3195070000 114.1705470000,22.3195840000 114.1710810000,22.3196890000 114.1714280000,22.3197560000 114.1714900000,22.3197670000 114.1715990000,22.3197880000 114.1716880000,22.3198050000 114.1724730000,22.3199590000 114.1726420000,22.3199930000 114.1726730000,22.3198650000 114.1727170000,22.3197540000 114.1727340000,22.3197090000 114.1728790000,22.3193580000 114.1728920000,22.3192320000 114.1730050000,22.3189740000 114.1733570000,22.3181750000 114.1734140000,22.3180470000 114.1735610000,22.3177120000 114.1737890000,22.3171960000 114.1739090000,22.3169090000 114.1739310000,22.3168530000 114.1740080000,22.3166910000 114.1742530000,22.3170290000 114.1743230000,22.3171080000 114.1743700000,22.3171700000 114.1748900000,22.3178800000 114.1751200000,22.3181900000 114.1752790000,22.3184020000 114.1753000000,22.3184310000 114.1753210000,22.3184600000 114.1754010000,22.3185600000 114.1754380000,22.3186090000 114.1755480000,22.3185400000 114.1756480000,22.3184890000 114.1758510000,22.3183850000 114.1762830000,22.3181630000 114.1765440000,22.3180460000 114.1767720000,22.3180160000 114.1769930000,22.3180040000 114.1770820000,22.3180020000 114.1772270000,22.3179980000 114.1775060000,22.3179230000 114.1776150000,22.3178800000 114.1778320000,22.3177930000 114.1779300000,22.3177520000 114.1780950000,22.3176850000 114.1782430000,22.3176240000 114.1788350000,22.3173910000 114.1789540000,22.3173400000 114.1790470000,22.3173520000 114.1790800000,22.3173800000 114.1791070000,22.3174200000 114.1791240000,22.3174690000 114.1791050000,22.3175270000 114.1790800000,22.3175780000 114.1790440000,22.3176360000 114.1789420000,22.3177020000 114.1788650000,22.3177100000 114.1787930000,22.3177060000 114.1787180000,22.3176540000 114.1785840000,22.3175060000 114.1785240000,22.3173750000 114.1784840000,22.3172590000 114.1784410000,22.3171100000 114.1783900000,22.3169290000 114.1783560000,22.3168080000 114.1783160000,22.3166730000 114.1782670000,22.3165640000 114.1782070000,22.3164180000 114.1781230000,22.3162790000 114.1779650000,22.3160680000 114.1777320000,22.3158390000 114.1775680000,22.3156820000 114.1774780000,22.3155620000 114.1773790000,22.3154120000 114.1773410000,22.3153240000 114.1772950000,22.3151830000 114.1772610000,22.3150560000 114.1772330000,22.3148730000 114.1769150000,22.3131280000 114.1768710000,22.3128550000 114.1768430000,22.3126910000 114.1768310000,22.3125380000 114.1768250000,22.3123970000 114.1768410000,22.3122680000 114.1768630000,22.3121750000 114.1769010000,22.3120660000 114.1769320000,22.3120040000 114.1769680000,22.3119370000 114.1770830000,22.3117760000 114.1771870000,22.3116480000 114.1775890000,22.3112340000 114.1777210000,22.3110810000 114.1778720000,22.3108620000 114.1780290000,22.3106120000 114.1782020000,22.3103390000 114.1783980000,22.3100270000 114.1787160000,22.3095420000 114.1788350000,22.3093600000 114.1790080000,22.3090960000 114.1791770000,22.3088300000 114.1794770000,22.3083530000 114.1798020000,22.3078920000 114.1800760000,22.3074950000 114.1802950000,22.3072540000 114.1805370000,22.3070220000 114.1807390000,22.3068240000 114.1809090000,22.3067220000 114.1811540000,22.3064870000 114.1812870000,22.3063500000 114.1813670000,22.3062480000 114.1814690000,22.3061160000 114.1815470000,22.3059810000 114.1815750000,22.3059020000 114.1816100000,22.3057230000 114.1816010000,22.3054770000 114.1815710000,22.3052910000 114.1814910000,22.3050070000 114.1812210000,22.3044370000 114.1811230000,22.3042230000 114.1810440000,22.3040150000 114.1808730000,22.3035850000 114.1807300000,22.3032420000 114.1806030000,22.3028740000 114.1804960000,22.3025370000 114.1804530000,22.3023080000 114.1804390000,22.3022200000 114.1804280000,22.3021570000 114.1804240000,22.3021280000 114.1804100000,22.3019510000 114.1804000000,22.3016830000 114.1804260000,22.3014080000 114.1804500000,22.3012290000 114.1804770000,22.3009960000 114.1805280000,22.3006710000 114.1805930000,22.3003530000 114.1806470000,22.3000300000 114.1806970000,22.2997190000 114.1825130000,22.2887340000 114.1831870000,22.2846590000 114.1831980000,22.2843750000 114.1831770000,22.2841610000 114.1831280000,22.2839770000 114.1830550000,22.2838110000 114.1829730000,22.2836590000 114.1829470000,22.2836110000 114.1827730000,22.2833600000 114.1825870000,22.2831320000 114.1824230000,22.2829760000 114.1820400000,22.2826100000 114.1817800000,22.2823800000 114.1817200000,22.2823270000 114.1816620000,22.2822700000 114.1816150000,22.2822220000 114.1815730000,22.2821730000 114.1815310000,22.2821190000 114.1814900000,22.2820600000 114.1814540000,22.2820090000 114.1814080000,22.2819550000 114.1813600000,22.2819100000 114.1813120000,22.2818750000 114.1812500000,22.2818400000 114.1812070000,22.2818190000 114.1811530000,22.2817980000 114.1811000000,22.2817810000 114.1810500000,22.2817700000 114.1810000000,22.2817620000 114.1809400000,22.2817580000 114.1808900000,22.2817610000 114.1808200000,22.2817700000 114.1806200000,22.2818100000 114.1805680000,22.2818160000 114.1805100000,22.2818180000 114.1804520000,22.2818160000 114.1803950000,22.2818090000 114.1803440000,22.2817930000 114.1802970000,22.2817710000 114.1802630000,22.2817490000 114.1802180000,22.2817110000 114.1801790000,22.2816700000 114.1801590000,22.2816420000 114.1801420000,22.2816090000 114.1801310000,22.2815800000 114.1801240000,22.2815490000 114.1801190000,22.2815010000 114.1801180000,22.2814550000 114.1801220000,22.2814110000 114.1801290000,22.2813700000 114.1801400000,22.2813330000 114.1801570000,22.2812950000 114.1801800000,22.2812600000 114.1802180000,22.2812160000 114.1802490000,22.2811870000 114.1802830000,22.2811590000 114.1805500000,22.2809600000 114.1806400000,22.2808600000 114.1807240000,22.2807230000 114.1808140000,22.2805330000 114.1811770000,22.2797040000 114.1812520000,22.2794790000 114.1812890000,22.2793180000 114.1813070000,22.2791780000 114.1812330000,22.2774300000 114.1812130000,22.2771010000 114.1811860000,22.2768690000 114.1811620000,22.2767270000 114.1811150000,22.2765520000 114.1810550000,22.2763950000 114.1809710000,22.2762350000 114.1808540000,22.2760610000 114.1807280000,22.2759060000 114.1799720000,22.2751000000 114.1798330000,22.2749440000 114.1797550000,22.2748320000 114.1796680000,22.2746790000 114.1795830000,22.2744950000 114.1795420000,22.2743720000 114.1795170000,22.2742550000 114.1795090000,22.2741490000 114.1795110000,22.2739570000 114.1795180000,22.2737920000 114.1795290000,22.2737190000 114.1795710000,22.2735560000 114.1800600000,22.2722210000 114.1804550000,22.2712140000 114.1804930000,22.2710900000 114.1805370000,22.2709580000 114.1805880000,22.2707710000 114.1806150000,22.2706730000 114.1806350000,22.2706000000 114.1806900000,22.2703850000 114.1807300000,22.2702000000 114.1807580000,22.2700400000 114.1807820000,22.2698400000 114.1808020000,22.2696300000 114.1808090000,22.2694500000 114.1808070000,22.2692500000 114.1802400000,22.2556900000 114.1802180000,22.2553100000 114.1801900000,22.2550600000 114.1801600000,22.2548700000 114.1801200000,22.2546600000 114.1800880000,22.2545100000 114.1800480000,22.2543700000 114.1800200000,22.2542800000 114.1799800000,22.2541600000 114.1799400000,22.2540500000 114.1798900000,22.2539300000 114.1798420000,22.2538200000 114.1797820000,22.2536900000 114.1796790000,22.2534830000 114.1796200000,22.2533780000 114.1794750000,22.2531400000 114.1792430000,22.2527970000 114.1791920000,22.2527210000 114.1790090000,22.2524780000 114.1789830000,22.2524410000 114.1789020000,22.2523260000 114.1785050000,22.2517580000 114.1782820000,22.2514390000 114.1782470000,22.2513860000 114.1782100000,22.2513370000 114.1778290000,22.2507910000 114.1775180000,22.2504830000 114.1771150000,22.2502100000 114.1770440000,22.2501600000 114.1767120000,22.2500290000 114.1762560000,22.2498880000 114.1761060000,22.2498640000 114.1758030000,22.2498350000 114.1755620000,22.2498150000 114.1752860000,22.2498140000 114.1750010000,22.2498240000 114.1745950000,22.2498470000 114.1741340000,22.2499170000 114.1728140000,22.2501980000 114.1726300000,22.2502380000 114.1724020000,22.2502580000 114.1720850000,22.2503230000 114.1718010000,22.2503810000 114.1716280000,22.2504160000 114.1714800000,22.2504310000 114.1714170000,22.2504350000 114.1712260000,22.2504300000 114.1709750000,22.2504190000 114.1706990000,22.2503900000 114.1705110000,22.2503580000 114.1703590000,22.2503250000 114.1702070000,22.2502840000 114.1700690000,22.2502400000 114.1699610000,22.2502040000 114.1699110000,22.2501870000 114.1697000000,22.2501110000 114.1694570000,22.2499710000 114.1693620000,22.2499240000 114.1691540000,22.2498240000 114.1690810000,22.2497890000 114.1676650000,22.2491030000 114.1676000000,22.2490710000 114.1674640000,22.2490050000 114.1674250000,22.2489860000 114.1664920000,22.2484900000 114.1662480000,22.2483800000 114.1661290000,22.2483410000 114.1660620000,22.2483230000 114.1659610000,22.2482940000 114.1657050000,22.2482320000 114.1656650000,22.2482230000 114.1654980000,22.2481830000 114.1653410000,22.2481640000 114.1652360000,22.2481630000 114.1650110000,22.2481610000 114.1648690000,22.2481690000 114.1643730000,22.2482520000 114.1640810000,22.2482930000 114.1638050000,22.2483320000 114.1633100000,22.2484040000 114.1629250000,22.2484600000 114.1621560000,22.2485630000 114.1619990000,22.2485680000 114.1619120000,22.2485720000 114.1617370000,22.2485580000 114.1615640000,22.2485250000 114.1614880000,22.2485060000 114.1614050000,22.2484840000 114.1613020000,22.2484500000 114.1611840000,22.2484110000 114.1610700000,22.2483140000 114.1610480000,22.2482950000 114.1610190000,22.2482720000 114.1610110000,22.2482620000 114.1609910000,22.2482370000 114.1609770000,22.2481990000 114.1609630000,22.2481650000 114.1609540000,22.2481200000 114.1609510000,22.2480760000 114.1609590000,22.2480190000 114.1609750000,22.2479480000 114.1610370000,22.2476020000 114.1610820000,22.2474230000 114.1610950000,22.2473570000 114.1611120000,22.2472300000 114.1611110000,22.2471330000 114.1611070000,22.2470660000 114.1610900000,22.2469810000 114.1610620000,22.2468930000 114.1610230000,22.2468010000 114.1609780000,22.2467160000 114.1609320000,22.2466470000 114.1608800000,22.2465890000 114.1608070000,22.2465140000 114.1604110000,22.2461510000 114.1603200000,22.2460660000 114.1591040000,22.2449280000 114.1589530000,22.2447870000 114.1588810000,22.2447330000 114.1586370000,22.2446010000 114.1583740000,22.2444940000 114.1582450000,22.2444340000 114.1581650000,22.2443970000 114.1581010000,22.2443670000 114.1579380000,22.2442630000 114.1578490000,22.2441890000 114.1577490000,22.2440860000 114.1576190000,22.2439220000 114.1575690000,22.2438520000 114.1575380000,22.2438100000 114.1575500000,22.2437010000 114.1575580000,22.2436360000 114.1575750000,22.2435590000 114.1576150000,22.2434810000 114.1576550000,22.2434660000 114.1577090000,22.2434580000 114.1577460000,22.2434560000 114.1577680000,22.2434560000 114.1578720000,22.2434440000 114.1578740000,22.2433790000 114.1578740000,22.2433290000 114.1578740000,22.2432940000 114.1578730000,22.2432530000 114.1578730000,22.2431630000 114.1578850000,22.2430290000 114.1578860000,22.2429900000 114.1579070000,22.2427160000 114.1579190000,22.2423810000 114.1579010000,22.2418780000 114.1579000000,22.2418480000 114.1578980000,22.2417920000 114.1578960000,22.2416750000 114.1578900000,22.2413210000 114.1578570000,22.2411870000 114.1577860000,22.2410670000 114.1576620000,22.2409610000 114.1574950000,22.2409130000 114.1572900000,22.2409200000 114.1571480000,22.2409900000 114.1571230000,22.2410200000 114.1570140000,22.2411520000 114.1569720000,22.2413610000 114.1569720000,22.2416970000 114.1569350000,22.2418390000 114.1568730000,22.2419240000 114.1568030000,22.2419810000 114.1566810000,22.2420160000 114.1563570000,22.2420090000 114.1562870000,22.2419440000 114.1562190000,22.2418710000 114.1561740000,22.2417870000 114.1561770000,22.2414290000 114.1561770000,22.2413460000 114.1561790000,22.2412850000 114.1561850000,22.2412500000 114.1561930000,22.2412250000 114.1562080000,22.2412010000 114.1562270000,22.2411760000 114.1562860000,22.2411030000 114.1562850000,22.2408530000 114.1562850000,22.2407380000 114.1562530000,22.2407120000 114.1562030000,22.2406930000 114.1560940000,22.2406650000 114.1560160000,22.2406480000 114.1559120000,22.2406410000 114.1556660000,22.2406340000 114.1551370000,22.2406400000 114.1550660000,22.2406590000 114.1549800000,22.2406990000 114.1549490000,22.2407290000 114.1549250000,22.2407840000 114.1548980000,22.2410030000 114.1548970000,22.2412130000 114.1548960000,22.2413420000 114.1548950000,22.2414040000 114.1548810000,22.2417730000 114.1549720000,22.2418970000 114.1550850000,22.2420070000 114.1559140000,22.2420180000 114.1561410000,22.2420100000 114.1563570000,22.2420090000 114.1566810000,22.2420160000 114.1568030000,22.2419810000 114.1568730000,22.2419240000 114.1569350000,22.2418390000 114.1569720000,22.2416970000 114.1569720000,22.2413610000 114.1570140000,22.2411520000 114.1571230000,22.2410200000 114.1571480000,22.2409900000 114.1572900000,22.2409200000 114.1574950000,22.2409130000 114.1576620000,22.2409610000 114.1577860000,22.2410670000 114.1578570000,22.2411870000 114.1578900000,22.2413210000 114.1578960000,22.2416750000 114.1578980000,22.2417920000 114.1579000000,22.2418480000 114.1579010000,22.2418780000 114.1579190000,22.2423810000 114.1579070000,22.2427160000 114.1578860000,22.2429900000 114.1578850000,22.2430290000 114.1578730000,22.2431630000 114.1578730000,22.2432530000 114.1578740000,22.2432940000 114.1578740000,22.2433290000 114.1578740000,22.2433790000 114.1577730000,22.2433810000 114.1576890000,22.2433880000 114.1575920000,22.2434050000 114.1575250000,22.2434290000 114.1574230000,22.2434900000 114.1573920000,22.2435170000 114.1573220000,22.2435780000 114.1571210000,22.2435020000 114.1569630000,22.2434800000 114.1569160000,22.2434820000 114.1567660000,22.2434880000 114.1565170000,22.2434990000 114.1563160000,22.2435030000 114.1560940000,22.2434850000 114.1557940000,22.2434160000 114.1556010000,22.2433340000 114.1553110000,22.2431750000 114.1550510000,22.2430660000 114.1549070000,22.2429920000 114.1548650000,22.2429700000 114.1547670000,22.2429120000 114.1547040000,22.2428750000 114.1544320000,22.2427280000 114.1543090000,22.2426810000 114.1541260000,22.2426340000 114.1539540000,22.2426170000 114.1538230000,22.2426190000 114.1537050000,22.2426240000 114.1535440000,22.2426510000 114.1531980000,22.2427680000 114.1529110000,22.2428850000 114.1526840000,22.2429730000 114.1525100000,22.2430310000 114.1524080000,22.2430640000 114.1523290000,22.2430870000 114.1522440000,22.2431090000 114.1519750000,22.2431790000 114.1518100000,22.2432400000 114.1516260000,22.2433320000 114.1514950000,22.2434030000 114.1514330000,22.2434320000 114.1513500000,22.2434860000 114.1512660000,22.2435410000 114.1510190000,22.2436870000 114.1508080000,22.2438150000 114.1506020000,22.2438910000 114.1504160000,22.2439650000 114.1503370000,22.2440050000 114.1501860000,22.2440640000 114.1501470000,22.2440790000 114.1496880000,22.2441460000 114.1496270000,22.2441550000 114.1492520000,22.2442090000 114.1491790000,22.2442190000 114.1491770000,22.2441970000 114.1491670000,22.2441390000 114.1489690000,22.2432120000 114.1489250000,22.2430260000 114.1488730000,22.2428370000 114.1488770000,22.2427930000 114.1488930000,22.2427500000 114.1489300000,22.2426850000 114.1491090000,22.2424410000 114.1493560000,22.2421150000 114.1500410000,22.2425840000</coordinates>
                </LineString>
                <ExtendedData>
                    <Data name="length">
                        <value>39069.34766468575</value>
                    </Data>
                    <Data name="duration">
                        <value>00:48:45</value>
                    </Data>
                </ExtendedData>
            </Placemark>
        </Document>
    </Document>
</kml>