<?xml version="1.0" encoding="UTF-8"?>
<kml xmlns="http://www.opengis.net/kml/2.2" xmlns:gx="http://www.google.com/kml/ext/2.2">
    <Document>
        <name>Route</name>
        <Folder>
            <name>Route Request</name>
            <Placemark>
                <address>Hoi Tat Estate Public Transport Interchange, Lin Cheung Road, Sham Shui Po, Sham Shui Po District, Kowloon, Hong Kong, 000000, China</address>
                <Point>
                    <coordinates>114.1515849988,22.3290989827</coordinates>
                </Point>
                <ExtendedData>
                    <Data name="city">
                        <value>Kowloon</value>
                    </Data>
                    <Data name="country_code">
                        <value>cn</value>
                    </Data>
                    <Data name="amenity">
                        <value>Hoi Tat Estate Public Transport Interchange</value>
                    </Data>
                    <Data name="ISO3166-2-lvl3">
                        <value>CN-HK</value>
                    </Data>
                    <Data name="road">
                        <value>Lin Cheung Road</value>
                    </Data>
                    <Data name="postcode">
                        <value>000000</value>
                    </Data>
                    <Data name="suburb">
                        <value>Sham Shui Po</value>
                    </Data>
                    <Data name="country">
                        <value>China</value>
                    </Data>
                    <Data name="state">
                        <value>Hong Kong</value>
                    </Data>
                    <Data name="city_district">
                        <value>Sham Shui Po District</value>
                    </Data>
                </ExtendedData>
            </Placemark>
            <Placemark>
                <address>Tai Kok Tsui Road, Tai Kok Tsui, Yau Tsim Mong District, Kowloon, Hong Kong, China</address>
                <Point>
                    <coordinates>114.1619168076,22.3186141032</coordinates>
                </Point>
                <ExtendedData>
                    <Data name="country_code">
                        <value>cn</value>
                    </Data>
                    <Data name="city">
                        <value>Kowloon</value>
                    </Data>
                    <Data name="ISO3166-2-lvl3">
                        <value>CN-HK</value>
                    </Data>
                    <Data name="road">
                        <value>Tai Kok Tsui Road</value>
                    </Data>
                    <Data name="country">
                        <value>China</value>
                    </Data>
                    <Data name="suburb">
                        <value>Tai Kok Tsui</value>
                    </Data>
                    <Data name="state">
                        <value>Hong Kong</value>
                    </Data>
                    <Data name="city_district">
                        <value>Yau Tsim Mong District</value>
                    </Data>
                </ExtendedData>
            </Placemark>
            <Placemark>
                <address>Fu Wong Building, 40, Beech Street, Tai Kok Tsui, Yau Tsim Mong District, Kowloon, Hong Kong, China</address>
                <Point>
                    <coordinates>114.1629503680,22.3196797003</coordinates>
                </Point>
                <ExtendedData>
                    <Data name="house_number">
                        <value>40</value>
                    </Data>
                    <Data name="country_code">
                        <value>cn</value>
                    </Data>
                    <Data name="city">
                        <value>Kowloon</value>
                    </Data>
                    <Data name="ISO3166-2-lvl3">
                        <value>CN-HK</value>
                    </Data>
                    <Data name="road">
                        <value>Beech Street</value>
                    </Data>
                    <Data name="country">
                        <value>China</value>
                    </Data>
                    <Data name="suburb">
                        <value>Tai Kok Tsui</value>
                    </Data>
                    <Data name="state">
                        <value>Hong Kong</value>
                    </Data>
                    <Data name="city_district">
                        <value>Yau Tsim Mong District</value>
                    </Data>
                    <Data name="building">
                        <value>Fu Wong Building</value>
                    </Data>
                </ExtendedData>
            </Placemark>
            <Placemark>
                <address>Argyle Street, Mong Kok, Yau Tsim Mong District, Kowloon, Hong Kong, China</address>
                <Point>
                    <coordinates>114.1703927923,22.3196254955</coordinates>
                </Point>
                <ExtendedData>
                    <Data name="country_code">
                        <value>cn</value>
                    </Data>
                    <Data name="city">
                        <value>Kowloon</value>
                    </Data>
                    <Data name="ISO3166-2-lvl3">
                        <value>CN-HK</value>
                    </Data>
                    <Data name="road">
                        <value>Argyle Street</value>
                    </Data>
                    <Data name="country">
                        <value>China</value>
                    </Data>
                    <Data name="suburb">
                        <value>Mong Kok</value>
                    </Data>
                    <Data name="state">
                        <value>Hong Kong</value>
                    </Data>
                    <Data name="city_district">
                        <value>Yau Tsim Mong District</value>
                    </Data>
                </ExtendedData>
            </Placemark>
            <Placemark>
                <address>Kowloon City flyover, Kau Pui Shek, Kowloon City, Kowloon City District, Kowloon, Hong Kong, China</address>
                <Point>
                    <coordinates>114.1904821839,22.3275879585</coordinates>
                </Point>
                <ExtendedData>
                    <Data name="city">
                        <value>Kowloon</value>
                    </Data>
                    <Data name="country_code">
                        <value>cn</value>
                    </Data>
                    <Data name="ISO3166-2-lvl3">
                        <value>CN-HK</value>
                    </Data>
                    <Data name="road">
                        <value>Kowloon City flyover</value>
                    </Data>
                    <Data name="neighbourhood">
                        <value>Kau Pui Shek</value>
                    </Data>
                    <Data name="suburb">
                        <value>Kowloon City</value>
                    </Data>
                    <Data name="country">
                        <value>China</value>
                    </Data>
                    <Data name="state">
                        <value>Hong Kong</value>
                    </Data>
                    <Data name="city_district">
                        <value>Kowloon City District</value>
                    </Data>
                </ExtendedData>
            </Placemark>
            <Placemark>
                <address>Wang Chin Street, Kowloon Bay Business Area, Kowloon Bay, Kwun Tong District, Kowloon, Hong Kong, 000000, China</address>
                <Point>
                    <coordinates>114.2046942494,22.3221133250</coordinates>
                </Point>
                <ExtendedData>
                    <Data name="city">
                        <value>Kowloon</value>
                    </Data>
                    <Data name="country_code">
                        <value>cn</value>
                    </Data>
                    <Data name="ISO3166-2-lvl3">
                        <value>CN-HK</value>
                    </Data>
                    <Data name="road">
                        <value>Wang Chin Street</value>
                    </Data>
                    <Data name="postcode">
                        <value>000000</value>
                    </Data>
                    <Data name="quarter">
                        <value>Kowloon Bay Business Area</value>
                    </Data>
                    <Data name="suburb">
                        <value>Kowloon Bay</value>
                    </Data>
                    <Data name="country">
                        <value>China</value>
                    </Data>
                    <Data name="state">
                        <value>Hong Kong</value>
                    </Data>
                    <Data name="city_district">
                        <value>Kwun Tong District</value>
                    </Data>
                </ExtendedData>
            </Placemark>
            <Placemark>
                <address>Hing Tin, Lin Tak Road, Lam Tin, Kwun Tong District, Kowloon, Hong Kong, China</address>
                <Point>
                    <coordinates>114.2385772584,22.3122852336</coordinates>
                </Point>
                <ExtendedData>
                    <Data name="country_code">
                        <value>cn</value>
                    </Data>
                    <Data name="city">
                        <value>Kowloon</value>
                    </Data>
                    <Data name="ISO3166-2-lvl3">
                        <value>CN-HK</value>
                    </Data>
                    <Data name="highway">
                        <value>Hing Tin</value>
                    </Data>
                    <Data name="road">
                        <value>Lin Tak Road</value>
                    </Data>
                    <Data name="country">
                        <value>China</value>
                    </Data>
                    <Data name="suburb">
                        <value>Lam Tin</value>
                    </Data>
                    <Data name="state">
                        <value>Hong Kong</value>
                    </Data>
                    <Data name="city_district">
                        <value>Kwun Tong District</value>
                    </Data>
                </ExtendedData>
            </Placemark>
            <Placemark>
                <address>Lam Tin Service Reservoir Playground, Tak Tin Street, Lam Tin, Kwun Tong District, Kowloon, Hong Kong, China</address>
                <Point>
                    <coordinates>114.2373069374,22.3091981519</coordinates>
                </Point>
                <ExtendedData>
                    <Data name="leisure">
                        <value>Lam Tin Service Reservoir Playground</value>
                    </Data>
                    <Data name="country_code">
                        <value>cn</value>
                    </Data>
                    <Data name="city">
                        <value>Kowloon</value>
                    </Data>
                    <Data name="ISO3166-2-lvl3">
                        <value>CN-HK</value>
                    </Data>
                    <Data name="road">
                        <value>Tak Tin Street</value>
                    </Data>
                    <Data name="country">
                        <value>China</value>
                    </Data>
                    <Data name="suburb">
                        <value>Lam Tin</value>
                    </Data>
                    <Data name="state">
                        <value>Hong Kong</value>
                    </Data>
                    <Data name="city_district">
                        <value>Kwun Tong District</value>
                    </Data>
                </ExtendedData>
            </Placemark>
            <Placemark>
                <address>Kwong Yat House, Pik Wan Road, Tak Tin Estate, Lam Tin, Kwun Tong District, Kowloon, Hong Kong, China</address>
                <Point>
                    <coordinates>114.2414515317,22.3026779212</coordinates>
                </Point>
                <ExtendedData>
                    <Data name="country_code">
                        <value>cn</value>
                    </Data>
                    <Data name="city">
                        <value>Kowloon</value>
                    </Data>
                    <Data name="ISO3166-2-lvl3">
                        <value>CN-HK</value>
                    </Data>
                    <Data name="road">
                        <value>Pik Wan Road</value>
                    </Data>
                    <Data name="country">
                        <value>China</value>
                    </Data>
                    <Data name="suburb">
                        <value>Lam Tin</value>
                    </Data>
                    <Data name="residential">
                        <value>Tak Tin Estate</value>
                    </Data>
                    <Data name="state">
                        <value>Hong Kong</value>
                    </Data>
                    <Data name="city_district">
                        <value>Kwun Tong District</value>
                    </Data>
                    <Data name="building">
                        <value>Kwong Yat House</value>
                    </Data>
                </ExtendedData>
            </Placemark>
            <Placemark>
                <address>Lam Tin Service Reservoir Playground, Tak Tin Street, Lam Tin, Kwun Tong District, Kowloon, Hong Kong, China</address>
                <Point>
                    <coordinates>114.2373364766,22.3092527897</coordinates>
                </Point>
                <ExtendedData>
                    <Data name="leisure">
                        <value>Lam Tin Service Reservoir Playground</value>
                    </Data>
                    <Data name="country_code">
                        <value>cn</value>
                    </Data>
                    <Data name="city">
                        <value>Kowloon</value>
                    </Data>
                    <Data name="ISO3166-2-lvl3">
                        <value>CN-HK</value>
                    </Data>
                    <Data name="road">
                        <value>Tak Tin Street</value>
                    </Data>
                    <Data name="country">
                        <value>China</value>
                    </Data>
                    <Data name="suburb">
                        <value>Lam Tin</value>
                    </Data>
                    <Data name="state">
                        <value>Hong Kong</value>
                    </Data>
                    <Data name="city_district">
                        <value>Kwun Tong District</value>
                    </Data>
                </ExtendedData>
            </Placemark>
            <Placemark>
                <address>Chung Hong House, Tseung Kwan O Road, Lam Tin, Kwun Tong District, Kowloon, Hong Kong, China</address>
                <Point>
                    <coordinates>114.2401428335,22.3146072824</coordinates>
                </Point>
                <ExtendedData>
                    <Data name="country_code">
                        <value>cn</value>
                    </Data>
                    <Data name="city">
                        <value>Kowloon</value>
                    </Data>
                    <Data name="ISO3166-2-lvl3">
                        <value>CN-HK</value>
                    </Data>
                    <Data name="road">
                        <value>Tseung Kwan O Road</value>
                    </Data>
                    <Data name="country">
                        <value>China</value>
                    </Data>
                    <Data name="suburb">
                        <value>Lam Tin</value>
                    </Data>
                    <Data name="state">
                        <value>Hong Kong</value>
                    </Data>
                    <Data name="city_district">
                        <value>Kwun Tong District</value>
                    </Data>
                    <Data name="building">
                        <value>Chung Hong House</value>
                    </Data>
                </ExtendedData>
            </Placemark>
            <Placemark>
                <address>Kwun Tong Bypass, Kowloon Bay Business Area, Kowloon Bay, Kwun Tong District, Kowloon, Hong Kong, 000000, China</address>
                <Point>
                    <coordinates>114.2051374862,22.3280350851</coordinates>
                </Point>
                <ExtendedData>
                    <Data name="city">
                        <value>Kowloon</value>
                    </Data>
                    <Data name="country_code">
                        <value>cn</value>
                    </Data>
                    <Data name="ISO3166-2-lvl3">
                        <value>CN-HK</value>
                    </Data>
                    <Data name="road">
                        <value>Kwun Tong Bypass</value>
                    </Data>
                    <Data name="postcode">
                        <value>000000</value>
                    </Data>
                    <Data name="quarter">
                        <value>Kowloon Bay Business Area</value>
                    </Data>
                    <Data name="suburb">
                        <value>Kowloon Bay</value>
                    </Data>
                    <Data name="country">
                        <value>China</value>
                    </Data>
                    <Data name="state">
                        <value>Hong Kong</value>
                    </Data>
                    <Data name="city_district">
                        <value>Kwun Tong District</value>
                    </Data>
                </ExtendedData>
            </Placemark>
            <Placemark>
                <address>HSBC Centre Tower 2, 1, Sham Mong Road, Tai Kok Tsui, Yau Tsim Mong District, Kowloon, Hong Kong, 000000, China</address>
                <Point>
                    <coordinates>114.1613091717,22.3191493037</coordinates>
                </Point>
                <ExtendedData>
                    <Data name="house_number">
                        <value>1</value>
                    </Data>
                    <Data name="city">
                        <value>Kowloon</value>
                    </Data>
                    <Data name="country_code">
                        <value>cn</value>
                    </Data>
                    <Data name="ISO3166-2-lvl3">
                        <value>CN-HK</value>
                    </Data>
                    <Data name="road">
                        <value>Sham Mong Road</value>
                    </Data>
                    <Data name="postcode">
                        <value>000000</value>
                    </Data>
                    <Data name="office">
                        <value>HSBC Centre Tower 2</value>
                    </Data>
                    <Data name="suburb">
                        <value>Tai Kok Tsui</value>
                    </Data>
                    <Data name="country">
                        <value>China</value>
                    </Data>
                    <Data name="state">
                        <value>Hong Kong</value>
                    </Data>
                    <Data name="city_district">
                        <value>Yau Tsim Mong District</value>
                    </Data>
                </ExtendedData>
            </Placemark>
            <Placemark>
                <address>Hoi Tat Estate Public Transport Interchange, Lin Cheung Road, Sham Shui Po, Sham Shui Po District, Kowloon, Hong Kong, 000000, China</address>
                <Point>
                    <coordinates>114.1515505152,22.3290989768</coordinates>
                </Point>
                <ExtendedData>
                    <Data name="city">
                        <value>Kowloon</value>
                    </Data>
                    <Data name="country_code">
                        <value>cn</value>
                    </Data>
                    <Data name="amenity">
                        <value>Hoi Tat Estate Public Transport Interchange</value>
                    </Data>
                    <Data name="ISO3166-2-lvl3">
                        <value>CN-HK</value>
                    </Data>
                    <Data name="road">
                        <value>Lin Cheung Road</value>
                    </Data>
                    <Data name="postcode">
                        <value>000000</value>
                    </Data>
                    <Data name="suburb">
                        <value>Sham Shui Po</value>
                    </Data>
                    <Data name="country">
                        <value>China</value>
                    </Data>
                    <Data name="state">
                        <value>Hong Kong</value>
                    </Data>
                    <Data name="city_district">
                        <value>Sham Shui Po District</value>
                    </Data>
                </ExtendedData>
            </Placemark>
        </Folder>
        <Document>
            <name>34.9 km; 00:46 h (OSRM)</name>
            <Placemark>
                <name>Route</name>
                <LineString>
                    <coordinates>114.1515880000,22.3290970000 114.1516190000,22.3291300000 114.1516360000,22.3291480000 114.1516770000,22.3291920000 114.1517320000,22.3291510000 114.1517900000,22.3291080000 114.1518510000,22.3290610000 114.1519090000,22.3290180000 114.1519580000,22.3289820000 114.1520060000,22.3289450000 114.1520190000,22.3289360000 114.1520680000,22.3288990000 114.1520770000,22.3288560000 114.1520710000,22.3288130000 114.1520580000,22.3287970000 114.1519680000,22.3286910000 114.1519220000,22.3286750000 114.1517450000,22.3284790000 114.1517030000,22.3284700000 114.1516870000,22.3284660000 114.1515880000,22.3285210000 114.1512690000,22.3287460000 114.1511780000,22.3288000000 114.1510950000,22.3288490000 114.1508410000,22.3289790000 114.1508030000,22.3290070000 114.1507690000,22.3290170000 114.1507440000,22.3290340000 114.1507240000,22.3290550000 114.1507140000,22.3290830000 114.1507120000,22.3291070000 114.1507180000,22.3291340000 114.1507300000,22.3291580000 114.1507540000,22.3291810000 114.1507860000,22.3291960000 114.1508050000,22.3291990000 114.1508310000,22.3292380000 114.1508440000,22.3292570000 114.1508700000,22.3292870000 114.1509100000,22.3293160000 114.1509540000,22.3293770000 114.1512890000,22.3297580000 114.1513270000,22.3298060000 114.1513870000,22.3298800000 114.1514370000,22.3299350000 114.1524490000,22.3292210000 114.1524770000,22.3292010000 114.1526450000,22.3290900000 114.1527650000,22.3290070000 114.1528960000,22.3289100000 114.1536300000,22.3283400000 114.1537440000,22.3282370000 114.1539220000,22.3280760000 114.1539560000,22.3280450000 114.1541500000,22.3278500000 114.1543490000,22.3276290000 114.1547160000,22.3271950000 114.1548350000,22.3270550000 114.1549710000,22.3269110000 114.1551040000,22.3267680000 114.1554380000,22.3264960000 114.1557400000,22.3262630000 114.1557660000,22.3262450000 114.1558630000,22.3261800000 114.1559850000,22.3260950000 114.1561450000,22.3259750000 114.1561740000,22.3259570000 114.1562800000,22.3258790000 114.1579170000,22.3246600000 114.1579510000,22.3246350000 114.1580380000,22.3245700000 114.1581370000,22.3245000000 114.1583080000,22.3243690000 114.1588010000,22.3239770000 114.1588600000,22.3239300000 114.1590440000,22.3237830000 114.1593250000,22.3234800000 114.1593940000,22.3234050000 114.1594540000,22.3233320000 114.1595340000,22.3232070000 114.1595960000,22.3231060000 114.1596640000,22.3229850000 114.1598070000,22.3226080000 114.1598300000,22.3225130000 114.1598530000,22.3224190000 114.1598830000,22.3221970000 114.1598850000,22.3219530000 114.1598720000,22.3216760000 114.1598750000,22.3213900000 114.1598750000,22.3211090000 114.1598560000,22.3209880000 114.1598500000,22.3206810000 114.1598540000,22.3205620000 114.1598410000,22.3202010000 114.1598340000,22.3200370000 114.1598290000,22.3199340000 114.1598340000,22.3198690000 114.1598460000,22.3198000000 114.1598730000,22.3196840000 114.1598890000,22.3196270000 114.1599150000,22.3195670000 114.1599270000,22.3195450000 114.1599610000,22.3194890000 114.1600010000,22.3194220000 114.1600440000,22.3193500000 114.1601080000,22.3192340000 114.1601310000,22.3191910000 114.1602580000,22.3189940000 114.1603260000,22.3188800000 114.1603810000,22.3187710000 114.1604450000,22.3186440000 114.1604710000,22.3185890000 114.1604920000,22.3185450000 114.1605610000,22.3184080000 114.1606670000,22.3181410000 114.1607210000,22.3180280000 114.1607900000,22.3179520000 114.1608130000,22.3179360000 114.1608420000,22.3179160000 114.1608940000,22.3178850000 114.1610060000,22.3178500000 114.1610770000,22.3179390000 114.1614870000,22.3180790000 114.1616590000,22.3181390000 114.1618720000,22.3182250000 114.1619260000,22.3182520000 114.1619580000,22.3182730000 114.1619890000,22.3183140000 114.1619960000,22.3183660000 114.1619960000,22.3184900000 114.1619960000,22.3185560000 114.1619960000,22.3186140000 114.1619960000,22.3186210000 114.1619960000,22.3186440000 114.1619960000,22.3186770000 114.1619960000,22.3187780000 114.1619960000,22.3187910000 114.1619960000,22.3188720000 114.1619910000,22.3189620000 114.1619890000,22.3190590000 114.1619880000,22.3190890000 114.1619880000,22.3191100000 114.1619880000,22.3191430000 114.1620280000,22.3194560000 114.1622320000,22.3194610000 114.1622930000,22.3194610000 114.1623500000,22.3194510000 114.1626280000,22.3191940000 114.1627010000,22.3191750000 114.1627720000,22.3191830000 114.1628110000,22.3192020000 114.1628420000,22.3192300000 114.1628640000,22.3192650000 114.1629180000,22.3194990000 114.1629230000,22.3195230000 114.1629380000,22.3195940000 114.1629560000,22.3196790000 114.1629620000,22.3197100000 114.1629890000,22.3198440000 114.1630540000,22.3201550000 114.1630690000,22.3202300000 114.1630830000,22.3202960000 114.1635600000,22.3202130000 114.1636600000,22.3201950000 114.1639530000,22.3201440000 114.1640290000,22.3201310000 114.1641170000,22.3201150000 114.1646220000,22.3200260000 114.1647290000,22.3200130000 114.1648100000,22.3200140000 114.1648940000,22.3200220000 114.1652330000,22.3200960000 114.1656100000,22.3201580000 114.1656460000,22.3201660000 114.1657600000,22.3201830000 114.1659070000,22.3202160000 114.1659160000,22.3202170000 114.1659660000,22.3202600000 114.1659910000,22.3202650000 114.1660560000,22.3202780000 114.1661350000,22.3203340000 114.1662940000,22.3203590000 114.1663720000,22.3204170000 114.1665080000,22.3204400000 114.1665580000,22.3204480000 114.1666080000,22.3204570000 114.1668750000,22.3205060000 114.1672110000,22.3205680000 114.1672540000,22.3205760000 114.1673590000,22.3205500000 114.1676930000,22.3206100000 114.1677170000,22.3206140000 114.1677920000,22.3206260000 114.1679060000,22.3206450000 114.1680890000,22.3206760000 114.1682360000,22.3207000000 114.1683060000,22.3207120000 114.1683320000,22.3207160000 114.1684150000,22.3207300000 114.1684760000,22.3207390000 114.1686900000,22.3207710000 114.1688560000,22.3207970000 114.1688960000,22.3208030000 114.1690010000,22.3208190000 114.1691070000,22.3208330000 114.1691930000,22.3208490000 114.1692930000,22.3208660000 114.1695650000,22.3209200000 114.1696760000,22.3208810000 114.1696830000,22.3208300000 114.1697330000,22.3205770000 114.1697400000,22.3205420000 114.1697600000,22.3204450000 114.1697660000,22.3204200000 114.1697770000,22.3203660000 114.1697900000,22.3203090000 114.1698130000,22.3202010000 114.1698380000,22.3200790000 114.1698490000,22.3200310000 114.1698510000,22.3200180000 114.1698810000,22.3198770000 114.1699010000,22.3197840000 114.1699180000,22.3197020000 114.1699510000,22.3196460000 114.1699680000,22.3195820000 114.1699770000,22.3195490000 114.1700030000,22.3195240000 114.1700350000,22.3195080000 114.1700710000,22.3195020000 114.1701000000,22.3195070000 114.1704060000,22.3195600000 114.1705470000,22.3195840000 114.1707690000,22.3196290000 114.1708690000,22.3196490000 114.1708950000,22.3196540000 114.1709810000,22.3196700000 114.1710810000,22.3196890000 114.1713170000,22.3197350000 114.1714280000,22.3197560000 114.1714900000,22.3197670000 114.1715990000,22.3197880000 114.1716880000,22.3198050000 114.1723150000,22.3199280000 114.1724730000,22.3199590000 114.1725920000,22.3199820000 114.1726740000,22.3199920000 114.1732990000,22.3200840000 114.1736340000,22.3201460000 114.1737730000,22.3201700000 114.1737960000,22.3201740000 114.1738780000,22.3201890000 114.1740500000,22.3202220000 114.1742060000,22.3202510000 114.1744300000,22.3202940000 114.1746660000,22.3203390000 114.1746920000,22.3203440000 114.1752490000,22.3204490000 114.1755350000,22.3204690000 114.1758450000,22.3205500000 114.1767440000,22.3208990000 114.1770230000,22.3210170000 114.1773110000,22.3211530000 114.1775310000,22.3212680000 114.1781180000,22.3215580000 114.1783690000,22.3216800000 114.1792790000,22.3220890000 114.1802220000,22.3225230000 114.1805470000,22.3226810000 114.1806120000,22.3227110000 114.1814350000,22.3230860000 114.1814730000,22.3231040000 114.1828410000,22.3237190000 114.1828490000,22.3237230000 114.1831400000,22.3238500000 114.1834250000,22.3239770000 114.1835590000,22.3240400000 114.1836700000,22.3240910000 114.1838870000,22.3242090000 114.1843340000,22.3244210000 114.1848650000,22.3246550000 114.1852570000,22.3248310000 114.1854710000,22.3249280000 114.1855090000,22.3249450000 114.1856430000,22.3250130000 114.1857740000,22.3250880000 114.1859310000,22.3251820000 114.1861450000,22.3253030000 114.1867510000,22.3256670000 114.1868280000,22.3257130000 114.1869240000,22.3257690000 114.1869610000,22.3257910000 114.1870380000,22.3258360000 114.1871470000,22.3259010000 114.1871850000,22.3259230000 114.1872550000,22.3259640000 114.1874720000,22.3260910000 114.1875920000,22.3261590000 114.1876840000,22.3262100000 114.1877900000,22.3262750000 114.1880320000,22.3264230000 114.1881260000,22.3264590000 114.1882020000,22.3264900000 114.1882910000,22.3265270000 114.1884310000,22.3265840000 114.1889430000,22.3268710000 114.1890660000,22.3269280000 114.1892870000,22.3270440000 114.1895120000,22.3271520000 114.1897400000,22.3272550000 114.1899720000,22.3273500000 114.1902070000,22.3274390000 114.1904970000,22.3275560000 114.1910460000,22.3277760000 114.1911340000,22.3278500000 114.1913320000,22.3279760000 114.1914050000,22.3280230000 114.1914510000,22.3280790000 114.1915210000,22.3281600000 114.1915650000,22.3281990000 114.1916460000,22.3282680000 114.1917150000,22.3283260000 114.1918480000,22.3284390000 114.1919310000,22.3285090000 114.1920190000,22.3285830000 114.1920990000,22.3286510000 114.1921880000,22.3287260000 114.1922850000,22.3288080000 114.1923800000,22.3288890000 114.1924150000,22.3289200000 114.1924910000,22.3289940000 114.1925510000,22.3290440000 114.1926090000,22.3290970000 114.1926460000,22.3291330000 114.1928810000,22.3293500000 114.1929100000,22.3293780000 114.1942640000,22.3306620000 114.1954070000,22.3318070000 114.1955660000,22.3319550000 114.1957650000,22.3321480000 114.1958990000,22.3322740000 114.1961310000,22.3324900000 114.1962140000,22.3325700000 114.1962650000,22.3326140000 114.1963820000,22.3327060000 114.1964180000,22.3327340000 114.1964650000,22.3327710000 114.1965590000,22.3328410000 114.1967160000,22.3329580000 114.1967900000,22.3330080000 114.1968410000,22.3330430000 114.1969560000,22.3331280000 114.1969620000,22.3331320000 114.1970030000,22.3331580000 114.1970440000,22.3331860000 114.1970850000,22.3332100000 114.1972760000,22.3333240000 114.1974910000,22.3334590000 114.1977180000,22.3335940000 114.1978060000,22.3336170000 114.1978910000,22.3336600000 114.1979900000,22.3336940000 114.1981260000,22.3337410000 114.1981850000,22.3337610000 114.1986910000,22.3339330000 114.1988950000,22.3340100000 114.1991540000,22.3341020000 114.1992640000,22.3341410000 114.1993280000,22.3341650000 114.1994550000,22.3342120000 114.1998680000,22.3343640000 114.2000180000,22.3344280000 114.2002080000,22.3345080000 114.2005340000,22.3346320000 114.2007040000,22.3346980000 114.2009530000,22.3347760000 114.2011370000,22.3348340000 114.2013210000,22.3349070000 114.2016770000,22.3350390000 114.2019720000,22.3351490000 114.2021230000,22.3352120000 114.2023480000,22.3352960000 114.2023910000,22.3353060000 114.2024360000,22.3353170000 114.2025230000,22.3353340000 114.2026170000,22.3353530000 114.2027740000,22.3353770000 114.2029200000,22.3353860000 114.2030780000,22.3353910000 114.2031400000,22.3353910000 114.2031950000,22.3353880000 114.2033130000,22.3353850000 114.2035570000,22.3353730000 114.2037150000,22.3353530000 114.2038460000,22.3353320000 114.2039760000,22.3352590000 114.2041290000,22.3351870000 114.2042070000,22.3351430000 114.2043210000,22.3350880000 114.2043540000,22.3350710000 114.2044330000,22.3350300000 114.2045160000,22.3349870000 114.2046230000,22.3349310000 114.2047640000,22.3348230000 114.2049540000,22.3346790000 114.2051050000,22.3345440000 114.2051670000,22.3344880000 114.2052270000,22.3344360000 114.2052980000,22.3343790000 114.2054210000,22.3342680000 114.2055820000,22.3341200000 114.2058980000,22.3338540000 114.2059960000,22.3337470000 114.2060630000,22.3336690000 114.2061090000,22.3336000000 114.2061490000,22.3335260000 114.2061900000,22.3334310000 114.2062150000,22.3333490000 114.2062370000,22.3332310000 114.2062440000,22.3331460000 114.2062430000,22.3330710000 114.2062340000,22.3329800000 114.2062140000,22.3328900000 114.2062160000,22.3328520000 114.2062180000,22.3328000000 114.2062090000,22.3327680000 114.2062010000,22.3327420000 114.2061890000,22.3327140000 114.2061640000,22.3326470000 114.2061420000,22.3325980000 114.2061170000,22.3325460000 114.2060910000,22.3324890000 114.2060570000,22.3324290000 114.2060340000,22.3323900000 114.2060060000,22.3323440000 114.2059820000,22.3323040000 114.2059590000,22.3322730000 114.2059270000,22.3322340000 114.2058070000,22.3320860000 114.2055970000,22.3318500000 114.2055500000,22.3317960000 114.2055090000,22.3317450000 114.2054750000,22.3317010000 114.2054380000,22.3316480000 114.2054150000,22.3316130000 114.2054040000,22.3315940000 114.2053920000,22.3315740000 114.2053690000,22.3315360000 114.2053520000,22.3315070000 114.2053360000,22.3314730000 114.2053180000,22.3314370000 114.2053000000,22.3313960000 114.2052900000,22.3313670000 114.2052740000,22.3313190000 114.2052250000,22.3311560000 114.2051370000,22.3306960000 114.2050960000,22.3305530000 114.2050870000,22.3303030000 114.2050690000,22.3298340000 114.2050700000,22.3297130000 114.2050800000,22.3295830000 114.2050950000,22.3294550000 114.2051170000,22.3293200000 114.2051310000,22.3292500000 114.2051470000,22.3291790000 114.2052430000,22.3287820000 114.2052700000,22.3286610000 114.2052880000,22.3285550000 114.2053050000,22.3283910000 114.2053090000,22.3282570000 114.2053020000,22.3281360000 114.2052910000,22.3280310000 114.2052750000,22.3279300000 114.2052590000,22.3278550000 114.2052330000,22.3277600000 114.2052020000,22.3276720000 114.2051580000,22.3275640000 114.2051130000,22.3274680000 114.2050560000,22.3273530000 114.2047620000,22.3268150000 114.2046990000,22.3266910000 114.2046350000,22.3265430000 114.2045840000,22.3264050000 114.2045450000,22.3262730000 114.2045140000,22.3261460000 114.2043590000,22.3253960000 114.2043340000,22.3252580000 114.2043150000,22.3251350000 114.2043030000,22.3250260000 114.2042940000,22.3249100000 114.2042890000,22.3247900000 114.2042900000,22.3246790000 114.2042970000,22.3245420000 114.2043120000,22.3243820000 114.2043260000,22.3242670000 114.2043980000,22.3237330000 114.2045390000,22.3226780000 114.2045620000,22.3225290000 114.2045900000,22.3223850000 114.2046190000,22.3222790000 114.2046560000,22.3221710000 114.2046830000,22.3221090000 114.2047060000,22.3220540000 114.2047680000,22.3219280000 114.2048390000,22.3218150000 114.2049080000,22.3217210000 114.2049750000,22.3216400000 114.2050730000,22.3215320000 114.2051870000,22.3214180000 114.2059980000,22.3206820000 114.2061190000,22.3205670000 114.2062460000,22.3204390000 114.2063760000,22.3203010000 114.2065290000,22.3201300000 114.2081470000,22.3182630000 114.2082740000,22.3181270000 114.2083870000,22.3180140000 114.2084990000,22.3179100000 114.2085930000,22.3178320000 114.2086750000,22.3177690000 114.2087980000,22.3177070000 114.2089480000,22.3176100000 114.2090790000,22.3175330000 114.2091850000,22.3174780000 114.2093020000,22.3174230000 114.2094550000,22.3173560000 114.2095800000,22.3173090000 114.2096860000,22.3172730000 114.2098020000,22.3172400000 114.2099910000,22.3171960000 114.2101450000,22.3171650000 114.2103090000,22.3171450000 114.2104290000,22.3171340000 114.2105920000,22.3171240000 114.2114570000,22.3170970000 114.2115240000,22.3170920000 114.2115830000,22.3170870000 114.2116790000,22.3170760000 114.2117660000,22.3170630000 114.2118700000,22.3170480000 114.2119610000,22.3170280000 114.2120410000,22.3170080000 114.2121110000,22.3169890000 114.2122780000,22.3169410000 114.2123740000,22.3169050000 114.2124740000,22.3168660000 114.2125880000,22.3168170000 114.2126860000,22.3167710000 114.2128020000,22.3167100000 114.2128780000,22.3166650000 114.2129570000,22.3166170000 114.2130380000,22.3165620000 114.2131120000,22.3165080000 114.2131720000,22.3164640000 114.2132510000,22.3164000000 114.2134680000,22.3162080000 114.2138690000,22.3158060000 114.2142290000,22.3154490000 114.2144950000,22.3151780000 114.2145580000,22.3151140000 114.2148470000,22.3148200000 114.2153530000,22.3142870000 114.2163560000,22.3132420000 114.2173930000,22.3121960000 114.2177430000,22.3118360000 114.2181890000,22.3113600000 114.2187700000,22.3106940000 114.2194920000,22.3097790000 114.2201190000,22.3089800000 114.2206900000,22.3082660000 114.2208580000,22.3080590000 114.2211120000,22.3077160000 114.2211320000,22.3076900000 114.2212710000,22.3074870000 114.2216420000,22.3069660000 114.2217420000,22.3068270000 114.2218470000,22.3066940000 114.2219330000,22.3065930000 114.2220580000,22.3064760000 114.2221670000,22.3063960000 114.2222180000,22.3063640000 114.2222530000,22.3063430000 114.2222790000,22.3063270000 114.2223060000,22.3063110000 114.2223280000,22.3063000000 114.2223460000,22.3062920000 114.2224310000,22.3062490000 114.2225170000,22.3062080000 114.2225920000,22.3061770000 114.2226550000,22.3061540000 114.2227520000,22.3061270000 114.2228370000,22.3061070000 114.2229130000,22.3060920000 114.2230030000,22.3060800000 114.2230840000,22.3060760000 114.2231720000,22.3060700000 114.2232510000,22.3060690000 114.2233290000,22.3060720000 114.2234080000,22.3060790000 114.2235050000,22.3060910000 114.2235800000,22.3061040000 114.2236310000,22.3061140000 114.2236610000,22.3061190000 114.2237260000,22.3061370000 114.2238140000,22.3061650000 114.2238910000,22.3061920000 114.2239620000,22.3062230000 114.2240380000,22.3062580000 114.2241160000,22.3062990000 114.2242250000,22.3063630000 114.2242840000,22.3063970000 114.2244660000,22.3065270000 114.2246430000,22.3066550000 114.2247820000,22.3067600000 114.2253170000,22.3071670000 114.2261930000,22.3078320000 114.2263050000,22.3079090000 114.2263390000,22.3079310000 114.2265030000,22.3080390000 114.2266330000,22.3081100000 114.2267610000,22.3081800000 114.2269680000,22.3082750000 114.2270750000,22.3083210000 114.2271530000,22.3083550000 114.2272160000,22.3083810000 114.2272570000,22.3083980000 114.2273690000,22.3084400000 114.2276000000,22.3085110000 114.2277000000,22.3085340000 114.2277540000,22.3085460000 114.2286010000,22.3087410000 114.2288660000,22.3087920000 114.2292800000,22.3088830000 114.2295410000,22.3089860000 114.2296310000,22.3090220000 114.2296830000,22.3090460000 114.2297100000,22.3090600000 114.2298480000,22.3091310000 114.2299080000,22.3091680000 114.2299720000,22.3092110000 114.2300330000,22.3092560000 114.2300980000,22.3093120000 114.2301530000,22.3093630000 114.2302060000,22.3094160000 114.2302590000,22.3094760000 114.2303330000,22.3095670000 114.2304110000,22.3096680000 114.2304920000,22.3097820000 114.2309010000,22.3103850000 114.2309830000,22.3105010000 114.2310890000,22.3106360000 114.2311640000,22.3107270000 114.2312300000,22.3107990000 114.2313150000,22.3108800000 114.2314300000,22.3109810000 114.2315340000,22.3110620000 114.2316400000,22.3111350000 114.2317590000,22.3112070000 114.2319010000,22.3112830000 114.2320790000,22.3113550000 114.2322270000,22.3114120000 114.2323970000,22.3114670000 114.2325320000,22.3115010000 114.2328960000,22.3115810000 114.2338490000,22.3118700000 114.2340280000,22.3119240000 114.2342150000,22.3119860000 114.2344110000,22.3120510000 114.2344620000,22.3120680000 114.2346800000,22.3121440000 114.2348960000,22.3122180000 114.2349250000,22.3122280000 114.2350540000,22.3122800000 114.2351840000,22.3123330000 114.2352470000,22.3123590000 114.2352750000,22.3123700000 114.2353160000,22.3123870000 114.2354520000,22.3124420000 114.2369900000,22.3130750000 114.2374950000,22.3133220000 114.2378270000,22.3134800000 114.2379400000,22.3135340000 114.2384050000,22.3137930000 114.2384570000,22.3138250000 114.2385910000,22.3139200000 114.2386990000,22.3140040000 114.2387790000,22.3140790000 114.2389250000,22.3142070000 114.2390230000,22.3143250000 114.2390940000,22.3144050000 114.2392290000,22.3145590000 114.2393250000,22.3146520000 114.2395150000,22.3148550000 114.2396850000,22.3150660000 114.2397770000,22.3152100000 114.2398540000,22.3153860000 114.2398830000,22.3154670000 114.2399010000,22.3155350000 114.2399210000,22.3156210000 114.2399350000,22.3157170000 114.2399400000,22.3157740000 114.2399410000,22.3158080000 114.2399400000,22.3158400000 114.2399330000,22.3158770000 114.2399210000,22.3159120000 114.2399040000,22.3159430000 114.2398850000,22.3159700000 114.2398550000,22.3160010000 114.2398220000,22.3160270000 114.2397840000,22.3160470000 114.2397440000,22.3160610000 114.2397060000,22.3160690000 114.2396680000,22.3160730000 114.2396280000,22.3160700000 114.2395880000,22.3160630000 114.2395630000,22.3160560000 114.2395400000,22.3160460000 114.2395170000,22.3160340000 114.2394920000,22.3160170000 114.2394690000,22.3159980000 114.2394520000,22.3159790000 114.2394380000,22.3159590000 114.2394260000,22.3159340000 114.2394180000,22.3159110000 114.2394160000,22.3158850000 114.2394150000,22.3158650000 114.2394170000,22.3158440000 114.2394240000,22.3158170000 114.2394330000,22.3157910000 114.2394480000,22.3157580000 114.2394620000,22.3157340000 114.2394800000,22.3157090000 114.2395480000,22.3156280000 114.2396520000,22.3154990000 114.2398040000,22.3153140000 114.2400170000,22.3150730000 114.2402190000,22.3149100000 114.2402920000,22.3148330000 114.2403570000,22.3147510000 114.2404150000,22.3146640000 114.2404530000,22.3145930000 114.2404860000,22.3145210000 114.2405140000,22.3144460000 114.2405560000,22.3143810000 114.2405920000,22.3143130000 114.2406210000,22.3142420000 114.2406420000,22.3141680000 114.2406550000,22.3140930000 114.2406600000,22.3140180000 114.2406580000,22.3139420000 114.2406470000,22.3138660000 114.2406290000,22.3137920000 114.2406030000,22.3137200000 114.2405780000,22.3136540000 114.2405480000,22.3135910000 114.2405110000,22.3135300000 114.2404690000,22.3134730000 114.2404150000,22.3134120000 114.2403540000,22.3133560000 114.2402880000,22.3133060000 114.2402170000,22.3132630000 114.2400710000,22.3132000000 114.2397950000,22.3130800000 114.2395070000,22.3129400000 114.2394480000,22.3129120000 114.2393930000,22.3128850000 114.2392430000,22.3127900000 114.2390810000,22.3126700000 114.2389910000,22.3126020000 114.2387230000,22.3124030000 114.2386040000,22.3123400000 114.2385580000,22.3123150000 114.2385460000,22.3123090000 114.2384350000,22.3122510000 114.2382650000,22.3121480000 114.2380610000,22.3120530000 114.2379890000,22.3120180000 114.2379400000,22.3119990000 114.2378890000,22.3119780000 114.2378430000,22.3119950000 114.2377980000,22.3120130000 114.2377280000,22.3120280000 114.2375010000,22.3120800000 114.2374330000,22.3120960000 114.2373350000,22.3121180000 114.2372490000,22.3120820000 114.2371990000,22.3120400000 114.2371500000,22.3119620000 114.2371150000,22.3118810000 114.2371130000,22.3118090000 114.2371270000,22.3115720000 114.2371280000,22.3114020000 114.2371510000,22.3113930000 114.2371700000,22.3113790000 114.2371840000,22.3113610000 114.2371920000,22.3113400000 114.2371930000,22.3113180000 114.2371880000,22.3112960000 114.2372400000,22.3111940000 114.2373430000,22.3110030000 114.2374890000,22.3107470000 114.2376330000,22.3104730000 114.2377390000,22.3102090000 114.2377490000,22.3101530000 114.2377540000,22.3100970000 114.2377350000,22.3099290000 114.2377310000,22.3098950000 114.2377130000,22.3097650000 114.2377100000,22.3096290000 114.2377080000,22.3095820000 114.2377060000,22.3095060000 114.2377280000,22.3092260000 114.2377320000,22.3091670000 114.2377270000,22.3090450000 114.2377140000,22.3085890000 114.2377130000,22.3084740000 114.2377110000,22.3083640000 114.2376630000,22.3076620000 114.2376540000,22.3075310000 114.2376470000,22.3074470000 114.2376390000,22.3073550000 114.2376030000,22.3069600000 114.2375600000,22.3065780000 114.2375470000,22.3065030000 114.2374900000,22.3063830000 114.2374160000,22.3063190000 114.2373380000,22.3062860000 114.2372590000,22.3062850000 114.2372530000,22.3062850000 114.2372170000,22.3062880000 114.2371820000,22.3062910000 114.2371590000,22.3062930000 114.2370400000,22.3063360000 114.2367360000,22.3064840000 114.2366530000,22.3065250000 114.2363440000,22.3066820000 114.2361020000,22.3068030000 114.2360040000,22.3068660000 114.2359120000,22.3069440000 114.2358880000,22.3069640000 114.2358580000,22.3070130000 114.2358270000,22.3070830000 114.2358070000,22.3071500000 114.2357960000,22.3072280000 114.2357950000,22.3072630000 114.2358080000,22.3074390000 114.2358460000,22.3078850000 114.2358650000,22.3080730000 114.2358230000,22.3082210000 114.2357640000,22.3084660000 114.2357220000,22.3085880000 114.2356940000,22.3086860000 114.2356250000,22.3089880000 114.2356170000,22.3091990000 114.2356370000,22.3096600000 114.2356410000,22.3097700000 114.2356430000,22.3097970000 114.2356460000,22.3098890000 114.2352790000,22.3099070000 114.2352820000,22.3100550000 114.2353170000,22.3103740000 114.2353320000,22.3105090000 114.2353530000,22.3107070000 114.2353670000,22.3107930000 114.2353580000,22.3108560000 114.2354540000,22.3111320000 114.2356150000,22.3114620000 114.2357940000,22.3117610000 114.2359330000,22.3119700000 114.2360530000,22.3121050000 114.2361750000,22.3122020000 114.2363210000,22.3122670000 114.2364700000,22.3123070000 114.2365910000,22.3123150000 114.2367430000,22.3123060000 114.2370740000,22.3122180000 114.2371290000,22.3121710000 114.2373350000,22.3121180000 114.2374330000,22.3120960000 114.2375010000,22.3120800000 114.2377280000,22.3120280000 114.2377980000,22.3120130000 114.2378430000,22.3119950000 114.2378890000,22.3119780000 114.2379080000,22.3119300000 114.2379220000,22.3118870000 114.2379690000,22.3117690000 114.2380450000,22.3115980000 114.2381120000,22.3114460000 114.2381210000,22.3114230000 114.2381360000,22.3113900000 114.2382780000,22.3110710000 114.2382970000,22.3110290000 114.2383560000,22.3108970000 114.2383760000,22.3108510000 114.2383960000,22.3108060000 114.2384830000,22.3106030000 114.2385320000,22.3104780000 114.2386410000,22.3102060000 114.2386630000,22.3101550000 114.2389400000,22.3095150000 114.2389500000,22.3094920000 114.2389800000,22.3094240000 114.2390080000,22.3093580000 114.2390460000,22.3092610000 114.2391420000,22.3090140000 114.2392240000,22.3087630000 114.2392870000,22.3085480000 114.2393140000,22.3084240000 114.2393530000,22.3081610000 114.2393640000,22.3080570000 114.2393700000,22.3079940000 114.2393730000,22.3079310000 114.2393760000,22.3078540000 114.2393770000,22.3077770000 114.2393660000,22.3076170000 114.2393490000,22.3074190000 114.2393260000,22.3072610000 114.2393010000,22.3071050000 114.2392760000,22.3069600000 114.2392320000,22.3067880000 114.2391800000,22.3066660000 114.2391490000,22.3065920000 114.2391220000,22.3065280000 114.2390290000,22.3063520000 114.2386790000,22.3056740000 114.2384530000,22.3051940000 114.2383810000,22.3050260000 114.2383640000,22.3049870000 114.2383510000,22.3049510000 114.2383430000,22.3049220000 114.2383320000,22.3048790000 114.2383050000,22.3047680000 114.2382920000,22.3047120000 114.2382760000,22.3046100000 114.2382660000,22.3045070000 114.2382620000,22.3044170000 114.2382610000,22.3043130000 114.2382690000,22.3042110000 114.2382780000,22.3041560000 114.2382870000,22.3041020000 114.2383000000,22.3040300000 114.2383220000,22.3039390000 114.2383810000,22.3037820000 114.2384710000,22.3035970000 114.2385160000,22.3035070000 114.2385910000,22.3033660000 114.2386260000,22.3033110000 114.2386680000,22.3032530000 114.2386940000,22.3032230000 114.2387650000,22.3031480000 114.2388480000,22.3030680000 114.2389330000,22.3029910000 114.2391110000,22.3028600000 114.2392240000,22.3027880000 114.2393370000,22.3027230000 114.2394080000,22.3026880000 114.2395390000,22.3026340000 114.2396790000,22.3025800000 114.2398900000,22.3025100000 114.2400670000,22.3024600000 114.2402430000,22.3024180000 114.2404200000,22.3023740000 114.2405240000,22.3023450000 114.2406810000,22.3022930000 114.2407330000,22.3022720000 114.2407860000,22.3022520000 114.2408830000,22.3022030000 114.2409720000,22.3021520000 114.2410180000,22.3021210000 114.2410560000,22.3020960000 114.2411360000,22.3020380000 114.2411940000,22.3019870000 114.2412530000,22.3019330000 114.2412880000,22.3018970000 114.2414060000,22.3017670000 114.2415060000,22.3016270000 114.2414210000,22.3016330000 114.2413650000,22.3016370000 114.2412220000,22.3016470000 114.2410790000,22.3016580000 114.2411230000,22.3016630000 114.2411360000,22.3016660000 114.2411470000,22.3016720000 114.2411690000,22.3016870000 114.2412140000,22.3017170000 114.2412480000,22.3017550000 114.2412700000,22.3017950000 114.2412760000,22.3018320000 114.2412780000,22.3018600000 114.2412880000,22.3018970000 114.2412530000,22.3019330000 114.2411940000,22.3019870000 114.2411360000,22.3020380000 114.2410560000,22.3020960000 114.2409720000,22.3021520000 114.2408830000,22.3022030000 114.2407860000,22.3022520000 114.2407330000,22.3022720000 114.2406810000,22.3022930000 114.2405240000,22.3023450000 114.2404200000,22.3023740000 114.2402430000,22.3024180000 114.2400670000,22.3024600000 114.2398900000,22.3025100000 114.2396790000,22.3025800000 114.2395390000,22.3026340000 114.2394080000,22.3026880000 114.2393370000,22.3027230000 114.2392240000,22.3027880000 114.2391110000,22.3028600000 114.2389330000,22.3029910000 114.2388480000,22.3030680000 114.2387650000,22.3031480000 114.2386940000,22.3032230000 114.2386680000,22.3032530000 114.2386260000,22.3033110000 114.2385910000,22.3033660000 114.2385160000,22.3035070000 114.2384710000,22.3035970000 114.2383810000,22.3037820000 114.2383220000,22.3039390000 114.2383000000,22.3040300000 114.2382870000,22.3041020000 114.2382780000,22.3041560000 114.2382690000,22.3042110000 114.2382610000,22.3043130000 114.2382620000,22.3044170000 114.2382660000,22.3045070000 114.2382760000,22.3046100000 114.2382920000,22.3047120000 114.2383050000,22.3047680000 114.2383320000,22.3048790000 114.2383430000,22.3049220000 114.2383510000,22.3049510000 114.2383640000,22.3049870000 114.2383810000,22.3050260000 114.2384530000,22.3051940000 114.2386790000,22.3056740000 114.2390290000,22.3063520000 114.2391220000,22.3065280000 114.2391490000,22.3065920000 114.2391800000,22.3066660000 114.2392320000,22.3067880000 114.2392760000,22.3069600000 114.2393010000,22.3071050000 114.2393260000,22.3072610000 114.2393490000,22.3074190000 114.2393660000,22.3076170000 114.2393770000,22.3077770000 114.2393760000,22.3078540000 114.2393730000,22.3079310000 114.2393700000,22.3079940000 114.2393640000,22.3080570000 114.2393530000,22.3081610000 114.2393140000,22.3084240000 114.2392870000,22.3085480000 114.2392240000,22.3087630000 114.2391420000,22.3090140000 114.2390460000,22.3092610000 114.2390080000,22.3093580000 114.2389800000,22.3094240000 114.2389500000,22.3094920000 114.2389400000,22.3095150000 114.2386630000,22.3101550000 114.2386410000,22.3102060000 114.2385320000,22.3104780000 114.2384830000,22.3106030000 114.2383960000,22.3108060000 114.2383760000,22.3108510000 114.2383560000,22.3108970000 114.2382970000,22.3110290000 114.2382780000,22.3110710000 114.2381360000,22.3113900000 114.2381210000,22.3114230000 114.2381120000,22.3114460000 114.2380450000,22.3115980000 114.2379690000,22.3117690000 114.2379220000,22.3118870000 114.2379080000,22.3119300000 114.2378890000,22.3119780000 114.2378430000,22.3119950000 114.2377980000,22.3120130000 114.2377280000,22.3120280000 114.2375010000,22.3120800000 114.2374330000,22.3120960000 114.2373350000,22.3121180000 114.2372490000,22.3120820000 114.2371990000,22.3120400000 114.2371500000,22.3119620000 114.2371150000,22.3118810000 114.2371130000,22.3118090000 114.2371270000,22.3115720000 114.2371280000,22.3114020000 114.2371510000,22.3113930000 114.2371700000,22.3113790000 114.2371840000,22.3113610000 114.2371920000,22.3113400000 114.2371930000,22.3113180000 114.2371880000,22.3112960000 114.2372400000,22.3111940000 114.2373430000,22.3110030000 114.2374890000,22.3107470000 114.2376330000,22.3104730000 114.2377390000,22.3102090000 114.2377490000,22.3101530000 114.2377540000,22.3100970000 114.2377350000,22.3099290000 114.2377310000,22.3098950000 114.2377130000,22.3097650000 114.2377100000,22.3096290000 114.2377080000,22.3095820000 114.2377060000,22.3095060000 114.2377230000,22.3092780000 114.2377320000,22.3091670000 114.2377270000,22.3090450000 114.2377140000,22.3085890000 114.2377130000,22.3084740000 114.2377110000,22.3083640000 114.2376630000,22.3076620000 114.2376540000,22.3075310000 114.2376470000,22.3074470000 114.2376390000,22.3073550000 114.2376030000,22.3069600000 114.2375600000,22.3065780000 114.2375470000,22.3065030000 114.2374900000,22.3063830000 114.2374160000,22.3063190000 114.2373380000,22.3062860000 114.2372590000,22.3062850000 114.2372530000,22.3062850000 114.2372170000,22.3062880000 114.2371820000,22.3062910000 114.2371590000,22.3062930000 114.2370400000,22.3063360000 114.2367360000,22.3064840000 114.2366530000,22.3065250000 114.2363440000,22.3066820000 114.2361020000,22.3068030000 114.2360040000,22.3068660000 114.2359120000,22.3069440000 114.2358880000,22.3069640000 114.2358580000,22.3070130000 114.2358270000,22.3070830000 114.2358070000,22.3071500000 114.2357960000,22.3072280000 114.2357950000,22.3072630000 114.2358080000,22.3074390000 114.2358460000,22.3078850000 114.2358650000,22.3080730000 114.2358230000,22.3082210000 114.2357640000,22.3084660000 114.2357220000,22.3085880000 114.2356940000,22.3086860000 114.2356250000,22.3089880000 114.2356170000,22.3091990000 114.2356370000,22.3096600000 114.2356410000,22.3097700000 114.2356430000,22.3097970000 114.2356460000,22.3098890000 114.2352790000,22.3099070000 114.2352820000,22.3100550000 114.2353170000,22.3103740000 114.2353320000,22.3105090000 114.2353530000,22.3107070000 114.2353670000,22.3107930000 114.2353580000,22.3108560000 114.2354540000,22.3111320000 114.2356150000,22.3114620000 114.2357940000,22.3117610000 114.2359330000,22.3119700000 114.2360530000,22.3121050000 114.2361750000,22.3122020000 114.2363210000,22.3122670000 114.2364700000,22.3123070000 114.2365910000,22.3123150000 114.2367430000,22.3123060000 114.2370740000,22.3122180000 114.2371290000,22.3121710000 114.2373350000,22.3121180000 114.2374330000,22.3120960000 114.2375010000,22.3120800000 114.2377280000,22.3120280000 114.2377980000,22.3120130000 114.2378430000,22.3119950000 114.2378890000,22.3119780000 114.2379400000,22.3119990000 114.2379890000,22.3120180000 114.2380610000,22.3120530000 114.2382650000,22.3121480000 114.2384350000,22.3122510000 114.2385460000,22.3123090000 114.2386040000,22.3123400000 114.2387230000,22.3124030000 114.2389910000,22.3126020000 114.2390810000,22.3126700000 114.2392430000,22.3127900000 114.2393930000,22.3128850000 114.2394480000,22.3129120000 114.2395070000,22.3129400000 114.2397950000,22.3130800000 114.2400710000,22.3132000000 114.2402170000,22.3132630000 114.2402880000,22.3133060000 114.2403540000,22.3133560000 114.2404150000,22.3134120000 114.2404690000,22.3134730000 114.2405110000,22.3135300000 114.2405480000,22.3135910000 114.2405780000,22.3136540000 114.2406030000,22.3137200000 114.2406290000,22.3137920000 114.2406470000,22.3138660000 114.2406580000,22.3139420000 114.2406600000,22.3140180000 114.2406550000,22.3140930000 114.2406420000,22.3141680000 114.2406210000,22.3142420000 114.2405920000,22.3143130000 114.2405560000,22.3143810000 114.2405140000,22.3144460000 114.2404640000,22.3145130000 114.2404090000,22.3145760000 114.2403630000,22.3146190000 114.2402490000,22.3147150000 114.2401950000,22.3147600000 114.2401670000,22.3147720000 114.2401360000,22.3147770000 114.2401050000,22.3147760000 114.2400750000,22.3147670000 114.2400470000,22.3147520000 114.2399900000,22.3147010000 114.2399530000,22.3146690000 114.2399270000,22.3146480000 114.2396280000,22.3144110000 114.2394670000,22.3142960000 114.2392950000,22.3141850000 114.2391860000,22.3141140000 114.2389730000,22.3139590000 114.2388980000,22.3139220000 114.2388130000,22.3138820000 114.2387260000,22.3138410000 114.2386610000,22.3138120000 114.2385640000,22.3137410000 114.2382870000,22.3135740000 114.2380010000,22.3134300000 114.2378730000,22.3133660000 114.2375300000,22.3132100000 114.2370340000,22.3129840000 114.2367210000,22.3128380000 114.2363900000,22.3126990000 114.2356300000,22.3123940000 114.2355000000,22.3123410000 114.2353410000,22.3122760000 114.2351780000,22.3121990000 114.2349360000,22.3121010000 114.2345030000,22.3119470000 114.2342650000,22.3118690000 114.2340590000,22.3118030000 114.2335550000,22.3116430000 114.2333870000,22.3115930000 114.2329570000,22.3114650000 114.2328200000,22.3114250000 114.2325600000,22.3113400000 114.2324030000,22.3112840000 114.2322850000,22.3112370000 114.2321800000,22.3111880000 114.2320820000,22.3111420000 114.2319380000,22.3110600000 114.2318210000,22.3109870000 114.2316970000,22.3108990000 114.2315850000,22.3108090000 114.2314360000,22.3106740000 114.2313630000,22.3106040000 114.2313050000,22.3105420000 114.2312240000,22.3104480000 114.2311400000,22.3103430000 114.2310680000,22.3102460000 114.2309220000,22.3100330000 114.2305190000,22.3094350000 114.2304440000,22.3093310000 114.2303730000,22.3092390000 114.2303120000,22.3091690000 114.2302430000,22.3090980000 114.2301640000,22.3090260000 114.2300940000,22.3089660000 114.2300180000,22.3089120000 114.2299370000,22.3088570000 114.2298690000,22.3088160000 114.2297840000,22.3087710000 114.2296960000,22.3087300000 114.2296070000,22.3086940000 114.2295190000,22.3086620000 114.2294240000,22.3086320000 114.2293300000,22.3086070000 114.2292300000,22.3085850000 114.2291050000,22.3085610000 114.2289970000,22.3085430000 114.2278110000,22.3083320000 114.2277750000,22.3083260000 114.2276770000,22.3083020000 114.2274790000,22.3082470000 114.2273900000,22.3082250000 114.2273040000,22.3082300000 114.2272070000,22.3082370000 114.2271300000,22.3082050000 114.2269900000,22.3081470000 114.2268560000,22.3080850000 114.2267930000,22.3080550000 114.2267110000,22.3080080000 114.2265700000,22.3079270000 114.2263910000,22.3078080000 114.2262800000,22.3077310000 114.2253870000,22.3070680000 114.2248690000,22.3066690000 114.2247250000,22.3065580000 114.2245460000,22.3064210000 114.2243610000,22.3063010000 114.2243140000,22.3062740000 114.2241870000,22.3061970000 114.2241050000,22.3061550000 114.2240250000,22.3061200000 114.2239390000,22.3060840000 114.2238590000,22.3060590000 114.2237720000,22.3060320000 114.2236920000,22.3060080000 114.2236620000,22.3060020000 114.2236010000,22.3059900000 114.2235180000,22.3059770000 114.2234270000,22.3059640000 114.2233360000,22.3059580000 114.2232530000,22.3059560000 114.2231590000,22.3059550000 114.2230750000,22.3059580000 114.2229880000,22.3059680000 114.2229010000,22.3059790000 114.2228110000,22.3059970000 114.2227170000,22.3060210000 114.2226160000,22.3060440000 114.2225570000,22.3060650000 114.2224700000,22.3060990000 114.2223830000,22.3061350000 114.2223530000,22.3061500000 114.2222940000,22.3061800000 114.2222660000,22.3061980000 114.2222410000,22.3062140000 114.2222140000,22.3062290000 114.2221880000,22.3062460000 114.2221410000,22.3062770000 114.2221040000,22.3063010000 114.2219890000,22.3063770000 114.2218560000,22.3064870000 114.2217540000,22.3065870000 114.2216280000,22.3067100000 114.2215010000,22.3068920000 114.2211590000,22.3074240000 114.2210730000,22.3075480000 114.2210220000,22.3076230000 114.2210020000,22.3076520000 114.2207530000,22.3079900000 114.2205820000,22.3082080000 114.2201910000,22.3087040000 114.2192820000,22.3098570000 114.2189020000,22.3103410000 114.2185710000,22.3107330000 114.2181640000,22.3111990000 114.2179470000,22.3114370000 114.2176990000,22.3117080000 114.2174100000,22.3119890000 114.2172860000,22.3121100000 114.2163760000,22.3130530000 114.2152860000,22.3141730000 114.2147630000,22.3147110000 114.2144750000,22.3150060000 114.2144120000,22.3150710000 114.2141400000,22.3153500000 114.2137790000,22.3157210000 114.2133820000,22.3161450000 114.2131930000,22.3163010000 114.2130460000,22.3164050000 114.2129730000,22.3164550000 114.2128790000,22.3165200000 114.2126550000,22.3166460000 114.2125020000,22.3167240000 114.2124270000,22.3167550000 114.2123210000,22.3167980000 114.2122390000,22.3168220000 114.2121170000,22.3168520000 114.2120210000,22.3168740000 114.2119200000,22.3168980000 114.2118410000,22.3169200000 114.2117380000,22.3169490000 114.2116630000,22.3169700000 114.2115760000,22.3169900000 114.2115180000,22.3169910000 114.2114550000,22.3169940000 114.2114170000,22.3169950000 114.2106800000,22.3170050000 114.2105510000,22.3170110000 114.2104420000,22.3170210000 114.2102100000,22.3170480000 114.2100740000,22.3170700000 114.2099850000,22.3170880000 114.2098960000,22.3171080000 114.2098060000,22.3171300000 114.2097240000,22.3171530000 114.2095930000,22.3172020000 114.2094120000,22.3172720000 114.2092070000,22.3173630000 114.2090880000,22.3174210000 114.2090280000,22.3174530000 114.2089030000,22.3175220000 114.2087420000,22.3176250000 114.2086530000,22.3176850000 114.2085840000,22.3177360000 114.2085160000,22.3177900000 114.2084350000,22.3178570000 114.2083130000,22.3179690000 114.2081940000,22.3180790000 114.2080850000,22.3181980000 114.2079840000,22.3183110000 114.2064330000,22.3201070000 114.2063570000,22.3201920000 114.2062550000,22.3203020000 114.2061580000,22.3204010000 114.2060370000,22.3205190000 114.2050750000,22.3214000000 114.2049940000,22.3214800000 114.2048860000,22.3215990000 114.2048020000,22.3217090000 114.2047360000,22.3218030000 114.2046960000,22.3218670000 114.2046490000,22.3219500000 114.2046110000,22.3220300000 114.2045630000,22.3221480000 114.2045280000,22.3222600000 114.2044830000,22.3224360000 114.2044420000,22.3226720000 114.2042210000,22.3243450000 114.2041960000,22.3246690000 114.2041970000,22.3248460000 114.2042080000,22.3250020000 114.2042410000,22.3252630000 114.2044370000,22.3262760000 114.2044630000,22.3263880000 114.2045180000,22.3265500000 114.2045830000,22.3267130000 114.2046420000,22.3268410000 114.2049840000,22.3274340000 114.2050800000,22.3276420000 114.2051560000,22.3278310000 114.2051740000,22.3278970000 114.2051910000,22.3279790000 114.2051980000,22.3280270000 114.2052040000,22.3280670000 114.2052120000,22.3281400000 114.2052160000,22.3282380000 114.2052110000,22.3283970000 114.2051980000,22.3285250000 114.2051780000,22.3286420000 114.2051460000,22.3287930000 114.2050550000,22.3291740000 114.2050270000,22.3293040000 114.2050050000,22.3294250000 114.2049870000,22.3295600000 114.2049800000,22.3296430000 114.2049760000,22.3297360000 114.2049750000,22.3298340000 114.2050190000,22.3309910000 114.2050320000,22.3313290000 114.2050280000,22.3317810000 114.2050220000,22.3321340000 114.2049990000,22.3322770000 114.2049760000,22.3324760000 114.2049700000,22.3325190000 114.2049610000,22.3325780000 114.2049490000,22.3326610000 114.2049130000,22.3329470000 114.2049020000,22.3330150000 114.2048900000,22.3330970000 114.2048870000,22.3331900000 114.2048880000,22.3332430000 114.2048790000,22.3333170000 114.2049210000,22.3339920000 114.2049070000,22.3340980000 114.2048960000,22.3341580000 114.2048820000,22.3342090000 114.2048590000,22.3342640000 114.2048310000,22.3343270000 114.2048000000,22.3343920000 114.2047710000,22.3344480000 114.2047390000,22.3344940000 114.2047080000,22.3345370000 114.2046760000,22.3345790000 114.2046490000,22.3346080000 114.2046060000,22.3346600000 114.2045570000,22.3347100000 114.2044920000,22.3347650000 114.2044320000,22.3348120000 114.2043630000,22.3348650000 114.2042850000,22.3349210000 114.2042580000,22.3349400000 114.2041350000,22.3350290000 114.2040840000,22.3350470000 114.2039300000,22.3351000000 114.2038130000,22.3351400000 114.2036690000,22.3351720000 114.2034800000,22.3352090000 114.2032930000,22.3352270000 114.2031800000,22.3352340000 114.2031350000,22.3352330000 114.2030850000,22.3352320000 114.2028130000,22.3352210000 114.2026490000,22.3351990000 114.2025490000,22.3351780000 114.2024920000,22.3351660000 114.2024340000,22.3351540000 114.2023890000,22.3351440000 114.2022590000,22.3351000000 114.2021770000,22.3350730000 114.2020330000,22.3350260000 114.2020210000,22.3350220000 114.2019130000,22.3349860000 114.2017220000,22.3349160000 114.2016470000,22.3348880000 114.2011550000,22.3347070000 114.2010510000,22.3346660000 114.2007670000,22.3345580000 114.2006990000,22.3345310000 114.2006550000,22.3345000000 114.2004480000,22.3344210000 114.2002500000,22.3343640000 114.2002080000,22.3343480000 114.2000860000,22.3343020000 114.1996580000,22.3341420000 114.1995880000,22.3341080000 114.1994840000,22.3340610000 114.1990200000,22.3338940000 114.1985170000,22.3337140000 114.1983950000,22.3336800000 114.1982790000,22.3336390000 114.1981620000,22.3335940000 114.1980650000,22.3335480000 114.1979820000,22.3335070000 114.1978350000,22.3333870000 114.1977400000,22.3333060000 114.1977130000,22.3332810000 114.1976850000,22.3332540000 114.1976030000,22.3331780000 114.1975420000,22.3331140000 114.1974980000,22.3330640000 114.1974340000,22.3329850000 114.1973780000,22.3329060000 114.1970300000,22.3323440000 114.1969810000,22.3322760000 114.1969250000,22.3322150000 114.1968410000,22.3321460000 114.1967470000,22.3320920000 114.1965880000,22.3320380000 114.1961480000,22.3319140000 114.1959780000,22.3318570000 114.1957720000,22.3317670000 114.1956350000,22.3316390000 114.1925430000,22.3286200000 114.1918840000,22.3280990000 114.1918150000,22.3280800000 114.1917280000,22.3280510000 114.1914630000,22.3279270000 114.1911540000,22.3278120000 114.1910460000,22.3277760000 114.1902070000,22.3274390000 114.1899720000,22.3273500000 114.1897400000,22.3272550000 114.1895120000,22.3271520000 114.1892870000,22.3270440000 114.1890660000,22.3269280000 114.1889430000,22.3268710000 114.1884310000,22.3265840000 114.1883250000,22.3265000000 114.1882300000,22.3264390000 114.1881760000,22.3263960000 114.1881050000,22.3263400000 114.1880370000,22.3262860000 114.1878530000,22.3261790000 114.1877470000,22.3261180000 114.1876470000,22.3260600000 114.1875270000,22.3259900000 114.1873200000,22.3258710000 114.1872380000,22.3258230000 114.1872100000,22.3258070000 114.1870950000,22.3257400000 114.1870200000,22.3256960000 114.1869820000,22.3256750000 114.1868790000,22.3256140000 114.1858660000,22.3250030000 114.1858250000,22.3249790000 114.1856710000,22.3248940000 114.1856170000,22.3248670000 114.1855990000,22.3248580000 114.1855560000,22.3248380000 114.1853300000,22.3247310000 114.1853160000,22.3247240000 114.1853050000,22.3247190000 114.1849810000,22.3245700000 114.1847230000,22.3244510000 114.1846980000,22.3244400000 114.1840630000,22.3241470000 114.1839430000,22.3240920000 114.1839120000,22.3240780000 114.1838670000,22.3240560000 114.1837310000,22.3239890000 114.1828980000,22.3235990000 114.1827120000,22.3235120000 114.1823360000,22.3233350000 114.1820900000,22.3232210000 114.1815900000,22.3229930000 114.1815470000,22.3229730000 114.1814480000,22.3229260000 114.1809750000,22.3227280000 114.1806330000,22.3225870000 114.1802530000,22.3224760000 114.1793020000,22.3220480000 114.1783940000,22.3216360000 114.1781460000,22.3215170000 114.1775490000,22.3212230000 114.1773340000,22.3211060000 114.1770470000,22.3209760000 114.1767540000,22.3208570000 114.1758630000,22.3205070000 114.1755530000,22.3204260000 114.1752450000,22.3203480000 114.1750540000,22.3203090000 114.1748840000,22.3202820000 114.1748270000,22.3202710000 114.1747010000,22.3202460000 114.1746390000,22.3202330000 114.1744050000,22.3201870000 114.1742340000,22.3201530000 114.1740720000,22.3201210000 114.1738950000,22.3200820000 114.1738170000,22.3200660000 114.1737590000,22.3200560000 114.1736200000,22.3200320000 114.1734590000,22.3200050000 114.1732160000,22.3199630000 114.1728530000,22.3199010000 114.1728000000,22.3198900000 114.1727320000,22.3198770000 114.1726230000,22.3198550000 114.1723140000,22.3197940000 114.1722280000,22.3197790000 114.1717560000,22.3197080000 114.1717120000,22.3197000000 114.1716360000,22.3196880000 114.1715140000,22.3196660000 114.1710860000,22.3195900000 114.1709030000,22.3195590000 114.1708930000,22.3195570000 114.1708050000,22.3195410000 114.1707540000,22.3195320000 114.1706820000,22.3195190000 114.1706690000,22.3195160000 114.1705260000,22.3194920000 114.1703930000,22.3194670000 114.1702460000,22.3194430000 114.1702260000,22.3194390000 114.1701140000,22.3194200000 114.1699770000,22.3193950000 114.1699280000,22.3193930000 114.1698850000,22.3193890000 114.1696920000,22.3193570000 114.1695810000,22.3193390000 114.1695360000,22.3193310000 114.1694290000,22.3193120000 114.1693200000,22.3192930000 114.1692430000,22.3192790000 114.1688230000,22.3192090000 114.1687900000,22.3192030000 114.1687660000,22.3191980000 114.1686730000,22.3191850000 114.1685700000,22.3191660000 114.1683980000,22.3191380000 114.1682790000,22.3191210000 114.1682250000,22.3191130000 114.1681820000,22.3191040000 114.1681320000,22.3190940000 114.1680250000,22.3190690000 114.1679760000,22.3190600000 114.1678410000,22.3190360000 114.1677880000,22.3190280000 114.1676800000,22.3190060000 114.1675610000,22.3189840000 114.1671990000,22.3189160000 114.1670290000,22.3188840000 114.1670190000,22.3188830000 114.1669680000,22.3188730000 114.1669500000,22.3188700000 114.1667760000,22.3188370000 114.1665110000,22.3187870000 114.1662740000,22.3187430000 114.1662570000,22.3187410000 114.1662220000,22.3187350000 114.1660610000,22.3187120000 114.1655450000,22.3186950000 114.1653130000,22.3186880000 114.1651780000,22.3186840000 114.1646800000,22.3186630000 114.1643930000,22.3186500000 114.1643170000,22.3186460000 114.1642870000,22.3186450000 114.1641230000,22.3186310000 114.1639600000,22.3186090000 114.1637720000,22.3185630000 114.1636480000,22.3185360000 114.1635180000,22.3184940000 114.1634340000,22.3184590000 114.1633990000,22.3184440000 114.1633210000,22.3184080000 114.1631290000,22.3183110000 114.1630450000,22.3182690000 114.1629550000,22.3181870000 114.1628890000,22.3181590000 114.1628410000,22.3181500000 114.1627870000,22.3181390000 114.1623560000,22.3180450000 114.1620650000,22.3179530000 114.1620150000,22.3179260000 114.1619120000,22.3178690000 114.1617770000,22.3178200000 114.1611740000,22.3176000000 114.1609760000,22.3175350000 114.1609090000,22.3175250000 114.1608490000,22.3175310000 114.1607920000,22.3175640000 114.1607800000,22.3176520000 114.1607860000,22.3177060000 114.1608100000,22.3177500000 114.1608470000,22.3177820000 114.1610060000,22.3178500000 114.1610770000,22.3179390000 114.1614870000,22.3180790000 114.1616590000,22.3181390000 114.1618720000,22.3182250000 114.1619260000,22.3182520000 114.1619580000,22.3182730000 114.1619890000,22.3183140000 114.1619960000,22.3183660000 114.1619960000,22.3184900000 114.1619960000,22.3185560000 114.1619960000,22.3186210000 114.1619960000,22.3186440000 114.1619960000,22.3186770000 114.1619960000,22.3187780000 114.1619960000,22.3187910000 114.1619960000,22.3188720000 114.1619910000,22.3189620000 114.1619890000,22.3190590000 114.1619880000,22.3190890000 114.1619880000,22.3191100000 114.1619880000,22.3191430000 114.1618850000,22.3191400000 114.1615660000,22.3191400000 114.1613570000,22.3191400000 114.1613090000,22.3191390000 114.1612810000,22.3191390000 114.1612290000,22.3191450000 114.1612080000,22.3192070000 114.1611740000,22.3192650000 114.1611300000,22.3193160000 114.1610780000,22.3193590000 114.1610170000,22.3193930000 114.1609820000,22.3194060000 114.1609510000,22.3194170000 114.1608820000,22.3194300000 114.1606880000,22.3194330000 114.1605810000,22.3194340000 114.1604920000,22.3194340000 114.1601570000,22.3194350000 114.1601290000,22.3194350000 114.1600010000,22.3194220000 114.1599060000,22.3194210000 114.1598680000,22.3194870000 114.1598470000,22.3195250000 114.1598380000,22.3195400000 114.1598060000,22.3196010000 114.1597890000,22.3196610000 114.1597620000,22.3197870000 114.1597490000,22.3198590000 114.1597420000,22.3199210000 114.1597340000,22.3200350000 114.1597220000,22.3202000000 114.1597280000,22.3205400000 114.1597460000,22.3209930000 114.1597510000,22.3211140000 114.1597910000,22.3215460000 114.1597930000,22.3220190000 114.1597750000,22.3222580000 114.1597160000,22.3225660000 114.1595900000,22.3228500000 114.1594740000,22.3230810000 114.1594490000,22.3231200000 114.1593630000,22.3232680000 114.1593020000,22.3233400000 114.1590360000,22.3236410000 114.1589610000,22.3237220000 114.1587360000,22.3238920000 114.1582800000,22.3242560000 114.1582380000,22.3242890000 114.1580590000,22.3244190000 114.1579630000,22.3244830000 114.1578910000,22.3245340000 114.1578720000,22.3245490000 114.1573560000,22.3249390000 114.1572670000,22.3250090000 114.1571000000,22.3251400000 114.1570550000,22.3251740000 114.1569640000,22.3252420000 114.1566790000,22.3254560000 114.1565270000,22.3255680000 114.1561030000,22.3258700000 114.1560720000,22.3258950000 114.1559190000,22.3260150000 114.1557900000,22.3261000000 114.1556970000,22.3261630000 114.1556690000,22.3261830000 114.1551510000,22.3265830000 114.1550640000,22.3266510000 114.1550000000,22.3267000000 114.1547430000,22.3269370000 114.1546450000,22.3270570000 114.1545070000,22.3272200000 114.1544320000,22.3273110000 114.1541000000,22.3277400000 114.1540000000,22.3278500000 114.1539050000,22.3279310000 114.1538710000,22.3279610000 114.1535450000,22.3282160000 114.1533170000,22.3283980000 114.1529050000,22.3287220000 114.1528660000,22.3287560000 114.1526790000,22.3289040000 114.1525630000,22.3289940000 114.1524430000,22.3290860000 114.1521210000,22.3293210000 114.1519090000,22.3294870000 114.1518860000,22.3295040000 114.1513870000,22.3298800000 114.1513270000,22.3298060000 114.1512890000,22.3297580000 114.1509540000,22.3293770000 114.1509100000,22.3293160000 114.1509000000,22.3292790000 114.1508840000,22.3292260000 114.1508790000,22.3292030000 114.1508770000,22.3291820000 114.1508830000,22.3291780000 114.1509050000,22.3291540000 114.1509170000,22.3291260000 114.1509200000,22.3290950000 114.1509120000,22.3290650000 114.1509430000,22.3290460000 114.1511420000,22.3289190000 114.1511970000,22.3288850000 114.1512550000,22.3288480000 114.1513210000,22.3288070000 114.1515740000,22.3290810000</coordinates>
                </LineString>
                <ExtendedData>
                    <Data name="length">
                        <value>34929.62655181664</value>
                    </Data>
                    <Data name="duration">
                        <value>00:46:34</value>
                    </Data>
                </ExtendedData>
            </Placemark>
        </Document>
    </Document>
</kml>