<?xml version="1.0" encoding="UTF-8"?>
<kml xmlns="http://www.opengis.net/kml/2.2" xmlns:gx="http://www.google.com/kml/ext/2.2">
    <Document>
        <name>Route</name>
        <Folder>
            <name>Route Request</name>
            <Placemark>
                <address>Elements, 1, Austin Road West, Yau Ma Tei, Yau Tsim Mong District, Hong Kong, 00000, PRC</address>
                <Point>
                    <coordinates>114.1643610698,22.3093383153</coordinates>
                </Point>
                <ExtendedData>
                    <Data name="suburb">
                        <value>Yau Ma Tei</value>
                    </Data>
                    <Data name="country_code">
                        <value>cn</value>
                    </Data>
                    <Data name="house_number">
                        <value>1</value>
                    </Data>
                    <Data name="mall">
                        <value>Elements</value>
                    </Data>
                    <Data name="postcode">
                        <value>00000</value>
                    </Data>
                    <Data name="country">
                        <value>PRC</value>
                    </Data>
                    <Data name="routingVisited">
                        <value>false</value>
                    </Data>
                    <Data name="road">
                        <value>Austin Road West</value>
                    </Data>
                    <Data name="county">
                        <value>Yau Tsim Mong District</value>
                    </Data>
                </ExtendedData>
            </Placemark>
            <Placemark>
                <address>iSQUARE, 63, Nathan Road, East Tsim Sha Tsui, Tsim Sha Tsui, Kowloon, Yau Tsim Mong District, Kowloon, Hong Kong, China</address>
                <Point>
                    <coordinates>114.1723133387,22.2965704851</coordinates>
                </Point>
                <ExtendedData>
                    <Data name="suburb">
                        <value>Tsim Sha Tsui</value>
                    </Data>
                    <Data name="country_code">
                        <value>cn</value>
                    </Data>
                    <Data name="house_number">
                        <value>63</value>
                    </Data>
                    <Data name="mall">
                        <value>iSQUARE</value>
                    </Data>
                    <Data name="country">
                        <value>China</value>
                    </Data>
                    <Data name="routingVisited">
                        <value>false</value>
                    </Data>
                    <Data name="road">
                        <value>Nathan Road</value>
                    </Data>
                    <Data name="region">
                        <value>Kowloon</value>
                    </Data>
                    <Data name="city">
                        <value>Hong Kong</value>
                    </Data>
                    <Data name="county">
                        <value>Yau Tsim Mong District</value>
                    </Data>
                    <Data name="neighbourhood">
                        <value>East Tsim Sha Tsui</value>
                    </Data>
                </ExtendedData>
            </Placemark>
            <Placemark>
                <address>Salisbury Road Underpass, East Tsim Sha Tsui, Tsim Sha Tsui, Yau Tsim Mong District, Kowloon, Hong Kong, 000000, China</address>
                <Point>
                    <coordinates>114.1757977038,22.2957487380</coordinates>
                </Point>
                <ExtendedData>
                    <Data name="suburb">
                        <value>Tsim Sha Tsui</value>
                    </Data>
                    <Data name="quarter">
                        <value>East Tsim Sha Tsui</value>
                    </Data>
                    <Data name="state">
                        <value>Hong Kong</value>
                    </Data>
                    <Data name="country_code">
                        <value>cn</value>
                    </Data>
                    <Data name="postcode">
                        <value>000000</value>
                    </Data>
                    <Data name="country">
                        <value>China</value>
                    </Data>
                    <Data name="road">
                        <value>Salisbury Road Underpass</value>
                    </Data>
                    <Data name="city">
                        <value>Kowloon</value>
                    </Data>
                    <Data name="city_district">
                        <value>Yau Tsim Mong District</value>
                    </Data>
                    <Data name="ISO3166-2-lvl3">
                        <value>CN-HK</value>
                    </Data>
                </ExtendedData>
            </Placemark>
            <Placemark>
                <address>BMCPC Footpath, Tseung Kwan O South, Tiu Keng Leng, Tseung Kwan O, Sai Kung District, New Territories, Hong Kong, China</address>
                <Point>
                    <coordinates>114.2554874767,22.2979870153</coordinates>
                </Point>
                <ExtendedData>
                    <Data name="quarter">
                        <value>Tseung Kwan O South</value>
                    </Data>
                    <Data name="suburb">
                        <value>Tiu Keng Leng</value>
                    </Data>
                    <Data name="state">
                        <value>Hong Kong</value>
                    </Data>
                    <Data name="country_code">
                        <value>cn</value>
                    </Data>
                    <Data name="country">
                        <value>China</value>
                    </Data>
                    <Data name="road">
                        <value>BMCPC Footpath</value>
                    </Data>
                    <Data name="town">
                        <value>Tseung Kwan O</value>
                    </Data>
                    <Data name="city">
                        <value>Sai Kung District</value>
                    </Data>
                    <Data name="municipality">
                        <value>New Territories</value>
                    </Data>
                    <Data name="ISO3166-2-lvl3">
                        <value>CN-HK</value>
                    </Data>
                </ExtendedData>
            </Placemark>
            <Placemark>
                <address>Tseung Kwan O Hospital, 2, Po Ning Lane, Shui Bin Tsuen, Tseung Kwan O, Sai Kung District, New Territories, Hong Kong, China</address>
                <Point>
                    <coordinates>114.2697263075,22.3170395478</coordinates>
                </Point>
                <ExtendedData>
                    <Data name="state">
                        <value>Hong Kong</value>
                    </Data>
                    <Data name="house_number">
                        <value>2</value>
                    </Data>
                    <Data name="country_code">
                        <value>cn</value>
                    </Data>
                    <Data name="amenity">
                        <value>Tseung Kwan O Hospital</value>
                    </Data>
                    <Data name="country">
                        <value>China</value>
                    </Data>
                    <Data name="road">
                        <value>Po Ning Lane</value>
                    </Data>
                    <Data name="town">
                        <value>Tseung Kwan O</value>
                    </Data>
                    <Data name="city">
                        <value>Sai Kung District</value>
                    </Data>
                    <Data name="hamlet">
                        <value>Shui Bin Tsuen</value>
                    </Data>
                    <Data name="municipality">
                        <value>New Territories</value>
                    </Data>
                    <Data name="ISO3166-2-lvl3">
                        <value>CN-HK</value>
                    </Data>
                </ExtendedData>
            </Placemark>
            <Placemark>
                <address>Ngan O Road, Fat Tau Chau, Tseung Kwan O, Sai Kung District, New Territories, Hong Kong, China</address>
                <Point>
                    <coordinates>114.2655538696,22.3149818884</coordinates>
                </Point>
                <ExtendedData>
                    <Data name="state">
                        <value>Hong Kong</value>
                    </Data>
                    <Data name="country_code">
                        <value>cn</value>
                    </Data>
                    <Data name="country">
                        <value>China</value>
                    </Data>
                    <Data name="road">
                        <value>Ngan O Road</value>
                    </Data>
                    <Data name="town">
                        <value>Tseung Kwan O</value>
                    </Data>
                    <Data name="city">
                        <value>Sai Kung District</value>
                    </Data>
                    <Data name="hamlet">
                        <value>Fat Tau Chau</value>
                    </Data>
                    <Data name="municipality">
                        <value>New Territories</value>
                    </Data>
                    <Data name="ISO3166-2-lvl3">
                        <value>CN-HK</value>
                    </Data>
                </ExtendedData>
            </Placemark>
            <Placemark>
                <address>Ming Shing Street, Hang Hau, Tseung Kwan O, Sai Kung District, New Territories, Hong Kong, China</address>
                <Point>
                    <coordinates>114.2647130721,22.3159211471</coordinates>
                </Point>
                <ExtendedData>
                    <Data name="suburb">
                        <value>Hang Hau</value>
                    </Data>
                    <Data name="state">
                        <value>Hong Kong</value>
                    </Data>
                    <Data name="country_code">
                        <value>cn</value>
                    </Data>
                    <Data name="country">
                        <value>China</value>
                    </Data>
                    <Data name="road">
                        <value>Ming Shing Street</value>
                    </Data>
                    <Data name="town">
                        <value>Tseung Kwan O</value>
                    </Data>
                    <Data name="city">
                        <value>Sai Kung District</value>
                    </Data>
                    <Data name="municipality">
                        <value>New Territories</value>
                    </Data>
                    <Data name="ISO3166-2-lvl3">
                        <value>CN-HK</value>
                    </Data>
                </ExtendedData>
            </Placemark>
            <Placemark>
                <address>Tiu Keng Leng Station, Choi Ming Street, Tiu Keng Leng, Tseung Kwan O, Sai Kung District, New Territories, Hong Kong, China</address>
                <Point>
                    <coordinates>114.2521248295,22.3048399199</coordinates>
                </Point>
                <ExtendedData>
                    <Data name="suburb">
                        <value>Tiu Keng Leng</value>
                    </Data>
                    <Data name="highway">
                        <value>Tiu Keng Leng Station</value>
                    </Data>
                    <Data name="state">
                        <value>Hong Kong</value>
                    </Data>
                    <Data name="country_code">
                        <value>cn</value>
                    </Data>
                    <Data name="country">
                        <value>China</value>
                    </Data>
                    <Data name="road">
                        <value>Choi Ming Street</value>
                    </Data>
                    <Data name="town">
                        <value>Tseung Kwan O</value>
                    </Data>
                    <Data name="city">
                        <value>Sai Kung District</value>
                    </Data>
                    <Data name="municipality">
                        <value>New Territories</value>
                    </Data>
                    <Data name="ISO3166-2-lvl3">
                        <value>CN-HK</value>
                    </Data>
                </ExtendedData>
            </Placemark>
            <Placemark>
                <address>Tseung Lam Highway, Tiu Keng Leng, Tseung Kwan O, Sai Kung District, New Territories, Hong Kong, China</address>
                <Point>
                    <coordinates>114.2554756377,22.2953516245</coordinates>
                </Point>
                <ExtendedData>
                    <Data name="suburb">
                        <value>Tiu Keng Leng</value>
                    </Data>
                    <Data name="state">
                        <value>Hong Kong</value>
                    </Data>
                    <Data name="country_code">
                        <value>cn</value>
                    </Data>
                    <Data name="country">
                        <value>China</value>
                    </Data>
                    <Data name="road">
                        <value>Tseung Lam Highway</value>
                    </Data>
                    <Data name="town">
                        <value>Tseung Kwan O</value>
                    </Data>
                    <Data name="city">
                        <value>Sai Kung District</value>
                    </Data>
                    <Data name="municipality">
                        <value>New Territories</value>
                    </Data>
                    <Data name="ISO3166-2-lvl3">
                        <value>CN-HK</value>
                    </Data>
                </ExtendedData>
            </Placemark>
            <Placemark>
                <address>Cheong Wan Road, Hung Hom, Kowloon City District, Kowloon, Hong Kong, China</address>
                <Point>
                    <coordinates>114.1807962285,22.2997326250</coordinates>
                </Point>
                <ExtendedData>
                    <Data name="suburb">
                        <value>Hung Hom</value>
                    </Data>
                    <Data name="country_code">
                        <value>cn</value>
                    </Data>
                    <Data name="country">
                        <value>China</value>
                    </Data>
                    <Data name="routingVisited">
                        <value>false</value>
                    </Data>
                    <Data name="road">
                        <value>Cheong Wan Road</value>
                    </Data>
                    <Data name="region">
                        <value>Kowloon</value>
                    </Data>
                    <Data name="city">
                        <value>Hong Kong</value>
                    </Data>
                    <Data name="county">
                        <value>Kowloon City District</value>
                    </Data>
                </ExtendedData>
            </Placemark>
            <Placemark>
                <address>Star Ferry, 梳士巴利道 Salisbury Road, East Tsim Sha Tsui, Tsim Sha Tsui, Kowloon, Yau Tsim Mong District, Kowloon, Hong Kong, China</address>
                <Point>
                    <coordinates>114.1688592328,22.2942645975</coordinates>
                </Point>
                <ExtendedData>
                    <Data name="suburb">
                        <value>Tsim Sha Tsui</value>
                    </Data>
                    <Data name="country_code">
                        <value>cn</value>
                    </Data>
                    <Data name="country">
                        <value>China</value>
                    </Data>
                    <Data name="road">
                        <value>梳士巴利道 Salisbury Road</value>
                    </Data>
                    <Data name="region">
                        <value>Kowloon</value>
                    </Data>
                    <Data name="city">
                        <value>Hong Kong</value>
                    </Data>
                    <Data name="bus_station">
                        <value>Star Ferry</value>
                    </Data>
                    <Data name="county">
                        <value>Yau Tsim Mong District</value>
                    </Data>
                    <Data name="neighbourhood">
                        <value>East Tsim Sha Tsui</value>
                    </Data>
                </ExtendedData>
            </Placemark>
            <Placemark>
                <address>Shanghai Street, Ferry Point, Yau Ma Tei, Kowloon, Yau Tsim Mong District, Kowloon, Hong Kong, China</address>
                <Point>
                    <coordinates>114.1673899261,22.3006852635</coordinates>
                </Point>
                <ExtendedData>
                    <Data name="suburb">
                        <value>Yau Ma Tei</value>
                    </Data>
                    <Data name="country_code">
                        <value>cn</value>
                    </Data>
                    <Data name="country">
                        <value>China</value>
                    </Data>
                    <Data name="attraction">
                        <value>Shanghai Street</value>
                    </Data>
                    <Data name="routingVisited">
                        <value>false</value>
                    </Data>
                    <Data name="road">
                        <value>Shanghai Street</value>
                    </Data>
                    <Data name="region">
                        <value>Kowloon</value>
                    </Data>
                    <Data name="city">
                        <value>Hong Kong</value>
                    </Data>
                    <Data name="county">
                        <value>Yau Tsim Mong District</value>
                    </Data>
                    <Data name="neighbourhood">
                        <value>Ferry Point</value>
                    </Data>
                </ExtendedData>
            </Placemark>
            <Placemark>
                <address>Elements, 1, Austin Road West, West Kowloon, Yau Ma Tei, Kowloon, Yau Tsim Mong District, Kowloon, Hong Kong, China</address>
                <Point>
                    <coordinates>114.1643463039,22.3093519754</coordinates>
                </Point>
                <ExtendedData>
                    <Data name="suburb">
                        <value>Yau Ma Tei</value>
                    </Data>
                    <Data name="country_code">
                        <value>cn</value>
                    </Data>
                    <Data name="house_number">
                        <value>1</value>
                    </Data>
                    <Data name="mall">
                        <value>Elements</value>
                    </Data>
                    <Data name="country">
                        <value>China</value>
                    </Data>
                    <Data name="routingVisited">
                        <value>false</value>
                    </Data>
                    <Data name="road">
                        <value>Austin Road West</value>
                    </Data>
                    <Data name="region">
                        <value>Kowloon</value>
                    </Data>
                    <Data name="city">
                        <value>Hong Kong</value>
                    </Data>
                    <Data name="county">
                        <value>Yau Tsim Mong District</value>
                    </Data>
                    <Data name="neighbourhood">
                        <value>West Kowloon</value>
                    </Data>
                </ExtendedData>
            </Placemark>
        </Folder>
        <Document>
            <name>42.1 km; 00:52 h (OSRM)</name>
            <Placemark>
                <name>Route</name>
                <LineString>
                    <coordinates>114.1643520000,22.3092850000 114.1646720000,22.3092410000 114.1648680000,22.3092100000 114.1649170000,22.3092030000 114.1649540000,22.3092000000 114.1650670000,22.3091810000 114.1652170000,22.3091560000 114.1651950000,22.3090360000 114.1651760000,22.3089480000 114.1651690000,22.3089170000 114.1651420000,22.3087820000 114.1651200000,22.3087100000 114.1650980000,22.3086380000 114.1650700000,22.3084500000 114.1650330000,22.3081900000 114.1650310000,22.3081650000 114.1650230000,22.3078750000 114.1650170000,22.3077450000 114.1650210000,22.3074230000 114.1650540000,22.3071000000 114.1650740000,22.3069190000 114.1651000000,22.3068240000 114.1651450000,22.3067130000 114.1652270000,22.3064880000 114.1652860000,22.3063690000 114.1653710000,22.3061990000 114.1654540000,22.3060530000 114.1655400000,22.3058730000 114.1657400000,22.3054690000 114.1660700000,22.3048250000 114.1661230000,22.3047260000 114.1662300000,22.3045100000 114.1664130000,22.3045560000 114.1665630000,22.3045940000 114.1667130000,22.3046340000 114.1668080000,22.3046590000 114.1668940000,22.3046910000 114.1670280000,22.3047420000 114.1671790000,22.3048010000 114.1673450000,22.3048890000 114.1674740000,22.3049560000 114.1675430000,22.3048490000 114.1677000000,22.3045720000 114.1677710000,22.3043700000 114.1678820000,22.3040580000 114.1679400000,22.3039040000 114.1679830000,22.3037150000 114.1680160000,22.3035190000 114.1680490000,22.3033940000 114.1680940000,22.3031880000 114.1681170000,22.3030320000 114.1682550000,22.3030400000 114.1687360000,22.3030680000 114.1690760000,22.3030960000 114.1692550000,22.3031100000 114.1692750000,22.3031130000 114.1693120000,22.3031150000 114.1697710000,22.3031570000 114.1702120000,22.3031850000 114.1702440000,22.3031870000 114.1702900000,22.3031880000 114.1705980000,22.3032060000 114.1707530000,22.3032130000 114.1711570000,22.3032410000 114.1716020000,22.3032620000 114.1716580000,22.3032660000 114.1717330000,22.3032690000 114.1718150000,22.3032750000 114.1718210000,22.3031980000 114.1718240000,22.3031060000 114.1718560000,22.3026380000 114.1718770000,22.3023540000 114.1719040000,22.3018840000 114.1719120000,22.3017800000 114.1719190000,22.3016810000 114.1719220000,22.3016350000 114.1719430000,22.3013670000 114.1719510000,22.3012700000 114.1719640000,22.3010760000 114.1719690000,22.3009930000 114.1719980000,22.3005630000 114.1720020000,22.3005150000 114.1720040000,22.3004900000 114.1720180000,22.3003630000 114.1720200000,22.3003140000 114.1720250000,22.3002690000 114.1720670000,22.2996820000 114.1720710000,22.2996040000 114.1720780000,22.2995230000 114.1721020000,22.2993330000 114.1721210000,22.2989770000 114.1721340000,22.2987170000 114.1721650000,22.2982150000 114.1721680000,22.2981630000 114.1721790000,22.2980150000 114.1722070000,22.2976340000 114.1722600000,22.2969500000 114.1722800000,22.2966250000 114.1722840000,22.2965680000 114.1722900000,22.2964890000 114.1722950000,22.2964050000 114.1723030000,22.2963010000 114.1723120000,22.2961880000 114.1723300000,22.2959640000 114.1723400000,22.2958250000 114.1723450000,22.2957400000 114.1723460000,22.2957130000 114.1723470000,22.2956990000 114.1723480000,22.2956820000 114.1723500000,22.2956450000 114.1723660000,22.2956020000 114.1723680000,22.2955700000 114.1723690000,22.2955470000 114.1723770000,22.2953900000 114.1723880000,22.2952440000 114.1724070000,22.2950330000 114.1724100000,22.2949980000 114.1724150000,22.2949500000 114.1724280000,22.2947870000 114.1725530000,22.2947960000 114.1726050000,22.2948000000 114.1726570000,22.2948040000 114.1732110000,22.2948460000 114.1732990000,22.2948650000 114.1734670000,22.2949010000 114.1735640000,22.2949160000 114.1737810000,22.2949410000 114.1739220000,22.2949710000 114.1740630000,22.2950030000 114.1742060000,22.2950370000 114.1743300000,22.2950720000 114.1744790000,22.2951130000 114.1745820000,22.2951420000 114.1746280000,22.2951550000 114.1746490000,22.2951610000 114.1747400000,22.2951850000 114.1748580000,22.2952230000 114.1749600000,22.2952630000 114.1750440000,22.2952920000 114.1751190000,22.2953250000 114.1752100000,22.2953770000 114.1752980000,22.2954300000 114.1753760000,22.2954950000 114.1754790000,22.2955830000 114.1755460000,22.2956130000 114.1755840000,22.2956300000 114.1756720000,22.2956660000 114.1757210000,22.2956910000 114.1758000000,22.2957460000 114.1758780000,22.2958010000 114.1759280000,22.2958300000 114.1760410000,22.2958940000 114.1762970000,22.2960620000 114.1763600000,22.2961070000 114.1764430000,22.2961700000 114.1764980000,22.2962060000 114.1765680000,22.2962460000 114.1766540000,22.2962830000 114.1768070000,22.2963620000 114.1768890000,22.2964320000 114.1769600000,22.2964910000 114.1769990000,22.2965230000 114.1770260000,22.2965470000 114.1777850000,22.2972180000 114.1779640000,22.2973880000 114.1783670000,22.2977190000 114.1783990000,22.2977430000 114.1784270000,22.2977680000 114.1785060000,22.2978270000 114.1785590000,22.2978700000 114.1785800000,22.2978860000 114.1786260000,22.2979290000 114.1787040000,22.2979920000 114.1787530000,22.2980330000 114.1789500000,22.2982260000 114.1790280000,22.2982910000 114.1791010000,22.2983490000 114.1797420000,22.2989120000 114.1798980000,22.2990520000 114.1799780000,22.2991220000 114.1800900000,22.2992350000 114.1801320000,22.2993010000 114.1801620000,22.2993480000 114.1802120000,22.2994520000 114.1802260000,22.2994760000 114.1802410000,22.2995050000 114.1802610000,22.2995400000 114.1802710000,22.2996370000 114.1802830000,22.2996870000 114.1802990000,22.2997890000 114.1803080000,22.2999350000 114.1803000000,22.3000050000 114.1802670000,22.3001330000 114.1802470000,22.3002170000 114.1801630000,22.3006400000 114.1800990000,22.3008600000 114.1800370000,22.3010270000 114.1798880000,22.3013220000 114.1798410000,22.3014150000 114.1798000000,22.3014900000 114.1797900000,22.3015250000 114.1797640000,22.3016200000 114.1797420000,22.3016800000 114.1797060000,22.3018370000 114.1796880000,22.3019650000 114.1796810000,22.3020970000 114.1796830000,22.3021940000 114.1797010000,22.3022860000 114.1797190000,22.3023990000 114.1797610000,22.3025210000 114.1798100000,22.3026380000 114.1798640000,22.3027720000 114.1801030000,22.3030870000 114.1801860000,22.3031970000 114.1802480000,22.3032700000 114.1803180000,22.3033420000 114.1804080000,22.3034230000 114.1805580000,22.3035370000 114.1807410000,22.3036910000 114.1808830000,22.3040220000 114.1809580000,22.3042040000 114.1810410000,22.3044040000 114.1810810000,22.3045000000 114.1812550000,22.3049180000 114.1813230000,22.3050740000 114.1813360000,22.3051100000 114.1813800000,22.3052320000 114.1814070000,22.3053050000 114.1814280000,22.3053970000 114.1814380000,22.3054730000 114.1814440000,22.3055590000 114.1814390000,22.3056370000 114.1814300000,22.3057050000 114.1814090000,22.3057990000 114.1813920000,22.3058580000 114.1813690000,22.3059310000 114.1813510000,22.3059780000 114.1813150000,22.3060570000 114.1812740000,22.3061340000 114.1812300000,22.3062010000 114.1811750000,22.3062730000 114.1810960000,22.3063670000 114.1810260000,22.3064440000 114.1809730000,22.3064970000 114.1808990000,22.3065600000 114.1806580000,22.3067340000 114.1805710000,22.3068080000 114.1802840000,22.3070330000 114.1802660000,22.3070490000 114.1802460000,22.3070640000 114.1802240000,22.3070820000 114.1800700000,22.3071880000 114.1799980000,22.3072410000 114.1799320000,22.3073020000 114.1798810000,22.3073680000 114.1798390000,22.3074420000 114.1798170000,22.3075080000 114.1798030000,22.3075910000 114.1797990000,22.3076830000 114.1798130000,22.3077670000 114.1798360000,22.3078310000 114.1798650000,22.3078860000 114.1799090000,22.3079450000 114.1799560000,22.3079910000 114.1800310000,22.3080490000 114.1800900000,22.3080800000 114.1801770000,22.3081130000 114.1802520000,22.3081310000 114.1803370000,22.3081400000 114.1804120000,22.3081360000 114.1811270000,22.3080310000 114.1812380000,22.3080210000 114.1813510000,22.3080160000 114.1814820000,22.3080200000 114.1816560000,22.3080420000 114.1818170000,22.3080830000 114.1820140000,22.3081470000 114.1822940000,22.3082440000 114.1824900000,22.3083530000 114.1826890000,22.3084680000 114.1829570000,22.3086170000 114.1830040000,22.3086480000 114.1830710000,22.3086910000 114.1832440000,22.3087990000 114.1833890000,22.3088890000 114.1835460000,22.3090140000 114.1836370000,22.3090810000 114.1837090000,22.3091350000 114.1837760000,22.3091890000 114.1838920000,22.3092840000 114.1839140000,22.3093020000 114.1839910000,22.3093640000 114.1840360000,22.3094010000 114.1841810000,22.3095220000 114.1842980000,22.3096210000 114.1844680000,22.3097610000 114.1845800000,22.3098570000 114.1846330000,22.3099030000 114.1846840000,22.3099530000 114.1847310000,22.3100070000 114.1847730000,22.3100620000 114.1849020000,22.3101790000 114.1849770000,22.3102550000 114.1850510000,22.3103390000 114.1851360000,22.3104450000 114.1852160000,22.3105510000 114.1852780000,22.3106430000 114.1853400000,22.3107440000 114.1854100000,22.3108740000 114.1855040000,22.3110530000 114.1855760000,22.3111870000 114.1856390000,22.3112990000 114.1857100000,22.3114190000 114.1858090000,22.3115800000 114.1869730000,22.3133850000 114.1870470000,22.3135050000 114.1871120000,22.3136190000 114.1871660000,22.3137200000 114.1872190000,22.3138300000 114.1872640000,22.3139300000 114.1873040000,22.3140340000 114.1873410000,22.3141370000 114.1873680000,22.3142210000 114.1874010000,22.3143290000 114.1874330000,22.3144550000 114.1874610000,22.3145850000 114.1874990000,22.3148100000 114.1875370000,22.3150830000 114.1875540000,22.3151950000 114.1875720000,22.3153010000 114.1875910000,22.3154000000 114.1876200000,22.3155210000 114.1876510000,22.3156390000 114.1876870000,22.3157540000 114.1877310000,22.3158830000 114.1877820000,22.3160100000 114.1878290000,22.3161180000 114.1878940000,22.3162510000 114.1891160000,22.3186930000 114.1891930000,22.3188380000 114.1892560000,22.3189520000 114.1893130000,22.3190470000 114.1893640000,22.3191280000 114.1894140000,22.3191990000 114.1894790000,22.3192890000 114.1898260000,22.3197670000 114.1898890000,22.3198540000 114.1899460000,22.3199380000 114.1900010000,22.3200250000 114.1900630000,22.3201280000 114.1901150000,22.3202200000 114.1901620000,22.3203120000 114.1902110000,22.3204190000 114.1902560000,22.3205250000 114.1902910000,22.3206210000 114.1903230000,22.3207130000 114.1903570000,22.3208310000 114.1904520000,22.3211520000 114.1904790000,22.3212540000 114.1905230000,22.3214340000 114.1905880000,22.3216490000 114.1906400000,22.3217910000 114.1909340000,22.3223840000 114.1909500000,22.3224180000 114.1913460000,22.3232190000 114.1915650000,22.3236020000 114.1917140000,22.3237870000 114.1923230000,22.3241530000 114.1926970000,22.3242800000 114.1929850000,22.3243250000 114.1970240000,22.3242210000 114.2004980000,22.3241320000 114.2005920000,22.3241290000 114.2008220000,22.3241230000 114.2010760000,22.3241070000 114.2011660000,22.3241060000 114.2013000000,22.3240850000 114.2017420000,22.3240020000 114.2018280000,22.3239670000 114.2019580000,22.3239230000 114.2021530000,22.3238520000 114.2025670000,22.3236480000 114.2029120000,22.3234420000 114.2031240000,22.3233070000 114.2036450000,22.3228540000 114.2037960000,22.3227140000 114.2044930000,22.3220720000 114.2046880000,22.3219490000 114.2052690000,22.3214040000 114.2055800000,22.3211260000 114.2056600000,22.3210450000 114.2057740000,22.3209270000 114.2063680000,22.3203810000 114.2064380000,22.3203130000 114.2064730000,22.3202780000 114.2067400000,22.3200240000 114.2073250000,22.3195300000 114.2074920000,22.3193830000 114.2076010000,22.3192880000 114.2076750000,22.3192170000 114.2077330000,22.3191560000 114.2078010000,22.3190770000 114.2078550000,22.3190060000 114.2078980000,22.3189400000 114.2079480000,22.3188560000 114.2080630000,22.3186410000 114.2081060000,22.3185520000 114.2081440000,22.3184810000 114.2082130000,22.3183700000 114.2082790000,22.3182750000 114.2083490000,22.3181880000 114.2084280000,22.3181020000 114.2085510000,22.3179680000 114.2086190000,22.3178940000 114.2086840000,22.3178230000 114.2087980000,22.3177070000 114.2089480000,22.3176100000 114.2090790000,22.3175330000 114.2091850000,22.3174780000 114.2093020000,22.3174230000 114.2094550000,22.3173560000 114.2095800000,22.3173090000 114.2096860000,22.3172730000 114.2098020000,22.3172400000 114.2099910000,22.3171960000 114.2101450000,22.3171650000 114.2103090000,22.3171450000 114.2104290000,22.3171340000 114.2105920000,22.3171240000 114.2114570000,22.3170970000 114.2115240000,22.3170920000 114.2115830000,22.3170870000 114.2116790000,22.3170760000 114.2117660000,22.3170630000 114.2118700000,22.3170480000 114.2119610000,22.3170280000 114.2120410000,22.3170080000 114.2121110000,22.3169890000 114.2122780000,22.3169410000 114.2123740000,22.3169050000 114.2124740000,22.3168660000 114.2125880000,22.3168170000 114.2126860000,22.3167710000 114.2128020000,22.3167100000 114.2128780000,22.3166650000 114.2129570000,22.3166170000 114.2130380000,22.3165620000 114.2131120000,22.3165080000 114.2131720000,22.3164640000 114.2132510000,22.3164000000 114.2134680000,22.3162080000 114.2138690000,22.3158060000 114.2142290000,22.3154490000 114.2144950000,22.3151780000 114.2145580000,22.3151140000 114.2148470000,22.3148200000 114.2153530000,22.3142870000 114.2163560000,22.3132420000 114.2173930000,22.3121960000 114.2177430000,22.3118360000 114.2181890000,22.3113600000 114.2187700000,22.3106940000 114.2194920000,22.3097790000 114.2201190000,22.3089800000 114.2206900000,22.3082660000 114.2208580000,22.3080590000 114.2211120000,22.3077160000 114.2211320000,22.3076900000 114.2212710000,22.3074870000 114.2216420000,22.3069660000 114.2217420000,22.3068270000 114.2218470000,22.3066940000 114.2219790000,22.3066100000 114.2221060000,22.3065310000 114.2222180000,22.3064690000 114.2222730000,22.3064390000 114.2223050000,22.3064210000 114.2223260000,22.3064100000 114.2223550000,22.3063970000 114.2223750000,22.3063870000 114.2223960000,22.3063770000 114.2224760000,22.3063430000 114.2225630000,22.3063050000 114.2226330000,22.3062800000 114.2226900000,22.3062600000 114.2227780000,22.3062390000 114.2228480000,22.3062240000 114.2229300000,22.3062070000 114.2230060000,22.3061970000 114.2230930000,22.3061880000 114.2231780000,22.3061830000 114.2232660000,22.3061820000 114.2233470000,22.3061850000 114.2234380000,22.3061870000 114.2235430000,22.3061940000 114.2236170000,22.3062050000 114.2237050000,22.3062210000 114.2237610000,22.3062320000 114.2238520000,22.3062610000 114.2239320000,22.3062940000 114.2240020000,22.3063260000 114.2240950000,22.3063750000 114.2241930000,22.3064020000 114.2242220000,22.3064100000 114.2242510000,22.3064200000 114.2243190000,22.3064430000 114.2244130000,22.3065110000 114.2245540000,22.3063590000 114.2246340000,22.3062720000 114.2246650000,22.3062350000 114.2247100000,22.3061860000 114.2247530000,22.3061420000 114.2247870000,22.3061010000 114.2248740000,22.3060090000 114.2249580000,22.3059160000 114.2250960000,22.3057500000 114.2251730000,22.3056570000 114.2255190000,22.3052610000 114.2255440000,22.3052330000 114.2255790000,22.3051930000 114.2261490000,22.3045420000 114.2263350000,22.3043330000 114.2265220000,22.3041240000 114.2265510000,22.3040900000 114.2266750000,22.3039520000 114.2267320000,22.3038900000 114.2268920000,22.3036890000 114.2269590000,22.3035710000 114.2270010000,22.3034480000 114.2270250000,22.3032480000 114.2270590000,22.3030990000 114.2270720000,22.3029560000 114.2270820000,22.3027540000 114.2270750000,22.3026470000 114.2271570000,22.3024730000 114.2272360000,22.3023190000 114.2275250000,22.3018620000 114.2278240000,22.3013960000 114.2279120000,22.3012390000 114.2285030000,22.3001340000 114.2285790000,22.3000100000 114.2286940000,22.2998440000 114.2287730000,22.2997450000 114.2288710000,22.2996350000 114.2289040000,22.2996040000 114.2289790000,22.2995320000 114.2291260000,22.2994060000 114.2292380000,22.2993150000 114.2293360000,22.2992490000 114.2294230000,22.2991990000 114.2295540000,22.2991420000 114.2296360000,22.2991190000 114.2297120000,22.2991030000 114.2297900000,22.2990930000 114.2298680000,22.2990910000 114.2299480000,22.2991020000 114.2300520000,22.2991290000 114.2301730000,22.2991680000 114.2301910000,22.2992140000 114.2302220000,22.2992540000 114.2302640000,22.2992850000 114.2304580000,22.2999510000 114.2305460000,22.3002040000 114.2306190000,22.3003270000 114.2306650000,22.3004070000 114.2307110000,22.3004820000 114.2307600000,22.3005480000 114.2308130000,22.3006100000 114.2308760000,22.3006730000 114.2309450000,22.3007340000 114.2310340000,22.3008010000 114.2311030000,22.3008460000 114.2312010000,22.3009000000 114.2312970000,22.3009440000 114.2313930000,22.3009800000 114.2314980000,22.3010140000 114.2325790000,22.3013230000 114.2326740000,22.3013540000 114.2327640000,22.3013880000 114.2328480000,22.3014300000 114.2329230000,22.3014750000 114.2329970000,22.3015280000 114.2330530000,22.3015760000 114.2330990000,22.3016280000 114.2331460000,22.3016920000 114.2331820000,22.3017560000 114.2332080000,22.3018200000 114.2332190000,22.3018820000 114.2332240000,22.3019480000 114.2332190000,22.3020190000 114.2332070000,22.3020680000 114.2331890000,22.3021170000 114.2331620000,22.3021720000 114.2331250000,22.3022250000 114.2330780000,22.3022780000 114.2330230000,22.3023240000 114.2329600000,22.3023650000 114.2328880000,22.3024030000 114.2328240000,22.3024290000 114.2327570000,22.3024520000 114.2326860000,22.3024700000 114.2326140000,22.3024820000 114.2325090000,22.3024940000 114.2324350000,22.3025080000 114.2323280000,22.3025440000 114.2319010000,22.3025450000 114.2316380000,22.3025460000 114.2311970000,22.3025000000 114.2310310000,22.3024540000 114.2309070000,22.3024060000 114.2308130000,22.3023470000 114.2307340000,22.3022840000 114.2306730000,22.3021920000 114.2306270000,22.3021000000 114.2306260000,22.3019770000 114.2306510000,22.3018730000 114.2306960000,22.3017660000 114.2307610000,22.3016930000 114.2308200000,22.3016410000 114.2309250000,22.3015910000 114.2310430000,22.3015550000 114.2312140000,22.3015460000 114.2313660000,22.3015630000 114.2315760000,22.3016140000 114.2318180000,22.3016950000 114.2319610000,22.3017500000 114.2321120000,22.3017970000 114.2323520000,22.3018620000 114.2327970000,22.3021250000 114.2329030000,22.3021980000 114.2332570000,22.3024120000 114.2334350000,22.3025210000 114.2336050000,22.3026330000 114.2337230000,22.3027040000 114.2338530000,22.3027700000 114.2339480000,22.3028360000 114.2350390000,22.3035570000 114.2355600000,22.3038460000 114.2361150000,22.3041060000 114.2365270000,22.3042620000 114.2369690000,22.3044030000 114.2378330000,22.3045890000 114.2384770000,22.3046690000 114.2389000000,22.3046890000 114.2393090000,22.3046920000 114.2398120000,22.3046420000 114.2402990000,22.3045780000 114.2409200000,22.3044530000 114.2415050000,22.3042620000 114.2420710000,22.3040460000 114.2426220000,22.3037960000 114.2430420000,22.3035640000 114.2435100000,22.3033130000 114.2441200000,22.3029960000 114.2447780000,22.3026500000 114.2450770000,22.3024930000 114.2454880000,22.3022770000 114.2460480000,22.3019840000 114.2493190000,22.3002670000 114.2495190000,22.3001510000 114.2497220000,22.3000320000 114.2500460000,22.2998260000 114.2503440000,22.2996220000 114.2506000000,22.2994330000 114.2507840000,22.2992910000 114.2509620000,22.2991440000 114.2511500000,22.2989840000 114.2514050000,22.2987510000 114.2527120000,22.2975060000 114.2528250000,22.2974010000 114.2528650000,22.2973630000 114.2529660000,22.2972660000 114.2530570000,22.2971800000 114.2532530000,22.2969940000 114.2534600000,22.2968170000 114.2535910000,22.2967110000 114.2536620000,22.2966580000 114.2537400000,22.2966010000 114.2540740000,22.2964550000 114.2541940000,22.2963900000 114.2542940000,22.2963400000 114.2543370000,22.2963240000 114.2543810000,22.2963090000 114.2544320000,22.2962960000 114.2544780000,22.2962880000 114.2545330000,22.2962840000 114.2545910000,22.2962840000 114.2546450000,22.2962880000 114.2547110000,22.2962990000 114.2547670000,22.2963140000 114.2548200000,22.2963330000 114.2548760000,22.2963580000 114.2549270000,22.2963880000 114.2549790000,22.2964240000 114.2550310000,22.2964710000 114.2550760000,22.2965190000 114.2551130000,22.2965660000 114.2551470000,22.2966190000 114.2551770000,22.2966730000 114.2552050000,22.2967280000 114.2552310000,22.2967870000 114.2552520000,22.2968390000 114.2553820000,22.2972090000 114.2554220000,22.2973200000 114.2554670000,22.2974490000 114.2555010000,22.2975630000 114.2555360000,22.2976880000 114.2555600000,22.2977990000 114.2555890000,22.2979500000 114.2555920000,22.2979740000 114.2556140000,22.2981250000 114.2556520000,22.2983640000 114.2556370000,22.2985570000 114.2556420000,22.2992790000 114.2556280000,22.2995970000 114.2556290000,22.3000160000 114.2556400000,22.3019860000 114.2556410000,22.3021250000 114.2556520000,22.3022060000 114.2556590000,22.3023060000 114.2556580000,22.3023890000 114.2556570000,22.3028100000 114.2556620000,22.3036100000 114.2556660000,22.3048020000 114.2556760000,22.3050110000 114.2556740000,22.3052270000 114.2556730000,22.3054430000 114.2556730000,22.3054980000 114.2556730000,22.3055650000 114.2556700000,22.3056820000 114.2556690000,22.3057710000 114.2556480000,22.3069330000 114.2556270000,22.3076450000 114.2556080000,22.3081850000 114.2556060000,22.3088520000 114.2555910000,22.3089510000 114.2555780000,22.3090010000 114.2555670000,22.3090480000 114.2555450000,22.3091250000 114.2555400000,22.3091410000 114.2555130000,22.3092220000 114.2554920000,22.3092360000 114.2554700000,22.3092520000 114.2554300000,22.3093040000 114.2553960000,22.3093780000 114.2553810000,22.3094570000 114.2553800000,22.3095740000 114.2554320000,22.3096710000 114.2554630000,22.3098310000 114.2556450000,22.3102980000 114.2556800000,22.3103960000 114.2559430000,22.3110270000 114.2560910000,22.3113730000 114.2563550000,22.3118980000 114.2567970000,22.3125980000 114.2571880000,22.3131270000 114.2573090000,22.3132750000 114.2574350000,22.3134070000 114.2576340000,22.3136070000 114.2576850000,22.3136600000 114.2577780000,22.3137770000 114.2579820000,22.3139780000 114.2581960000,22.3141850000 114.2582660000,22.3142560000 114.2584120000,22.3144180000 114.2585390000,22.3145460000 114.2586410000,22.3146260000 114.2587320000,22.3146960000 114.2588520000,22.3148100000 114.2590310000,22.3149920000 114.2591600000,22.3151240000 114.2593960000,22.3153640000 114.2597570000,22.3157320000 114.2601370000,22.3161110000 114.2604490000,22.3164180000 114.2608170000,22.3168040000 114.2612360000,22.3172710000 114.2615260000,22.3176480000 114.2616700000,22.3178560000 114.2620880000,22.3183990000 114.2622540000,22.3186470000 114.2623650000,22.3188570000 114.2624350000,22.3190010000 114.2624810000,22.3190970000 114.2625000000,22.3191460000 114.2625290000,22.3192620000 114.2625410000,22.3193940000 114.2625320000,22.3194270000 114.2625310000,22.3194870000 114.2625420000,22.3195140000 114.2625620000,22.3195590000 114.2626130000,22.3196100000 114.2626800000,22.3196410000 114.2627540000,22.3196480000 114.2628260000,22.3196300000 114.2628540000,22.3196150000 114.2628800000,22.3195970000 114.2630540000,22.3195100000 114.2631250000,22.3194790000 114.2631920000,22.3194580000 114.2632580000,22.3194420000 114.2633140000,22.3194300000 114.2633740000,22.3194210000 114.2634390000,22.3194130000 114.2642350000,22.3193240000 114.2650540000,22.3192320000 114.2651260000,22.3192270000 114.2652110000,22.3192250000 114.2652970000,22.3192270000 114.2653570000,22.3192310000 114.2654400000,22.3192450000 114.2654920000,22.3192810000 114.2655060000,22.3192850000 114.2655530000,22.3192990000 114.2656180000,22.3192990000 114.2656880000,22.3192750000 114.2657450000,22.3192300000 114.2657800000,22.3191690000 114.2660200000,22.3191530000 114.2663690000,22.3190800000 114.2668200000,22.3189790000 114.2671070000,22.3188910000 114.2673220000,22.3188000000 114.2674300000,22.3187480000 114.2675730000,22.3186670000 114.2676760000,22.3186060000 114.2678130000,22.3185170000 114.2678940000,22.3184590000 114.2679910000,22.3183880000 114.2680930000,22.3183070000 114.2684310000,22.3180380000 114.2685680000,22.3179290000 114.2689790000,22.3176030000 114.2690720000,22.3175300000 114.2691640000,22.3174560000 114.2691940000,22.3174330000 114.2693360000,22.3173200000 114.2695340000,22.3171620000 114.2697100000,22.3170230000 114.2699110000,22.3168630000 114.2699730000,22.3168210000 114.2700280000,22.3167880000 114.2700880000,22.3167620000 114.2701730000,22.3167320000 114.2702530000,22.3167140000 114.2703320000,22.3167070000 114.2703930000,22.3166780000 114.2704240000,22.3166550000 114.2704490000,22.3166300000 114.2704850000,22.3165760000 114.2705030000,22.3164960000 114.2704980000,22.3164590000 114.2704690000,22.3164020000 114.2704230000,22.3163550000 114.2703630000,22.3163240000 114.2703130000,22.3163130000 114.2702070000,22.3162800000 114.2701000000,22.3162090000 114.2699850000,22.3161180000 114.2699780000,22.3161130000 114.2698650000,22.3160180000 114.2689060000,22.3150240000 114.2687840000,22.3148980000 114.2685750000,22.3146810000 114.2684950000,22.3145990000 114.2679950000,22.3141310000 114.2679830000,22.3141190000 114.2677730000,22.3139230000 114.2675640000,22.3137390000 114.2675100000,22.3136930000 114.2674270000,22.3137660000 114.2672330000,22.3139200000 114.2666260000,22.3144100000 114.2664380000,22.3145650000 114.2664210000,22.3145810000 114.2662280000,22.3147390000 114.2658870000,22.3150130000 114.2658380000,22.3150430000 114.2657830000,22.3150620000 114.2657020000,22.3150890000 114.2656330000,22.3150950000 114.2655770000,22.3150940000 114.2655270000,22.3150830000 114.2654150000,22.3150570000 114.2652860000,22.3149220000 114.2651070000,22.3147360000 114.2650690000,22.3147140000 114.2650300000,22.3146960000 114.2649880000,22.3146830000 114.2649460000,22.3146740000 114.2648920000,22.3146680000 114.2648370000,22.3146700000 114.2647840000,22.3146790000 114.2647330000,22.3146950000 114.2646840000,22.3147170000 114.2643200000,22.3150240000 114.2642460000,22.3150870000 114.2641710000,22.3151500000 114.2640960000,22.3152130000 114.2640210000,22.3152760000 114.2639460000,22.3153390000 114.2636890000,22.3155560000 114.2636650000,22.3156610000 114.2636640000,22.3156680000 114.2636600000,22.3157080000 114.2636590000,22.3157690000 114.2636700000,22.3158530000 114.2637250000,22.3159290000 114.2637680000,22.3159880000 114.2638690000,22.3161060000 114.2639510000,22.3161970000 114.2641560000,22.3164190000 114.2642380000,22.3165090000 114.2642940000,22.3165690000 114.2645540000,22.3168370000 114.2650340000,22.3172980000 114.2651650000,22.3173490000 114.2652560000,22.3173580000 114.2653280000,22.3173360000 114.2654040000,22.3173020000 114.2656130000,22.3171440000 114.2656340000,22.3171260000 114.2657700000,22.3170040000 114.2658370000,22.3169440000 114.2658570000,22.3169270000 114.2660180000,22.3167840000 114.2661660000,22.3166620000 114.2662690000,22.3165770000 114.2664050000,22.3164520000 114.2664500000,22.3163950000 114.2664640000,22.3163230000 114.2664620000,22.3162520000 114.2664220000,22.3161130000 114.2662240000,22.3159000000 114.2660280000,22.3156820000 114.2658660000,22.3154870000 114.2657890000,22.3154500000 114.2657160000,22.3154410000 114.2656180000,22.3154700000 114.2653010000,22.3157280000 114.2652400000,22.3157780000 114.2648680000,22.3160830000 114.2646980000,22.3162230000 114.2646430000,22.3162680000 114.2644660000,22.3164140000 114.2643270000,22.3165390000 114.2642940000,22.3165690000 114.2645540000,22.3168370000 114.2650340000,22.3172980000 114.2652310000,22.3175320000 114.2653170000,22.3176940000 114.2653740000,22.3178660000 114.2654260000,22.3182180000 114.2655000000,22.3187140000 114.2654990000,22.3188180000 114.2654980000,22.3188390000 114.2654980000,22.3188730000 114.2654880000,22.3189470000 114.2654390000,22.3189810000 114.2654040000,22.3190260000 114.2653260000,22.3190570000 114.2652620000,22.3190770000 114.2651420000,22.3191070000 114.2650550000,22.3191230000 114.2649740000,22.3191350000 114.2642980000,22.3192090000 114.2641190000,22.3192290000 114.2639300000,22.3192500000 114.2632510000,22.3193240000 114.2631150000,22.3193330000 114.2630530000,22.3193310000 114.2629930000,22.3193220000 114.2628550000,22.3192860000 114.2628240000,22.3192750000 114.2627880000,22.3192690000 114.2627250000,22.3191680000 114.2626770000,22.3190860000 114.2626460000,22.3190340000 114.2625960000,22.3189490000 114.2623510000,22.3185320000 114.2621050000,22.3181590000 114.2619330000,22.3179100000 114.2618960000,22.3178570000 114.2616790000,22.3176260000 114.2612530000,22.3171600000 114.2610790000,22.3169700000 114.2609380000,22.3168040000 114.2606160000,22.3164580000 114.2604730000,22.3162960000 114.2601470000,22.3159630000 114.2599740000,22.3157860000 114.2595130000,22.3153210000 114.2591760000,22.3149640000 114.2591240000,22.3149110000 114.2587450000,22.3145200000 114.2584500000,22.3142380000 114.2583850000,22.3141750000 114.2583110000,22.3140980000 114.2580960000,22.3138790000 114.2577040000,22.3134910000 114.2574380000,22.3131940000 114.2573220000,22.3130660000 114.2569180000,22.3125420000 114.2564860000,22.3118400000 114.2562860000,22.3113410000 114.2561240000,22.3109070000 114.2559600000,22.3103530000 114.2559450000,22.3102560000 114.2559220000,22.3100790000 114.2559320000,22.3099100000 114.2559370000,22.3098510000 114.2559420000,22.3098030000 114.2559530000,22.3097520000 114.2559670000,22.3097380000 114.2559700000,22.3097350000 114.2559890000,22.3097150000 114.2560580000,22.3096400000 114.2560920000,22.3095670000 114.2561060000,22.3094890000 114.2561010000,22.3094090000 114.2560830000,22.3093520000 114.2560550000,22.3092980000 114.2559770000,22.3090760000 114.2559520000,22.3090050000 114.2558750000,22.3087870000 114.2558510000,22.3086990000 114.2558400000,22.3085900000 114.2558160000,22.3080270000 114.2557930000,22.3071750000 114.2557620000,22.3066620000 114.2557780000,22.3062220000 114.2557780000,22.3057850000 114.2557820000,22.3057200000 114.2557790000,22.3056010000 114.2556730000,22.3055650000 114.2555610000,22.3055280000 114.2554390000,22.3054880000 114.2551160000,22.3053830000 114.2547570000,22.3052530000 114.2544670000,22.3051350000 114.2540200000,22.3049310000 114.2536100000,22.3046800000 114.2535740000,22.3046580000 114.2534130000,22.3045240000 114.2533300000,22.3044540000 114.2532660000,22.3045410000 114.2531840000,22.3046840000 114.2530650000,22.3049010000 114.2530260000,22.3049520000 114.2528530000,22.3051800000 114.2528040000,22.3051550000 114.2527610000,22.3051330000 114.2527380000,22.3051130000 114.2526240000,22.3050190000 114.2525890000,22.3049900000 114.2525560000,22.3049620000 114.2524190000,22.3050960000 114.2520980000,22.3054120000 114.2521620000,22.3054680000 114.2522720000,22.3055120000 114.2526180000,22.3051730000 114.2526610000,22.3051700000 114.2526970000,22.3051830000 114.2527150000,22.3051980000 114.2527370000,22.3052390000 114.2527640000,22.3052890000 114.2527310000,22.3053320000 114.2525640000,22.3055490000 114.2525080000,22.3056230000 114.2523990000,22.3057550000 114.2523770000,22.3057840000 114.2523290000,22.3058470000 114.2522620000,22.3059500000 114.2521960000,22.3060440000 114.2520460000,22.3062630000 114.2519510000,22.3064530000 114.2518990000,22.3065960000 114.2518910000,22.3066650000 114.2518900000,22.3068280000 114.2518920000,22.3068510000 114.2519030000,22.3070090000 114.2519230000,22.3071060000 114.2519470000,22.3071880000 114.2519810000,22.3072770000 114.2520180000,22.3073570000 114.2520610000,22.3074330000 114.2521490000,22.3075650000 114.2522130000,22.3076410000 114.2522730000,22.3077040000 114.2523420000,22.3077700000 114.2524220000,22.3078370000 114.2525180000,22.3079100000 114.2526330000,22.3079880000 114.2527680000,22.3080710000 114.2529050000,22.3081490000 114.2540130000,22.3087290000 114.2548050000,22.3091540000 114.2550100000,22.3092600000 114.2551340000,22.3093370000 114.2551960000,22.3093860000 114.2552750000,22.3094560000 114.2553080000,22.3094850000 114.2553800000,22.3095740000 114.2554320000,22.3096710000 114.2554990000,22.3097190000 114.2556050000,22.3097820000 114.2557270000,22.3098070000 114.2558520000,22.3097920000 114.2559530000,22.3097520000 114.2559670000,22.3097380000 114.2559700000,22.3097350000 114.2559890000,22.3097150000 114.2560580000,22.3096400000 114.2560920000,22.3095670000 114.2561060000,22.3094890000 114.2561010000,22.3094090000 114.2560830000,22.3093520000 114.2560550000,22.3092980000 114.2559770000,22.3090760000 114.2559520000,22.3090050000 114.2558750000,22.3087870000 114.2558510000,22.3086990000 114.2558400000,22.3085900000 114.2558160000,22.3080270000 114.2557930000,22.3071750000 114.2557620000,22.3066620000 114.2557780000,22.3062220000 114.2557780000,22.3057850000 114.2557820000,22.3057200000 114.2557790000,22.3056010000 114.2557750000,22.3055180000 114.2557740000,22.3054590000 114.2557770000,22.3052330000 114.2557830000,22.3050260000 114.2557850000,22.3044590000 114.2557700000,22.3043590000 114.2557610000,22.3042390000 114.2557790000,22.3036030000 114.2557860000,22.3027970000 114.2557840000,22.3023830000 114.2557740000,22.3000230000 114.2557720000,22.2996040000 114.2557540000,22.2992850000 114.2557520000,22.2985650000 114.2557510000,22.2983190000 114.2557520000,22.2982280000 114.2557350000,22.2979550000 114.2557340000,22.2977900000 114.2557360000,22.2976670000 114.2557410000,22.2975200000 114.2557560000,22.2973940000 114.2557730000,22.2972800000 114.2557870000,22.2972050000 114.2558130000,22.2970990000 114.2558450000,22.2969850000 114.2558940000,22.2968450000 114.2559460000,22.2967260000 114.2560080000,22.2966010000 114.2560640000,22.2965000000 114.2561230000,22.2964060000 114.2561680000,22.2963380000 114.2562480000,22.2962320000 114.2563970000,22.2960580000 114.2564900000,22.2959460000 114.2565430000,22.2958800000 114.2565750000,22.2958330000 114.2566040000,22.2957830000 114.2566280000,22.2957370000 114.2566500000,22.2956850000 114.2566670000,22.2956360000 114.2566760000,22.2955870000 114.2566800000,22.2955390000 114.2566790000,22.2954880000 114.2566730000,22.2954400000 114.2566600000,22.2953880000 114.2566400000,22.2953390000 114.2566160000,22.2952970000 114.2565850000,22.2952570000 114.2565420000,22.2952140000 114.2565020000,22.2951810000 114.2564530000,22.2951480000 114.2564040000,22.2951260000 114.2563550000,22.2951100000 114.2562940000,22.2950980000 114.2562430000,22.2950930000 114.2561710000,22.2950930000 114.2560870000,22.2951010000 114.2560250000,22.2951150000 114.2559580000,22.2951340000 114.2558980000,22.2951580000 114.2558180000,22.2951940000 114.2557500000,22.2952300000 114.2556830000,22.2952700000 114.2555070000,22.2953910000 114.2553940000,22.2954680000 114.2552950000,22.2955270000 114.2552310000,22.2955630000 114.2550940000,22.2956310000 114.2545890000,22.2958550000 114.2544850000,22.2959150000 114.2542320000,22.2960920000 114.2540570000,22.2961890000 114.2538050000,22.2963340000 114.2535700000,22.2964930000 114.2532800000,22.2966860000 114.2531260000,22.2968010000 114.2528860000,22.2969930000 114.2528100000,22.2970620000 114.2526890000,22.2971720000 114.2526500000,22.2972080000 114.2525190000,22.2973310000 114.2512450000,22.2985380000 114.2509820000,22.2987870000 114.2508090000,22.2989350000 114.2506230000,22.2990860000 114.2504510000,22.2992260000 114.2501900000,22.2994110000 114.2498810000,22.2996270000 114.2496140000,22.2997960000 114.2493950000,22.2999280000 114.2491130000,22.3000860000 114.2476780000,22.3008400000 114.2458770000,22.3017750000 114.2454150000,22.3020140000 114.2449620000,22.3022250000 114.2445750000,22.3024380000 114.2438610000,22.3028180000 114.2436240000,22.3029760000 114.2433630000,22.3031500000 114.2432850000,22.3031870000 114.2430810000,22.3032830000 114.2428730000,22.3033820000 114.2425170000,22.3035510000 114.2419210000,22.3038330000 114.2409940000,22.3041660000 114.2401190000,22.3043420000 114.2396590000,22.3044010000 114.2390970000,22.3044190000 114.2384820000,22.3044110000 114.2376890000,22.3042980000 114.2369830000,22.3041320000 114.2365850000,22.3040070000 114.2361950000,22.3038510000 114.2356950000,22.3036110000 114.2352210000,22.3033410000 114.2341920000,22.3026940000 114.2340320000,22.3026050000 114.2335980000,22.3023120000 114.2334150000,22.3021010000 114.2332450000,22.3019870000 114.2329740000,22.3018130000 114.2324710000,22.3015120000 114.2322280000,22.3013640000 114.2320470000,22.3012540000 114.2318230000,22.3011110000 114.2317050000,22.3009960000 114.2316490000,22.3009500000 114.2315730000,22.3008820000 114.2314190000,22.3007540000 114.2312450000,22.3006140000 114.2311400000,22.3005200000 114.2310410000,22.3004240000 114.2310050000,22.3003900000 114.2309660000,22.3003470000 114.2309250000,22.3003020000 114.2308540000,22.3002280000 114.2307490000,22.3000930000 114.2306610000,22.2999770000 114.2305920000,22.2999040000 114.2305100000,22.2996130000 114.2304630000,22.2994510000 114.2304530000,22.2992860000 114.2305020000,22.2992490000 114.2305360000,22.2992000000 114.2305500000,22.2991430000 114.2305440000,22.2990850000 114.2305260000,22.2990450000 114.2304990000,22.2990110000 114.2304630000,22.2989830000 114.2304100000,22.2989610000 114.2303510000,22.2989550000 114.2302930000,22.2989660000 114.2302410000,22.2989930000 114.2302010000,22.2990330000 114.2301590000,22.2990160000 114.2301000000,22.2989930000 114.2300310000,22.2989770000 114.2296790000,22.2990200000 114.2295830000,22.2990460000 114.2294920000,22.2990770000 114.2294110000,22.2991090000 114.2292390000,22.2992010000 114.2291490000,22.2992610000 114.2290560000,22.2993280000 114.2289040000,22.2994620000 114.2288130000,22.2995560000 114.2287290000,22.2996530000 114.2286700000,22.2997300000 114.2284620000,22.3000590000 114.2284410000,22.3000970000 114.2278400000,22.3012090000 114.2277540000,22.3013600000 114.2277100000,22.3014320000 114.2274540000,22.3018210000 114.2273530000,22.3019650000 114.2271420000,22.3022610000 114.2270860000,22.3023560000 114.2270540000,22.3024430000 114.2270750000,22.3026470000 114.2270820000,22.3027540000 114.2270720000,22.3029560000 114.2270590000,22.3030990000 114.2270250000,22.3032480000 114.2269170000,22.3034220000 114.2267890000,22.3036240000 114.2266900000,22.3037660000 114.2266390000,22.3038370000 114.2265850000,22.3039010000 114.2264750000,22.3040300000 114.2260500000,22.3045180000 114.2254460000,22.3051990000 114.2253940000,22.3052580000 114.2253360000,22.3053240000 114.2251030000,22.3055870000 114.2249080000,22.3057900000 114.2248560000,22.3058450000 114.2246850000,22.3060370000 114.2246440000,22.3060820000 114.2245860000,22.3061020000 114.2245150000,22.3061210000 114.2244920000,22.3061280000 114.2244700000,22.3061330000 114.2244500000,22.3061380000 114.2244320000,22.3061400000 114.2244180000,22.3061410000 114.2243580000,22.3061430000 114.2243000000,22.3061440000 114.2242070000,22.3060920000 114.2239870000,22.3059850000 114.2239030000,22.3059520000 114.2238140000,22.3059260000 114.2237210000,22.3059030000 114.2236740000,22.3058920000 114.2235400000,22.3058700000 114.2234350000,22.3058600000 114.2233460000,22.3058570000 114.2232560000,22.3058540000 114.2231610000,22.3058570000 114.2230730000,22.3058610000 114.2229830000,22.3058690000 114.2228920000,22.3058830000 114.2228000000,22.3059010000 114.2226950000,22.3059210000 114.2225820000,22.3059520000 114.2225250000,22.3059730000 114.2224340000,22.3060070000 114.2223320000,22.3060490000 114.2222480000,22.3060900000 114.2222050000,22.3061150000 114.2221790000,22.3061300000 114.2221560000,22.3061450000 114.2221260000,22.3061650000 114.2220870000,22.3061930000 114.2220500000,22.3062200000 114.2219420000,22.3063130000 114.2218410000,22.3064100000 114.2217270000,22.3065540000 114.2216280000,22.3067100000 114.2215010000,22.3068920000 114.2211590000,22.3074240000 114.2210730000,22.3075480000 114.2210220000,22.3076230000 114.2210020000,22.3076520000 114.2207530000,22.3079900000 114.2205820000,22.3082080000 114.2201910000,22.3087040000 114.2192820000,22.3098570000 114.2189020000,22.3103410000 114.2185710000,22.3107330000 114.2181640000,22.3111990000 114.2179470000,22.3114370000 114.2176990000,22.3117080000 114.2174100000,22.3119890000 114.2172860000,22.3121100000 114.2163760000,22.3130530000 114.2152860000,22.3141730000 114.2147630000,22.3147110000 114.2144750000,22.3150060000 114.2144120000,22.3150710000 114.2141400000,22.3153500000 114.2137790000,22.3157210000 114.2133820000,22.3161450000 114.2131930000,22.3163010000 114.2130460000,22.3164050000 114.2129730000,22.3164550000 114.2128790000,22.3165200000 114.2126550000,22.3166460000 114.2125020000,22.3167240000 114.2124270000,22.3167550000 114.2123210000,22.3167980000 114.2122390000,22.3168220000 114.2121170000,22.3168520000 114.2120210000,22.3168740000 114.2119200000,22.3168980000 114.2115700000,22.3168980000 114.2115060000,22.3168990000 114.2114610000,22.3168980000 114.2114020000,22.3168990000 114.2107230000,22.3168930000 114.2106750000,22.3168920000 114.2105480000,22.3168910000 114.2103000000,22.3168670000 114.2102650000,22.3168670000 114.2102050000,22.3168690000 114.2099200000,22.3169060000 114.2097760000,22.3169310000 114.2096330000,22.3169600000 114.2094690000,22.3170020000 114.2093000000,22.3170570000 114.2092360000,22.3170820000 114.2091660000,22.3171160000 114.2091110000,22.3171470000 114.2090490000,22.3171870000 114.2089980000,22.3172230000 114.2089340000,22.3172730000 114.2088700000,22.3173290000 114.2088000000,22.3174030000 114.2087430000,22.3174720000 114.2087000000,22.3175310000 114.2084220000,22.3179530000 114.2082880000,22.3181520000 114.2081210000,22.3183800000 114.2078260000,22.3187650000 114.2076260000,22.3190000000 114.2073560000,22.3193160000 114.2072660000,22.3194170000 114.2068810000,22.3197830000 114.2067040000,22.3199390000 114.2063940000,22.3201890000 114.2063590000,22.3202140000 114.2062830000,22.3202680000 114.2062470000,22.3202940000 114.2062100000,22.3203190000 114.2061220000,22.3203810000 114.2058790000,22.3206180000 114.2052610000,22.3211940000 114.2050200000,22.3214120000 114.2048600000,22.3215660000 114.2048190000,22.3216030000 114.2047710000,22.3216490000 114.2045140000,22.3218950000 114.2041300000,22.3221370000 114.2038620000,22.3223210000 114.2036600000,22.3224810000 114.2034600000,22.3226000000 114.2031250000,22.3227360000 114.2030170000,22.3229410000 114.2029750000,22.3231480000 114.2028550000,22.3233650000 114.2027830000,22.3234120000 114.2027370000,22.3234380000 114.2026550000,22.3234850000 114.2023890000,22.3236230000 114.2022250000,22.3237000000 114.2020750000,22.3237620000 114.2019440000,22.3238110000 114.2017830000,22.3238620000 114.2016440000,22.3239020000 114.2014970000,22.3239370000 114.2013210000,22.3239730000 114.2010740000,22.3240060000 114.2009280000,22.3240210000 114.2007980000,22.3240310000 114.2005720000,22.3240420000 114.2004670000,22.3240460000 114.1981480000,22.3240740000 114.1969720000,22.3240900000 114.1931910000,22.3242060000 114.1929760000,22.3241900000 114.1927100000,22.3241580000 114.1924060000,22.3240540000 114.1919930000,22.3238190000 114.1917780000,22.3236810000 114.1916420000,22.3235340000 114.1914650000,22.3232640000 114.1909170000,22.3221230000 114.1907080000,22.3216680000 114.1906320000,22.3214540000 114.1905980000,22.3213270000 114.1905760000,22.3212280000 114.1905530000,22.3211330000 114.1905300000,22.3210450000 114.1904540000,22.3208050000 114.1903970000,22.3206400000 114.1903530000,22.3205180000 114.1903160000,22.3204260000 114.1902650000,22.3203170000 114.1902060000,22.3202010000 114.1901430000,22.3200830000 114.1900660000,22.3199610000 114.1899780000,22.3198240000 114.1899060000,22.3197210000 114.1897880000,22.3195560000 114.1896400000,22.3193570000 114.1895210000,22.3191930000 114.1894550000,22.3190990000 114.1894140000,22.3190380000 114.1893840000,22.3189900000 114.1893490000,22.3189280000 114.1893080000,22.3188520000 114.1892700000,22.3187800000 114.1891320000,22.3185030000 114.1885480000,22.3173290000 114.1881990000,22.3166390000 114.1880140000,22.3162710000 114.1879760000,22.3161940000 114.1879320000,22.3160990000 114.1878900000,22.3160040000 114.1878560000,22.3159210000 114.1878170000,22.3158200000 114.1877810000,22.3157200000 114.1877470000,22.3156140000 114.1877250000,22.3155370000 114.1877050000,22.3154550000 114.1876730000,22.3152820000 114.1876130000,22.3148810000 114.1876010000,22.3147950000 114.1875880000,22.3147130000 114.1875570000,22.3145620000 114.1875370000,22.3144630000 114.1875200000,22.3143820000 114.1874970000,22.3143040000 114.1874770000,22.3142420000 114.1873840000,22.3139840000 114.1873530000,22.3139010000 114.1873140000,22.3138090000 114.1872720000,22.3137180000 114.1872170000,22.3136100000 114.1871700000,22.3135250000 114.1871250000,22.3134500000 114.1869880000,22.3132340000 114.1865460000,22.3125520000 114.1860760000,22.3118220000 114.1859480000,22.3116210000 114.1858010000,22.3113940000 114.1857270000,22.3112690000 114.1856850000,22.3111940000 114.1855310000,22.3109680000 114.1854680000,22.3108410000 114.1854000000,22.3107180000 114.1853260000,22.3105990000 114.1852450000,22.3104830000 114.1851570000,22.3103700000 114.1848860000,22.3100210000 114.1845500000,22.3096610000 114.1845350000,22.3096460000 114.1842260000,22.3093190000 114.1841060000,22.3092060000 114.1838900000,22.3090240000 114.1837370000,22.3089080000 114.1835540000,22.3088030000 114.1834750000,22.3087620000 114.1832990000,22.3086690000 114.1830920000,22.3085460000 114.1828020000,22.3083920000 114.1825850000,22.3082650000 114.1825560000,22.3082480000 114.1824680000,22.3081960000 114.1821720000,22.3080070000 114.1818500000,22.3077770000 114.1815670000,22.3075690000 114.1812500000,22.3072970000 114.1811670000,22.3071420000 114.1811510000,22.3070250000 114.1811510000,22.3068800000 114.1811650000,22.3067970000 114.1811800000,22.3067440000 114.1812080000,22.3066490000 114.1812470000,22.3065950000 114.1813120000,22.3065030000 114.1813620000,22.3064260000 114.1814120000,22.3063370000 114.1814360000,22.3062840000 114.1814520000,22.3062400000 114.1814840000,22.3061160000 114.1815140000,22.3060580000 114.1815420000,22.3059900000 114.1815670000,22.3059130000 114.1815920000,22.3058110000 114.1816060000,22.3056980000 114.1816080000,22.3055890000 114.1816010000,22.3054770000 114.1815650000,22.3052920000 114.1815260000,22.3051840000 114.1814670000,22.3050200000 114.1814080000,22.3048800000 114.1812890000,22.3045890000 114.1812230000,22.3044290000 114.1811770000,22.3043200000 114.1811690000,22.3040960000 114.1811620000,22.3039990000 114.1811400000,22.3038590000 114.1811190000,22.3037110000 114.1810990000,22.3035630000 114.1810820000,22.3034320000 114.1810720000,22.3033400000 114.1810640000,22.3032580000 114.1810550000,22.3031450000 114.1809820000,22.3025630000 114.1809270000,22.3021540000 114.1808730000,22.3017750000 114.1808340000,22.3014760000 114.1807540000,22.3008240000 114.1807430000,22.3007040000 114.1807410000,22.3006170000 114.1807430000,22.3004890000 114.1807630000,22.3002650000 114.1808070000,22.3000340000 114.1808120000,22.2998490000 114.1808030000,22.2997330000 114.1808030000,22.2997300000 114.1807910000,22.2996610000 114.1807860000,22.2996390000 114.1807590000,22.2995340000 114.1807000000,22.2994280000 114.1806670000,22.2993690000 114.1806270000,22.2993240000 114.1805980000,22.2992910000 114.1803880000,22.2990750000 114.1803120000,22.2990090000 114.1801030000,22.2988290000 114.1797050000,22.2984870000 114.1792820000,22.2981370000 114.1790670000,22.2980780000 114.1789300000,22.2979570000 114.1787380000,22.2977870000 114.1787140000,22.2977670000 114.1785990000,22.2976620000 114.1785470000,22.2976260000 114.1784610000,22.2975680000 114.1781050000,22.2973220000 114.1778790000,22.2971520000 114.1776640000,22.2969790000 114.1774660000,22.2968120000 114.1773870000,22.2967470000 114.1773080000,22.2966820000 114.1772810000,22.2966600000 114.1772260000,22.2966130000 114.1772010000,22.2965910000 114.1771810000,22.2965750000 114.1771490000,22.2965490000 114.1769710000,22.2963370000 114.1768730000,22.2962280000 114.1768120000,22.2961730000 114.1765960000,22.2959870000 114.1762220000,22.2956940000 114.1761760000,22.2956640000 114.1760590000,22.2955860000 114.1759260000,22.2954980000 114.1758610000,22.2954450000 114.1757260000,22.2953780000 114.1756810000,22.2953580000 114.1756010000,22.2953240000 114.1754430000,22.2952360000 114.1753430000,22.2951790000 114.1752390000,22.2951450000 114.1751020000,22.2950780000 114.1748800000,22.2949940000 114.1746380000,22.2949190000 114.1745140000,22.2948810000 114.1744310000,22.2948550000 114.1743150000,22.2948230000 114.1741970000,22.2947940000 114.1740730000,22.2947640000 114.1740360000,22.2947560000 114.1739470000,22.2947340000 114.1736990000,22.2946930000 114.1736200000,22.2946840000 114.1735590000,22.2946750000 114.1735110000,22.2946700000 114.1734700000,22.2946700000 114.1733380000,22.2946800000 114.1732530000,22.2946820000 114.1732060000,22.2946800000 114.1730690000,22.2946790000 114.1728200000,22.2946600000 114.1727250000,22.2946290000 114.1726240000,22.2946050000 114.1725630000,22.2946030000 114.1724380000,22.2945970000 114.1723130000,22.2946120000 114.1721830000,22.2946050000 114.1720950000,22.2946020000 114.1720520000,22.2946010000 114.1719760000,22.2946110000 114.1717580000,22.2946050000 114.1712830000,22.2945910000 114.1712170000,22.2945920000 114.1711520000,22.2945940000 114.1710770000,22.2945750000 114.1709850000,22.2945530000 114.1709050000,22.2945340000 114.1708270000,22.2945240000 114.1706590000,22.2945070000 114.1705620000,22.2945080000 114.1704440000,22.2945130000 114.1702890000,22.2945060000 114.1697930000,22.2944290000 114.1697220000,22.2944140000 114.1696660000,22.2943960000 114.1696180000,22.2943730000 114.1695740000,22.2943490000 114.1695320000,22.2943250000 114.1694850000,22.2942900000 114.1694380000,22.2942420000 114.1694010000,22.2941880000 114.1693730000,22.2940240000 114.1693290000,22.2938930000 114.1693140000,22.2938480000 114.1692860000,22.2937950000 114.1692530000,22.2937470000 114.1691930000,22.2937050000 114.1691530000,22.2936910000 114.1691070000,22.2936810000 114.1690520000,22.2936820000 114.1690460000,22.2936840000 114.1690330000,22.2936870000 114.1689700000,22.2937110000 114.1689480000,22.2937270000 114.1689330000,22.2937430000 114.1689000000,22.2937770000 114.1688520000,22.2938310000 114.1688460000,22.2938390000 114.1688270000,22.2938660000 114.1688120000,22.2938870000 114.1687820000,22.2939290000 114.1687490000,22.2939660000 114.1687320000,22.2939850000 114.1687160000,22.2940040000 114.1686820000,22.2940410000 114.1686720000,22.2940790000 114.1686770000,22.2941020000 114.1686810000,22.2941180000 114.1687320000,22.2941800000 114.1688120000,22.2942790000 114.1688180000,22.2942830000 114.1688290000,22.2942930000 114.1688330000,22.2942970000 114.1688460000,22.2943080000 114.1688900000,22.2943340000 114.1689360000,22.2943520000 114.1690130000,22.2943690000 114.1690910000,22.2943850000 114.1691590000,22.2944000000 114.1691680000,22.2944020000 114.1691910000,22.2944040000 114.1692360000,22.2944080000 114.1694200000,22.2944230000 114.1694750000,22.2944440000 114.1695170000,22.2944610000 114.1696060000,22.2944960000 114.1701180000,22.2945840000 114.1702870000,22.2946130000 114.1704400000,22.2946400000 114.1704680000,22.2946800000 114.1704980000,22.2947230000 114.1705310000,22.2947670000 114.1705650000,22.2948220000 114.1705770000,22.2948530000 114.1705900000,22.2948820000 114.1704380000,22.2954400000 114.1704140000,22.2955260000 114.1703030000,22.2959040000 114.1702450000,22.2960440000 114.1702110000,22.2961670000 114.1702050000,22.2962670000 114.1700410000,22.2968150000 114.1699350000,22.2971620000 114.1699110000,22.2972370000 114.1699010000,22.2972720000 114.1698350000,22.2974530000 114.1695200000,22.2983280000 114.1694530000,22.2985460000 114.1693980000,22.2987260000 114.1693600000,22.2988320000 114.1691630000,22.2992010000 114.1689890000,22.2994740000 114.1687780000,22.2997140000 114.1687370000,22.2997660000 114.1686280000,22.2998980000 114.1686000000,22.2999280000 114.1685320000,22.2999880000 114.1684940000,22.2999920000 114.1684680000,22.2999930000 114.1684390000,22.2999910000 114.1684070000,22.2999870000 114.1682890000,22.2999670000 114.1682660000,22.2999630000 114.1679200000,22.2999010000 114.1678300000,22.2998820000 114.1677250000,22.2998590000 114.1676210000,22.2998370000 114.1675160000,22.2998150000 114.1673500000,22.3006990000 114.1673860000,22.3007050000 114.1674510000,22.3007170000 114.1675520000,22.3007340000 114.1676550000,22.3007520000 114.1677560000,22.3007700000 114.1679470000,22.3007980000 114.1679900000,22.3008050000 114.1680180000,22.3008090000 114.1680530000,22.3008150000 114.1680030000,22.3010470000 114.1679710000,22.3012440000 114.1679670000,22.3014440000 114.1679250000,22.3017340000 114.1679000000,22.3019880000 114.1679170000,22.3022510000 114.1679540000,22.3025530000 114.1679630000,22.3026800000 114.1679690000,22.3028280000 114.1679670000,22.3029380000 114.1679570000,22.3030230000 114.1679230000,22.3032180000 114.1678570000,22.3036210000 114.1677750000,22.3039330000 114.1677520000,22.3040220000 114.1675840000,22.3044980000 114.1675000000,22.3046390000 114.1674130000,22.3047800000 114.1673450000,22.3048890000 114.1672930000,22.3049700000 114.1671370000,22.3052070000 114.1670160000,22.3054110000 114.1669380000,22.3055620000 114.1668690000,22.3057350000 114.1668470000,22.3058560000 114.1660510000,22.3060430000 114.1657230000,22.3061140000 114.1654450000,22.3061820000 114.1653710000,22.3061990000 114.1651490000,22.3062310000 114.1650850000,22.3064080000 114.1649880000,22.3066540000 114.1649390000,22.3068200000 114.1649220000,22.3069260000 114.1648950000,22.3071020000 114.1648710000,22.3073840000 114.1648670000,22.3077490000 114.1648700000,22.3079300000 114.1648450000,22.3079710000 114.1647900000,22.3080020000 114.1647810000,22.3080070000 114.1647700000,22.3080100000 114.1645100000,22.3080360000 114.1644310000,22.3080520000 114.1643480000,22.3080930000 114.1643120000,22.3081450000 114.1642800000,22.3082180000 114.1642520000,22.3083170000 114.1640800000,22.3089820000 114.1640650000,22.3090680000 114.1640600000,22.3091360000 114.1640740000,22.3092250000 114.1641260000,22.3092800000 114.1642040000,22.3093050000 114.1643360000,22.3092870000</coordinates>
                </LineString>
                <ExtendedData>
                    <Data name="duration">
                        <value>00:52:02</value>
                    </Data>
                    <Data name="length">
                        <value>42083.53815906284</value>
                    </Data>
                </ExtendedData>
            </Placemark>
        </Document>
    </Document>
</kml>