<?xml version="1.0" encoding="UTF-8"?>
<kml xmlns="http://www.opengis.net/kml/2.2" xmlns:gx="http://www.google.com/kml/ext/2.2">
    <Document>
        <name>Route</name>
        <Folder>
            <name>Route Request</name>
            <Placemark>
                <Point>
                    <coordinates>114.1269371241,22.3647594235</coordinates>
                </Point>
                <ExtendedData>
                    <Data name="routingVisited">
                        <value>false</value>
                    </Data>
                </ExtendedData>
            </Placemark>
            <Placemark>
                <Point>
                    <coordinates>114.1221365546,22.3622457177</coordinates>
                </Point>
            </Placemark>
            <Placemark>
                <Point>
                    <coordinates>114.1216788110,22.3598414650</coordinates>
                </Point>
            </Placemark>
            <Placemark>
                <address>South Kwai Chung Jockey Club Polyclinic, 310, Kwai Shing Circuit, Chung Kwai Chung, Kwai Chung, Kwai Tsing District, New Territories, Hong Kong, China</address>
                <Point>
                    <coordinates>114.1254538025,22.3601652506</coordinates>
                </Point>
                <ExtendedData>
                    <Data name="road">
                        <value>Kwai Shing Circuit</value>
                    </Data>
                    <Data name="quarter">
                        <value>Kwai Shing Circuit</value>
                    </Data>
                    <Data name="country">
                        <value>China</value>
                    </Data>
                    <Data name="amenity">
                        <value>South Kwai Chung Jockey Club Polyclinic</value>
                    </Data>
                    <Data name="municipality">
                        <value>New Territories</value>
                    </Data>
                    <Data name="state">
                        <value>Hong Kong</value>
                    </Data>
                    <Data name="house_number">
                        <value>310</value>
                    </Data>
                    <Data name="town">
                        <value>Kwai Chung</value>
                    </Data>
                    <Data name="ISO3166-2-lvl3">
                        <value>CN-HK</value>
                    </Data>
                    <Data name="suburb">
                        <value>Chung Kwai Chung</value>
                    </Data>
                    <Data name="country_code">
                        <value>cn</value>
                    </Data>
                    <Data name="city">
                        <value>Kwai Tsing District</value>
                    </Data>
                </ExtendedData>
            </Placemark>
            <Placemark>
                <address>88, Kwok Shui Road, Ham Tin Village, Ngong Hom, Tsuen Wan District, New Territories, Hong Kong, China</address>
                <Point>
                    <coordinates>114.1163018571,22.3628600057</coordinates>
                </Point>
                <ExtendedData>
                    <Data name="village">
                        <value>Ngong Hom</value>
                    </Data>
                    <Data name="road">
                        <value>Kwok Shui Road</value>
                    </Data>
                    <Data name="hamlet">
                        <value>Ham Tin Village</value>
                    </Data>
                    <Data name="country">
                        <value>China</value>
                    </Data>
                    <Data name="municipality">
                        <value>New Territories</value>
                    </Data>
                    <Data name="state">
                        <value>Hong Kong</value>
                    </Data>
                    <Data name="house_number">
                        <value>88</value>
                    </Data>
                    <Data name="ISO3166-2-lvl3">
                        <value>CN-HK</value>
                    </Data>
                    <Data name="routingVisited">
                        <value>false</value>
                    </Data>
                    <Data name="country_code">
                        <value>cn</value>
                    </Data>
                    <Data name="city">
                        <value>Tsuen Wan District</value>
                    </Data>
                </ExtendedData>
            </Placemark>
            <Placemark>
                <address>Mei Fai Street, Pak Tin, Tai Wai, Tai Wai New Village, Sha Tin District, New Territories, Hong Kong, China</address>
                <Point>
                    <coordinates>114.1739457882,22.3774621325</coordinates>
                </Point>
                <ExtendedData>
                    <Data name="village">
                        <value>Tai Wai New Village</value>
                    </Data>
                    <Data name="road">
                        <value>Mei Fai Street</value>
                    </Data>
                    <Data name="quarter">
                        <value>Pak Tin</value>
                    </Data>
                    <Data name="country">
                        <value>China</value>
                    </Data>
                    <Data name="municipality">
                        <value>New Territories</value>
                    </Data>
                    <Data name="state">
                        <value>Hong Kong</value>
                    </Data>
                    <Data name="ISO3166-2-lvl3">
                        <value>CN-HK</value>
                    </Data>
                    <Data name="country_code">
                        <value>cn</value>
                    </Data>
                    <Data name="suburb">
                        <value>Tai Wai</value>
                    </Data>
                    <Data name="city">
                        <value>Sha Tin District</value>
                    </Data>
                </ExtendedData>
            </Placemark>
            <Placemark>
                <address>Sha Tin Tau Road, Sun Tin Wai Estate, Sha Tin Tau, Kak Tin Village, Sha Tin District, New Territories, Hong Kong, 000000, China</address>
                <Point>
                    <coordinates>114.1861535733,22.3709186305</coordinates>
                </Point>
                <ExtendedData>
                    <Data name="village">
                        <value>Kak Tin Village</value>
                    </Data>
                    <Data name="postcode">
                        <value>000000</value>
                    </Data>
                    <Data name="road">
                        <value>Sha Tin Tau Road</value>
                    </Data>
                    <Data name="country">
                        <value>China</value>
                    </Data>
                    <Data name="municipality">
                        <value>New Territories</value>
                    </Data>
                    <Data name="state">
                        <value>Hong Kong</value>
                    </Data>
                    <Data name="residential">
                        <value>Sun Tin Wai Estate</value>
                    </Data>
                    <Data name="ISO3166-2-lvl3">
                        <value>CN-HK</value>
                    </Data>
                    <Data name="country_code">
                        <value>cn</value>
                    </Data>
                    <Data name="suburb">
                        <value>Sha Tin Tau</value>
                    </Data>
                    <Data name="city">
                        <value>Sha Tin District</value>
                    </Data>
                </ExtendedData>
            </Placemark>
            <Placemark>
                <address>Ng Yuen, 21, Tai Chung Kiu Road, Sha Tin Town Centre, Sha Tin Tau, Sha Tin, Sha Tin District, New Territories, Hong Kong, China</address>
                <Point>
                    <coordinates>114.1889990882,22.3758794589</coordinates>
                </Point>
                <ExtendedData>
                    <Data name="road">
                        <value>Tai Chung Kiu Road</value>
                    </Data>
                    <Data name="historic">
                        <value>Ng Yuen</value>
                    </Data>
                    <Data name="quarter">
                        <value>Sha Tin Town Centre</value>
                    </Data>
                    <Data name="hamlet">
                        <value>Sha Tin Tau</value>
                    </Data>
                    <Data name="country">
                        <value>China</value>
                    </Data>
                    <Data name="municipality">
                        <value>New Territories</value>
                    </Data>
                    <Data name="state">
                        <value>Hong Kong</value>
                    </Data>
                    <Data name="house_number">
                        <value>21</value>
                    </Data>
                    <Data name="ISO3166-2-lvl3">
                        <value>CN-HK</value>
                    </Data>
                    <Data name="town">
                        <value>Sha Tin</value>
                    </Data>
                    <Data name="country_code">
                        <value>cn</value>
                    </Data>
                    <Data name="city">
                        <value>Sha Tin District</value>
                    </Data>
                </ExtendedData>
            </Placemark>
            <Placemark>
                <Point>
                    <coordinates>114.1946983280,22.3764233382</coordinates>
                </Point>
            </Placemark>
            <Placemark>
                <address>Pok Chuen Street, Shui Chuen O, Tsok Pok Hang San Tsuen, To Shek Village, Sha Tin District, New Territories, Hong Kong, 000000, China</address>
                <Point>
                    <coordinates>114.1988521433,22.3691564972</coordinates>
                </Point>
                <ExtendedData>
                    <Data name="village">
                        <value>To Shek Village</value>
                    </Data>
                    <Data name="postcode">
                        <value>000000</value>
                    </Data>
                    <Data name="road">
                        <value>Pok Chuen Street</value>
                    </Data>
                    <Data name="quarter">
                        <value>Shui Chuen O</value>
                    </Data>
                    <Data name="hamlet">
                        <value>Tsok Pok Hang San Tsuen</value>
                    </Data>
                    <Data name="country">
                        <value>China</value>
                    </Data>
                    <Data name="municipality">
                        <value>New Territories</value>
                    </Data>
                    <Data name="state">
                        <value>Hong Kong</value>
                    </Data>
                    <Data name="ISO3166-2-lvl3">
                        <value>CN-HK</value>
                    </Data>
                    <Data name="country_code">
                        <value>cn</value>
                    </Data>
                    <Data name="city">
                        <value>Sha Tin District</value>
                    </Data>
                </ExtendedData>
            </Placemark>
            <Placemark>
                <address>Sha Tin Tau Road, Sun Tin Wai Estate, Sha Tin Tau, Kak Tin Village, Sha Tin District, New Territories, Hong Kong, 000000, China</address>
                <Point>
                    <coordinates>114.1861535735,22.3709049701</coordinates>
                </Point>
                <ExtendedData>
                    <Data name="village">
                        <value>Kak Tin Village</value>
                    </Data>
                    <Data name="postcode">
                        <value>000000</value>
                    </Data>
                    <Data name="road">
                        <value>Sha Tin Tau Road</value>
                    </Data>
                    <Data name="country">
                        <value>China</value>
                    </Data>
                    <Data name="municipality">
                        <value>New Territories</value>
                    </Data>
                    <Data name="state">
                        <value>Hong Kong</value>
                    </Data>
                    <Data name="residential">
                        <value>Sun Tin Wai Estate</value>
                    </Data>
                    <Data name="ISO3166-2-lvl3">
                        <value>CN-HK</value>
                    </Data>
                    <Data name="country_code">
                        <value>cn</value>
                    </Data>
                    <Data name="suburb">
                        <value>Sha Tin Tau</value>
                    </Data>
                    <Data name="city">
                        <value>Sha Tin District</value>
                    </Data>
                </ExtendedData>
            </Placemark>
            <Placemark>
                <address>Che Kung Miu Road, Kak Tin, Lee Uk Village, Tai Wai Village, Sha Tin District, New Territories, Hong Kong, China</address>
                <Point>
                    <coordinates>114.1843899983,22.3742949655</coordinates>
                </Point>
                <ExtendedData>
                    <Data name="village">
                        <value>Tai Wai Village</value>
                    </Data>
                    <Data name="road">
                        <value>Che Kung Miu Road</value>
                    </Data>
                    <Data name="quarter">
                        <value>Kak Tin</value>
                    </Data>
                    <Data name="hamlet">
                        <value>Lee Uk Village</value>
                    </Data>
                    <Data name="country">
                        <value>China</value>
                    </Data>
                    <Data name="municipality">
                        <value>New Territories</value>
                    </Data>
                    <Data name="state">
                        <value>Hong Kong</value>
                    </Data>
                    <Data name="ISO3166-2-lvl3">
                        <value>CN-HK</value>
                    </Data>
                    <Data name="country_code">
                        <value>cn</value>
                    </Data>
                    <Data name="city">
                        <value>Sha Tin District</value>
                    </Data>
                </ExtendedData>
            </Placemark>
            <Placemark>
                <address>Mei Fai Street, Pak Tin, Tai Wai, Tai Wai New Village, Sha Tin District, New Territories, Hong Kong, China</address>
                <Point>
                    <coordinates>114.1739494813,22.3774655476</coordinates>
                </Point>
                <ExtendedData>
                    <Data name="village">
                        <value>Tai Wai New Village</value>
                    </Data>
                    <Data name="road">
                        <value>Mei Fai Street</value>
                    </Data>
                    <Data name="quarter">
                        <value>Pak Tin</value>
                    </Data>
                    <Data name="country">
                        <value>China</value>
                    </Data>
                    <Data name="municipality">
                        <value>New Territories</value>
                    </Data>
                    <Data name="state">
                        <value>Hong Kong</value>
                    </Data>
                    <Data name="ISO3166-2-lvl3">
                        <value>CN-HK</value>
                    </Data>
                    <Data name="country_code">
                        <value>cn</value>
                    </Data>
                    <Data name="suburb">
                        <value>Tai Wai</value>
                    </Data>
                    <Data name="city">
                        <value>Sha Tin District</value>
                    </Data>
                </ExtendedData>
            </Placemark>
            <Placemark>
                <address>Tsuen Tsing Interchange, Kwai Shing Circuit, Chung Kwai Chung, Kwai Chung, Kwai Tsing District, New Territories, Hong Kong, China</address>
                <Point>
                    <coordinates>114.1183550632,22.3628875013</coordinates>
                </Point>
                <ExtendedData>
                    <Data name="road">
                        <value>Tsuen Tsing Interchange</value>
                    </Data>
                    <Data name="quarter">
                        <value>Kwai Shing Circuit</value>
                    </Data>
                    <Data name="country">
                        <value>China</value>
                    </Data>
                    <Data name="municipality">
                        <value>New Territories</value>
                    </Data>
                    <Data name="state">
                        <value>Hong Kong</value>
                    </Data>
                    <Data name="town">
                        <value>Kwai Chung</value>
                    </Data>
                    <Data name="ISO3166-2-lvl3">
                        <value>CN-HK</value>
                    </Data>
                    <Data name="suburb">
                        <value>Chung Kwai Chung</value>
                    </Data>
                    <Data name="country_code">
                        <value>cn</value>
                    </Data>
                    <Data name="city">
                        <value>Kwai Tsing District</value>
                    </Data>
                </ExtendedData>
            </Placemark>
            <Placemark>
                <address>Lion College, 90, Hing Shing Road, Kwai Shing Circuit, Chung Kwai Chung, Kwai Chung, Kwai Tsing District, New Territories, Hong Kong, China</address>
                <Point>
                    <coordinates>114.1243017050,22.3590587281</coordinates>
                </Point>
                <ExtendedData>
                    <Data name="road">
                        <value>Hing Shing Road</value>
                    </Data>
                    <Data name="quarter">
                        <value>Kwai Shing Circuit</value>
                    </Data>
                    <Data name="country">
                        <value>China</value>
                    </Data>
                    <Data name="amenity">
                        <value>Lion College</value>
                    </Data>
                    <Data name="municipality">
                        <value>New Territories</value>
                    </Data>
                    <Data name="state">
                        <value>Hong Kong</value>
                    </Data>
                    <Data name="house_number">
                        <value>90</value>
                    </Data>
                    <Data name="town">
                        <value>Kwai Chung</value>
                    </Data>
                    <Data name="ISO3166-2-lvl3">
                        <value>CN-HK</value>
                    </Data>
                    <Data name="suburb">
                        <value>Chung Kwai Chung</value>
                    </Data>
                    <Data name="country_code">
                        <value>cn</value>
                    </Data>
                    <Data name="city">
                        <value>Kwai Tsing District</value>
                    </Data>
                </ExtendedData>
            </Placemark>
            <Placemark>
                <address>S.R.B.C.E.P.S.A. Lu Kwong Fai Memorial School, 221, Kwai Shing Circuit, Chung Kwai Chung, Kwai Chung, Kwai Tsing District, New Territories, Hong Kong, China</address>
                <Point>
                    <coordinates>114.1226436744,22.3625520540</coordinates>
                </Point>
                <ExtendedData>
                    <Data name="road">
                        <value>Kwai Shing Circuit</value>
                    </Data>
                    <Data name="quarter">
                        <value>Kwai Shing Circuit</value>
                    </Data>
                    <Data name="country">
                        <value>China</value>
                    </Data>
                    <Data name="amenity">
                        <value>S.R.B.C.E.P.S.A. Lu Kwong Fai Memorial School</value>
                    </Data>
                    <Data name="municipality">
                        <value>New Territories</value>
                    </Data>
                    <Data name="state">
                        <value>Hong Kong</value>
                    </Data>
                    <Data name="house_number">
                        <value>221</value>
                    </Data>
                    <Data name="town">
                        <value>Kwai Chung</value>
                    </Data>
                    <Data name="ISO3166-2-lvl3">
                        <value>CN-HK</value>
                    </Data>
                    <Data name="suburb">
                        <value>Chung Kwai Chung</value>
                    </Data>
                    <Data name="country_code">
                        <value>cn</value>
                    </Data>
                    <Data name="city">
                        <value>Kwai Tsing District</value>
                    </Data>
                </ExtendedData>
            </Placemark>
            <Placemark>
                <address>Kwai Shing East Commercial Complex, Kwai Luen Road, Kwai Shing East Estate, Chung Kwai Chung, Kwai Chung, Kwai Tsing District, New Territories, Hong Kong, China</address>
                <Point>
                    <coordinates>114.1269518956,22.3647594239</coordinates>
                </Point>
                <ExtendedData>
                    <Data name="road">
                        <value>Kwai Luen Road</value>
                    </Data>
                    <Data name="country">
                        <value>China</value>
                    </Data>
                    <Data name="municipality">
                        <value>New Territories</value>
                    </Data>
                    <Data name="state">
                        <value>Hong Kong</value>
                    </Data>
                    <Data name="residential">
                        <value>Kwai Shing East Estate</value>
                    </Data>
                    <Data name="town">
                        <value>Kwai Chung</value>
                    </Data>
                    <Data name="ISO3166-2-lvl3">
                        <value>CN-HK</value>
                    </Data>
                    <Data name="suburb">
                        <value>Chung Kwai Chung</value>
                    </Data>
                    <Data name="country_code">
                        <value>cn</value>
                    </Data>
                    <Data name="shop">
                        <value>Kwai Shing East Commercial Complex</value>
                    </Data>
                    <Data name="city">
                        <value>Kwai Tsing District</value>
                    </Data>
                </ExtendedData>
            </Placemark>
        </Folder>
        <Document>
            <name>41.4 km; 01:00 h (OSRM)</name>
            <Placemark>
                <name>Route</name>
                <LineString>
                    <coordinates>114.1268240000,22.3648590000 114.1267570000,22.3647940000 114.1267650000,22.3643680000 114.1267680000,22.3636650000 114.1267790000,22.3635930000 114.1267790000,22.3635890000 114.1267860000,22.3635350000 114.1268050000,22.3634520000 114.1268860000,22.3635290000 114.1269370000,22.3635780000 114.1271010000,22.3637320000 114.1271470000,22.3637760000 114.1272340000,22.3638480000 114.1272730000,22.3638790000 114.1275730000,22.3641100000 114.1277920000,22.3642810000 114.1279200000,22.3643720000 114.1278750000,22.3644350000 114.1278400000,22.3644920000 114.1277580000,22.3646730000 114.1276200000,22.3650310000 114.1276130000,22.3650500000 114.1274960000,22.3653180000 114.1274530000,22.3654100000 114.1274140000,22.3654800000 114.1273680000,22.3655440000 114.1273160000,22.3656020000 114.1272770000,22.3656410000 114.1272080000,22.3656910000 114.1271200000,22.3657350000 114.1270830000,22.3657480000 114.1270100000,22.3657740000 114.1268540000,22.3658100000 114.1267370000,22.3657950000 114.1266030000,22.3657790000 114.1264600000,22.3657370000 114.1263640000,22.3656780000 114.1262980000,22.3656160000 114.1262880000,22.3656060000 114.1262590000,22.3655760000 114.1262090000,22.3655250000 114.1261760000,22.3654640000 114.1261280000,22.3653760000 114.1260720000,22.3652720000 114.1259880000,22.3651650000 114.1258890000,22.3650640000 114.1257610000,22.3649960000 114.1256360000,22.3649430000 114.1255090000,22.3649250000 114.1253800000,22.3649160000 114.1243070000,22.3649480000 114.1238890000,22.3649580000 114.1238280000,22.3649590000 114.1236160000,22.3649640000 114.1234710000,22.3649480000 114.1233310000,22.3649130000 114.1232060000,22.3648560000 114.1231020000,22.3647850000 114.1230120000,22.3646950000 114.1229370000,22.3645910000 114.1228940000,22.3644830000 114.1228590000,22.3643370000 114.1228570000,22.3643130000 114.1228460000,22.3641690000 114.1228430000,22.3641420000 114.1228410000,22.3641140000 114.1228280000,22.3639530000 114.1228190000,22.3638360000 114.1228090000,22.3637070000 114.1228010000,22.3636120000 114.1227510000,22.3629800000 114.1227180000,22.3628280000 114.1226600000,22.3627080000 114.1225870000,22.3625780000 114.1224730000,22.3624720000 114.1223690000,22.3623950000 114.1221160000,22.3622900000 114.1219800000,22.3622330000 114.1218620000,22.3621840000 114.1217300000,22.3621290000 114.1212380000,22.3619270000 114.1209960000,22.3618280000 114.1209120000,22.3617740000 114.1208450000,22.3617110000 114.1207840000,22.3616280000 114.1207430000,22.3615560000 114.1207080000,22.3614770000 114.1206880000,22.3614050000 114.1206770000,22.3613410000 114.1206740000,22.3603970000 114.1207040000,22.3602860000 114.1207490000,22.3601870000 114.1207760000,22.3601500000 114.1208150000,22.3600950000 114.1208950000,22.3600150000 114.1210060000,22.3599390000 114.1210710000,22.3599060000 114.1214720000,22.3597720000 114.1216350000,22.3597490000 114.1216420000,22.3597470000 114.1218220000,22.3596860000 114.1219050000,22.3596580000 114.1218820000,22.3596050000 114.1218270000,22.3594780000 114.1216430000,22.3590540000 114.1216330000,22.3590310000 114.1215740000,22.3588970000 114.1216470000,22.3588690000 114.1219940000,22.3587330000 114.1235900000,22.3581380000 114.1236400000,22.3582580000 114.1237050000,22.3583630000 114.1238030000,22.3584880000 114.1240660000,22.3587800000 114.1241510000,22.3588640000 114.1242330000,22.3589450000 114.1246550000,22.3593600000 114.1248580000,22.3595600000 114.1254890000,22.3601320000 114.1256070000,22.3602380000 114.1256910000,22.3601640000 114.1260740000,22.3598270000 114.1265130000,22.3602280000 114.1270790000,22.3607650000 114.1272160000,22.3609030000 114.1273240000,22.3609740000 114.1274420000,22.3610210000 114.1275530000,22.3610140000 114.1276750000,22.3609840000 114.1280400000,22.3606640000 114.1283070000,22.3604280000 114.1283260000,22.3604070000 114.1285300000,22.3602200000 114.1285600000,22.3601920000 114.1286460000,22.3601160000 114.1286830000,22.3600880000 114.1287230000,22.3600590000 114.1286010000,22.3599460000 114.1285570000,22.3599050000 114.1284250000,22.3598430000 114.1283660000,22.3597780000 114.1281400000,22.3595630000 114.1280930000,22.3595210000 114.1279300000,22.3593660000 114.1278530000,22.3592910000 114.1278080000,22.3592420000 114.1277710000,22.3591510000 114.1276080000,22.3589990000 114.1275760000,22.3589670000 114.1275370000,22.3589280000 114.1274640000,22.3588380000 114.1274040000,22.3587870000 114.1273790000,22.3587650000 114.1273110000,22.3587080000 114.1272560000,22.3586300000 114.1271830000,22.3585860000 114.1271140000,22.3585390000 114.1268920000,22.3583870000 114.1266770000,22.3582350000 114.1263880000,22.3580260000 114.1262010000,22.3578880000 114.1261200000,22.3578280000 114.1259580000,22.3577110000 114.1257670000,22.3575730000 114.1256910000,22.3575180000 114.1256610000,22.3574940000 114.1253730000,22.3572570000 114.1251900000,22.3571280000 114.1251150000,22.3570700000 114.1250090000,22.3569810000 114.1249170000,22.3569090000 114.1247830000,22.3568060000 114.1244810000,22.3565730000 114.1242000000,22.3563640000 114.1239420000,22.3561730000 114.1238280000,22.3560440000 114.1236690000,22.3559890000 114.1235390000,22.3558630000 114.1235100000,22.3558390000 114.1233860000,22.3557350000 114.1233360000,22.3557170000 114.1233210000,22.3557140000 114.1232300000,22.3556860000 114.1231270000,22.3556940000 114.1230380000,22.3557030000 114.1229590000,22.3557080000 114.1228420000,22.3557390000 114.1227580000,22.3557690000 114.1226240000,22.3559120000 114.1224630000,22.3560810000 114.1219990000,22.3565870000 114.1217840000,22.3568360000 114.1216790000,22.3569650000 114.1216230000,22.3570330000 114.1215490000,22.3571540000 114.1214480000,22.3572500000 114.1212350000,22.3574500000 114.1210950000,22.3575870000 114.1209920000,22.3577110000 114.1206480000,22.3580690000 114.1204730000,22.3582510000 114.1202560000,22.3585330000 114.1200110000,22.3588980000 114.1198730000,22.3591260000 114.1197330000,22.3594420000 114.1196190000,22.3596890000 114.1194690000,22.3600130000 114.1193730000,22.3602360000 114.1193540000,22.3602970000 114.1192990000,22.3604670000 114.1190500000,22.3610330000 114.1190130000,22.3611140000 114.1189860000,22.3611760000 114.1189100000,22.3613470000 114.1187930000,22.3615790000 114.1186510000,22.3618230000 114.1186140000,22.3618850000 114.1185070000,22.3620470000 114.1184340000,22.3621530000 114.1182820000,22.3623460000 114.1181860000,22.3624460000 114.1180100000,22.3626160000 114.1177110000,22.3629050000 114.1175090000,22.3630590000 114.1173550000,22.3631720000 114.1172940000,22.3632120000 114.1170470000,22.3633760000 114.1169480000,22.3634120000 114.1168480000,22.3634500000 114.1168170000,22.3634620000 114.1167800000,22.3634740000 114.1167270000,22.3634910000 114.1166740000,22.3635030000 114.1166180000,22.3635120000 114.1165550000,22.3635140000 114.1164840000,22.3635120000 114.1164410000,22.3635050000 114.1163980000,22.3634940000 114.1163500000,22.3634770000 114.1163060000,22.3634530000 114.1162690000,22.3634290000 114.1162410000,22.3634060000 114.1162150000,22.3633790000 114.1161930000,22.3633510000 114.1161690000,22.3633100000 114.1161520000,22.3632760000 114.1161420000,22.3632500000 114.1161320000,22.3632150000 114.1161280000,22.3631820000 114.1161270000,22.3631430000 114.1161290000,22.3631110000 114.1161340000,22.3630800000 114.1161440000,22.3630500000 114.1161570000,22.3630190000 114.1161730000,22.3629890000 114.1161950000,22.3629560000 114.1162170000,22.3629300000 114.1162490000,22.3628970000 114.1162910000,22.3628660000 114.1163020000,22.3628590000 114.1163310000,22.3628410000 114.1163810000,22.3628200000 114.1164330000,22.3628040000 114.1164890000,22.3627920000 114.1165450000,22.3627860000 114.1166080000,22.3627850000 114.1166690000,22.3627860000 114.1167340000,22.3627930000 114.1168070000,22.3628090000 114.1168780000,22.3628280000 114.1169720000,22.3628610000 114.1170180000,22.3628780000 114.1170530000,22.3628900000 114.1171340000,22.3629140000 114.1172960000,22.3629630000 114.1177270000,22.3631490000 114.1181620000,22.3633320000 114.1186110000,22.3634660000 114.1190390000,22.3635930000 114.1192620000,22.3636630000 114.1194240000,22.3637370000 114.1195400000,22.3637960000 114.1197070000,22.3638880000 114.1198020000,22.3639670000 114.1199480000,22.3641120000 114.1200860000,22.3642590000 114.1202170000,22.3644050000 114.1205230000,22.3647780000 114.1207630000,22.3651080000 114.1208650000,22.3652780000 114.1209700000,22.3654710000 114.1210400000,22.3656900000 114.1210880000,22.3658550000 114.1211580000,22.3661540000 114.1212420000,22.3665250000 114.1213040000,22.3667150000 114.1213990000,22.3669800000 114.1214840000,22.3671630000 114.1215620000,22.3673510000 114.1218300000,22.3677190000 114.1221570000,22.3682160000 114.1223720000,22.3685450000 114.1224520000,22.3686810000 114.1225580000,22.3688440000 114.1227870000,22.3691960000 114.1229100000,22.3693820000 114.1229550000,22.3695040000 114.1229940000,22.3695690000 114.1231030000,22.3697510000 114.1231800000,22.3698890000 114.1232150000,22.3699690000 114.1232700000,22.3701100000 114.1233080000,22.3702060000 114.1233600000,22.3704070000 114.1233940000,22.3706320000 114.1234000000,22.3708870000 114.1233990000,22.3709780000 114.1233670000,22.3713720000 114.1233590000,22.3714500000 114.1233490000,22.3715410000 114.1233310000,22.3717120000 114.1232890000,22.3720180000 114.1232590000,22.3721450000 114.1232020000,22.3723540000 114.1231600000,22.3724820000 114.1231170000,22.3726040000 114.1230570000,22.3727440000 114.1229890000,22.3728940000 114.1228890000,22.3730840000 114.1227880000,22.3732570000 114.1226810000,22.3734180000 114.1225340000,22.3736150000 114.1224040000,22.3737720000 114.1222300000,22.3739500000 114.1221070000,22.3740650000 114.1219270000,22.3742090000 114.1214770000,22.3745430000 114.1213330000,22.3746390000 114.1212340000,22.3746920000 114.1211170000,22.3747350000 114.1210040000,22.3747600000 114.1208720000,22.3747490000 114.1208020000,22.3747240000 114.1207230000,22.3747040000 114.1205880000,22.3746870000 114.1204570000,22.3746920000 114.1203680000,22.3747050000 114.1202810000,22.3747290000 114.1201990000,22.3747550000 114.1201370000,22.3747810000 114.1200610000,22.3748260000 114.1199910000,22.3748850000 114.1199360000,22.3749600000 114.1199000000,22.3750410000 114.1198830000,22.3751450000 114.1198840000,22.3752180000 114.1198890000,22.3752900000 114.1199020000,22.3753590000 114.1199170000,22.3754150000 114.1199490000,22.3754790000 114.1199940000,22.3755580000 114.1200430000,22.3756230000 114.1200940000,22.3756830000 114.1201480000,22.3757380000 114.1201890000,22.3757770000 114.1202380000,22.3758160000 114.1202910000,22.3758470000 114.1203490000,22.3758730000 114.1204230000,22.3758960000 114.1205010000,22.3759200000 114.1205760000,22.3759340000 114.1206780000,22.3759400000 114.1207740000,22.3759420000 114.1209680000,22.3759620000 114.1211970000,22.3759910000 114.1213460000,22.3760150000 114.1213910000,22.3760260000 114.1217500000,22.3761190000 114.1219680000,22.3761740000 114.1221960000,22.3762330000 114.1225080000,22.3763180000 114.1229680000,22.3764490000 114.1233100000,22.3765350000 114.1261570000,22.3776180000 114.1277070000,22.3782130000 114.1284580000,22.3785020000 114.1305460000,22.3792880000 114.1309460000,22.3794410000 114.1312460000,22.3795710000 114.1314030000,22.3796460000 114.1314890000,22.3796890000 114.1315680000,22.3797320000 114.1317470000,22.3798300000 114.1318450000,22.3798870000 114.1321130000,22.3800450000 114.1328990000,22.3805310000 114.1331640000,22.3807050000 114.1334570000,22.3808890000 114.1335660000,22.3809560000 114.1337440000,22.3810670000 114.1340270000,22.3812200000 114.1341810000,22.3812960000 114.1343670000,22.3813770000 114.1346580000,22.3814950000 114.1348360000,22.3815610000 114.1349920000,22.3815950000 114.1351410000,22.3816280000 114.1352360000,22.3816490000 114.1354170000,22.3816900000 114.1356530000,22.3817190000 114.1360270000,22.3817520000 114.1364060000,22.3817610000 114.1364920000,22.3817660000 114.1367620000,22.3817680000 114.1368180000,22.3817650000 114.1371150000,22.3817600000 114.1373310000,22.3817560000 114.1374660000,22.3817510000 114.1375150000,22.3817490000 114.1376310000,22.3817380000 114.1377390000,22.3817220000 114.1380020000,22.3816730000 114.1381550000,22.3816280000 114.1383610000,22.3815560000 114.1385410000,22.3814750000 114.1385690000,22.3814600000 114.1386050000,22.3814430000 114.1386450000,22.3814220000 114.1388270000,22.3813240000 114.1390060000,22.3811960000 114.1391470000,22.3810740000 114.1393030000,22.3808900000 114.1394340000,22.3807370000 114.1396370000,22.3805000000 114.1400060000,22.3801180000 114.1404220000,22.3797230000 114.1408050000,22.3794220000 114.1413630000,22.3789950000 114.1418500000,22.3786680000 114.1425300000,22.3782150000 114.1435000000,22.3776950000 114.1442690000,22.3773490000 114.1448100000,22.3771480000 114.1453750000,22.3769660000 114.1462140000,22.3767550000 114.1468630000,22.3766410000 114.1476120000,22.3765350000 114.1483130000,22.3764840000 114.1488280000,22.3764650000 114.1493070000,22.3764760000 114.1497940000,22.3765020000 114.1502430000,22.3765510000 114.1506900000,22.3766190000 114.1511730000,22.3767040000 114.1515960000,22.3767950000 114.1517970000,22.3768400000 114.1521780000,22.3769350000 114.1524250000,22.3770010000 114.1629240000,22.3800620000 114.1632440000,22.3801510000 114.1642000000,22.3803930000 114.1646610000,22.3804940000 114.1650150000,22.3805640000 114.1657480000,22.3806840000 114.1659170000,22.3807090000 114.1663390000,22.3807780000 114.1674320000,22.3810070000 114.1681910000,22.3811930000 114.1687460000,22.3813150000 114.1689800000,22.3813730000 114.1691720000,22.3814230000 114.1693480000,22.3814720000 114.1696830000,22.3815780000 114.1700380000,22.3817060000 114.1703150000,22.3818090000 114.1704500000,22.3818640000 114.1706750000,22.3819610000 114.1712180000,22.3822140000 114.1714020000,22.3822900000 114.1715290000,22.3823370000 114.1716800000,22.3823930000 114.1718590000,22.3824570000 114.1719590000,22.3824910000 114.1720720000,22.3825250000 114.1721550000,22.3825470000 114.1722420000,22.3825680000 114.1723280000,22.3825860000 114.1724080000,22.3826010000 114.1724800000,22.3826120000 114.1725420000,22.3826200000 114.1726490000,22.3826300000 114.1727480000,22.3826380000 114.1728340000,22.3826440000 114.1729350000,22.3826460000 114.1730220000,22.3826470000 114.1731230000,22.3826460000 114.1732190000,22.3826430000 114.1733220000,22.3826360000 114.1734540000,22.3826220000 114.1735700000,22.3826050000 114.1736950000,22.3825850000 114.1738010000,22.3825630000 114.1739190000,22.3825350000 114.1740290000,22.3825060000 114.1741220000,22.3824780000 114.1742880000,22.3824230000 114.1743710000,22.3823930000 114.1744460000,22.3823630000 114.1745980000,22.3822970000 114.1746840000,22.3822550000 114.1747580000,22.3822170000 114.1748510000,22.3821670000 114.1749290000,22.3821200000 114.1750130000,22.3820680000 114.1751460000,22.3819780000 114.1752420000,22.3819080000 114.1753700000,22.3818090000 114.1758400000,22.3814140000 114.1764280000,22.3808660000 114.1772570000,22.3802010000 114.1776400000,22.3799060000 114.1777010000,22.3798610000 114.1778670000,22.3797430000 114.1781540000,22.3795450000 114.1782340000,22.3794940000 114.1785350000,22.3793030000 114.1786250000,22.3792410000 114.1787130000,22.3791760000 114.1787800000,22.3791220000 114.1788440000,22.3790650000 114.1788970000,22.3790100000 114.1789530000,22.3789440000 114.1790120000,22.3788670000 114.1790560000,22.3787970000 114.1790980000,22.3787220000 114.1791360000,22.3786400000 114.1791640000,22.3785640000 114.1791860000,22.3784860000 114.1792010000,22.3784150000 114.1792100000,22.3783430000 114.1792150000,22.3782650000 114.1792140000,22.3781780000 114.1792060000,22.3780920000 114.1791900000,22.3780080000 114.1791720000,22.3779380000 114.1791490000,22.3778690000 114.1791190000,22.3777960000 114.1790800000,22.3777200000 114.1790360000,22.3776440000 114.1789810000,22.3775650000 114.1789320000,22.3775040000 114.1788780000,22.3774480000 114.1788040000,22.3773800000 114.1787330000,22.3773250000 114.1786590000,22.3772740000 114.1785920000,22.3772340000 114.1782760000,22.3770740000 114.1777460000,22.3768790000 114.1774480000,22.3767880000 114.1770390000,22.3765440000 114.1769570000,22.3764870000 114.1768870000,22.3764380000 114.1768530000,22.3764160000 114.1768230000,22.3763950000 114.1768040000,22.3763790000 114.1767630000,22.3763450000 114.1765050000,22.3761440000 114.1763170000,22.3759360000 114.1759790000,22.3755620000 114.1759070000,22.3755090000 114.1758640000,22.3754770000 114.1757510000,22.3754030000 114.1756620000,22.3755330000 114.1756070000,22.3756230000 114.1750860000,22.3764750000 114.1750100000,22.3766000000 114.1747820000,22.3766100000 114.1745040000,22.3766460000 114.1743400000,22.3767020000 114.1742260000,22.3767600000 114.1741320000,22.3768390000 114.1740570000,22.3769520000 114.1740140000,22.3770710000 114.1739820000,22.3772420000 114.1739730000,22.3772950000 114.1739680000,22.3773120000 114.1739650000,22.3773320000 114.1739640000,22.3773420000 114.1739440000,22.3774420000 114.1739440000,22.3774620000 114.1739430000,22.3774930000 114.1739520000,22.3775270000 114.1739580000,22.3775500000 114.1740330000,22.3775630000 114.1741960000,22.3776000000 114.1742300000,22.3776070000 114.1743070000,22.3776350000 114.1743430000,22.3776510000 114.1744330000,22.3776890000 114.1747730000,22.3771860000 114.1748770000,22.3770330000 114.1750320000,22.3767780000 114.1751430000,22.3765960000 114.1753890000,22.3762210000 114.1755260000,22.3760120000 114.1756950000,22.3757430000 114.1757740000,22.3756100000 114.1758640000,22.3754770000 114.1760640000,22.3751610000 114.1762990000,22.3746790000 114.1765350000,22.3743230000 114.1766370000,22.3742130000 114.1770060000,22.3737240000 114.1770480000,22.3736710000 114.1770640000,22.3736500000 114.1770810000,22.3736290000 114.1771060000,22.3735980000 114.1775460000,22.3730640000 114.1776280000,22.3729640000 114.1778680000,22.3726960000 114.1781960000,22.3722860000 114.1782560000,22.3722060000 114.1783290000,22.3720970000 114.1784050000,22.3719840000 114.1785070000,22.3718380000 114.1785650000,22.3717780000 114.1786080000,22.3717410000 114.1786420000,22.3717190000 114.1786790000,22.3717000000 114.1787180000,22.3716860000 114.1787640000,22.3716810000 114.1788080000,22.3716690000 114.1789330000,22.3716800000 114.1790290000,22.3716990000 114.1791220000,22.3717300000 114.1792100000,22.3717720000 114.1792910000,22.3718240000 114.1796900000,22.3720700000 114.1799280000,22.3722150000 114.1800030000,22.3722650000 114.1803550000,22.3724980000 114.1804570000,22.3725650000 114.1808040000,22.3727920000 114.1808750000,22.3728360000 114.1812970000,22.3731030000 114.1814240000,22.3731860000 114.1814860000,22.3732280000 114.1816020000,22.3733030000 114.1821250000,22.3736510000 114.1822240000,22.3737110000 114.1826550000,22.3739710000 114.1827990000,22.3740680000 114.1829780000,22.3741730000 114.1831690000,22.3742760000 114.1833780000,22.3743660000 114.1836150000,22.3744490000 114.1838140000,22.3745070000 114.1839310000,22.3745270000 114.1840760000,22.3745410000 114.1840910000,22.3745430000 114.1841100000,22.3745450000 114.1841860000,22.3745520000 114.1842250000,22.3745560000 114.1842590000,22.3745590000 114.1844900000,22.3745650000 114.1846310000,22.3745650000 114.1847750000,22.3745600000 114.1850630000,22.3745160000 114.1852430000,22.3744910000 114.1854050000,22.3744650000 114.1855390000,22.3744380000 114.1855300000,22.3742920000 114.1855270000,22.3741910000 114.1855140000,22.3738760000 114.1855160000,22.3736380000 114.1855530000,22.3733690000 114.1855700000,22.3732930000 114.1856220000,22.3731890000 114.1856840000,22.3730640000 114.1857720000,22.3729460000 114.1860270000,22.3726900000 114.1861450000,22.3725660000 114.1862600000,22.3724620000 114.1863290000,22.3723920000 114.1863660000,22.3723860000 114.1863980000,22.3723690000 114.1864210000,22.3723410000 114.1864320000,22.3723080000 114.1864280000,22.3722730000 114.1864070000,22.3722380000 114.1863730000,22.3722150000 114.1863310000,22.3722060000 114.1862890000,22.3722150000 114.1862880000,22.3721460000 114.1862530000,22.3720800000 114.1861910000,22.3720060000 114.1857680000,22.3717160000 114.1852210000,22.3713360000 114.1850150000,22.3711920000 114.1849320000,22.3710790000 114.1848740000,22.3709530000 114.1848570000,22.3708430000 114.1848560000,22.3707680000 114.1848750000,22.3706670000 114.1849850000,22.3703600000 114.1851610000,22.3699430000 114.1853290000,22.3699820000 114.1853950000,22.3700140000 114.1854510000,22.3700520000 114.1855710000,22.3702190000 114.1858680000,22.3706590000 114.1859160000,22.3707430000 114.1860710000,22.3709680000 114.1861080000,22.3710220000 114.1861670000,22.3710630000 114.1862300000,22.3710880000 114.1862810000,22.3711020000 114.1863310000,22.3711120000 114.1864490000,22.3711350000 114.1864980000,22.3711440000 114.1865440000,22.3711490000 114.1865940000,22.3711480000 114.1866540000,22.3711440000 114.1867830000,22.3711220000 114.1869100000,22.3710980000 114.1869760000,22.3710770000 114.1876200000,22.3708400000 114.1877350000,22.3707900000 114.1878240000,22.3707400000 114.1878790000,22.3707000000 114.1879340000,22.3706400000 114.1879780000,22.3705780000 114.1880000000,22.3705200000 114.1880090000,22.3704800000 114.1880120000,22.3704400000 114.1880080000,22.3703900000 114.1880000000,22.3703520000 114.1879820000,22.3703010000 114.1879670000,22.3702690000 114.1879260000,22.3702000000 114.1878900000,22.3701500000 114.1877350000,22.3699800000 114.1875710000,22.3698000000 114.1875360000,22.3697530000 114.1874900000,22.3696910000 114.1874200000,22.3695800000 114.1873790000,22.3695050000 114.1872850000,22.3693300000 114.1871390000,22.3690600000 114.1869870000,22.3687800000 114.1868780000,22.3686300000 114.1868380000,22.3685950000 114.1867920000,22.3685600000 114.1867230000,22.3685270000 114.1866490000,22.3685070000 114.1865800000,22.3684980000 114.1865110000,22.3684940000 114.1864390000,22.3684990000 114.1863660000,22.3685140000 114.1858080000,22.3687600000 114.1856820000,22.3688190000 114.1855690000,22.3689040000 114.1854980000,22.3689980000 114.1853990000,22.3693170000 114.1851610000,22.3699430000 114.1849850000,22.3703600000 114.1848750000,22.3706670000 114.1848560000,22.3707680000 114.1848570000,22.3708430000 114.1848740000,22.3709530000 114.1849320000,22.3710790000 114.1850150000,22.3711920000 114.1852210000,22.3713360000 114.1857680000,22.3717160000 114.1861910000,22.3720060000 114.1862530000,22.3720800000 114.1862880000,22.3721460000 114.1862890000,22.3722150000 114.1862510000,22.3722450000 114.1862320000,22.3722870000 114.1862380000,22.3723330000 114.1861720000,22.3724210000 114.1860740000,22.3725120000 114.1859620000,22.3726440000 114.1857330000,22.3728770000 114.1856720000,22.3729500000 114.1856090000,22.3730320000 114.1855380000,22.3731480000 114.1854860000,22.3732330000 114.1854260000,22.3733700000 114.1853740000,22.3736690000 114.1853690000,22.3738750000 114.1853880000,22.3741100000 114.1853970000,22.3742050000 114.1853950000,22.3743340000 114.1854050000,22.3744650000 114.1855390000,22.3744380000 114.1856920000,22.3744180000 114.1857830000,22.3744130000 114.1858660000,22.3744080000 114.1860910000,22.3744030000 114.1861970000,22.3744100000 114.1863290000,22.3744180000 114.1864330000,22.3744240000 114.1864590000,22.3744250000 114.1864740000,22.3744270000 114.1865720000,22.3744370000 114.1866150000,22.3744420000 114.1866690000,22.3744470000 114.1867840000,22.3744710000 114.1868530000,22.3744860000 114.1869140000,22.3744990000 114.1870510000,22.3745410000 114.1871030000,22.3745570000 114.1873080000,22.3746360000 114.1876580000,22.3748320000 114.1879170000,22.3749810000 114.1880440000,22.3750540000 114.1882050000,22.3751350000 114.1883730000,22.3752360000 114.1886860000,22.3754260000 114.1888650000,22.3755430000 114.1889430000,22.3755940000 114.1890670000,22.3756750000 114.1890940000,22.3756950000 114.1891340000,22.3757250000 114.1892950000,22.3758450000 114.1893560000,22.3758910000 114.1893740000,22.3759140000 114.1895670000,22.3760920000 114.1895900000,22.3761110000 114.1896490000,22.3761660000 114.1896730000,22.3761880000 114.1897190000,22.3762320000 114.1898100000,22.3761460000 114.1898810000,22.3760880000 114.1899420000,22.3760350000 114.1903050000,22.3757180000 114.1904500000,22.3755940000 114.1906480000,22.3754370000 114.1907570000,22.3753610000 114.1910070000,22.3752980000 114.1911120000,22.3752840000 114.1912040000,22.3752840000 114.1913050000,22.3753000000 114.1914210000,22.3753320000 114.1918550000,22.3755030000 114.1923730000,22.3757210000 114.1925470000,22.3758000000 114.1926940000,22.3758600000 114.1929900000,22.3759980000 114.1932650000,22.3761560000 114.1934790000,22.3762880000 114.1937870000,22.3765150000 114.1938210000,22.3765400000 114.1939250000,22.3766170000 114.1939910000,22.3765510000 114.1940320000,22.3765080000 114.1941540000,22.3763620000 114.1941750000,22.3763430000 114.1941980000,22.3763280000 114.1942200000,22.3763190000 114.1942480000,22.3763150000 114.1942750000,22.3763140000 114.1943020000,22.3763180000 114.1943260000,22.3763270000 114.1943510000,22.3763410000 114.1945490000,22.3764850000 114.1946090000,22.3765280000 114.1949570000,22.3767800000 114.1954980000,22.3771720000 114.1957270000,22.3773380000 114.1959440000,22.3774960000 114.1960420000,22.3775670000 114.1961030000,22.3774360000 114.1961260000,22.3773590000 114.1961450000,22.3772700000 114.1961590000,22.3771550000 114.1961710000,22.3769080000 114.1961980000,22.3763560000 114.1962270000,22.3757690000 114.1962210000,22.3756470000 114.1962090000,22.3755670000 114.1961920000,22.3755070000 114.1961720000,22.3754520000 114.1960090000,22.3751830000 114.1959000000,22.3750370000 114.1958160000,22.3748650000 114.1957880000,22.3747310000 114.1957770000,22.3746820000 114.1957470000,22.3739970000 114.1957240000,22.3738240000 114.1956680000,22.3736620000 114.1956270000,22.3735050000 114.1955960000,22.3733580000 114.1955810000,22.3732110000 114.1955950000,22.3728710000 114.1956370000,22.3727160000 114.1956690000,22.3726470000 114.1957310000,22.3725860000 114.1958310000,22.3725160000 114.1958620000,22.3725060000 114.1959880000,22.3724680000 114.1961580000,22.3724440000 114.1962820000,22.3724490000 114.1964180000,22.3724940000 114.1965550000,22.3725710000 114.1966840000,22.3727060000 114.1968500000,22.3730710000 114.1969070000,22.3731470000 114.1969630000,22.3732230000 114.1971100000,22.3733350000 114.1971720000,22.3733680000 114.1972830000,22.3734270000 114.1975020000,22.3735010000 114.1977050000,22.3735060000 114.1979520000,22.3734800000 114.1981190000,22.3734270000 114.1982220000,22.3733900000 114.1983170000,22.3733340000 114.1984180000,22.3732700000 114.1985070000,22.3731880000 114.1985460000,22.3731360000 114.1985660000,22.3731040000 114.1985820000,22.3730770000 114.1986100000,22.3730150000 114.1986300000,22.3729500000 114.1986420000,22.3728840000 114.1986420000,22.3726820000 114.1986410000,22.3725200000 114.1986370000,22.3723490000 114.1986210000,22.3719890000 114.1986120000,22.3717700000 114.1985870000,22.3713560000 114.1985750000,22.3712480000 114.1985650000,22.3711470000 114.1985510000,22.3710770000 114.1985170000,22.3709960000 114.1984960000,22.3709440000 114.1984550000,22.3708760000 114.1983990000,22.3708110000 114.1983300000,22.3707560000 114.1982410000,22.3707140000 114.1981100000,22.3706700000 114.1977960000,22.3705440000 114.1977620000,22.3704960000 114.1977350000,22.3704280000 114.1977180000,22.3703570000 114.1977120000,22.3702850000 114.1977170000,22.3702130000 114.1977330000,22.3701420000 114.1977960000,22.3699200000 114.1978220000,22.3698260000 114.1978010000,22.3697730000 114.1979560000,22.3693530000 114.1979960000,22.3693350000 114.1980050000,22.3693080000 114.1980200000,22.3692630000 114.1980120000,22.3692320000 114.1980660000,22.3690890000 114.1980880000,22.3690250000 114.1983880000,22.3681990000 114.1984210000,22.3682110000 114.1984310000,22.3682140000 114.1984480000,22.3682210000 114.1984600000,22.3682310000 114.1984700000,22.3682450000 114.1984760000,22.3682600000 114.1984780000,22.3682750000 114.1984760000,22.3682910000 114.1984000000,22.3690500000 114.1987490000,22.3692240000 114.1987490000,22.3692240000 114.1985600000,22.3695490000 114.1983570000,22.3694480000 114.1984000000,22.3690500000 114.1984760000,22.3682910000 114.1984780000,22.3682750000 114.1984760000,22.3682600000 114.1984700000,22.3682450000 114.1984600000,22.3682310000 114.1984480000,22.3682210000 114.1984310000,22.3682140000 114.1984210000,22.3682110000 114.1983880000,22.3681990000 114.1980880000,22.3690250000 114.1980660000,22.3690890000 114.1980120000,22.3692320000 114.1979770000,22.3692540000 114.1979630000,22.3692880000 114.1979500000,22.3693210000 114.1979560000,22.3693530000 114.1978010000,22.3697730000 114.1977670000,22.3698060000 114.1977250000,22.3698970000 114.1976730000,22.3700110000 114.1976020000,22.3702750000 114.1975330000,22.3705350000 114.1975160000,22.3705910000 114.1975250000,22.3706500000 114.1975590000,22.3707000000 114.1976130000,22.3707310000 114.1976760000,22.3707390000 114.1977370000,22.3707220000 114.1977840000,22.3706820000 114.1981100000,22.3706700000 114.1982410000,22.3707140000 114.1983300000,22.3707560000 114.1983990000,22.3708110000 114.1984550000,22.3708760000 114.1984960000,22.3709440000 114.1985170000,22.3709960000 114.1985510000,22.3710770000 114.1985650000,22.3711470000 114.1985750000,22.3712480000 114.1985870000,22.3713560000 114.1986120000,22.3717700000 114.1986210000,22.3719890000 114.1986370000,22.3723490000 114.1986410000,22.3725200000 114.1986420000,22.3726820000 114.1986420000,22.3728840000 114.1986300000,22.3729500000 114.1986100000,22.3730150000 114.1985820000,22.3730770000 114.1985660000,22.3731040000 114.1985460000,22.3731360000 114.1985070000,22.3731880000 114.1984180000,22.3732700000 114.1983170000,22.3733340000 114.1982220000,22.3733900000 114.1981190000,22.3734270000 114.1979520000,22.3734800000 114.1977050000,22.3735060000 114.1975020000,22.3735010000 114.1972830000,22.3734270000 114.1971720000,22.3733680000 114.1971100000,22.3733350000 114.1969630000,22.3732230000 114.1969070000,22.3731470000 114.1968500000,22.3730710000 114.1966840000,22.3727060000 114.1965550000,22.3725710000 114.1964180000,22.3724940000 114.1962820000,22.3724490000 114.1961580000,22.3724440000 114.1959880000,22.3724680000 114.1958620000,22.3725060000 114.1958310000,22.3725160000 114.1957310000,22.3725860000 114.1956690000,22.3726470000 114.1956370000,22.3727160000 114.1955950000,22.3728710000 114.1955810000,22.3732110000 114.1955960000,22.3733580000 114.1956270000,22.3735050000 114.1956680000,22.3736620000 114.1957240000,22.3738240000 114.1957470000,22.3739970000 114.1957770000,22.3746820000 114.1957880000,22.3747310000 114.1958160000,22.3748650000 114.1959000000,22.3750370000 114.1960090000,22.3751830000 114.1961720000,22.3754520000 114.1961920000,22.3755070000 114.1962090000,22.3755670000 114.1962210000,22.3756470000 114.1962270000,22.3757690000 114.1961980000,22.3763560000 114.1961710000,22.3769080000 114.1961590000,22.3771550000 114.1961450000,22.3772700000 114.1961260000,22.3773590000 114.1961030000,22.3774360000 114.1960420000,22.3775670000 114.1958880000,22.3777810000 114.1958670000,22.3778080000 114.1958140000,22.3778770000 114.1956570000,22.3777650000 114.1950810000,22.3773440000 114.1950270000,22.3773050000 114.1949170000,22.3772250000 114.1947970000,22.3771370000 114.1946650000,22.3770420000 114.1940860000,22.3766230000 114.1940560000,22.3766010000 114.1939910000,22.3765510000 114.1938820000,22.3764710000 114.1935460000,22.3762330000 114.1933090000,22.3760900000 114.1930250000,22.3759290000 114.1927290000,22.3757980000 114.1925830000,22.3757380000 114.1924040000,22.3756610000 114.1921210000,22.3755480000 114.1920840000,22.3755330000 114.1920410000,22.3755150000 114.1919880000,22.3754930000 114.1919080000,22.3754590000 114.1914500000,22.3752690000 114.1912960000,22.3752180000 114.1911720000,22.3751980000 114.1910560000,22.3752080000 114.1908490000,22.3752480000 114.1906820000,22.3753100000 114.1905880000,22.3753780000 114.1903970000,22.3755240000 114.1901990000,22.3756890000 114.1901280000,22.3757510000 114.1900160000,22.3758470000 114.1898490000,22.3759920000 114.1898140000,22.3760220000 114.1897430000,22.3760840000 114.1896890000,22.3760320000 114.1896620000,22.3760050000 114.1896100000,22.3759560000 114.1894470000,22.3758030000 114.1893600000,22.3757210000 114.1892810000,22.3756630000 114.1891390000,22.3755610000 114.1890160000,22.3754820000 114.1889360000,22.3754300000 114.1887910000,22.3753390000 114.1884610000,22.3751330000 114.1883160000,22.3750420000 114.1882310000,22.3749860000 114.1881500000,22.3749370000 114.1880030000,22.3748480000 114.1876160000,22.3746160000 114.1873680000,22.3745210000 114.1872870000,22.3744890000 114.1871520000,22.3744370000 114.1870900000,22.3744140000 114.1870290000,22.3743950000 114.1869530000,22.3743710000 114.1869320000,22.3743650000 114.1868870000,22.3743510000 114.1868130000,22.3743370000 114.1868020000,22.3743350000 114.1866860000,22.3743120000 114.1864960000,22.3742750000 114.1863610000,22.3742630000 114.1861860000,22.3742600000 114.1861090000,22.3742630000 114.1858790000,22.3742720000 114.1857650000,22.3742770000 114.1857280000,22.3742780000 114.1856610000,22.3742830000 114.1855300000,22.3742920000 114.1855270000,22.3741910000 114.1855140000,22.3738760000 114.1855160000,22.3736380000 114.1855530000,22.3733690000 114.1855700000,22.3732930000 114.1856220000,22.3731890000 114.1856840000,22.3730640000 114.1857720000,22.3729460000 114.1860270000,22.3726900000 114.1861450000,22.3725660000 114.1862600000,22.3724620000 114.1863290000,22.3723920000 114.1863660000,22.3723860000 114.1863980000,22.3723690000 114.1864210000,22.3723410000 114.1864320000,22.3723080000 114.1864280000,22.3722730000 114.1864070000,22.3722380000 114.1863730000,22.3722150000 114.1863310000,22.3722060000 114.1862890000,22.3722150000 114.1862880000,22.3721460000 114.1862530000,22.3720800000 114.1861910000,22.3720060000 114.1857680000,22.3717160000 114.1852210000,22.3713360000 114.1850150000,22.3711920000 114.1849320000,22.3710790000 114.1848740000,22.3709530000 114.1848570000,22.3708430000 114.1848560000,22.3707680000 114.1848750000,22.3706670000 114.1849850000,22.3703600000 114.1851610000,22.3699430000 114.1853290000,22.3699820000 114.1853950000,22.3700140000 114.1854510000,22.3700520000 114.1855710000,22.3702190000 114.1858680000,22.3706590000 114.1859160000,22.3707430000 114.1860640000,22.3709580000 114.1861080000,22.3710220000 114.1861670000,22.3710630000 114.1862300000,22.3710880000 114.1862810000,22.3711020000 114.1863310000,22.3711120000 114.1864490000,22.3711350000 114.1864980000,22.3711440000 114.1865440000,22.3711490000 114.1865940000,22.3711480000 114.1866540000,22.3711440000 114.1867830000,22.3711220000 114.1869100000,22.3710980000 114.1869760000,22.3710770000 114.1876200000,22.3708400000 114.1877350000,22.3707900000 114.1878240000,22.3707400000 114.1878790000,22.3707000000 114.1879340000,22.3706400000 114.1879780000,22.3705780000 114.1880000000,22.3705200000 114.1880090000,22.3704800000 114.1880120000,22.3704400000 114.1880080000,22.3703900000 114.1880000000,22.3703520000 114.1879820000,22.3703010000 114.1879670000,22.3702690000 114.1879260000,22.3702000000 114.1878900000,22.3701500000 114.1877350000,22.3699800000 114.1875710000,22.3698000000 114.1875360000,22.3697530000 114.1874900000,22.3696910000 114.1874200000,22.3695800000 114.1873790000,22.3695050000 114.1872850000,22.3693300000 114.1871390000,22.3690600000 114.1869870000,22.3687800000 114.1868780000,22.3686300000 114.1868380000,22.3685950000 114.1867920000,22.3685600000 114.1867230000,22.3685270000 114.1866490000,22.3685070000 114.1865800000,22.3684980000 114.1865110000,22.3684940000 114.1864390000,22.3684990000 114.1863660000,22.3685140000 114.1858080000,22.3687600000 114.1856820000,22.3688190000 114.1855690000,22.3689040000 114.1854980000,22.3689980000 114.1853990000,22.3693170000 114.1851610000,22.3699430000 114.1849850000,22.3703600000 114.1848750000,22.3706670000 114.1848560000,22.3707680000 114.1848570000,22.3708430000 114.1848740000,22.3709530000 114.1849320000,22.3710790000 114.1850150000,22.3711920000 114.1852210000,22.3713360000 114.1857680000,22.3717160000 114.1861910000,22.3720060000 114.1862530000,22.3720800000 114.1862880000,22.3721460000 114.1862890000,22.3722150000 114.1862510000,22.3722450000 114.1862320000,22.3722870000 114.1862380000,22.3723330000 114.1861720000,22.3724210000 114.1860740000,22.3725120000 114.1859620000,22.3726440000 114.1857330000,22.3728770000 114.1856720000,22.3729500000 114.1856090000,22.3730320000 114.1855380000,22.3731480000 114.1854860000,22.3732330000 114.1854260000,22.3733700000 114.1853740000,22.3736690000 114.1853690000,22.3738750000 114.1853880000,22.3741100000 114.1853970000,22.3742050000 114.1853950000,22.3743340000 114.1850500000,22.3743970000 114.1847560000,22.3744390000 114.1845390000,22.3744410000 114.1843840000,22.3744360000 114.1843350000,22.3744340000 114.1841870000,22.3744240000 114.1841700000,22.3744230000 114.1841600000,22.3744220000 114.1840860000,22.3744110000 114.1840350000,22.3744030000 114.1839820000,22.3743960000 114.1836340000,22.3743130000 114.1833570000,22.3742090000 114.1832390000,22.3741650000 114.1830580000,22.3740710000 114.1828810000,22.3739680000 114.1827320000,22.3738760000 114.1825650000,22.3737700000 114.1821350000,22.3735130000 114.1818970000,22.3733620000 114.1816740000,22.3731900000 114.1815660000,22.3731190000 114.1815010000,22.3730780000 114.1814440000,22.3730370000 114.1813780000,22.3729930000 114.1805400000,22.3724630000 114.1799590000,22.3720790000 114.1793620000,22.3717200000 114.1792810000,22.3716660000 114.1792040000,22.3716070000 114.1791310000,22.3715440000 114.1790640000,22.3714760000 114.1789970000,22.3714040000 114.1789910000,22.3713620000 114.1789790000,22.3713210000 114.1789590000,22.3712830000 114.1789340000,22.3712480000 114.1789030000,22.3712170000 114.1788660000,22.3711910000 114.1788260000,22.3711700000 114.1787830000,22.3711560000 114.1787380000,22.3711480000 114.1786930000,22.3711460000 114.1786470000,22.3711520000 114.1786030000,22.3711630000 114.1785620000,22.3711810000 114.1785240000,22.3712050000 114.1784900000,22.3712340000 114.1784620000,22.3712670000 114.1784400000,22.3713040000 114.1784240000,22.3713440000 114.1784160000,22.3713860000 114.1784140000,22.3714280000 114.1784190000,22.3714700000 114.1784320000,22.3715110000 114.1784350000,22.3715670000 114.1784310000,22.3716230000 114.1784200000,22.3716780000 114.1784040000,22.3717320000 114.1783850000,22.3717760000 114.1783630000,22.3718170000 114.1783030000,22.3719000000 114.1780820000,22.3722060000 114.1777550000,22.3726140000 114.1776370000,22.3727630000 114.1775350000,22.3728970000 114.1772200000,22.3732550000 114.1772040000,22.3732740000 114.1771280000,22.3733610000 114.1771190000,22.3733710000 114.1770940000,22.3733990000 114.1769780000,22.3735310000 114.1768410000,22.3737260000 114.1767200000,22.3738850000 114.1766140000,22.3740150000 114.1765450000,22.3741040000 114.1763360000,22.3744240000 114.1760740000,22.3748630000 114.1760200000,22.3749530000 114.1757510000,22.3754030000 114.1756620000,22.3755330000 114.1756070000,22.3756230000 114.1750860000,22.3764750000 114.1750100000,22.3766000000 114.1747820000,22.3766100000 114.1745040000,22.3766460000 114.1743400000,22.3767020000 114.1742260000,22.3767600000 114.1741320000,22.3768390000 114.1740570000,22.3769520000 114.1740140000,22.3770710000 114.1739820000,22.3772420000 114.1739730000,22.3772950000 114.1739680000,22.3773120000 114.1739650000,22.3773320000 114.1739640000,22.3773420000 114.1739440000,22.3774420000 114.1739440000,22.3774660000 114.1739430000,22.3774930000 114.1739520000,22.3775270000 114.1739580000,22.3775500000 114.1740330000,22.3775630000 114.1741960000,22.3776000000 114.1742300000,22.3776070000 114.1743070000,22.3776350000 114.1743430000,22.3776510000 114.1744330000,22.3776890000 114.1747730000,22.3771860000 114.1748770000,22.3770330000 114.1750320000,22.3767780000 114.1751430000,22.3765960000 114.1753890000,22.3762210000 114.1755260000,22.3760120000 114.1756630000,22.3759500000 114.1757100000,22.3759360000 114.1757490000,22.3759290000 114.1758030000,22.3759260000 114.1758530000,22.3759290000 114.1759080000,22.3759400000 114.1759660000,22.3759640000 114.1760220000,22.3759930000 114.1760810000,22.3760350000 114.1762520000,22.3762160000 114.1764080000,22.3763780000 114.1765460000,22.3765140000 114.1766030000,22.3765610000 114.1766800000,22.3766180000 114.1767650000,22.3766740000 114.1768700000,22.3767370000 114.1771050000,22.3769110000 114.1772190000,22.3769880000 114.1775300000,22.3771900000 114.1776410000,22.3772470000 114.1777500000,22.3772880000 114.1782660000,22.3774340000 114.1783540000,22.3774620000 114.1784340000,22.3774920000 114.1785010000,22.3775210000 114.1785690000,22.3775600000 114.1786370000,22.3776070000 114.1786940000,22.3776580000 114.1787450000,22.3777150000 114.1787830000,22.3777710000 114.1788150000,22.3778340000 114.1788360000,22.3778860000 114.1788520000,22.3779440000 114.1788600000,22.3779960000 114.1788650000,22.3780470000 114.1788650000,22.3781060000 114.1788590000,22.3781600000 114.1788480000,22.3782130000 114.1788310000,22.3782710000 114.1788100000,22.3783240000 114.1787820000,22.3783830000 114.1787480000,22.3784370000 114.1786930000,22.3785120000 114.1786330000,22.3785880000 114.1782500000,22.3790280000 114.1774640000,22.3797510000 114.1763630000,22.3807830000 114.1757910000,22.3812990000 114.1756250000,22.3814500000 114.1753740000,22.3816650000 114.1751620000,22.3818230000 114.1749150000,22.3819920000 114.1747780000,22.3820750000 114.1746780000,22.3821320000 114.1745390000,22.3821980000 114.1743910000,22.3822650000 114.1743110000,22.3822960000 114.1742270000,22.3823270000 114.1740660000,22.3823790000 114.1738960000,22.3824290000 114.1737330000,22.3824670000 114.1736520000,22.3824830000 114.1735650000,22.3824990000 114.1734780000,22.3825100000 114.1733900000,22.3825200000 114.1733010000,22.3825290000 114.1732130000,22.3825340000 114.1731160000,22.3825370000 114.1730480000,22.3825370000 114.1729850000,22.3825360000 114.1729120000,22.3825330000 114.1727920000,22.3825270000 114.1727020000,22.3825220000 114.1726190000,22.3825150000 114.1724940000,22.3825020000 114.1724480000,22.3824960000 114.1723700000,22.3824810000 114.1722660000,22.3824580000 114.1721960000,22.3824400000 114.1721140000,22.3824180000 114.1719890000,22.3823810000 114.1717190000,22.3822870000 114.1714520000,22.3821870000 114.1712730000,22.3821160000 114.1707570000,22.3818900000 114.1705110000,22.3817850000 114.1703500000,22.3817190000 114.1700950000,22.3816190000 114.1698960000,22.3815520000 114.1697040000,22.3814870000 114.1692640000,22.3813510000 114.1688010000,22.3812260000 114.1682450000,22.3810940000 114.1673670000,22.3808810000 114.1670930000,22.3808140000 114.1668980000,22.3807690000 114.1664100000,22.3806480000 114.1658240000,22.3805000000 114.1655780000,22.3804410000 114.1528120000,22.3767450000 114.1519950000,22.3765190000 114.1516810000,22.3764450000 114.1513770000,22.3763770000 114.1508370000,22.3762750000 114.1505650000,22.3762290000 114.1502020000,22.3761820000 114.1498220000,22.3761500000 114.1493080000,22.3761220000 114.1488720000,22.3761120000 114.1484760000,22.3761160000 114.1481380000,22.3761290000 114.1475700000,22.3761770000 114.1471530000,22.3762270000 114.1468030000,22.3762780000 114.1461640000,22.3763990000 114.1456600000,22.3765160000 114.1451010000,22.3766690000 114.1442630000,22.3769490000 114.1438230000,22.3771230000 114.1434940000,22.3772720000 114.1430130000,22.3775090000 114.1427010000,22.3776780000 114.1423410000,22.3778910000 114.1417510000,22.3782860000 114.1414270000,22.3785320000 114.1410300000,22.3788660000 114.1405850000,22.3792910000 114.1403220000,22.3795610000 114.1402590000,22.3796220000 114.1401300000,22.3797470000 114.1397160000,22.3801600000 114.1394990000,22.3803770000 114.1392720000,22.3806030000 114.1390980000,22.3807770000 114.1390030000,22.3808600000 114.1388490000,22.3809930000 114.1386750000,22.3811090000 114.1386210000,22.3811450000 114.1385020000,22.3812100000 114.1384700000,22.3812300000 114.1384310000,22.3812520000 114.1384010000,22.3812680000 114.1382090000,22.3813640000 114.1380640000,22.3814230000 114.1379350000,22.3814750000 114.1377070000,22.3815260000 114.1375970000,22.3815410000 114.1374650000,22.3815590000 114.1373330000,22.3815710000 114.1369550000,22.3815930000 114.1368050000,22.3815980000 114.1365960000,22.3815990000 114.1364950000,22.3816030000 114.1363970000,22.3816010000 114.1360420000,22.3815960000 114.1356750000,22.3815700000 114.1352580000,22.3815160000 114.1351870000,22.3815040000 114.1350330000,22.3814770000 114.1348580000,22.3814340000 114.1346900000,22.3813770000 114.1344550000,22.3812860000 114.1342470000,22.3811910000 114.1340470000,22.3810920000 114.1338820000,22.3810140000 114.1337880000,22.3809700000 114.1336180000,22.3808720000 114.1335160000,22.3808090000 114.1332320000,22.3806300000 114.1329550000,22.3804510000 114.1321840000,22.3799570000 114.1319290000,22.3798090000 114.1318050000,22.3797420000 114.1316880000,22.3796730000 114.1316240000,22.3796370000 114.1314740000,22.3795600000 114.1312640000,22.3794630000 114.1310430000,22.3793710000 114.1286040000,22.3784350000 114.1284830000,22.3783890000 114.1261090000,22.3774890000 114.1233860000,22.3764580000 114.1230100000,22.3762610000 114.1226510000,22.3760940000 114.1222040000,22.3758830000 114.1218780000,22.3757310000 114.1218380000,22.3757130000 114.1217350000,22.3756680000 114.1216410000,22.3756230000 114.1215160000,22.3755540000 114.1214700000,22.3755230000 114.1214260000,22.3754900000 114.1213820000,22.3754500000 114.1213620000,22.3754250000 114.1212970000,22.3753220000 114.1212810000,22.3752540000 114.1212590000,22.3751900000 114.1212360000,22.3751040000 114.1212220000,22.3750250000 114.1212270000,22.3749520000 114.1212490000,22.3748810000 114.1212950000,22.3748120000 114.1213630000,22.3747490000 114.1219850000,22.3742630000 114.1221550000,22.3741230000 114.1223020000,22.3739950000 114.1224680000,22.3738190000 114.1225860000,22.3736770000 114.1226950000,22.3735310000 114.1228210000,22.3733500000 114.1229140000,22.3732040000 114.1230150000,22.3730150000 114.1231160000,22.3728120000 114.1232170000,22.3725680000 114.1232970000,22.3723230000 114.1233800000,22.3719610000 114.1234420000,22.3715980000 114.1234890000,22.3710820000 114.1234840000,22.3708900000 114.1234780000,22.3706360000 114.1234290000,22.3703850000 114.1233820000,22.3701890000 114.1233460000,22.3700960000 114.1232880000,22.3699450000 114.1232590000,22.3698660000 114.1231550000,22.3697120000 114.1230600000,22.3695370000 114.1230250000,22.3694720000 114.1229470000,22.3693440000 114.1228370000,22.3691710000 114.1225970000,22.3688230000 114.1224900000,22.3686600000 114.1224040000,22.3685290000 114.1221960000,22.3681960000 114.1218740000,22.3677070000 114.1216010000,22.3673340000 114.1215150000,22.3671460000 114.1214320000,22.3669660000 114.1213360000,22.3666970000 114.1212850000,22.3665180000 114.1212040000,22.3661380000 114.1211350000,22.3658410000 114.1210830000,22.3656710000 114.1210070000,22.3654600000 114.1209050000,22.3652600000 114.1208020000,22.3650900000 114.1205500000,22.3647540000 114.1202350000,22.3643820000 114.1201080000,22.3642430000 114.1199640000,22.3640860000 114.1198290000,22.3639440000 114.1197480000,22.3638620000 114.1193230000,22.3635430000 114.1188330000,22.3633840000 114.1184310000,22.3631530000 114.1183450000,22.3630740000 114.1183150000,22.3629860000 114.1183070000,22.3629050000 114.1183090000,22.3628840000 114.1183130000,22.3628460000 114.1183200000,22.3627700000 114.1183270000,22.3627300000 114.1184630000,22.3625570000 114.1185770000,22.3624130000 114.1186780000,22.3622840000 114.1188100000,22.3620660000 114.1189380000,22.3618260000 114.1190810000,22.3614660000 114.1192360000,22.3610650000 114.1193680000,22.3605820000 114.1197400000,22.3597190000 114.1198440000,22.3594780000 114.1199770000,22.3591760000 114.1201150000,22.3589430000 114.1203350000,22.3585790000 114.1205480000,22.3582950000 114.1207090000,22.3581150000 114.1210420000,22.3577670000 114.1211610000,22.3576590000 114.1212970000,22.3575350000 114.1215410000,22.3573400000 114.1217110000,22.3571910000 114.1218110000,22.3571330000 114.1219630000,22.3570370000 114.1219910000,22.3570160000 114.1223180000,22.3567810000 114.1224510000,22.3566860000 114.1225960000,22.3565870000 114.1227260000,22.3564870000 114.1227790000,22.3564390000 114.1228120000,22.3564090000 114.1228380000,22.3563860000 114.1229700000,22.3562840000 114.1230680000,22.3562170000 114.1232510000,22.3561000000 114.1233070000,22.3560720000 114.1233790000,22.3560520000 114.1234330000,22.3560390000 114.1234810000,22.3560320000 114.1235310000,22.3560250000 114.1235830000,22.3560220000 114.1236850000,22.3561180000 114.1238800000,22.3563020000 114.1241140000,22.3564810000 114.1243620000,22.3566710000 114.1245550000,22.3568260000 114.1246790000,22.3569290000 114.1247350000,22.3569680000 114.1248210000,22.3570210000 114.1249110000,22.3570860000 114.1250200000,22.3571670000 114.1252440000,22.3573310000 114.1258590000,22.3577530000 114.1269090000,22.3585210000 114.1271480000,22.3586920000 114.1273030000,22.3588250000 114.1273350000,22.3588520000 114.1273950000,22.3589030000 114.1274810000,22.3589810000 114.1275250000,22.3590230000 114.1275510000,22.3590490000 114.1277090000,22.3592000000 114.1278080000,22.3592420000 114.1278530000,22.3592910000 114.1279300000,22.3593660000 114.1280930000,22.3595210000 114.1281400000,22.3595630000 114.1283660000,22.3597780000 114.1284250000,22.3598430000 114.1284870000,22.3599610000 114.1285340000,22.3600070000 114.1286460000,22.3601160000 114.1285600000,22.3601920000 114.1285300000,22.3602200000 114.1283260000,22.3604070000 114.1279100000,22.3600230000 114.1275070000,22.3596180000 114.1272090000,22.3593420000 114.1271070000,22.3592350000 114.1270300000,22.3591760000 114.1269320000,22.3591520000 114.1268540000,22.3591500000 114.1267800000,22.3591710000 114.1267050000,22.3592180000 114.1264770000,22.3594450000 114.1264050000,22.3595160000 114.1261130000,22.3597910000 114.1260740000,22.3598270000 114.1256910000,22.3601640000 114.1256070000,22.3602380000 114.1248580000,22.3595600000 114.1246550000,22.3593600000 114.1243270000,22.3590370000 114.1242330000,22.3589450000 114.1241510000,22.3588640000 114.1240660000,22.3587800000 114.1238030000,22.3584880000 114.1237050000,22.3583630000 114.1236400000,22.3582580000 114.1235900000,22.3581380000 114.1219940000,22.3587330000 114.1216470000,22.3588690000 114.1215740000,22.3588970000 114.1214930000,22.3589280000 114.1215660000,22.3590970000 114.1217520000,22.3595230000 114.1217640000,22.3595530000 114.1217990000,22.3596320000 114.1216130000,22.3596950000 114.1214720000,22.3597720000 114.1210710000,22.3599060000 114.1210060000,22.3599390000 114.1208950000,22.3600150000 114.1208150000,22.3600950000 114.1207760000,22.3601500000 114.1207490000,22.3601870000 114.1207040000,22.3602860000 114.1206740000,22.3603970000 114.1206770000,22.3613410000 114.1206880000,22.3614050000 114.1207080000,22.3614770000 114.1207430000,22.3615560000 114.1207840000,22.3616280000 114.1208450000,22.3617110000 114.1209120000,22.3617740000 114.1209960000,22.3618280000 114.1212380000,22.3619270000 114.1217300000,22.3621290000 114.1218620000,22.3621840000 114.1219800000,22.3622330000 114.1223690000,22.3623950000 114.1224730000,22.3624720000 114.1225870000,22.3625780000 114.1225870000,22.3625780000 114.1226600000,22.3627080000 114.1227180000,22.3628280000 114.1227510000,22.3629800000 114.1228010000,22.3636120000 114.1228090000,22.3637070000 114.1228190000,22.3638360000 114.1228280000,22.3639530000 114.1228410000,22.3641140000 114.1228430000,22.3641420000 114.1228460000,22.3641690000 114.1228570000,22.3643130000 114.1228590000,22.3643370000 114.1228940000,22.3644830000 114.1229370000,22.3645910000 114.1230120000,22.3646950000 114.1231020000,22.3647850000 114.1232060000,22.3648560000 114.1233310000,22.3649130000 114.1234710000,22.3649480000 114.1236160000,22.3649640000 114.1238280000,22.3649590000 114.1238890000,22.3649580000 114.1243070000,22.3649480000 114.1253800000,22.3649160000 114.1255090000,22.3649250000 114.1256360000,22.3649430000 114.1257610000,22.3649960000 114.1258890000,22.3650640000 114.1259880000,22.3651650000 114.1260720000,22.3652720000 114.1261280000,22.3653760000 114.1261760000,22.3654640000 114.1262090000,22.3655250000 114.1262590000,22.3655760000 114.1262880000,22.3656060000 114.1262980000,22.3656160000 114.1263640000,22.3656780000 114.1264600000,22.3657370000 114.1266030000,22.3657790000 114.1267370000,22.3657950000 114.1268540000,22.3658100000 114.1270100000,22.3657740000 114.1270830000,22.3657480000 114.1271200000,22.3657350000 114.1272080000,22.3656910000 114.1272770000,22.3656410000 114.1273160000,22.3656020000 114.1273680000,22.3655440000 114.1274140000,22.3654800000 114.1274530000,22.3654100000 114.1274960000,22.3653180000 114.1276130000,22.3650500000 114.1276200000,22.3650310000 114.1277580000,22.3646730000 114.1278400000,22.3644920000 114.1278750000,22.3644350000 114.1279200000,22.3643720000 114.1277920000,22.3642810000 114.1275730000,22.3641100000 114.1272730000,22.3638790000 114.1272340000,22.3638480000 114.1271470000,22.3637760000 114.1271010000,22.3637320000 114.1269370000,22.3635780000 114.1268860000,22.3635290000 114.1268050000,22.3634520000 114.1267860000,22.3635350000 114.1267790000,22.3635890000 114.1267790000,22.3635930000 114.1267680000,22.3636650000 114.1267650000,22.3643680000 114.1267570000,22.3647940000 114.1268280000,22.3648630000</coordinates>
                </LineString>
                <ExtendedData>
                    <Data name="duration">
                        <value>01:00:38</value>
                    </Data>
                    <Data name="length">
                        <value>41419.338516960495</value>
                    </Data>
                </ExtendedData>
            </Placemark>
        </Document>
    </Document>
</kml>