<?xml version="1.0" encoding="UTF-8"?>
<kml xmlns="http://www.opengis.net/kml/2.2" xmlns:gx="http://www.google.com/kml/ext/2.2">
    <Document>
        <name>Route</name>
        <Folder>
            <name>Route Request</name>
            <Placemark>
                <Point>
                    <coordinates>114.1075937941,22.3603923870</coordinates>
                </Point>
                <ExtendedData>
                    <Data name="routingVisited">
                        <value>false</value>
                    </Data>
                </ExtendedData>
            </Placemark>
            <Placemark>
                <Point>
                    <coordinates>114.1033619329,22.3551344855</coordinates>
                </Point>
            </Placemark>
            <Placemark>
                <Point>
                    <coordinates>114.1070102754,22.3538095583</coordinates>
                </Point>
            </Placemark>
            <Placemark>
                <Point>
                    <coordinates>114.1893869154,22.2882982418</coordinates>
                </Point>
            </Placemark>
            <Placemark>
                <address>Tai Wing Avenue, Kornhill, Sai Wan Ho, Eastern District, Hong Kong Island, Hong Kong, 000000, China</address>
                <Point>
                    <coordinates>114.2199857287,22.2866641367</coordinates>
                </Point>
                <ExtendedData>
                    <Data name="road">
                        <value>Tai Wing Avenue</value>
                    </Data>
                    <Data name="country_code">
                        <value>cn</value>
                    </Data>
                    <Data name="ISO3166-2-lvl3">
                        <value>CN-HK</value>
                    </Data>
                    <Data name="suburb">
                        <value>Sai Wan Ho</value>
                    </Data>
                    <Data name="city">
                        <value>Hong Kong Island</value>
                    </Data>
                    <Data name="city_district">
                        <value>Eastern District</value>
                    </Data>
                    <Data name="postcode">
                        <value>000000</value>
                    </Data>
                    <Data name="country">
                        <value>China</value>
                    </Data>
                    <Data name="quarter">
                        <value>Kornhill</value>
                    </Data>
                    <Data name="state">
                        <value>Hong Kong</value>
                    </Data>
                </ExtendedData>
            </Placemark>
            <Placemark>
                <Point>
                    <coordinates>114.2295084387,22.2785450107</coordinates>
                </Point>
            </Placemark>
            <Placemark>
                <Point>
                    <coordinates>114.2382158152,22.2692112949</coordinates>
                </Point>
            </Placemark>
            <Placemark>
                <Point>
                    <coordinates>114.2370255555,22.2648864854</coordinates>
                </Point>
            </Placemark>
            <Placemark>
                <address>中國銀行BOC, Siu Sai Wan Road, Lok Kang Po, Siu Sai Wan, Eastern District, Hong Kong Island, Hong Kong, China</address>
                <Point>
                    <coordinates>114.2497819353,22.2625584592</coordinates>
                </Point>
                <ExtendedData>
                    <Data name="road">
                        <value>Siu Sai Wan Road</value>
                    </Data>
                    <Data name="country_code">
                        <value>cn</value>
                    </Data>
                    <Data name="ISO3166-2-lvl3">
                        <value>CN-HK</value>
                    </Data>
                    <Data name="suburb">
                        <value>Siu Sai Wan</value>
                    </Data>
                    <Data name="city">
                        <value>Hong Kong Island</value>
                    </Data>
                    <Data name="city_district">
                        <value>Eastern District</value>
                    </Data>
                    <Data name="country">
                        <value>China</value>
                    </Data>
                    <Data name="amenity">
                        <value>中國銀行BOC</value>
                    </Data>
                    <Data name="neighbourhood">
                        <value>Lok Kang Po</value>
                    </Data>
                    <Data name="state">
                        <value>Hong Kong</value>
                    </Data>
                </ExtendedData>
            </Placemark>
            <Placemark>
                <address>Chai Wan (East), On Yip Street, Chai Wan East Industrial Area, Chai Wan District, Eastern District, Hong Kong Island, Hong Kong, China</address>
                <Point>
                    <coordinates>114.2451492184,22.2665716935</coordinates>
                </Point>
                <ExtendedData>
                    <Data name="road">
                        <value>On Yip Street</value>
                    </Data>
                    <Data name="country_code">
                        <value>cn</value>
                    </Data>
                    <Data name="borough">
                        <value>Chai Wan District</value>
                    </Data>
                    <Data name="ISO3166-2-lvl3">
                        <value>CN-HK</value>
                    </Data>
                    <Data name="city">
                        <value>Hong Kong Island</value>
                    </Data>
                    <Data name="city_district">
                        <value>Eastern District</value>
                    </Data>
                    <Data name="country">
                        <value>China</value>
                    </Data>
                    <Data name="amenity">
                        <value>Chai Wan (East)</value>
                    </Data>
                    <Data name="quarter">
                        <value>Chai Wan East Industrial Area</value>
                    </Data>
                    <Data name="state">
                        <value>Hong Kong</value>
                    </Data>
                </ExtendedData>
            </Placemark>
            <Placemark>
                <Point>
                    <coordinates>114.2370255555,22.2648933156</coordinates>
                </Point>
                <ExtendedData>
                    <Data name="routingVisited">
                        <value>false</value>
                    </Data>
                </ExtendedData>
            </Placemark>
            <Placemark>
                <Point>
                    <coordinates>114.2385257997,22.2702699756</coordinates>
                </Point>
            </Placemark>
            <Placemark>
                <Point>
                    <coordinates>114.2301875077,22.2785586563</coordinates>
                </Point>
            </Placemark>
            <Placemark>
                <address>Cityplaza, King's Road, Kornhill, Quarry Bay, Eastern District, Hong Kong Island, Hong Kong, 000000, China</address>
                <Point>
                    <coordinates>114.2167467900,22.2873231093</coordinates>
                </Point>
                <ExtendedData>
                    <Data name="shop">
                        <value>Cityplaza</value>
                    </Data>
                    <Data name="road">
                        <value>King's Road</value>
                    </Data>
                    <Data name="country_code">
                        <value>cn</value>
                    </Data>
                    <Data name="ISO3166-2-lvl3">
                        <value>CN-HK</value>
                    </Data>
                    <Data name="suburb">
                        <value>Quarry Bay</value>
                    </Data>
                    <Data name="city">
                        <value>Hong Kong Island</value>
                    </Data>
                    <Data name="city_district">
                        <value>Eastern District</value>
                    </Data>
                    <Data name="postcode">
                        <value>000000</value>
                    </Data>
                    <Data name="country">
                        <value>China</value>
                    </Data>
                    <Data name="quarter">
                        <value>Kornhill</value>
                    </Data>
                    <Data name="state">
                        <value>Hong Kong</value>
                    </Data>
                </ExtendedData>
            </Placemark>
            <Placemark>
                <Point>
                    <coordinates>114.1546636317,22.2869039540</coordinates>
                </Point>
            </Placemark>
            <Placemark>
                <Point>
                    <coordinates>114.1039380127,22.3545061340</coordinates>
                </Point>
            </Placemark>
            <Placemark>
                <Point>
                    <coordinates>114.1027563446,22.3551207957</coordinates>
                </Point>
            </Placemark>
            <Placemark>
                <Point>
                    <coordinates>114.1075937956,22.3603650662</coordinates>
                </Point>
                <ExtendedData>
                    <Data name="routingVisited">
                        <value>false</value>
                    </Data>
                </ExtendedData>
            </Placemark>
        </Folder>
        <Document>
            <name>64.0 km; 01:16 h (OSRM)</name>
            <Placemark>
                <name>Route</name>
                <LineString>
                    <coordinates>114.1075540000,22.3605980000 114.1076570000,22.3606150000 114.1077080000,22.3606230000 114.1077800000,22.3606280000 114.1078410000,22.3606210000 114.1078840000,22.3606120000 114.1079520000,22.3605900000 114.1080000000,22.3605680000 114.1081580000,22.3604660000 114.1084530000,22.3602700000 114.1085220000,22.3602250000 114.1085770000,22.3601900000 114.1086240000,22.3601530000 114.1086540000,22.3601070000 114.1086770000,22.3600520000 114.1086790000,22.3599910000 114.1086640000,22.3599490000 114.1086510000,22.3599190000 114.1085880000,22.3598870000 114.1071770000,22.3596690000 114.1070650000,22.3596520000 114.1070000000,22.3596350000 114.1069210000,22.3596050000 114.1067630000,22.3595370000 114.1066070000,22.3595110000 114.1065200000,22.3594990000 114.1065500000,22.3592870000 114.1065100000,22.3591980000 114.1064620000,22.3592050000 114.1064070000,22.3592000000 114.1063520000,22.3591950000 114.1062830000,22.3591790000 114.1062430000,22.3591670000 114.1061960000,22.3591520000 114.1060710000,22.3595290000 114.1060380000,22.3595660000 114.1060140000,22.3597280000 114.1059970000,22.3597860000 114.1059540000,22.3598260000 114.1059190000,22.3598550000 114.1058370000,22.3599050000 114.1057810000,22.3599660000 114.1058220000,22.3600440000 114.1058600000,22.3601270000 114.1059370000,22.3603410000 114.1059520000,22.3605360000 114.1058970000,22.3607150000 114.1058560000,22.3607940000 114.1058310000,22.3608450000 114.1057840000,22.3609160000 114.1056900000,22.3610320000 114.1055850000,22.3611150000 114.1054870000,22.3611670000 114.1054450000,22.3611820000 114.1053440000,22.3612230000 114.1051820000,22.3612530000 114.1050770000,22.3612160000 114.1048590000,22.3612220000 114.1047360000,22.3612240000 114.1045830000,22.3612270000 114.1044730000,22.3612290000 114.1044370000,22.3612300000 114.1042760000,22.3612210000 114.1042190000,22.3612130000 114.1041600000,22.3611920000 114.1040300000,22.3611900000 114.1039700000,22.3611590000 114.1038670000,22.3610940000 114.1037710000,22.3610170000 114.1037260000,22.3609590000 114.1036200000,22.3608220000 114.1035810000,22.3606920000 114.1035570000,22.3606090000 114.1035310000,22.3605610000 114.1034920000,22.3604930000 114.1034500000,22.3604100000 114.1034250000,22.3603610000 114.1033640000,22.3602150000 114.1033300000,22.3601350000 114.1032780000,22.3600130000 114.1032580000,22.3599350000 114.1032890000,22.3598220000 114.1033060000,22.3597250000 114.1032790000,22.3596360000 114.1032630000,22.3595870000 114.1032060000,22.3594840000 114.1031600000,22.3594250000 114.1031230000,22.3593980000 114.1030200000,22.3593340000 114.1029420000,22.3593050000 114.1029010000,22.3592920000 114.1028510000,22.3592840000 114.1028030000,22.3592830000 114.1026940000,22.3592330000 114.1025790000,22.3591770000 114.1024060000,22.3590600000 114.1022270000,22.3589320000 114.1021380000,22.3588610000 114.1020580000,22.3587820000 114.1019910000,22.3587040000 114.1019270000,22.3586180000 114.1018790000,22.3585370000 114.1018370000,22.3584590000 114.1018000000,22.3583700000 114.1017690000,22.3582830000 114.1017460000,22.3581940000 114.1017310000,22.3581060000 114.1017170000,22.3580250000 114.1016480000,22.3578080000 114.1016340000,22.3577930000 114.1015880000,22.3577230000 114.1016380000,22.3576690000 114.1016920000,22.3576130000 114.1017280000,22.3575600000 114.1017940000,22.3573890000 114.1018170000,22.3573130000 114.1018640000,22.3571470000 114.1019830000,22.3567640000 114.1022030000,22.3559650000 114.1022240000,22.3558170000 114.1022600000,22.3555690000 114.1023030000,22.3553010000 114.1023180000,22.3552060000 114.1024410000,22.3552110000 114.1025340000,22.3552130000 114.1029450000,22.3551580000 114.1030720000,22.3551380000 114.1033340000,22.3550970000 114.1033550000,22.3550940000 114.1037710000,22.3550290000 114.1037800000,22.3550600000 114.1037980000,22.3550870000 114.1038230000,22.3551090000 114.1038540000,22.3551230000 114.1038880000,22.3551290000 114.1039280000,22.3551240000 114.1039650000,22.3551080000 114.1039930000,22.3550810000 114.1040100000,22.3550520000 114.1040160000,22.3550200000 114.1040120000,22.3549870000 114.1039990000,22.3549570000 114.1039760000,22.3549320000 114.1039470000,22.3549130000 114.1039140000,22.3549030000 114.1038780000,22.3549020000 114.1038850000,22.3547680000 114.1038940000,22.3544720000 114.1038980000,22.3543320000 114.1039000000,22.3542830000 114.1039070000,22.3541100000 114.1039090000,22.3540540000 114.1039180000,22.3538460000 114.1039260000,22.3537840000 114.1039460000,22.3536710000 114.1039990000,22.3535250000 114.1040850000,22.3534060000 114.1041610000,22.3533250000 114.1042230000,22.3532690000 114.1043000000,22.3532130000 114.1043630000,22.3531750000 114.1044330000,22.3531410000 114.1045040000,22.3531130000 114.1045810000,22.3530910000 114.1046560000,22.3530780000 114.1047330000,22.3530730000 114.1048140000,22.3530730000 114.1049090000,22.3530770000 114.1049920000,22.3530820000 114.1050520000,22.3530860000 114.1051560000,22.3530920000 114.1052910000,22.3531010000 114.1053690000,22.3531090000 114.1054520000,22.3531250000 114.1055280000,22.3531450000 114.1056030000,22.3531720000 114.1056830000,22.3532160000 114.1057590000,22.3532640000 114.1058210000,22.3533160000 114.1058930000,22.3533850000 114.1059460000,22.3534530000 114.1059900000,22.3535220000 114.1060260000,22.3535980000 114.1060540000,22.3536770000 114.1060770000,22.3537680000 114.1060890000,22.3538630000 114.1060940000,22.3543320000 114.1061010000,22.3543900000 114.1061230000,22.3544640000 114.1062030000,22.3545690000 114.1063530000,22.3546590000 114.1065540000,22.3546890000 114.1068110000,22.3547160000 114.1068720000,22.3547160000 114.1070380000,22.3547170000 114.1070510000,22.3545770000 114.1070580000,22.3543800000 114.1070610000,22.3542880000 114.1070760000,22.3538280000 114.1070770000,22.3538130000 114.1070790000,22.3537630000 114.1070890000,22.3535680000 114.1071030000,22.3535040000 114.1071240000,22.3534420000 114.1071480000,22.3533950000 114.1071620000,22.3533800000 114.1072110000,22.3533090000 114.1072810000,22.3532310000 114.1073630000,22.3531990000 114.1074370000,22.3531520000 114.1075010000,22.3530940000 114.1075700000,22.3529930000 114.1076080000,22.3528790000 114.1076110000,22.3527600000 114.1075890000,22.3526660000 114.1075450000,22.3525780000 114.1074820000,22.3525010000 114.1074720000,22.3524210000 114.1074600000,22.3523290000 114.1074530000,22.3522290000 114.1074580000,22.3521380000 114.1074750000,22.3520720000 114.1074970000,22.3520170000 114.1077720000,22.3516790000 114.1077890000,22.3516590000 114.1078130000,22.3516290000 114.1078320000,22.3516050000 114.1078530000,22.3515790000 114.1079920000,22.3514120000 114.1081390000,22.3512590000 114.1081640000,22.3512260000 114.1082890000,22.3510770000 114.1086570000,22.3506430000 114.1086980000,22.3505850000 114.1087860000,22.3504670000 114.1091400000,22.3500150000 114.1091630000,22.3499870000 114.1093070000,22.3498110000 114.1098740000,22.3491030000 114.1100630000,22.3488660000 114.1101260000,22.3487650000 114.1101930000,22.3486650000 114.1102620000,22.3485700000 114.1102840000,22.3484790000 114.1103050000,22.3483920000 114.1103120000,22.3482830000 114.1103190000,22.3482060000 114.1103240000,22.3481580000 114.1103310000,22.3481170000 114.1103470000,22.3480470000 114.1103810000,22.3479830000 114.1104280000,22.3479270000 114.1104880000,22.3478800000 114.1105670000,22.3478640000 114.1106550000,22.3478700000 114.1107240000,22.3478790000 114.1108640000,22.3479080000 114.1109030000,22.3479180000 114.1109400000,22.3479270000 114.1126300000,22.3483660000 114.1167520000,22.3494470000 114.1170910000,22.3495290000 114.1173230000,22.3496150000 114.1175030000,22.3497040000 114.1176650000,22.3497980000 114.1177990000,22.3498860000 114.1179050000,22.3499630000 114.1180140000,22.3500540000 114.1180610000,22.3501890000 114.1182170000,22.3503690000 114.1183880000,22.3506110000 114.1186480000,22.3509420000 114.1188460000,22.3512800000 114.1190200000,22.3516860000 114.1191540000,22.3520290000 114.1192820000,22.3522710000 114.1194590000,22.3525080000 114.1196090000,22.3526440000 114.1197820000,22.3527650000 114.1199350000,22.3528270000 114.1201950000,22.3529020000 114.1204660000,22.3529280000 114.1207280000,22.3528970000 114.1211280000,22.3527800000 114.1213410000,22.3526830000 114.1216200000,22.3525620000 114.1218320000,22.3524820000 114.1220270000,22.3524040000 114.1221390000,22.3523590000 114.1222240000,22.3523210000 114.1226760000,22.3520630000 114.1228980000,22.3518990000 114.1232400000,22.3516400000 114.1234320000,22.3514950000 114.1237280000,22.3512190000 114.1239480000,22.3509410000 114.1241480000,22.3506360000 114.1243000000,22.3503120000 114.1244440000,22.3499020000 114.1244990000,22.3496360000 114.1245500000,22.3491470000 114.1245370000,22.3484120000 114.1245330000,22.3480180000 114.1245490000,22.3476170000 114.1246060000,22.3472410000 114.1246110000,22.3472070000 114.1246230000,22.3471590000 114.1246360000,22.3471070000 114.1246480000,22.3470550000 114.1246730000,22.3469520000 114.1247110000,22.3468180000 114.1247390000,22.3467160000 114.1247610000,22.3466370000 114.1247850000,22.3465690000 114.1248130000,22.3464960000 114.1248340000,22.3464420000 114.1249030000,22.3462770000 114.1250230000,22.3459890000 114.1251600000,22.3457430000 114.1252280000,22.3456200000 114.1254330000,22.3453410000 114.1256160000,22.3450810000 114.1258790000,22.3448160000 114.1260740000,22.3446340000 114.1262650000,22.3444920000 114.1264800000,22.3443300000 114.1269240000,22.3440300000 114.1270200000,22.3439790000 114.1271090000,22.3439320000 114.1271840000,22.3438920000 114.1272820000,22.3438400000 114.1276470000,22.3436840000 114.1278970000,22.3435720000 114.1281270000,22.3434690000 114.1283770000,22.3433460000 114.1286560000,22.3432050000 114.1289710000,22.3430190000 114.1291870000,22.3428750000 114.1294020000,22.3427320000 114.1295670000,22.3426040000 114.1297310000,22.3424680000 114.1298900000,22.3423150000 114.1301370000,22.3420730000 114.1303630000,22.3417950000 114.1304050000,22.3417270000 114.1304940000,22.3415860000 114.1306050000,22.3414080000 114.1306680000,22.3413080000 114.1307450000,22.3411650000 114.1307910000,22.3410810000 114.1308490000,22.3409740000 114.1310190000,22.3406270000 114.1311190000,22.3404140000 114.1311910000,22.3402610000 114.1314770000,22.3396800000 114.1315870000,22.3394560000 114.1316710000,22.3392680000 114.1316840000,22.3392360000 114.1318380000,22.3388760000 114.1319550000,22.3386180000 114.1320070000,22.3385160000 114.1320500000,22.3384340000 114.1322000000,22.3381400000 114.1324040000,22.3378060000 114.1326480000,22.3374240000 114.1328610000,22.3371230000 114.1331790000,22.3367280000 114.1333570000,22.3365230000 114.1336230000,22.3362450000 114.1337460000,22.3361190000 114.1343320000,22.3356020000 114.1345140000,22.3354620000 114.1346460000,22.3353620000 114.1349080000,22.3351570000 114.1351140000,22.3350120000 114.1353150000,22.3348710000 114.1354560000,22.3347710000 114.1355370000,22.3347190000 114.1357120000,22.3346060000 114.1360310000,22.3344250000 114.1363260000,22.3342690000 114.1366140000,22.3341310000 114.1369430000,22.3339880000 114.1373830000,22.3338160000 114.1378110000,22.3336600000 114.1395900000,22.3330030000 114.1403040000,22.3327090000 114.1403630000,22.3326870000 114.1413360000,22.3323200000 114.1417340000,22.3321710000 114.1428990000,22.3317170000 114.1429790000,22.3316830000 114.1439300000,22.3312840000 114.1442400000,22.3311570000 114.1453050000,22.3307780000 114.1455120000,22.3307010000 114.1464210000,22.3303510000 114.1464970000,22.3303220000 114.1472530000,22.3300310000 114.1479270000,22.3297640000 114.1486470000,22.3294550000 114.1490060000,22.3292880000 114.1491000000,22.3292440000 114.1496580000,22.3289770000 114.1500510000,22.3287860000 114.1505450000,22.3285160000 114.1512720000,22.3280540000 114.1515440000,22.3278800000 114.1518840000,22.3276670000 114.1522940000,22.3273890000 114.1528420000,22.3269960000 114.1532080000,22.3267150000 114.1536570000,22.3263590000 114.1540770000,22.3260070000 114.1544350000,22.3256710000 114.1547960000,22.3253360000 114.1551400000,22.3249960000 114.1554890000,22.3246310000 114.1556770000,22.3244380000 114.1558850000,22.3242120000 114.1561370000,22.3239280000 114.1564520000,22.3235770000 114.1567130000,22.3232530000 114.1569820000,22.3229170000 114.1573320000,22.3224540000 114.1576600000,22.3219910000 114.1579160000,22.3216230000 114.1581500000,22.3212580000 114.1584730000,22.3206990000 114.1588490000,22.3199810000 114.1591160000,22.3194600000 114.1593190000,22.3190490000 114.1593710000,22.3189370000 114.1595390000,22.3185730000 114.1597120000,22.3181800000 114.1599320000,22.3176580000 114.1600640000,22.3173450000 114.1601700000,22.3170940000 114.1603190000,22.3167700000 114.1604140000,22.3165490000 114.1605800000,22.3161640000 114.1606070000,22.3160980000 114.1607260000,22.3158200000 114.1608510000,22.3155020000 114.1609120000,22.3153470000 114.1610010000,22.3151200000 114.1610710000,22.3149390000 114.1611630000,22.3146640000 114.1612000000,22.3145530000 114.1612380000,22.3144410000 114.1612590000,22.3143370000 114.1613020000,22.3141250000 114.1613200000,22.3140540000 114.1613560000,22.3139150000 114.1614070000,22.3137140000 114.1615260000,22.3131120000 114.1616050000,22.3127250000 114.1616500000,22.3123490000 114.1616650000,22.3120670000 114.1616820000,22.3115320000 114.1616810000,22.3111110000 114.1616740000,22.3108150000 114.1616710000,22.3107280000 114.1616550000,22.3102900000 114.1616470000,22.3100740000 114.1616080000,22.3098280000 114.1615120000,22.3092920000 114.1613690000,22.3086000000 114.1613000000,22.3082960000 114.1612760000,22.3081910000 114.1612580000,22.3081130000 114.1612190000,22.3079850000 114.1611350000,22.3077140000 114.1610650000,22.3074870000 114.1609840000,22.3072940000 114.1608400000,22.3069860000 114.1607610000,22.3068140000 114.1606820000,22.3066440000 114.1606230000,22.3065180000 114.1604320000,22.3061120000 114.1601860000,22.3056400000 114.1601500000,22.3054820000 114.1601260000,22.3053790000 114.1600330000,22.3051960000 114.1598820000,22.3050400000 114.1597500000,22.3049160000 114.1594580000,22.3043950000 114.1590380000,22.3037070000 114.1589210000,22.3035410000 114.1588210000,22.3033850000 114.1587790000,22.3033330000 114.1587290000,22.3032580000 114.1586820000,22.3031860000 114.1584390000,22.3028540000 114.1582710000,22.3026750000 114.1580860000,22.3025020000 114.1578670000,22.3023060000 114.1576670000,22.3021240000 114.1573770000,22.3018260000 114.1573160000,22.3017620000 114.1570200000,22.3014420000 114.1567160000,22.3011410000 114.1561410000,22.3005100000 114.1466970000,22.2902980000 114.1464940000,22.2900780000 114.1462180000,22.2897960000 114.1460110000,22.2896560000 114.1457910000,22.2895310000 114.1455600000,22.2894220000 114.1453200000,22.2893320000 114.1450730000,22.2892600000 114.1448200000,22.2892070000 114.1445630000,22.2891750000 114.1443050000,22.2891610000 114.1440460000,22.2891680000 114.1437880000,22.2891950000 114.1435340000,22.2892410000 114.1434400000,22.2892660000 114.1432930000,22.2893050000 114.1431720000,22.2893380000 114.1430560000,22.2893800000 114.1429890000,22.2894070000 114.1427890000,22.2894970000 114.1424550000,22.2896580000 114.1423480000,22.2897090000 114.1421420000,22.2898940000 114.1420960000,22.2899290000 114.1419130000,22.2900500000 114.1417650000,22.2901340000 114.1416830000,22.2901740000 114.1416110000,22.2902030000 114.1415520000,22.2902230000 114.1414750000,22.2902430000 114.1414010000,22.2902570000 114.1413120000,22.2902670000 114.1412340000,22.2902660000 114.1411520000,22.2902570000 114.1410740000,22.2902410000 114.1409980000,22.2902170000 114.1409280000,22.2901860000 114.1408620000,22.2901480000 114.1408000000,22.2901040000 114.1407410000,22.2900480000 114.1407000000,22.2900020000 114.1406620000,22.2899490000 114.1406280000,22.2898920000 114.1406000000,22.2898270000 114.1405800000,22.2897690000 114.1405680000,22.2897060000 114.1405610000,22.2896430000 114.1405610000,22.2895810000 114.1405700000,22.2895070000 114.1405860000,22.2894330000 114.1406090000,22.2893680000 114.1406370000,22.2893090000 114.1406700000,22.2892550000 114.1407120000,22.2892020000 114.1407600000,22.2891530000 114.1408120000,22.2891100000 114.1408700000,22.2890710000 114.1409310000,22.2890390000 114.1410100000,22.2890100000 114.1410920000,22.2889900000 114.1411640000,22.2889810000 114.1412360000,22.2889780000 114.1413350000,22.2889970000 114.1414320000,22.2890190000 114.1415290000,22.2890430000 114.1416010000,22.2890620000 114.1417210000,22.2890970000 114.1418460000,22.2891370000 114.1419730000,22.2891710000 114.1421020000,22.2891970000 114.1422320000,22.2892170000 114.1423640000,22.2892290000 114.1424960000,22.2892340000 114.1426280000,22.2892320000 114.1428230000,22.2892320000 114.1430190000,22.2892310000 114.1433170000,22.2891960000 114.1433840000,22.2891890000 114.1436430000,22.2891610000 114.1437730000,22.2891450000 114.1438430000,22.2891370000 114.1440640000,22.2890990000 114.1441870000,22.2890640000 114.1442750000,22.2890270000 114.1443640000,22.2889810000 114.1444990000,22.2889040000 114.1445740000,22.2888680000 114.1446490000,22.2888410000 114.1447140000,22.2888250000 114.1447870000,22.2888160000 114.1452310000,22.2887700000 114.1454040000,22.2887520000 114.1456810000,22.2887600000 114.1458200000,22.2887620000 114.1458680000,22.2887630000 114.1459820000,22.2887620000 114.1465690000,22.2887230000 114.1467750000,22.2887040000 114.1469550000,22.2886850000 114.1470650000,22.2886680000 114.1473640000,22.2886250000 114.1477580000,22.2885750000 114.1482620000,22.2884840000 114.1484340000,22.2884570000 114.1496810000,22.2881250000 114.1500790000,22.2880250000 114.1505060000,22.2879080000 114.1507870000,22.2878240000 114.1510070000,22.2877570000 114.1518340000,22.2875020000 114.1523580000,22.2873400000 114.1531290000,22.2871000000 114.1532370000,22.2870710000 114.1533270000,22.2870530000 114.1534360000,22.2870390000 114.1537640000,22.2870110000 114.1539470000,22.2870040000 114.1540900000,22.2870070000 114.1542410000,22.2870160000 114.1545950000,22.2870570000 114.1547710000,22.2870780000 114.1548730000,22.2870910000 114.1551040000,22.2871210000 114.1553890000,22.2871580000 114.1555250000,22.2871760000 114.1556170000,22.2871880000 114.1557410000,22.2872010000 114.1559860000,22.2872050000 114.1560330000,22.2872040000 114.1560600000,22.2872040000 114.1561800000,22.2872000000 114.1564360000,22.2871850000 114.1566220000,22.2871670000 114.1568490000,22.2871310000 114.1569920000,22.2871030000 114.1571850000,22.2870570000 114.1572880000,22.2870290000 114.1575590000,22.2869480000 114.1576330000,22.2869280000 114.1577710000,22.2868920000 114.1582190000,22.2867120000 114.1585550000,22.2865150000 114.1586590000,22.2864510000 114.1590830000,22.2861850000 114.1601100000,22.2855380000 114.1603830000,22.2853670000 114.1613200000,22.2848360000 114.1631300000,22.2838110000 114.1638350000,22.2834740000 114.1641470000,22.2833390000 114.1644930000,22.2832060000 114.1651340000,22.2829870000 114.1656200000,22.2828430000 114.1661460000,22.2827110000 114.1665970000,22.2826160000 114.1670640000,22.2825310000 114.1677350000,22.2824530000 114.1680670000,22.2824220000 114.1684300000,22.2823990000 114.1690810000,22.2823640000 114.1704260000,22.2822970000 114.1711440000,22.2822770000 114.1723810000,22.2822790000 114.1733180000,22.2823150000 114.1742830000,22.2823780000 114.1747660000,22.2824220000 114.1751810000,22.2824690000 114.1755770000,22.2825230000 114.1768630000,22.2827100000 114.1813760000,22.2833180000 114.1816070000,22.2833520000 114.1818280000,22.2833890000 114.1820370000,22.2834280000 114.1822470000,22.2834710000 114.1825050000,22.2835300000 114.1827620000,22.2835940000 114.1830000000,22.2836590000 114.1832380000,22.2837290000 114.1835330000,22.2838240000 114.1838260000,22.2839270000 114.1841160000,22.2840370000 114.1844020000,22.2841550000 114.1846240000,22.2842530000 114.1848440000,22.2843550000 114.1849800000,22.2844210000 114.1851160000,22.2844890000 114.1853840000,22.2846310000 114.1856420000,22.2847750000 114.1858940000,22.2849260000 114.1860860000,22.2850460000 114.1862750000,22.2851710000 114.1864460000,22.2852870000 114.1866220000,22.2854130000 114.1868280000,22.2855680000 114.1870320000,22.2857260000 114.1872380000,22.2858950000 114.1874430000,22.2860710000 114.1879160000,22.2865160000 114.1885910000,22.2872130000 114.1888910000,22.2875400000 114.1895120000,22.2881970000 114.1906150000,22.2893660000 114.1907590000,22.2894960000 114.1915190000,22.2901840000 114.1917040000,22.2903580000 114.1918520000,22.2904860000 114.1921150000,22.2907240000 114.1922280000,22.2908250000 114.1925380000,22.2910950000 114.1926650000,22.2912100000 114.1927370000,22.2912730000 114.1927890000,22.2913210000 114.1928900000,22.2914230000 114.1930690000,22.2916020000 114.1931400000,22.2916730000 114.1931560000,22.2916890000 114.1931780000,22.2917110000 114.1932700000,22.2918030000 114.1933530000,22.2918870000 114.1934530000,22.2919710000 114.1935380000,22.2920420000 114.1935600000,22.2920570000 114.1935890000,22.2920770000 114.1936150000,22.2920950000 114.1937360000,22.2921760000 114.1938530000,22.2922540000 114.1939710000,22.2923350000 114.1942000000,22.2924760000 114.1942290000,22.2924940000 114.1943770000,22.2925660000 114.1944670000,22.2926100000 114.1946230000,22.2926870000 114.1946890000,22.2927190000 114.1947490000,22.2927490000 114.1949190000,22.2928180000 114.1950130000,22.2928550000 114.1951890000,22.2929160000 114.1952860000,22.2929460000 114.1954310000,22.2929870000 114.1955320000,22.2930090000 114.1956910000,22.2930430000 114.1958170000,22.2930670000 114.1960670000,22.2931130000 114.1961620000,22.2931270000 114.1963610000,22.2931600000 114.1964840000,22.2931820000 114.1966050000,22.2932070000 114.1967740000,22.2932440000 114.1968570000,22.2932610000 114.1971240000,22.2933140000 114.1979380000,22.2934830000 114.1980630000,22.2935070000 114.1981920000,22.2935260000 114.1984040000,22.2935500000 114.1985630000,22.2935620000 114.1987190000,22.2935680000 114.1989060000,22.2935720000 114.1992000000,22.2935690000 114.1994040000,22.2935740000 114.1995900000,22.2935850000 114.1997700000,22.2936020000 114.1999500000,22.2936270000 114.2001000000,22.2936520000 114.2004940000,22.2937360000 114.2005620000,22.2937500000 114.2013180000,22.2939100000 114.2015380000,22.2939610000 114.2018510000,22.2940330000 114.2020960000,22.2940870000 114.2021880000,22.2941020000 114.2025300000,22.2941540000 114.2026050000,22.2941710000 114.2028680000,22.2942240000 114.2031620000,22.2942590000 114.2034130000,22.2942700000 114.2035000000,22.2942730000 114.2037630000,22.2942770000 114.2039330000,22.2942720000 114.2040330000,22.2942680000 114.2042530000,22.2942480000 114.2045700000,22.2942130000 114.2047400000,22.2941890000 114.2049790000,22.2941720000 114.2050480000,22.2941670000 114.2052070000,22.2941560000 114.2052900000,22.2941450000 114.2057090000,22.2940920000 114.2058390000,22.2940690000 114.2059740000,22.2940410000 114.2061450000,22.2940000000 114.2063050000,22.2939520000 114.2064890000,22.2938890000 114.2073080000,22.2935620000 114.2075320000,22.2934770000 114.2077810000,22.2933920000 114.2082330000,22.2932500000 114.2085090000,22.2931560000 114.2087820000,22.2930640000 114.2089400000,22.2930070000 114.2090780000,22.2929240000 114.2092580000,22.2928120000 114.2094910000,22.2926640000 114.2097870000,22.2924670000 114.2103300000,22.2920690000 114.2107360000,22.2917730000 114.2110800000,22.2915210000 114.2112770000,22.2913910000 114.2114890000,22.2912520000 114.2115750000,22.2911980000 114.2117400000,22.2910950000 114.2120130000,22.2909330000 114.2121350000,22.2908620000 114.2122140000,22.2908150000 114.2122920000,22.2907670000 114.2124160000,22.2906960000 114.2125630000,22.2906120000 114.2128380000,22.2904560000 114.2130110000,22.2903960000 114.2131490000,22.2903480000 114.2132210000,22.2903240000 114.2132900000,22.2903010000 114.2133910000,22.2902620000 114.2136010000,22.2901930000 114.2137590000,22.2901410000 114.2141980000,22.2900120000 114.2152080000,22.2897610000 114.2154240000,22.2897280000 114.2159460000,22.2896540000 114.2160260000,22.2896450000 114.2161080000,22.2896380000 114.2162670000,22.2896280000 114.2166020000,22.2896030000 114.2170400000,22.2895700000 114.2171000000,22.2895620000 114.2171530000,22.2895500000 114.2172130000,22.2895330000 114.2172700000,22.2895140000 114.2173290000,22.2894890000 114.2173810000,22.2894610000 114.2174300000,22.2894300000 114.2175000000,22.2893800000 114.2175550000,22.2893300000 114.2176300000,22.2892450000 114.2176690000,22.2891890000 114.2177020000,22.2891300000 114.2177250000,22.2890800000 114.2177500000,22.2890170000 114.2177690000,22.2889300000 114.2177780000,22.2888600000 114.2177800000,22.2887800000 114.2177700000,22.2886800000 114.2177600000,22.2886300000 114.2177370000,22.2885600000 114.2175500000,22.2881700000 114.2175170000,22.2880910000 114.2174800000,22.2880000000 114.2174590000,22.2879490000 114.2174350000,22.2878720000 114.2173790000,22.2877600000 114.2173660000,22.2876510000 114.2173680000,22.2875890000 114.2173800000,22.2875460000 114.2173920000,22.2874990000 114.2174100000,22.2874690000 114.2174320000,22.2874290000 114.2174970000,22.2873740000 114.2176570000,22.2873410000 114.2179050000,22.2873370000 114.2181070000,22.2873370000 114.2182350000,22.2873320000 114.2182700000,22.2873310000 114.2183340000,22.2873280000 114.2184010000,22.2873250000 114.2184840000,22.2873100000 114.2185470000,22.2873110000 114.2185970000,22.2873110000 114.2190420000,22.2873100000 114.2191380000,22.2873100000 114.2192960000,22.2873100000 114.2194000000,22.2873130000 114.2195030000,22.2873120000 114.2196070000,22.2873130000 114.2197320000,22.2873160000 114.2198100000,22.2872940000 114.2198610000,22.2872740000 114.2199090000,22.2872440000 114.2199600000,22.2872010000 114.2200110000,22.2871370000 114.2200130000,22.2868910000 114.2200120000,22.2866640000 114.2200110000,22.2863590000 114.2200110000,22.2862790000 114.2200570000,22.2862150000 114.2200900000,22.2861960000 114.2202180000,22.2861820000 114.2202670000,22.2861820000 114.2203900000,22.2861820000 114.2205180000,22.2861800000 114.2205900000,22.2861730000 114.2206530000,22.2861540000 114.2207130000,22.2861120000 114.2207620000,22.2860600000 114.2207910000,22.2859980000 114.2208070000,22.2859380000 114.2208290000,22.2858090000 114.2208640000,22.2854750000 114.2208860000,22.2853770000 114.2208840000,22.2852970000 114.2208760000,22.2852260000 114.2208620000,22.2851730000 114.2208430000,22.2851320000 114.2208140000,22.2850660000 114.2207850000,22.2850220000 114.2207500000,22.2849790000 114.2206980000,22.2849220000 114.2206400000,22.2848690000 114.2204410000,22.2847260000 114.2202330000,22.2845770000 114.2202180000,22.2845660000 114.2201230000,22.2844980000 114.2202410000,22.2843540000 114.2206620000,22.2838130000 114.2209860000,22.2834030000 114.2212450000,22.2830700000 114.2213170000,22.2829780000 114.2216430000,22.2825650000 114.2216600000,22.2825430000 114.2218890000,22.2822610000 114.2219780000,22.2821440000 114.2220320000,22.2820670000 114.2220680000,22.2820190000 114.2221130000,22.2819570000 114.2221610000,22.2818620000 114.2222080000,22.2818010000 114.2223310000,22.2816260000 114.2223690000,22.2815750000 114.2223880000,22.2815450000 114.2224120000,22.2815070000 114.2224640000,22.2814480000 114.2225000000,22.2814120000 114.2225640000,22.2813550000 114.2226280000,22.2813030000 114.2226870000,22.2812600000 114.2227470000,22.2812180000 114.2228500000,22.2811500000 114.2228920000,22.2811240000 114.2229760000,22.2810770000 114.2230730000,22.2810250000 114.2235360000,22.2808090000 114.2238400000,22.2806670000 114.2239520000,22.2806170000 114.2239820000,22.2806050000 114.2240220000,22.2805890000 114.2242660000,22.2805100000 114.2243390000,22.2804910000 114.2246020000,22.2804400000 114.2247070000,22.2804170000 114.2249550000,22.2803650000 114.2252120000,22.2803100000 114.2252810000,22.2802910000 114.2253510000,22.2802590000 114.2254130000,22.2802190000 114.2254540000,22.2801860000 114.2254940000,22.2801420000 114.2255160000,22.2801150000 114.2255370000,22.2800870000 114.2255930000,22.2799970000 114.2255990000,22.2799890000 114.2257570000,22.2797370000 114.2258160000,22.2796400000 114.2260390000,22.2792770000 114.2262930000,22.2788620000 114.2263540000,22.2787620000 114.2263630000,22.2787480000 114.2265830000,22.2783890000 114.2266320000,22.2783090000 114.2268930000,22.2778750000 114.2269840000,22.2777290000 114.2270500000,22.2776460000 114.2271230000,22.2775830000 114.2271790000,22.2775490000 114.2280260000,22.2771020000 114.2282110000,22.2770180000 114.2283010000,22.2774100000 114.2283630000,22.2776890000 114.2283800000,22.2777640000 114.2284600000,22.2781250000 114.2285230000,22.2785590000 114.2285270000,22.2785860000 114.2285440000,22.2786080000 114.2285680000,22.2786210000 114.2285910000,22.2786250000 114.2286670000,22.2786110000 114.2286960000,22.2786050000 114.2293950000,22.2784670000 114.2294480000,22.2784680000 114.2294940000,22.2784750000 114.2295370000,22.2784940000 114.2295490000,22.2785040000 114.2295710000,22.2785230000 114.2295950000,22.2785610000 114.2296120000,22.2786150000 114.2295850000,22.2787370000 114.2295290000,22.2789140000 114.2295080000,22.2789760000 114.2294920000,22.2790300000 114.2294060000,22.2791840000 114.2293970000,22.2792240000 114.2293570000,22.2794130000 114.2292300000,22.2795300000 114.2293100000,22.2795900000 114.2294290000,22.2796800000 114.2295100000,22.2797600000 114.2295520000,22.2798080000 114.2296550000,22.2799400000 114.2297420000,22.2800680000 114.2297780000,22.2801320000 114.2298130000,22.2802020000 114.2298420000,22.2802660000 114.2298740000,22.2803520000 114.2299010000,22.2804370000 114.2299170000,22.2804950000 114.2299330000,22.2805620000 114.2299410000,22.2805970000 114.2300030000,22.2809180000 114.2300500000,22.2811300000 114.2300730000,22.2812100000 114.2301070000,22.2813110000 114.2301400000,22.2813940000 114.2301830000,22.2814960000 114.2302210000,22.2815740000 114.2302600000,22.2816500000 114.2303700000,22.2818200000 114.2304280000,22.2819000000 114.2305050000,22.2820000000 114.2305870000,22.2821030000 114.2307350000,22.2822550000 114.2307890000,22.2823010000 114.2309070000,22.2823960000 114.2310740000,22.2825110000 114.2312140000,22.2825940000 114.2313210000,22.2826500000 114.2315310000,22.2827430000 114.2316140000,22.2827750000 114.2317800000,22.2828230000 114.2320170000,22.2828760000 114.2321590000,22.2828980000 114.2323530000,22.2829130000 114.2324960000,22.2829130000 114.2326390000,22.2829020000 114.2328300000,22.2828820000 114.2329290000,22.2828660000 114.2330780000,22.2828400000 114.2332440000,22.2828050000 114.2334290000,22.2827570000 114.2335300000,22.2827260000 114.2336390000,22.2826870000 114.2337690000,22.2826310000 114.2339410000,22.2825410000 114.2340650000,22.2824680000 114.2342450000,22.2823430000 114.2343940000,22.2822240000 114.2344850000,22.2821390000 114.2345960000,22.2820270000 114.2347550000,22.2818300000 114.2349220000,22.2815870000 114.2349950000,22.2814670000 114.2351760000,22.2811350000 114.2352730000,22.2809770000 114.2354100000,22.2807870000 114.2355000000,22.2806650000 114.2359260000,22.2800860000 114.2360840000,22.2798690000 114.2361770000,22.2797450000 114.2363150000,22.2795400000 114.2363990000,22.2794150000 114.2364910000,22.2792560000 114.2365360000,22.2791650000 114.2365860000,22.2790520000 114.2366270000,22.2789410000 114.2366600000,22.2788280000 114.2366730000,22.2787680000 114.2367000000,22.2786580000 114.2367090000,22.2786230000 114.2367190000,22.2785830000 114.2367290000,22.2785440000 114.2368860000,22.2779410000 114.2369140000,22.2778420000 114.2369490000,22.2777280000 114.2369920000,22.2776060000 114.2370430000,22.2774730000 114.2371080000,22.2773270000 114.2371880000,22.2771640000 114.2373350000,22.2769080000 114.2375000000,22.2766770000 114.2388040000,22.2751210000 114.2390540000,22.2747850000 114.2392060000,22.2745190000 114.2393160000,22.2742690000 114.2393840000,22.2740700000 114.2394400000,22.2738550000 114.2394720000,22.2736770000 114.2394930000,22.2734740000 114.2394940000,22.2732460000 114.2394770000,22.2730170000 114.2394400000,22.2727910000 114.2393280000,22.2723540000 114.2391500000,22.2715110000 114.2388360000,22.2704010000 114.2387550000,22.2701890000 114.2386460000,22.2699870000 114.2385180000,22.2697700000 114.2382170000,22.2692100000 114.2380110000,22.2688260000 114.2379500000,22.2686950000 114.2379090000,22.2686000000 114.2378750000,22.2685210000 114.2378180000,22.2683540000 114.2377990000,22.2682910000 114.2377500000,22.2681220000 114.2377190000,22.2679750000 114.2377000000,22.2678510000 114.2376830000,22.2676750000 114.2376830000,22.2676470000 114.2376810000,22.2675450000 114.2376810000,22.2675240000 114.2376780000,22.2673930000 114.2376850000,22.2671900000 114.2376930000,22.2670450000 114.2377100000,22.2669040000 114.2377280000,22.2667790000 114.2378460000,22.2661540000 114.2378630000,22.2660380000 114.2378740000,22.2659330000 114.2378750000,22.2658500000 114.2378730000,22.2657370000 114.2378640000,22.2656500000 114.2378500000,22.2655640000 114.2378320000,22.2654880000 114.2378070000,22.2654070000 114.2376440000,22.2649390000 114.2376160000,22.2648520000 114.2375930000,22.2647560000 114.2375780000,22.2646700000 114.2375680000,22.2645970000 114.2375630000,22.2645380000 114.2375630000,22.2644620000 114.2375660000,22.2643860000 114.2375800000,22.2642740000 114.2375940000,22.2641890000 114.2376100000,22.2641200000 114.2376350000,22.2640440000 114.2376610000,22.2639780000 114.2376980000,22.2638950000 114.2378020000,22.2636820000 114.2378250000,22.2636360000 114.2378790000,22.2635620000 114.2379000000,22.2634900000 114.2379060000,22.2634260000 114.2379040000,22.2633900000 114.2378970000,22.2633460000 114.2378830000,22.2632980000 114.2378630000,22.2632470000 114.2378460000,22.2632140000 114.2378270000,22.2631830000 114.2377900000,22.2631510000 114.2377380000,22.2631200000 114.2376740000,22.2630890000 114.2376130000,22.2630670000 114.2375550000,22.2630490000 114.2375030000,22.2630380000 114.2374530000,22.2630320000 114.2374110000,22.2630320000 114.2373780000,22.2630350000 114.2373380000,22.2630440000 114.2373020000,22.2630550000 114.2372610000,22.2630750000 114.2372150000,22.2631020000 114.2371500000,22.2631500000 114.2371070000,22.2632200000 114.2371010000,22.2632700000 114.2371030000,22.2633200000 114.2371210000,22.2634300000 114.2371700000,22.2635300000 114.2373260000,22.2636430000 114.2373870000,22.2637250000 114.2374300000,22.2637880000 114.2374570000,22.2638390000 114.2374770000,22.2638840000 114.2374910000,22.2639240000 114.2375000000,22.2639690000 114.2375050000,22.2640160000 114.2375040000,22.2640640000 114.2375000000,22.2641120000 114.2374870000,22.2641950000 114.2374760000,22.2642820000 114.2374700000,22.2643800000 114.2374690000,22.2644800000 114.2374730000,22.2645780000 114.2374940000,22.2647200000 114.2375140000,22.2648110000 114.2375430000,22.2649080000 114.2376610000,22.2652300000 114.2376850000,22.2653060000 114.2377070000,22.2653830000 114.2377020000,22.2655270000 114.2376980000,22.2655650000 114.2376900000,22.2655940000 114.2376740000,22.2656240000 114.2376520000,22.2656480000 114.2376290000,22.2656640000 114.2376010000,22.2656780000 114.2375730000,22.2656850000 114.2375440000,22.2656860000 114.2375150000,22.2656830000 114.2374850000,22.2656750000 114.2374590000,22.2656630000 114.2374360000,22.2656470000 114.2374160000,22.2656270000 114.2373990000,22.2656020000 114.2373860000,22.2655780000 114.2373600000,22.2654990000 114.2373360000,22.2654500000 114.2373020000,22.2653980000 114.2372370000,22.2653450000 114.2371070000,22.2652540000 114.2368220000,22.2650390000 114.2367790000,22.2649740000 114.2367710000,22.2649530000 114.2367520000,22.2648470000 114.2368500000,22.2647430000 114.2369370000,22.2646510000 114.2369500000,22.2645920000 114.2369270000,22.2645100000 114.2369260000,22.2645080000 114.2368580000,22.2644540000 114.2365890000,22.2642370000 114.2365230000,22.2641850000 114.2362570000,22.2639740000 114.2361660000,22.2639050000 114.2361330000,22.2638030000 114.2361120000,22.2637400000 114.2361210000,22.2636800000 114.2361400000,22.2636200000 114.2361800000,22.2635700000 114.2362400000,22.2635300000 114.2363000000,22.2635070000 114.2364370000,22.2634720000 114.2365200000,22.2634500000 114.2367700000,22.2634400000 114.2368600000,22.2634380000 114.2369700000,22.2634500000 114.2370890000,22.2634860000 114.2371700000,22.2635300000 114.2373260000,22.2636430000 114.2373760000,22.2636710000 114.2374360000,22.2636960000 114.2374940000,22.2637150000 114.2375500000,22.2637220000 114.2376200000,22.2637200000 114.2377100000,22.2637000000 114.2378250000,22.2636360000 114.2378790000,22.2635620000 114.2379430000,22.2634950000 114.2380250000,22.2634190000 114.2380720000,22.2633830000 114.2381180000,22.2633570000 114.2381660000,22.2633340000 114.2382460000,22.2633050000 114.2383220000,22.2632900000 114.2383850000,22.2632830000 114.2386550000,22.2632730000 114.2387300000,22.2632740000 114.2387960000,22.2632790000 114.2388840000,22.2632910000 114.2389810000,22.2633100000 114.2390720000,22.2633330000 114.2391440000,22.2633560000 114.2392150000,22.2633860000 114.2392780000,22.2634160000 114.2393860000,22.2634700000 114.2394760000,22.2635200000 114.2395630000,22.2635810000 114.2397530000,22.2637190000 114.2399460000,22.2638600000 114.2402520000,22.2640810000 114.2404460000,22.2642240000 114.2406180000,22.2643500000 114.2406860000,22.2643990000 114.2407800000,22.2644710000 114.2408980000,22.2645580000 114.2417990000,22.2652170000 114.2420970000,22.2654330000 114.2424540000,22.2656840000 114.2426890000,22.2658520000 114.2430770000,22.2661400000 114.2432580000,22.2662660000 114.2433210000,22.2661860000 114.2434650000,22.2660400000 114.2435860000,22.2659580000 114.2437200000,22.2658920000 114.2439200000,22.2658210000 114.2441220000,22.2657760000 114.2442580000,22.2657640000 114.2443920000,22.2657650000 114.2445640000,22.2657840000 114.2446780000,22.2658060000 114.2450480000,22.2658850000 114.2451570000,22.2659060000 114.2452690000,22.2659240000 114.2453750000,22.2659370000 114.2454740000,22.2659430000 114.2456320000,22.2659460000 114.2457800000,22.2659400000 114.2460000000,22.2659200000 114.2461500000,22.2659000000 114.2462900000,22.2658700000 114.2465210000,22.2657970000 114.2465730000,22.2657960000 114.2466070000,22.2657940000 114.2466450000,22.2657990000 114.2466810000,22.2658070000 114.2467100000,22.2658190000 114.2467440000,22.2658410000 114.2467710000,22.2658670000 114.2467970000,22.2659020000 114.2468220000,22.2659450000 114.2468600000,22.2660630000 114.2468480000,22.2665550000 114.2468460000,22.2666590000 114.2468460000,22.2667430000 114.2469380000,22.2667420000 114.2470000000,22.2667410000 114.2470180000,22.2667400000 114.2470680000,22.2666990000 114.2471160000,22.2666970000 114.2474430000,22.2667080000 114.2475990000,22.2666980000 114.2477540000,22.2667160000 114.2478230000,22.2667010000 114.2480400000,22.2666500000 114.2494280000,22.2662880000 114.2495250000,22.2662610000 114.2496040000,22.2662350000 114.2496980000,22.2662030000 114.2497690000,22.2661770000 114.2498340000,22.2661510000 114.2498930000,22.2661260000 114.2499900000,22.2660790000 114.2501000000,22.2660200000 114.2501800000,22.2659800000 114.2502910000,22.2659150000 114.2503810000,22.2658590000 114.2504630000,22.2658080000 114.2507000000,22.2656300000 114.2510300000,22.2653900000 114.2510440000,22.2653780000 114.2512310000,22.2652240000 114.2513580000,22.2651160000 114.2514460000,22.2650310000 114.2514780000,22.2649990000 114.2515530000,22.2649270000 114.2516370000,22.2648430000 114.2517150000,22.2647630000 114.2518020000,22.2646640000 114.2518690000,22.2645750000 114.2519360000,22.2644730000 114.2519830000,22.2643880000 114.2520200000,22.2643080000 114.2520510000,22.2642220000 114.2520690000,22.2641590000 114.2520870000,22.2640590000 114.2520920000,22.2639300000 114.2520880000,22.2638460000 114.2520750000,22.2637580000 114.2520580000,22.2636850000 114.2520300000,22.2636060000 114.2519700000,22.2634800000 114.2518700000,22.2633400000 114.2517600000,22.2632000000 114.2516780000,22.2631020000 114.2514900000,22.2629200000 114.2513000000,22.2627600000 114.2511230000,22.2626400000 114.2510590000,22.2626010000 114.2510290000,22.2625820000 114.2509570000,22.2625430000 114.2507590000,22.2624500000 114.2506510000,22.2624100000 114.2505720000,22.2623880000 114.2504930000,22.2623730000 114.2504050000,22.2623650000 114.2503160000,22.2623630000 114.2502430000,22.2623670000 114.2501650000,22.2623750000 114.2500900000,22.2623880000 114.2500170000,22.2624070000 114.2499430000,22.2624320000 114.2498730000,22.2624610000 114.2498060000,22.2624940000 114.2497580000,22.2625210000 114.2497420000,22.2625300000 114.2496880000,22.2625670000 114.2496330000,22.2626120000 114.2495920000,22.2626490000 114.2495200000,22.2627260000 114.2494530000,22.2628080000 114.2493870000,22.2629030000 114.2490580000,22.2633780000 114.2488640000,22.2636700000 114.2486910000,22.2639140000 114.2486510000,22.2639690000 114.2485890000,22.2640520000 114.2485390000,22.2641120000 114.2484630000,22.2642030000 114.2482520000,22.2644350000 114.2481500000,22.2645390000 114.2479950000,22.2646900000 114.2478000000,22.2648700000 114.2477080000,22.2649560000 114.2475670000,22.2650840000 114.2474400000,22.2651860000 114.2473420000,22.2652610000 114.2472500000,22.2653250000 114.2471530000,22.2653880000 114.2470560000,22.2654430000 114.2469590000,22.2654930000 114.2468950000,22.2655250000 114.2468110000,22.2655690000 114.2467400000,22.2656020000 114.2467800000,22.2656910000 114.2468210000,22.2657780000 114.2468420000,22.2658270000 114.2468530000,22.2658640000 114.2468590000,22.2658970000 114.2468610000,22.2659350000 114.2468620000,22.2659860000 114.2468600000,22.2660630000 114.2468480000,22.2665550000 114.2468460000,22.2666590000 114.2467370000,22.2666610000 114.2462900000,22.2666430000 114.2460510000,22.2666390000 114.2459900000,22.2666410000 114.2459320000,22.2666480000 114.2458800000,22.2666640000 114.2458270000,22.2666850000 114.2457780000,22.2667120000 114.2457380000,22.2667410000 114.2457080000,22.2668170000 114.2455140000,22.2670430000 114.2454710000,22.2670920000 114.2454000000,22.2671790000 114.2453320000,22.2671260000 114.2450790000,22.2669290000 114.2450790000,22.2669290000 114.2448390000,22.2671950000 114.2447780000,22.2672620000 114.2443300000,22.2669450000 114.2441710000,22.2668360000 114.2440410000,22.2667470000 114.2441630000,22.2666010000 114.2442160000,22.2665360000 114.2444000000,22.2663160000 114.2444510000,22.2662340000 114.2444820000,22.2661610000 114.2445030000,22.2661020000 114.2445250000,22.2659830000 114.2445340000,22.2659400000 114.2445430000,22.2658970000 114.2445480000,22.2658710000 114.2445640000,22.2657840000 114.2445830000,22.2656860000 114.2444610000,22.2656650000 114.2443480000,22.2656500000 114.2442310000,22.2656440000 114.2441230000,22.2656460000 114.2440380000,22.2656630000 114.2432950000,22.2657930000 114.2432330000,22.2657930000 114.2430970000,22.2657930000 114.2428720000,22.2657590000 114.2427740000,22.2657300000 114.2426260000,22.2656880000 114.2421620000,22.2653560000 114.2417790000,22.2650770000 114.2414720000,22.2648500000 114.2408530000,22.2643850000 114.2407250000,22.2642900000 114.2403230000,22.2639950000 114.2399550000,22.2637210000 114.2396690000,22.2635200000 114.2396370000,22.2634960000 114.2395440000,22.2634350000 114.2393700000,22.2633300000 114.2392770000,22.2632900000 114.2391920000,22.2632610000 114.2390980000,22.2632350000 114.2389870000,22.2632100000 114.2388990000,22.2631950000 114.2388450000,22.2631900000 114.2387840000,22.2631890000 114.2385890000,22.2631970000 114.2382660000,22.2632180000 114.2381350000,22.2632220000 114.2380060000,22.2632190000 114.2379430000,22.2632090000 114.2378740000,22.2631960000 114.2378270000,22.2631830000 114.2377900000,22.2631510000 114.2377380000,22.2631200000 114.2376740000,22.2630890000 114.2376130000,22.2630670000 114.2375550000,22.2630490000 114.2375030000,22.2630380000 114.2374530000,22.2630320000 114.2374110000,22.2630320000 114.2373780000,22.2630350000 114.2373380000,22.2630440000 114.2373020000,22.2630550000 114.2372610000,22.2630750000 114.2372150000,22.2631020000 114.2371500000,22.2631500000 114.2371070000,22.2632200000 114.2371010000,22.2632700000 114.2371030000,22.2633200000 114.2371210000,22.2634300000 114.2371700000,22.2635300000 114.2373260000,22.2636430000 114.2373870000,22.2637250000 114.2374300000,22.2637880000 114.2374570000,22.2638390000 114.2374770000,22.2638840000 114.2374910000,22.2639240000 114.2375000000,22.2639690000 114.2375050000,22.2640160000 114.2375040000,22.2640640000 114.2375000000,22.2641120000 114.2374870000,22.2641950000 114.2374760000,22.2642820000 114.2374700000,22.2643800000 114.2374690000,22.2644800000 114.2374730000,22.2645780000 114.2374940000,22.2647200000 114.2375140000,22.2648110000 114.2375430000,22.2649080000 114.2376610000,22.2652300000 114.2376850000,22.2653060000 114.2377070000,22.2653830000 114.2377020000,22.2655270000 114.2376980000,22.2655650000 114.2376900000,22.2655940000 114.2376740000,22.2656240000 114.2376520000,22.2656480000 114.2376290000,22.2656640000 114.2376010000,22.2656780000 114.2375730000,22.2656850000 114.2375440000,22.2656860000 114.2375150000,22.2656830000 114.2374850000,22.2656750000 114.2374590000,22.2656630000 114.2374360000,22.2656470000 114.2374160000,22.2656270000 114.2373990000,22.2656020000 114.2373860000,22.2655780000 114.2373600000,22.2654990000 114.2373360000,22.2654500000 114.2373020000,22.2653980000 114.2372370000,22.2653450000 114.2371070000,22.2652540000 114.2368220000,22.2650390000 114.2367790000,22.2649740000 114.2367710000,22.2649530000 114.2367520000,22.2648470000 114.2368460000,22.2647470000 114.2369370000,22.2646510000 114.2369500000,22.2645920000 114.2369270000,22.2645100000 114.2369260000,22.2645080000 114.2368580000,22.2644540000 114.2365890000,22.2642370000 114.2365230000,22.2641850000 114.2362570000,22.2639740000 114.2361660000,22.2639050000 114.2361330000,22.2638030000 114.2361120000,22.2637400000 114.2361210000,22.2636800000 114.2361400000,22.2636200000 114.2361800000,22.2635700000 114.2362400000,22.2635300000 114.2363000000,22.2635070000 114.2364370000,22.2634720000 114.2365200000,22.2634500000 114.2367700000,22.2634400000 114.2368600000,22.2634380000 114.2369700000,22.2634500000 114.2370890000,22.2634860000 114.2371700000,22.2635300000 114.2373260000,22.2636430000 114.2373870000,22.2637250000 114.2374300000,22.2637880000 114.2374570000,22.2638390000 114.2374770000,22.2638840000 114.2374910000,22.2639240000 114.2375000000,22.2639690000 114.2375050000,22.2640160000 114.2375040000,22.2640640000 114.2375000000,22.2641120000 114.2374870000,22.2641950000 114.2374760000,22.2642820000 114.2374700000,22.2643800000 114.2374690000,22.2644800000 114.2374730000,22.2645780000 114.2374940000,22.2647200000 114.2375140000,22.2648110000 114.2375430000,22.2649080000 114.2376610000,22.2652300000 114.2376850000,22.2653060000 114.2377070000,22.2653830000 114.2377320000,22.2655220000 114.2377410000,22.2656050000 114.2377470000,22.2657190000 114.2377460000,22.2659060000 114.2377380000,22.2660120000 114.2376060000,22.2670930000 114.2375970000,22.2671950000 114.2375920000,22.2672940000 114.2375900000,22.2673860000 114.2375920000,22.2674860000 114.2376050000,22.2676770000 114.2376190000,22.2678380000 114.2376300000,22.2679220000 114.2376520000,22.2680540000 114.2376710000,22.2681440000 114.2377090000,22.2683070000 114.2377400000,22.2684200000 114.2377620000,22.2684930000 114.2377960000,22.2685930000 114.2378550000,22.2687500000 114.2379080000,22.2688700000 114.2380560000,22.2691820000 114.2381230000,22.2693340000 114.2382440000,22.2696400000 114.2383310000,22.2698500000 114.2383950000,22.2700280000 114.2384450000,22.2701930000 114.2384670000,22.2702820000 114.2385130000,22.2704720000 114.2385690000,22.2706410000 114.2388440000,22.2713530000 114.2391590000,22.2722780000 114.2392430000,22.2725450000 114.2392910000,22.2727140000 114.2393240000,22.2728570000 114.2393460000,22.2729910000 114.2393630000,22.2731330000 114.2393730000,22.2732560000 114.2393750000,22.2733820000 114.2393710000,22.2735130000 114.2393540000,22.2736650000 114.2393250000,22.2738250000 114.2392870000,22.2739860000 114.2392450000,22.2741240000 114.2392050000,22.2742440000 114.2391490000,22.2743750000 114.2390890000,22.2745010000 114.2390290000,22.2746120000 114.2389630000,22.2747230000 114.2388870000,22.2748380000 114.2388160000,22.2749360000 114.2387520000,22.2750200000 114.2386830000,22.2751040000 114.2375420000,22.2764650000 114.2374170000,22.2766210000 114.2373250000,22.2767460000 114.2372560000,22.2768480000 114.2371670000,22.2769930000 114.2371030000,22.2771070000 114.2370510000,22.2772100000 114.2369960000,22.2773260000 114.2369350000,22.2774750000 114.2368700000,22.2776600000 114.2367930000,22.2779100000 114.2366440000,22.2785280000 114.2366360000,22.2785600000 114.2366210000,22.2786070000 114.2366090000,22.2786410000 114.2365730000,22.2787530000 114.2364020000,22.2791420000 114.2363310000,22.2792660000 114.2358180000,22.2800200000 114.2353720000,22.2806110000 114.2352810000,22.2807320000 114.2350780000,22.2809760000 114.2349990000,22.2810520000 114.2347300000,22.2813150000 114.2346850000,22.2813650000 114.2341840000,22.2819110000 114.2340320000,22.2820830000 114.2339610000,22.2821620000 114.2338720000,22.2822490000 114.2337240000,22.2823760000 114.2336700000,22.2824180000 114.2335430000,22.2824980000 114.2334740000,22.2825340000 114.2333690000,22.2825800000 114.2332080000,22.2826370000 114.2330380000,22.2826830000 114.2329580000,22.2827020000 114.2328190000,22.2827250000 114.2326230000,22.2827470000 114.2325270000,22.2827500000 114.2323140000,22.2827490000 114.2321960000,22.2827400000 114.2320070000,22.2827130000 114.2318020000,22.2826670000 114.2316750000,22.2826280000 114.2315320000,22.2825670000 114.2313730000,22.2825000000 114.2311590000,22.2823790000 114.2310290000,22.2822890000 114.2309240000,22.2822020000 114.2308170000,22.2821010000 114.2307780000,22.2820630000 114.2306970000,22.2819790000 114.2305900000,22.2818500000 114.2305900000,22.2818000000 114.2305990000,22.2816610000 114.2306620000,22.2812030000 114.2306690000,22.2811510000 114.2307060000,22.2810020000 114.2307090000,22.2809760000 114.2307160000,22.2808810000 114.2307160000,22.2808510000 114.2307110000,22.2808160000 114.2306910000,22.2807700000 114.2304250000,22.2802420000 114.2303860000,22.2801660000 114.2303610000,22.2801150000 114.2303360000,22.2800580000 114.2300040000,22.2792050000 114.2299950000,22.2791760000 114.2299910000,22.2791470000 114.2299890000,22.2791220000 114.2299900000,22.2791030000 114.2299950000,22.2790800000 114.2301610000,22.2785520000 114.2302940000,22.2781290000 114.2303080000,22.2780610000 114.2303090000,22.2779920000 114.2302980000,22.2779240000 114.2302750000,22.2778590000 114.2302660000,22.2778330000 114.2302470000,22.2777770000 114.2301150000,22.2775820000 114.2299150000,22.2772160000 114.2298700000,22.2771350000 114.2298610000,22.2771190000 114.2298470000,22.2770930000 114.2298140000,22.2770340000 114.2297770000,22.2769710000 114.2296810000,22.2768130000 114.2296350000,22.2767650000 114.2295540000,22.2767220000 114.2294920000,22.2767040000 114.2294340000,22.2766990000 114.2293830000,22.2767020000 114.2292630000,22.2767190000 114.2291160000,22.2767500000 114.2290490000,22.2767110000 114.2290310000,22.2767140000 114.2288600000,22.2767470000 114.2288360000,22.2767520000 114.2288050000,22.2767580000 114.2287530000,22.2767850000 114.2286510000,22.2768050000 114.2285640000,22.2768210000 114.2284640000,22.2768420000 114.2283180000,22.2768910000 114.2282020000,22.2769410000 114.2278120000,22.2771210000 114.2272170000,22.2774260000 114.2271020000,22.2774880000 114.2270670000,22.2775080000 114.2270000000,22.2775590000 114.2269410000,22.2776260000 114.2269050000,22.2776770000 114.2265440000,22.2782660000 114.2264970000,22.2783430000 114.2262700000,22.2787140000 114.2261680000,22.2788810000 114.2257310000,22.2795960000 114.2256930000,22.2796580000 114.2255220000,22.2799460000 114.2254890000,22.2799970000 114.2254230000,22.2800730000 114.2253600000,22.2801280000 114.2253160000,22.2801600000 114.2252480000,22.2801920000 114.2251360000,22.2802230000 114.2250820000,22.2802350000 114.2246790000,22.2803080000 114.2245750000,22.2803290000 114.2243770000,22.2803690000 114.2242680000,22.2803960000 114.2239400000,22.2805220000 114.2234930000,22.2807280000 114.2233840000,22.2807780000 114.2230290000,22.2809450000 114.2229150000,22.2809990000 114.2226910000,22.2811340000 114.2225940000,22.2812080000 114.2224920000,22.2812910000 114.2224250000,22.2813490000 114.2223680000,22.2814100000 114.2223150000,22.2814730000 114.2221100000,22.2817370000 114.2220030000,22.2818740000 114.2219440000,22.2819500000 114.2219190000,22.2819810000 114.2218180000,22.2821090000 114.2217610000,22.2821820000 114.2215420000,22.2824650000 114.2212900000,22.2827900000 114.2212030000,22.2828980000 114.2211280000,22.2829910000 114.2209590000,22.2832080000 114.2208720000,22.2833270000 114.2206720000,22.2835830000 114.2205490000,22.2837380000 114.2200900000,22.2843030000 114.2200800000,22.2843170000 114.2200130000,22.2843980000 114.2199520000,22.2844710000 114.2199860000,22.2845140000 114.2200030000,22.2845330000 114.2200420000,22.2845750000 114.2201460000,22.2846610000 114.2203450000,22.2847870000 114.2205850000,22.2849490000 114.2206420000,22.2850000000 114.2207080000,22.2850680000 114.2207320000,22.2851010000 114.2207490000,22.2851280000 114.2207900000,22.2852180000 114.2208170000,22.2852780000 114.2208360000,22.2853380000 114.2208490000,22.2854010000 114.2208640000,22.2854750000 114.2208290000,22.2858090000 114.2208070000,22.2859380000 114.2207910000,22.2859980000 114.2207620000,22.2860600000 114.2207130000,22.2861120000 114.2206530000,22.2861540000 114.2205900000,22.2861730000 114.2205180000,22.2861800000 114.2203900000,22.2861820000 114.2202670000,22.2861820000 114.2202180000,22.2861820000 114.2200950000,22.2861650000 114.2199370000,22.2861630000 114.2198340000,22.2861800000 114.2196670000,22.2861800000 114.2189230000,22.2861760000 114.2188590000,22.2861760000 114.2182620000,22.2861790000 114.2182300000,22.2861790000 114.2181500000,22.2861800000 114.2180590000,22.2861800000 114.2179500000,22.2861800000 114.2177700000,22.2861780000 114.2175490000,22.2861790000 114.2173990000,22.2861810000 114.2173450000,22.2861810000 114.2171390000,22.2861810000 114.2169160000,22.2861780000 114.2167300000,22.2861790000 114.2165420000,22.2861780000 114.2165430000,22.2862890000 114.2165460000,22.2866140000 114.2165480000,22.2869510000 114.2165490000,22.2869990000 114.2165500000,22.2873050000 114.2165560000,22.2873300000 114.2165710000,22.2873500000 114.2166690000,22.2873470000 114.2167470000,22.2873460000 114.2171050000,22.2873390000 114.2172160000,22.2874010000 114.2172520000,22.2874430000 114.2172740000,22.2874690000 114.2172800000,22.2875020000 114.2172880000,22.2875500000 114.2172930000,22.2875940000 114.2173000000,22.2876500000 114.2172940000,22.2877650000 114.2172920000,22.2878000000 114.2172810000,22.2878660000 114.2172710000,22.2879300000 114.2172030000,22.2880520000 114.2171500000,22.2881400000 114.2170960000,22.2882060000 114.2169670000,22.2883570000 114.2166860000,22.2886740000 114.2166490000,22.2887030000 114.2165010000,22.2888220000 114.2163630000,22.2888880000 114.2160260000,22.2889990000 114.2159000000,22.2890340000 114.2158250000,22.2890530000 114.2157560000,22.2890700000 114.2152900000,22.2892520000 114.2151250000,22.2893220000 114.2147580000,22.2894410000 114.2142880000,22.2896070000 114.2137820000,22.2898170000 114.2134510000,22.2899700000 114.2133040000,22.2900230000 114.2131690000,22.2900720000 114.2127380000,22.2903170000 114.2124830000,22.2904610000 114.2123200000,22.2905530000 114.2122130000,22.2906180000 114.2121310000,22.2906670000 114.2120320000,22.2907270000 114.2119230000,22.2907940000 114.2116530000,22.2909590000 114.2114960000,22.2910550000 114.2114030000,22.2911130000 114.2111810000,22.2912530000 114.2110560000,22.2913310000 114.2109730000,22.2913830000 114.2106220000,22.2916380000 114.2102020000,22.2919430000 114.2096790000,22.2923280000 114.2094250000,22.2924890000 114.2091620000,22.2926270000 114.2088160000,22.2927860000 114.2086880000,22.2928400000 114.2084250000,22.2929190000 114.2081530000,22.2930010000 114.2077170000,22.2931270000 114.2072230000,22.2932690000 114.2071640000,22.2932870000 114.2066740000,22.2934340000 114.2061700000,22.2935940000 114.2056640000,22.2937480000 114.2053700000,22.2938370000 114.2050060000,22.2939470000 114.2049120000,22.2939730000 114.2046900000,22.2940290000 114.2045330000,22.2940650000 114.2042430000,22.2941180000 114.2040330000,22.2941470000 114.2039120000,22.2941540000 114.2037320000,22.2941650000 114.2035270000,22.2941680000 114.2034090000,22.2941650000 114.2032010000,22.2941380000 114.2031730000,22.2941340000 114.2030020000,22.2941110000 114.2029330000,22.2941020000 114.2028290000,22.2940850000 114.2026460000,22.2940560000 114.2025500000,22.2940360000 114.2022170000,22.2939690000 114.2021190000,22.2939490000 114.2018350000,22.2938920000 114.2015540000,22.2938360000 114.2013450000,22.2937940000 114.2005900000,22.2936420000 114.2005170000,22.2936260000 114.2000710000,22.2935390000 114.1999040000,22.2935110000 114.1997390000,22.2934890000 114.1995910000,22.2934740000 114.1994500000,22.2934640000 114.1992990000,22.2934600000 114.1989250000,22.2934630000 114.1987990000,22.2934610000 114.1986680000,22.2934560000 114.1984820000,22.2934470000 114.1983720000,22.2934380000 114.1982150000,22.2934210000 114.1980750000,22.2933990000 114.1971540000,22.2932100000 114.1968890000,22.2931570000 114.1966340000,22.2931040000 114.1963890000,22.2930500000 114.1963650000,22.2930450000 114.1962830000,22.2930270000 114.1961050000,22.2929900000 114.1958550000,22.2929350000 114.1956370000,22.2928790000 114.1955750000,22.2928640000 114.1955000000,22.2928430000 114.1953420000,22.2928020000 114.1950760000,22.2927130000 114.1949500000,22.2926590000 114.1948340000,22.2926050000 114.1947770000,22.2925780000 114.1947230000,22.2925510000 114.1945570000,22.2924640000 114.1944720000,22.2924140000 114.1943380000,22.2923400000 114.1943010000,22.2923180000 114.1940990000,22.2921780000 114.1939740000,22.2920840000 114.1938490000,22.2919940000 114.1937010000,22.2918840000 114.1936750000,22.2918610000 114.1936060000,22.2918030000 114.1935350000,22.2917410000 114.1934410000,22.2916610000 114.1933890000,22.2916150000 114.1933500000,22.2915810000 114.1933240000,22.2915550000 114.1933070000,22.2915380000 114.1932510000,22.2914830000 114.1931350000,22.2913490000 114.1930370000,22.2912980000 114.1930000000,22.2912790000 114.1929650000,22.2912600000 114.1928810000,22.2911910000 114.1927960000,22.2911220000 114.1926510000,22.2909900000 114.1923350000,22.2907120000 114.1922120000,22.2906020000 114.1918270000,22.2902610000 114.1916300000,22.2900770000 114.1908750000,22.2893900000 114.1907350000,22.2892620000 114.1890040000,22.2874280000 114.1877620000,22.2861010000 114.1876340000,22.2859670000 114.1875060000,22.2858380000 114.1873510000,22.2856890000 114.1871940000,22.2855440000 114.1869480000,22.2853310000 114.1868230000,22.2852280000 114.1866980000,22.2851280000 114.1864830000,22.2849650000 114.1862650000,22.2848080000 114.1860420000,22.2846580000 114.1858230000,22.2845190000 114.1856130000,22.2843930000 114.1854010000,22.2842730000 114.1851740000,22.2841520000 114.1849430000,22.2840370000 114.1847330000,22.2839390000 114.1845230000,22.2838460000 114.1841940000,22.2837120000 114.1838710000,22.2835940000 114.1835380000,22.2834860000 114.1832060000,22.2833900000 114.1830230000,22.2833420000 114.1828410000,22.2832980000 114.1826170000,22.2832480000 114.1823210000,22.2831920000 114.1820230000,22.2831430000 114.1814740000,22.2830780000 114.1805170000,22.2830320000 114.1768450000,22.2825330000 114.1755490000,22.2823780000 114.1749950000,22.2823150000 114.1743800000,22.2822580000 114.1728910000,22.2821650000 114.1715990000,22.2821360000 114.1711640000,22.2821470000 114.1704020000,22.2821530000 114.1698050000,22.2821850000 114.1683210000,22.2822580000 114.1678140000,22.2822960000 114.1672620000,22.2823610000 114.1666010000,22.2824650000 114.1661110000,22.2825700000 114.1655820000,22.2826990000 114.1650590000,22.2828520000 114.1644680000,22.2830590000 114.1640640000,22.2832160000 114.1636710000,22.2833830000 114.1630590000,22.2836830000 114.1612520000,22.2847050000 114.1603510000,22.2852150000 114.1600340000,22.2854100000 114.1590010000,22.2860480000 114.1585600000,22.2863200000 114.1584600000,22.2863770000 114.1581200000,22.2865700000 114.1577150000,22.2867660000 114.1574210000,22.2868850000 114.1573240000,22.2869170000 114.1572250000,22.2869470000 114.1570690000,22.2869880000 114.1569330000,22.2870180000 114.1568290000,22.2870380000 114.1567060000,22.2870580000 114.1565900000,22.2870730000 114.1564660000,22.2870850000 114.1563510000,22.2870940000 114.1561880000,22.2870990000 114.1560630000,22.2871000000 114.1559410000,22.2870980000 114.1557750000,22.2870900000 114.1556520000,22.2870800000 114.1555310000,22.2870680000 114.1551870000,22.2870330000 114.1551000000,22.2870220000 114.1548880000,22.2869920000 114.1547980000,22.2869790000 114.1546550000,22.2869580000 114.1546200000,22.2869530000 114.1542500000,22.2869200000 114.1540900000,22.2869130000 114.1539550000,22.2869130000 114.1537930000,22.2869190000 114.1536620000,22.2869260000 114.1535390000,22.2869390000 114.1533250000,22.2869710000 114.1532130000,22.2869840000 114.1529020000,22.2870700000 114.1526480000,22.2871460000 114.1525440000,22.2871770000 114.1523260000,22.2872420000 114.1518070000,22.2873960000 114.1510010000,22.2876360000 114.1507380000,22.2877100000 114.1504730000,22.2877840000 114.1500380000,22.2879030000 114.1496450000,22.2880000000 114.1488010000,22.2882260000 114.1483480000,22.2883170000 114.1482760000,22.2883440000 114.1481130000,22.2883980000 114.1480310000,22.2884120000 114.1477010000,22.2884540000 114.1464610000,22.2885810000 114.1463690000,22.2885890000 114.1458940000,22.2886340000 114.1452760000,22.2886290000 114.1452130000,22.2886340000 114.1449270000,22.2886610000 114.1431340000,22.2888430000 114.1429290000,22.2888530000 114.1427240000,22.2888580000 114.1425180000,22.2888600000 114.1421640000,22.2888570000 114.1416570000,22.2888120000 114.1415230000,22.2888160000 114.1414030000,22.2888230000 114.1412830000,22.2888350000 114.1411630000,22.2888530000 114.1410450000,22.2888770000 114.1409610000,22.2889020000 114.1408800000,22.2889360000 114.1408030000,22.2889780000 114.1407310000,22.2890280000 114.1406660000,22.2890840000 114.1406080000,22.2891460000 114.1405650000,22.2892050000 114.1405280000,22.2892690000 114.1404990000,22.2893310000 114.1404750000,22.2893920000 114.1404580000,22.2894540000 114.1404480000,22.2895140000 114.1404430000,22.2895770000 114.1404430000,22.2896440000 114.1404490000,22.2897100000 114.1404610000,22.2897730000 114.1404780000,22.2898340000 114.1405030000,22.2898980000 114.1405360000,22.2899620000 114.1405750000,22.2900230000 114.1406370000,22.2901030000 114.1406880000,22.2901540000 114.1407440000,22.2902010000 114.1408050000,22.2902430000 114.1408760000,22.2902830000 114.1409480000,22.2903160000 114.1410200000,22.2903410000 114.1410970000,22.2903600000 114.1411730000,22.2903710000 114.1412540000,22.2903750000 114.1413400000,22.2903730000 114.1414220000,22.2903640000 114.1414930000,22.2903500000 114.1415690000,22.2903300000 114.1416550000,22.2902980000 114.1417490000,22.2902570000 114.1421090000,22.2900830000 114.1422010000,22.2900160000 114.1424570000,22.2898400000 114.1427260000,22.2896770000 114.1428510000,22.2896110000 114.1429780000,22.2895520000 114.1430950000,22.2895030000 114.1432150000,22.2894610000 114.1433370000,22.2894270000 114.1435660000,22.2893660000 114.1437070000,22.2893400000 114.1438090000,22.2893220000 114.1440550000,22.2892960000 114.1443030000,22.2892900000 114.1445500000,22.2893020000 114.1447950000,22.2893330000 114.1450370000,22.2893840000 114.1452730000,22.2894520000 114.1455020000,22.2895390000 114.1457230000,22.2896420000 114.1459340000,22.2897630000 114.1461330000,22.2898990000 114.1463680000,22.2901390000 114.1554730000,22.2999560000 114.1558600000,22.3003730000 114.1566150000,22.3012230000 114.1568940000,22.3015430000 114.1571420000,22.3018730000 114.1572490000,22.3020230000 114.1575930000,22.3024530000 114.1584030000,22.3034320000 114.1584690000,22.3035120000 114.1585150000,22.3035780000 114.1586210000,22.3037060000 114.1589420000,22.3041780000 114.1591530000,22.3044940000 114.1594820000,22.3050270000 114.1595880000,22.3051940000 114.1596600000,22.3053210000 114.1597240000,22.3054210000 114.1598150000,22.3055560000 114.1598920000,22.3056880000 114.1600100000,22.3058790000 114.1600740000,22.3059830000 114.1602070000,22.3062040000 114.1604750000,22.3067300000 114.1605520000,22.3068960000 114.1606170000,22.3070380000 114.1607670000,22.3073780000 114.1609030000,22.3077770000 114.1610160000,22.3080220000 114.1610810000,22.3081630000 114.1611240000,22.3082720000 114.1611510000,22.3083590000 114.1611690000,22.3084180000 114.1612440000,22.3086610000 114.1613700000,22.3093040000 114.1614650000,22.3098320000 114.1614950000,22.3100760000 114.1615180000,22.3103170000 114.1615390000,22.3107290000 114.1615440000,22.3108280000 114.1615570000,22.3111090000 114.1615500000,22.3115460000 114.1615310000,22.3120660000 114.1615120000,22.3123440000 114.1614680000,22.3127020000 114.1613990000,22.3130790000 114.1612700000,22.3136940000 114.1612220000,22.3138820000 114.1611790000,22.3140080000 114.1611490000,22.3140940000 114.1610750000,22.3143060000 114.1610470000,22.3143880000 114.1610120000,22.3144870000 114.1609700000,22.3146090000 114.1608720000,22.3148930000 114.1608170000,22.3150540000 114.1607220000,22.3152950000 114.1606600000,22.3154510000 114.1605320000,22.3157770000 114.1604310000,22.3160340000 114.1604020000,22.3161020000 114.1602320000,22.3165050000 114.1601490000,22.3167130000 114.1600170000,22.3170510000 114.1599140000,22.3172960000 114.1597820000,22.3176120000 114.1595720000,22.3181370000 114.1594170000,22.3185250000 114.1592550000,22.3188970000 114.1592030000,22.3190150000 114.1590080000,22.3194180000 114.1587420000,22.3199420000 114.1583530000,22.3206340000 114.1580280000,22.3211960000 114.1578120000,22.3215320000 114.1575490000,22.3219090000 114.1572310000,22.3223570000 114.1568960000,22.3228060000 114.1566210000,22.3231540000 114.1563410000,22.3235090000 114.1560360000,22.3238490000 114.1557920000,22.3241230000 114.1553950000,22.3245530000 114.1550540000,22.3249040000 114.1547300000,22.3252310000 114.1543620000,22.3255780000 114.1540020000,22.3258970000 114.1535900000,22.3262530000 114.1531170000,22.3266270000 114.1527770000,22.3268800000 114.1522560000,22.3272720000 114.1518220000,22.3275630000 114.1514760000,22.3277850000 114.1512290000,22.3279450000 114.1504710000,22.3283960000 114.1499850000,22.3286710000 114.1496200000,22.3288590000 114.1490590000,22.3291340000 114.1489510000,22.3291850000 114.1486060000,22.3293440000 114.1478890000,22.3296390000 114.1475170000,22.3297910000 114.1471780000,22.3299180000 114.1464480000,22.3302230000 114.1463850000,22.3302470000 114.1454820000,22.3305840000 114.1452560000,22.3306640000 114.1445070000,22.3309320000 114.1438590000,22.3311530000 114.1436130000,22.3312480000 114.1429310000,22.3315740000 114.1428530000,22.3316050000 114.1412890000,22.3322090000 114.1405410000,22.3324930000 114.1403740000,22.3325580000 114.1395880000,22.3328230000 114.1394970000,22.3328500000 114.1385640000,22.3332330000 114.1378030000,22.3335180000 114.1373210000,22.3337010000 114.1368860000,22.3338730000 114.1365640000,22.3340150000 114.1362710000,22.3341510000 114.1359690000,22.3343040000 114.1356310000,22.3344910000 114.1354440000,22.3346060000 114.1353440000,22.3346670000 114.1352220000,22.3347460000 114.1350140000,22.3348820000 114.1348000000,22.3350240000 114.1344480000,22.3352610000 114.1342910000,22.3353690000 114.1341900000,22.3354590000 114.1338720000,22.3357390000 114.1334860000,22.3361210000 114.1332200000,22.3364150000 114.1330340000,22.3366250000 114.1327260000,22.3370270000 114.1325120000,22.3373330000 114.1322740000,22.3377130000 114.1321960000,22.3378480000 114.1320510000,22.3380930000 114.1318960000,22.3383900000 114.1318580000,22.3384640000 114.1316890000,22.3387910000 114.1313190000,22.3395860000 114.1310380000,22.3402110000 114.1309620000,22.3403700000 114.1308660000,22.3405680000 114.1307020000,22.3409030000 114.1306300000,22.3410380000 114.1305920000,22.3411100000 114.1305250000,22.3412340000 114.1304660000,22.3413420000 114.1303470000,22.3415350000 114.1302580000,22.3416670000 114.1301950000,22.3417640000 114.1300900000,22.3418930000 114.1300170000,22.3419770000 114.1299130000,22.3420940000 114.1297960000,22.3422120000 114.1296700000,22.3423320000 114.1295520000,22.3424400000 114.1294840000,22.3425000000 114.1293200000,22.3426370000 114.1291160000,22.3427790000 114.1289430000,22.3428890000 114.1287970000,22.3429780000 114.1286030000,22.3430850000 114.1283130000,22.3432270000 114.1281970000,22.3432800000 114.1280870000,22.3433250000 114.1278230000,22.3434330000 114.1275370000,22.3435510000 114.1272190000,22.3436900000 114.1270920000,22.3437490000 114.1269950000,22.3437970000 114.1269170000,22.3438390000 114.1268020000,22.3439050000 114.1265700000,22.3440470000 114.1263600000,22.3441870000 114.1261980000,22.3443040000 114.1260630000,22.3444120000 114.1259430000,22.3445150000 114.1257850000,22.3446620000 114.1256620000,22.3447850000 114.1254920000,22.3449680000 114.1252790000,22.3452360000 114.1251700000,22.3453840000 114.1250580000,22.3455550000 114.1249770000,22.3456920000 114.1248460000,22.3459330000 114.1246780000,22.3462410000 114.1246340000,22.3464060000 114.1246200000,22.3464560000 114.1246030000,22.3465190000 114.1245820000,22.3465970000 114.1245630000,22.3466700000 114.1245300000,22.3467900000 114.1244960000,22.3469180000 114.1244670000,22.3470260000 114.1244530000,22.3470760000 114.1244430000,22.3471290000 114.1244350000,22.3471890000 114.1244300000,22.3472230000 114.1243930000,22.3475460000 114.1243650000,22.3479040000 114.1243660000,22.3480910000 114.1243750000,22.3483980000 114.1243700000,22.3487140000 114.1243510000,22.3491910000 114.1242990000,22.3496090000 114.1241960000,22.3499950000 114.1240680000,22.3503030000 114.1239290000,22.3506140000 114.1237360000,22.3509000000 114.1236170000,22.3510480000 114.1233060000,22.3513820000 114.1231200000,22.3515280000 114.1228140000,22.3517660000 114.1226790000,22.3518100000 114.1220650000,22.3520190000 114.1219870000,22.3520400000 114.1219230000,22.3520520000 114.1218010000,22.3520750000 114.1216210000,22.3520850000 114.1213080000,22.3520870000 114.1208510000,22.3520100000 114.1204700000,22.3518680000 114.1202110000,22.3517280000 114.1200700000,22.3516420000 114.1198640000,22.3514840000 114.1194000000,22.3510500000 114.1186930000,22.3504170000 114.1185030000,22.3502420000 114.1181730000,22.3499370000 114.1180210000,22.3498100000 114.1178600000,22.3497350000 114.1176420000,22.3495570000 114.1174680000,22.3494520000 114.1173320000,22.3493750000 114.1171870000,22.3493040000 114.1170050000,22.3492400000 114.1168280000,22.3491740000 114.1166770000,22.3491260000 114.1165100000,22.3490740000 114.1136600000,22.3483270000 114.1121360000,22.3479460000 114.1119830000,22.3478760000 114.1116370000,22.3477480000 114.1115260000,22.3477000000 114.1113880000,22.3476290000 114.1112440000,22.3475460000 114.1111760000,22.3475050000 114.1110340000,22.3473870000 114.1109500000,22.3473220000 114.1108550000,22.3472520000 114.1107870000,22.3471940000 114.1107320000,22.3471240000 114.1106930000,22.3470460000 114.1106710000,22.3469630000 114.1106670000,22.3468770000 114.1106780000,22.3467920000 114.1106860000,22.3467350000 114.1106830000,22.3466880000 114.1106610000,22.3466290000 114.1106220000,22.3465790000 114.1105690000,22.3465400000 114.1105090000,22.3465180000 114.1104450000,22.3465110000 114.1103760000,22.3465220000 114.1103130000,22.3465510000 114.1102620000,22.3465950000 114.1102200000,22.3466720000 114.1102130000,22.3467580000 114.1102420000,22.3468390000 114.1102400000,22.3469640000 114.1102690000,22.3471590000 114.1102840000,22.3473130000 114.1102930000,22.3474240000 114.1102850000,22.3475130000 114.1102560000,22.3475550000 114.1102380000,22.3476010000 114.1102310000,22.3476500000 114.1102360000,22.3476990000 114.1102520000,22.3477450000 114.1102780000,22.3477880000 114.1102970000,22.3479180000 114.1102790000,22.3480170000 114.1102590000,22.3481850000 114.1102540000,22.3482050000 114.1102410000,22.3483020000 114.1101990000,22.3484160000 114.1101370000,22.3485890000 114.1100640000,22.3487060000 114.1099770000,22.3488360000 114.1097960000,22.3490700000 114.1091000000,22.3499420000 114.1090770000,22.3499700000 114.1090510000,22.3500040000 114.1089390000,22.3500980000 114.1088370000,22.3502220000 114.1087750000,22.3502960000 114.1086870000,22.3504050000 114.1085630000,22.3505650000 114.1085440000,22.3505900000 114.1083550000,22.3508510000 114.1083020000,22.3509250000 114.1082150000,22.3510230000 114.1081640000,22.3510820000 114.1080310000,22.3512400000 114.1079780000,22.3513020000 114.1076130000,22.3517290000 114.1075780000,22.3517700000 114.1074890000,22.3518850000 114.1074560000,22.3519280000 114.1073470000,22.3520590000 114.1072350000,22.3521910000 114.1071330000,22.3522830000 114.1070510000,22.3523670000 114.1069660000,22.3523880000 114.1068870000,22.3524220000 114.1068160000,22.3524700000 114.1067380000,22.3525490000 114.1066820000,22.3526430000 114.1066530000,22.3527470000 114.1066520000,22.3528550000 114.1066780000,22.3529590000 114.1067240000,22.3530470000 114.1067900000,22.3531220000 114.1068410000,22.3532140000 114.1068950000,22.3533000000 114.1069180000,22.3533950000 114.1069330000,22.3534970000 114.1069320000,22.3535900000 114.1069260000,22.3536670000 114.1069180000,22.3537510000 114.1069150000,22.3538300000 114.1069080000,22.3540680000 114.1069010000,22.3542920000 114.1068980000,22.3543680000 114.1068720000,22.3547160000 114.1068110000,22.3547160000 114.1065540000,22.3546890000 114.1063530000,22.3546590000 114.1062030000,22.3545690000 114.1061230000,22.3544640000 114.1061010000,22.3543900000 114.1060940000,22.3543320000 114.1060890000,22.3538630000 114.1060770000,22.3537680000 114.1060540000,22.3536770000 114.1060260000,22.3535980000 114.1059900000,22.3535220000 114.1059460000,22.3534530000 114.1058930000,22.3533850000 114.1058210000,22.3533160000 114.1057590000,22.3532640000 114.1056830000,22.3532160000 114.1056030000,22.3531720000 114.1055280000,22.3531450000 114.1054520000,22.3531250000 114.1053690000,22.3531090000 114.1052910000,22.3531010000 114.1051560000,22.3530920000 114.1050520000,22.3530860000 114.1049920000,22.3530820000 114.1049090000,22.3530770000 114.1048140000,22.3530730000 114.1047330000,22.3530730000 114.1046560000,22.3530780000 114.1045810000,22.3530910000 114.1045040000,22.3531130000 114.1044330000,22.3531410000 114.1043630000,22.3531750000 114.1043000000,22.3532130000 114.1042230000,22.3532690000 114.1041610000,22.3533250000 114.1040850000,22.3534060000 114.1039990000,22.3535250000 114.1039460000,22.3536710000 114.1039260000,22.3537840000 114.1039180000,22.3538460000 114.1039090000,22.3540540000 114.1039070000,22.3541100000 114.1039000000,22.3542830000 114.1038980000,22.3543320000 114.1038940000,22.3544720000 114.1038930000,22.3545050000 114.1038850000,22.3547680000 114.1038780000,22.3549020000 114.1038410000,22.3549120000 114.1038090000,22.3549320000 114.1037860000,22.3549600000 114.1037720000,22.3549930000 114.1037710000,22.3550290000 114.1033340000,22.3550970000 114.1030720000,22.3551380000 114.1029450000,22.3551580000 114.1027660000,22.3551820000 114.1025340000,22.3552130000 114.1024410000,22.3552110000 114.1023180000,22.3552060000 114.1022270000,22.3552040000 114.1022060000,22.3553610000 114.1021790000,22.3555540000 114.1021460000,22.3557970000 114.1021250000,22.3559520000 114.1020170000,22.3563490000 114.1019090000,22.3567460000 114.1017860000,22.3571230000 114.1017290000,22.3572970000 114.1016600000,22.3574660000 114.1015810000,22.3575930000 114.1015300000,22.3576560000 114.1014570000,22.3577290000 114.1015110000,22.3578080000 114.1015520000,22.3578870000 114.1016170000,22.3580820000 114.1016240000,22.3581200000 114.1016430000,22.3582140000 114.1016670000,22.3583110000 114.1017040000,22.3584130000 114.1017430000,22.3584980000 114.1017850000,22.3585790000 114.1018320000,22.3586540000 114.1018880000,22.3587330000 114.1019410000,22.3587980000 114.1021410000,22.3590220000 114.1022720000,22.3591830000 114.1023150000,22.3592420000 114.1023430000,22.3592870000 114.1023640000,22.3593460000 114.1023720000,22.3593910000 114.1023760000,22.3594950000 114.1023420000,22.3595650000 114.1023110000,22.3596350000 114.1023050000,22.3597050000 114.1023170000,22.3597980000 114.1023700000,22.3599290000 114.1024280000,22.3600010000 114.1025030000,22.3600650000 114.1026000000,22.3601010000 114.1027270000,22.3601280000 114.1028540000,22.3601340000 114.1029390000,22.3601230000 114.1029970000,22.3601040000 114.1030500000,22.3600900000 114.1031470000,22.3601460000 114.1032190000,22.3602050000 114.1032760000,22.3602660000 114.1033520000,22.3603980000 114.1033760000,22.3604480000 114.1034170000,22.3605300000 114.1034540000,22.3605930000 114.1034850000,22.3606410000 114.1036200000,22.3608220000 114.1037260000,22.3609590000 114.1037710000,22.3610170000 114.1038670000,22.3610940000 114.1039700000,22.3611590000 114.1040300000,22.3611900000 114.1041370000,22.3612820000 114.1041920000,22.3612980000 114.1042480000,22.3613160000 114.1044230000,22.3613270000 114.1044730000,22.3613270000 114.1045860000,22.3613260000 114.1047350000,22.3613240000 114.1048580000,22.3613220000 114.1050660000,22.3612970000 114.1051820000,22.3612530000 114.1053440000,22.3612230000 114.1054450000,22.3611820000 114.1054870000,22.3611670000 114.1055850000,22.3611150000 114.1056900000,22.3610320000 114.1057840000,22.3609160000 114.1058310000,22.3608450000 114.1058560000,22.3607940000 114.1058970000,22.3607150000 114.1059520000,22.3605360000 114.1059370000,22.3603410000 114.1059390000,22.3601060000 114.1059210000,22.3600460000 114.1059050000,22.3600050000 114.1059790000,22.3599600000 114.1060350000,22.3599440000 114.1060770000,22.3599410000 114.1061180000,22.3599440000 114.1061580000,22.3599540000 114.1062890000,22.3600280000 114.1063110000,22.3600520000 114.1063230000,22.3600680000 114.1063390000,22.3601190000 114.1063580000,22.3601960000 114.1064490000,22.3602840000 114.1065390000,22.3603560000 114.1065790000,22.3603840000 114.1066200000,22.3604070000 114.1066820000,22.3604340000 114.1067580000,22.3604630000 114.1068330000,22.3604800000 114.1075490000,22.3605970000</coordinates>
                </LineString>
                <ExtendedData>
                    <Data name="length">
                        <value>64000.76813347412</value>
                    </Data>
                    <Data name="duration">
                        <value>01:16:52</value>
                    </Data>
                </ExtendedData>
            </Placemark>
        </Document>
    </Document>
</kml>