<?xml version="1.0" encoding="UTF-8"?>
<kml xmlns="http://www.opengis.net/kml/2.2" xmlns:gx="http://www.google.com/kml/ext/2.2">
    <Document>
        <name>Route</name>
        <Folder>
            <name>Route Request</name>
            <Placemark>
                <address>Kwai Hau Street, Kwai Shing West Estate, Chung Kwai Chung, Kwai Chung, Kwai Tsing District, New Territories, Hong Kong, China</address>
                <Point>
                    <coordinates>114.1247808621,22.3627053273</coordinates>
                </Point>
                <ExtendedData>
                    <Data name="country_code">
                        <value>cn</value>
                    </Data>
                    <Data name="road">
                        <value>Kwai Hau Street</value>
                    </Data>
                    <Data name="residential">
                        <value>Kwai Shing West Estate</value>
                    </Data>
                    <Data name="suburb">
                        <value>Chung Kwai Chung</value>
                    </Data>
                    <Data name="town">
                        <value>Kwai Chung</value>
                    </Data>
                    <Data name="city">
                        <value>Kwai Tsing District</value>
                    </Data>
                    <Data name="ISO3166-2-lvl3">
                        <value>CN-HK</value>
                    </Data>
                    <Data name="municipality">
                        <value>New Territories</value>
                    </Data>
                    <Data name="state">
                        <value>Hong Kong</value>
                    </Data>
                    <Data name="country">
                        <value>China</value>
                    </Data>
                </ExtendedData>
            </Placemark>
            <Placemark>
                <Point>
                    <coordinates>114.1287036191,22.3602111035</coordinates>
                </Point>
                <ExtendedData>
                    <Data name="routingVisited">
                        <value>false</value>
                    </Data>
                </ExtendedData>
            </Placemark>
            <Placemark>
                <Point>
                    <coordinates>114.1286301557,22.3546721268</coordinates>
                </Point>
            </Placemark>
            <Placemark>
                <address>Cross Harbour Tunnel, Hong Chong Road, East Tsim Sha Tsui, Tsim Sha Tsui, Yau Tsim Mong District, Kowloon, Hong Kong, 999077, China</address>
                <Point>
                    <coordinates>114.1795139946,22.3026136535</coordinates>
                </Point>
                <ExtendedData>
                    <Data name="highway">
                        <value>Cross Harbour Tunnel</value>
                    </Data>
                    <Data name="postcode">
                        <value>999077</value>
                    </Data>
                    <Data name="quarter">
                        <value>East Tsim Sha Tsui</value>
                    </Data>
                    <Data name="country_code">
                        <value>cn</value>
                    </Data>
                    <Data name="road">
                        <value>Hong Chong Road</value>
                    </Data>
                    <Data name="city_district">
                        <value>Yau Tsim Mong District</value>
                    </Data>
                    <Data name="suburb">
                        <value>Tsim Sha Tsui</value>
                    </Data>
                    <Data name="city">
                        <value>Kowloon</value>
                    </Data>
                    <Data name="ISO3166-2-lvl3">
                        <value>CN-HK</value>
                    </Data>
                    <Data name="state">
                        <value>Hong Kong</value>
                    </Data>
                    <Data name="country">
                        <value>China</value>
                    </Data>
                </ExtendedData>
            </Placemark>
            <Placemark>
                <address>Chun Wang Street, Tseung Kwan O INNOPARK, Tai Chik Sha, Sai Kung District, New Territories, Hong Kong, China</address>
                <Point>
                    <coordinates>114.2714183477,22.2821886605</coordinates>
                </Point>
                <ExtendedData>
                    <Data name="quarter">
                        <value>Tseung Kwan O INNOPARK</value>
                    </Data>
                    <Data name="country_code">
                        <value>cn</value>
                    </Data>
                    <Data name="road">
                        <value>Chun Wang Street</value>
                    </Data>
                    <Data name="suburb">
                        <value>Tai Chik Sha</value>
                    </Data>
                    <Data name="city">
                        <value>Sai Kung District</value>
                    </Data>
                    <Data name="ISO3166-2-lvl3">
                        <value>CN-HK</value>
                    </Data>
                    <Data name="municipality">
                        <value>New Territories</value>
                    </Data>
                    <Data name="state">
                        <value>Hong Kong</value>
                    </Data>
                    <Data name="country">
                        <value>China</value>
                    </Data>
                </ExtendedData>
            </Placemark>
            <Placemark>
                <address>Pung Loi Road, Tseung Kwan O South, Pak Shing Kok, Tseung Kwan O, Sai Kung District, New Territories, Hong Kong, China</address>
                <Point>
                    <coordinates>114.2663404296,22.3097089884</coordinates>
                </Point>
                <ExtendedData>
                    <Data name="quarter">
                        <value>Tseung Kwan O South</value>
                    </Data>
                    <Data name="country_code">
                        <value>cn</value>
                    </Data>
                    <Data name="road">
                        <value>Pung Loi Road</value>
                    </Data>
                    <Data name="suburb">
                        <value>Pak Shing Kok</value>
                    </Data>
                    <Data name="town">
                        <value>Tseung Kwan O</value>
                    </Data>
                    <Data name="city">
                        <value>Sai Kung District</value>
                    </Data>
                    <Data name="ISO3166-2-lvl3">
                        <value>CN-HK</value>
                    </Data>
                    <Data name="municipality">
                        <value>New Territories</value>
                    </Data>
                    <Data name="state">
                        <value>Hong Kong</value>
                    </Data>
                    <Data name="country">
                        <value>China</value>
                    </Data>
                </ExtendedData>
            </Placemark>
            <Placemark>
                <Point>
                    <coordinates>114.2613022922,22.3069178011</coordinates>
                </Point>
                <ExtendedData>
                    <Data name="routingVisited">
                        <value>false</value>
                    </Data>
                </ExtendedData>
            </Placemark>
            <Placemark>
                <address>PopWalk, Po Yap Road, Tseung Kwan O South, Tseung Kwan O Town Centre, Tseung Kwan O, Sai Kung District, New Territories, Hong Kong, China</address>
                <Point>
                    <coordinates>114.2592942714,22.3115629586</coordinates>
                </Point>
                <ExtendedData>
                    <Data name="routingVisited">
                        <value>false</value>
                    </Data>
                    <Data name="quarter">
                        <value>Tseung Kwan O South</value>
                    </Data>
                    <Data name="country_code">
                        <value>cn</value>
                    </Data>
                    <Data name="road">
                        <value>Po Yap Road</value>
                    </Data>
                    <Data name="suburb">
                        <value>Tseung Kwan O Town Centre</value>
                    </Data>
                    <Data name="shop">
                        <value>PopWalk</value>
                    </Data>
                    <Data name="town">
                        <value>Tseung Kwan O</value>
                    </Data>
                    <Data name="city">
                        <value>Sai Kung District</value>
                    </Data>
                    <Data name="ISO3166-2-lvl3">
                        <value>CN-HK</value>
                    </Data>
                    <Data name="state">
                        <value>Hong Kong</value>
                    </Data>
                    <Data name="municipality">
                        <value>New Territories</value>
                    </Data>
                    <Data name="country">
                        <value>China</value>
                    </Data>
                </ExtendedData>
            </Placemark>
            <Placemark>
                <address>Chi Shin Street, Tseung Kwan O South, Tseung Kwan O Town Centre, Tseung Kwan O, Sai Kung District, New Territories, Hong Kong, China</address>
                <Point>
                    <coordinates>114.2638420181,22.3078192035</coordinates>
                </Point>
                <ExtendedData>
                    <Data name="quarter">
                        <value>Tseung Kwan O South</value>
                    </Data>
                    <Data name="country_code">
                        <value>cn</value>
                    </Data>
                    <Data name="road">
                        <value>Chi Shin Street</value>
                    </Data>
                    <Data name="suburb">
                        <value>Tseung Kwan O Town Centre</value>
                    </Data>
                    <Data name="town">
                        <value>Tseung Kwan O</value>
                    </Data>
                    <Data name="city">
                        <value>Sai Kung District</value>
                    </Data>
                    <Data name="ISO3166-2-lvl3">
                        <value>CN-HK</value>
                    </Data>
                    <Data name="municipality">
                        <value>New Territories</value>
                    </Data>
                    <Data name="state">
                        <value>Hong Kong</value>
                    </Data>
                    <Data name="country">
                        <value>China</value>
                    </Data>
                </ExtendedData>
            </Placemark>
            <Placemark>
                <Point>
                    <coordinates>114.2664233235,22.3095670793</coordinates>
                </Point>
            </Placemark>
            <Placemark>
                <Point>
                    <coordinates>114.2714761593,22.2822444254</coordinates>
                </Point>
                <ExtendedData>
                    <Data name="routingVisited">
                        <value>false</value>
                    </Data>
                </ExtendedData>
            </Placemark>
            <Placemark>
                <address>9, Science Museum Road, East Tsim Sha Tsui, Tsim Sha Tsui, Yau Tsim Mong District, Kowloon, Hong Kong, China</address>
                <Point>
                    <coordinates>114.1793959102,22.3017120647</coordinates>
                </Point>
                <ExtendedData>
                    <Data name="house_number">
                        <value>9</value>
                    </Data>
                    <Data name="quarter">
                        <value>East Tsim Sha Tsui</value>
                    </Data>
                    <Data name="country_code">
                        <value>cn</value>
                    </Data>
                    <Data name="road">
                        <value>Science Museum Road</value>
                    </Data>
                    <Data name="city_district">
                        <value>Yau Tsim Mong District</value>
                    </Data>
                    <Data name="suburb">
                        <value>Tsim Sha Tsui</value>
                    </Data>
                    <Data name="city">
                        <value>Kowloon</value>
                    </Data>
                    <Data name="ISO3166-2-lvl3">
                        <value>CN-HK</value>
                    </Data>
                    <Data name="state">
                        <value>Hong Kong</value>
                    </Data>
                    <Data name="country">
                        <value>China</value>
                    </Data>
                </ExtendedData>
            </Placemark>
            <Placemark>
                <address>Kwai Tsing Road, Ha Kwai Chung, Kwai Chung, Kwai Tsing District, New Territories, Hong Kong, China</address>
                <Point>
                    <coordinates>114.1268204859,22.3533265707</coordinates>
                </Point>
                <ExtendedData>
                    <Data name="routingVisited">
                        <value>false</value>
                    </Data>
                    <Data name="country_code">
                        <value>cn</value>
                    </Data>
                    <Data name="road">
                        <value>Kwai Tsing Road</value>
                    </Data>
                    <Data name="suburb">
                        <value>Ha Kwai Chung</value>
                    </Data>
                    <Data name="town">
                        <value>Kwai Chung</value>
                    </Data>
                    <Data name="city">
                        <value>Kwai Tsing District</value>
                    </Data>
                    <Data name="ISO3166-2-lvl3">
                        <value>CN-HK</value>
                    </Data>
                    <Data name="state">
                        <value>Hong Kong</value>
                    </Data>
                    <Data name="municipality">
                        <value>New Territories</value>
                    </Data>
                    <Data name="country">
                        <value>China</value>
                    </Data>
                </ExtendedData>
            </Placemark>
            <Placemark>
                <Point>
                    <coordinates>114.1308594714,22.3609562713</coordinates>
                </Point>
            </Placemark>
            <Placemark>
                <Point>
                    <coordinates>114.1216101030,22.3596888862</coordinates>
                </Point>
            </Placemark>
            <Placemark>
                <address>Kwai Hau Street, Kwai Shing West Estate, Chung Kwai Chung, Kwai Chung, Kwai Tsing District, New Territories, Hong Kong, China</address>
                <Point>
                    <coordinates>114.1247883547,22.3626985975</coordinates>
                </Point>
                <ExtendedData>
                    <Data name="country_code">
                        <value>cn</value>
                    </Data>
                    <Data name="road">
                        <value>Kwai Hau Street</value>
                    </Data>
                    <Data name="residential">
                        <value>Kwai Shing West Estate</value>
                    </Data>
                    <Data name="suburb">
                        <value>Chung Kwai Chung</value>
                    </Data>
                    <Data name="town">
                        <value>Kwai Chung</value>
                    </Data>
                    <Data name="city">
                        <value>Kwai Tsing District</value>
                    </Data>
                    <Data name="ISO3166-2-lvl3">
                        <value>CN-HK</value>
                    </Data>
                    <Data name="municipality">
                        <value>New Territories</value>
                    </Data>
                    <Data name="state">
                        <value>Hong Kong</value>
                    </Data>
                    <Data name="country">
                        <value>China</value>
                    </Data>
                </ExtendedData>
            </Placemark>
        </Folder>
        <Document>
            <name>69.4 km; 01:22 h (OSRM)</name>
            <Placemark>
                <name>Route</name>
                <LineString>
                    <coordinates>114.1246480000,22.3629000000 114.1247640000,22.3629680000 114.1249840000,22.3630800000 114.1252400000,22.3632640000 114.1254630000,22.3634390000 114.1255230000,22.3635180000 114.1255670000,22.3635790000 114.1256120000,22.3636650000 114.1256290000,22.3637330000 114.1256540000,22.3642040000 114.1256470000,22.3647760000 114.1256360000,22.3649430000 114.1255090000,22.3649250000 114.1253800000,22.3649160000 114.1243070000,22.3649480000 114.1238890000,22.3649580000 114.1238280000,22.3649590000 114.1236160000,22.3649640000 114.1234710000,22.3649480000 114.1233310000,22.3649130000 114.1232060000,22.3648560000 114.1231020000,22.3647850000 114.1230120000,22.3646950000 114.1229370000,22.3645910000 114.1228940000,22.3644830000 114.1228590000,22.3643370000 114.1228570000,22.3643130000 114.1228460000,22.3641690000 114.1228430000,22.3641420000 114.1228410000,22.3641140000 114.1228280000,22.3639530000 114.1228190000,22.3638360000 114.1228090000,22.3637070000 114.1228010000,22.3636120000 114.1227510000,22.3629800000 114.1227180000,22.3628280000 114.1226600000,22.3627080000 114.1225870000,22.3625780000 114.1224730000,22.3624720000 114.1223690000,22.3623950000 114.1219800000,22.3622330000 114.1218620000,22.3621840000 114.1217300000,22.3621290000 114.1212380000,22.3619270000 114.1209960000,22.3618280000 114.1209120000,22.3617740000 114.1208450000,22.3617110000 114.1207840000,22.3616280000 114.1207430000,22.3615560000 114.1207080000,22.3614770000 114.1206880000,22.3614050000 114.1206770000,22.3613410000 114.1206740000,22.3603970000 114.1207040000,22.3602860000 114.1207490000,22.3601870000 114.1207760000,22.3601500000 114.1208150000,22.3600950000 114.1208950000,22.3600150000 114.1210060000,22.3599390000 114.1210710000,22.3599060000 114.1214720000,22.3597720000 114.1216350000,22.3597490000 114.1218220000,22.3596860000 114.1219050000,22.3596580000 114.1218820000,22.3596050000 114.1218270000,22.3594780000 114.1216430000,22.3590540000 114.1216330000,22.3590310000 114.1215740000,22.3588970000 114.1216470000,22.3588690000 114.1219940000,22.3587330000 114.1235900000,22.3581380000 114.1240640000,22.3579270000 114.1242220000,22.3578660000 114.1243240000,22.3577890000 114.1244310000,22.3577110000 114.1247500000,22.3574200000 114.1248120000,22.3573900000 114.1248550000,22.3573690000 114.1249380000,22.3573350000 114.1250200000,22.3573180000 114.1250750000,22.3573130000 114.1251000000,22.3573110000 114.1251280000,22.3573120000 114.1251730000,22.3573180000 114.1252440000,22.3573310000 114.1258590000,22.3577530000 114.1269090000,22.3585210000 114.1271480000,22.3586920000 114.1273030000,22.3588250000 114.1273350000,22.3588520000 114.1273950000,22.3589030000 114.1274810000,22.3589810000 114.1275250000,22.3590230000 114.1275510000,22.3590490000 114.1277090000,22.3592000000 114.1278080000,22.3592420000 114.1278530000,22.3592910000 114.1279300000,22.3593660000 114.1280930000,22.3595210000 114.1281400000,22.3595630000 114.1283660000,22.3597780000 114.1284250000,22.3598430000 114.1284870000,22.3599610000 114.1285340000,22.3600070000 114.1286460000,22.3601160000 114.1287290000,22.3601860000 114.1287610000,22.3602140000 114.1287890000,22.3602420000 114.1288730000,22.3602680000 114.1292630000,22.3606370000 114.1294000000,22.3607640000 114.1295670000,22.3609160000 114.1296750000,22.3610150000 114.1297160000,22.3610530000 114.1297940000,22.3611270000 114.1298150000,22.3611470000 114.1299850000,22.3613070000 114.1300120000,22.3613720000 114.1300830000,22.3614390000 114.1301930000,22.3615380000 114.1302520000,22.3615950000 114.1303050000,22.3615490000 114.1303920000,22.3614850000 114.1304150000,22.3614690000 114.1304340000,22.3614550000 114.1304490000,22.3614430000 114.1307110000,22.3612790000 114.1310650000,22.3611350000 114.1311260000,22.3611040000 114.1311520000,22.3610930000 114.1312430000,22.3610600000 114.1313410000,22.3610310000 114.1315330000,22.3609770000 114.1314980000,22.3608840000 114.1314710000,22.3608130000 114.1313930000,22.3605980000 114.1313360000,22.3604300000 114.1311730000,22.3600230000 114.1310360000,22.3597180000 114.1310070000,22.3596330000 114.1309830000,22.3595640000 114.1307580000,22.3589050000 114.1302610000,22.3574480000 114.1302020000,22.3572760000 114.1301900000,22.3572410000 114.1301670000,22.3571730000 114.1301470000,22.3570940000 114.1300910000,22.3569270000 114.1298310000,22.3563690000 114.1296110000,22.3559260000 114.1292190000,22.3553970000 114.1291710000,22.3553420000 114.1289730000,22.3551260000 114.1287070000,22.3548480000 114.1285810000,22.3547100000 114.1284320000,22.3545460000 114.1282520000,22.3543720000 114.1281990000,22.3542820000 114.1279960000,22.3540780000 114.1277360000,22.3538140000 114.1269520000,22.3529810000 114.1267760000,22.3527520000 114.1266630000,22.3525730000 114.1265150000,22.3522670000 114.1264420000,22.3520600000 114.1263100000,22.3517680000 114.1262410000,22.3516640000 114.1258410000,22.3505090000 114.1257790000,22.3503250000 114.1257120000,22.3500470000 114.1256000000,22.3495070000 114.1255430000,22.3492760000 114.1254540000,22.3489290000 114.1253920000,22.3486610000 114.1253900000,22.3485600000 114.1253840000,22.3481590000 114.1253740000,22.3481020000 114.1253360000,22.3478500000 114.1252440000,22.3471030000 114.1252490000,22.3468340000 114.1252450000,22.3466180000 114.1252690000,22.3463930000 114.1253010000,22.3461290000 114.1253570000,22.3458820000 114.1253780000,22.3458180000 114.1254200000,22.3456960000 114.1254800000,22.3455590000 114.1255670000,22.3453830000 114.1256660000,22.3452260000 114.1257200000,22.3451550000 114.1258230000,22.3450210000 114.1261230000,22.3446750000 114.1262650000,22.3444920000 114.1264800000,22.3443300000 114.1269240000,22.3440300000 114.1270200000,22.3439790000 114.1271090000,22.3439320000 114.1271840000,22.3438920000 114.1272820000,22.3438400000 114.1276470000,22.3436840000 114.1278970000,22.3435720000 114.1281270000,22.3434690000 114.1283770000,22.3433460000 114.1286560000,22.3432050000 114.1289710000,22.3430190000 114.1291870000,22.3428750000 114.1294020000,22.3427320000 114.1295670000,22.3426040000 114.1297310000,22.3424680000 114.1298900000,22.3423150000 114.1301370000,22.3420730000 114.1303630000,22.3417950000 114.1304050000,22.3417270000 114.1304940000,22.3415860000 114.1306050000,22.3414080000 114.1306680000,22.3413080000 114.1307450000,22.3411650000 114.1307910000,22.3410810000 114.1308490000,22.3409740000 114.1310190000,22.3406270000 114.1311190000,22.3404140000 114.1311910000,22.3402610000 114.1314770000,22.3396800000 114.1315870000,22.3394560000 114.1316710000,22.3392680000 114.1316840000,22.3392360000 114.1318380000,22.3388760000 114.1319550000,22.3386180000 114.1320070000,22.3385160000 114.1320500000,22.3384340000 114.1322000000,22.3381400000 114.1324040000,22.3378060000 114.1326480000,22.3374240000 114.1328610000,22.3371230000 114.1331790000,22.3367280000 114.1333570000,22.3365230000 114.1336230000,22.3362450000 114.1337460000,22.3361190000 114.1343320000,22.3356020000 114.1345140000,22.3354620000 114.1346460000,22.3353620000 114.1349080000,22.3351570000 114.1351140000,22.3350120000 114.1353150000,22.3348710000 114.1354560000,22.3347710000 114.1355370000,22.3347190000 114.1357120000,22.3346060000 114.1360310000,22.3344250000 114.1363260000,22.3342690000 114.1366140000,22.3341310000 114.1369430000,22.3339880000 114.1373830000,22.3338160000 114.1378110000,22.3336600000 114.1395900000,22.3330030000 114.1403040000,22.3327090000 114.1403630000,22.3326870000 114.1413360000,22.3323200000 114.1417340000,22.3321710000 114.1428990000,22.3317170000 114.1429790000,22.3316830000 114.1439300000,22.3312840000 114.1442400000,22.3311570000 114.1453050000,22.3307780000 114.1455120000,22.3307010000 114.1464210000,22.3303510000 114.1464970000,22.3303220000 114.1472530000,22.3300310000 114.1479270000,22.3297640000 114.1486470000,22.3294550000 114.1490060000,22.3292880000 114.1491000000,22.3292440000 114.1496580000,22.3289770000 114.1500510000,22.3287860000 114.1505450000,22.3285160000 114.1512720000,22.3280540000 114.1515440000,22.3278800000 114.1518840000,22.3276670000 114.1522940000,22.3273890000 114.1528420000,22.3269960000 114.1532080000,22.3267150000 114.1536570000,22.3263590000 114.1540770000,22.3260070000 114.1544350000,22.3256710000 114.1547960000,22.3253360000 114.1551400000,22.3249960000 114.1554890000,22.3246310000 114.1556770000,22.3244380000 114.1558850000,22.3242120000 114.1561370000,22.3239280000 114.1564520000,22.3235770000 114.1567130000,22.3232530000 114.1569820000,22.3229170000 114.1573320000,22.3224540000 114.1576600000,22.3219910000 114.1579160000,22.3216230000 114.1581500000,22.3212580000 114.1584730000,22.3206990000 114.1588490000,22.3199810000 114.1591160000,22.3194600000 114.1593190000,22.3190490000 114.1593710000,22.3189370000 114.1595390000,22.3185730000 114.1597120000,22.3181800000 114.1599320000,22.3176580000 114.1600640000,22.3173450000 114.1601700000,22.3170940000 114.1603190000,22.3167700000 114.1604140000,22.3165490000 114.1605800000,22.3161640000 114.1606070000,22.3160980000 114.1607260000,22.3158200000 114.1608510000,22.3155020000 114.1609120000,22.3153470000 114.1610010000,22.3151200000 114.1610710000,22.3149390000 114.1611630000,22.3146640000 114.1612000000,22.3145530000 114.1612380000,22.3144410000 114.1612900000,22.3143500000 114.1614180000,22.3141490000 114.1614420000,22.3140870000 114.1615560000,22.3138140000 114.1616910000,22.3135120000 114.1617980000,22.3131760000 114.1619070000,22.3129140000 114.1621020000,22.3124470000 114.1622290000,22.3122030000 114.1622800000,22.3120960000 114.1623570000,22.3119560000 114.1624230000,22.3118280000 114.1624780000,22.3117490000 114.1625830000,22.3116010000 114.1627070000,22.3114050000 114.1628360000,22.3112480000 114.1629280000,22.3110820000 114.1629590000,22.3108950000 114.1629930000,22.3105970000 114.1630310000,22.3102800000 114.1631350000,22.3100830000 114.1632190000,22.3099760000 114.1633150000,22.3098730000 114.1634310000,22.3097440000 114.1635140000,22.3095890000 114.1636040000,22.3093920000 114.1637680000,22.3090770000 114.1639050000,22.3087370000 114.1639240000,22.3086800000 114.1639360000,22.3086180000 114.1639640000,22.3084030000 114.1640020000,22.3081090000 114.1640120000,22.3080290000 114.1640230000,22.3079290000 114.1640310000,22.3078010000 114.1640350000,22.3072670000 114.1640300000,22.3070590000 114.1640230000,22.3069490000 114.1640050000,22.3067670000 114.1639490000,22.3063890000 114.1639290000,22.3061840000 114.1639220000,22.3060880000 114.1639130000,22.3058610000 114.1639270000,22.3055750000 114.1639440000,22.3049530000 114.1639350000,22.3040500000 114.1639370000,22.3037790000 114.1639480000,22.3034470000 114.1639820000,22.3033070000 114.1640340000,22.3031660000 114.1640910000,22.3030560000 114.1641530000,22.3029640000 114.1642770000,22.3028660000 114.1643950000,22.3028050000 114.1645310000,22.3027450000 114.1648800000,22.3027770000 114.1652440000,22.3028070000 114.1655170000,22.3028310000 114.1659330000,22.3028620000 114.1664480000,22.3028990000 114.1667790000,22.3029270000 114.1670790000,22.3029540000 114.1671500000,22.3029630000 114.1672500000,22.3029720000 114.1673700000,22.3029830000 114.1678120000,22.3030170000 114.1679360000,22.3030230000 114.1679570000,22.3030230000 114.1681170000,22.3030320000 114.1682550000,22.3030400000 114.1687360000,22.3030680000 114.1690760000,22.3030960000 114.1692550000,22.3031100000 114.1692750000,22.3031130000 114.1693120000,22.3031150000 114.1697710000,22.3031570000 114.1702120000,22.3031850000 114.1702440000,22.3031870000 114.1702900000,22.3031880000 114.1705980000,22.3032060000 114.1707530000,22.3032130000 114.1711570000,22.3032410000 114.1716020000,22.3032620000 114.1716580000,22.3032660000 114.1717330000,22.3032690000 114.1718150000,22.3032750000 114.1719170000,22.3032520000 114.1719210000,22.3032530000 114.1719890000,22.3032580000 114.1721720000,22.3032770000 114.1724610000,22.3032950000 114.1734720000,22.3033540000 114.1735820000,22.3033570000 114.1745850000,22.3033760000 114.1755120000,22.3034060000 114.1756290000,22.3034100000 114.1758130000,22.3034210000 114.1759480000,22.3034190000 114.1760660000,22.3033960000 114.1761810000,22.3033620000 114.1763600000,22.3032960000 114.1768130000,22.3031070000 114.1768890000,22.3031100000 114.1769360000,22.3031000000 114.1770710000,22.3030690000 114.1771750000,22.3030280000 114.1772570000,22.3029820000 114.1773640000,22.3029320000 114.1774100000,22.3029110000 114.1775230000,22.3028720000 114.1780480000,22.3026490000 114.1782670000,22.3025620000 114.1783360000,22.3025380000 114.1784810000,22.3025080000 114.1787320000,22.3024590000 114.1791010000,22.3024240000 114.1792330000,22.3024130000 114.1792840000,22.3024160000 114.1793740000,22.3024200000 114.1794280000,22.3024560000 114.1794610000,22.3024690000 114.1794990000,22.3024820000 114.1795730000,22.3025240000 114.1796130000,22.3025460000 114.1796350000,22.3025600000 114.1796860000,22.3025940000 114.1797760000,22.3026680000 114.1798020000,22.3026980000 114.1798120000,22.3027100000 114.1798640000,22.3027720000 114.1801030000,22.3030870000 114.1801860000,22.3031970000 114.1802480000,22.3032700000 114.1803180000,22.3033420000 114.1804080000,22.3034230000 114.1805580000,22.3035370000 114.1807410000,22.3036910000 114.1808830000,22.3040220000 114.1809580000,22.3042040000 114.1810410000,22.3044040000 114.1810810000,22.3045000000 114.1812550000,22.3049180000 114.1813230000,22.3050740000 114.1813360000,22.3051100000 114.1813800000,22.3052320000 114.1814070000,22.3053050000 114.1814280000,22.3053970000 114.1814380000,22.3054730000 114.1814440000,22.3055590000 114.1814390000,22.3056370000 114.1814300000,22.3057050000 114.1814090000,22.3057990000 114.1813920000,22.3058580000 114.1813690000,22.3059310000 114.1813510000,22.3059780000 114.1813150000,22.3060570000 114.1812740000,22.3061340000 114.1812300000,22.3062010000 114.1811750000,22.3062730000 114.1810960000,22.3063670000 114.1810260000,22.3064440000 114.1809730000,22.3064970000 114.1808990000,22.3065600000 114.1807830000,22.3066570000 114.1806750000,22.3067490000 114.1805110000,22.3068830000 114.1804130000,22.3069540000 114.1802810000,22.3070420000 114.1802240000,22.3070820000 114.1800700000,22.3071880000 114.1799980000,22.3072410000 114.1799320000,22.3073020000 114.1798810000,22.3073680000 114.1798390000,22.3074420000 114.1798170000,22.3075080000 114.1798030000,22.3075910000 114.1797990000,22.3076830000 114.1798130000,22.3077670000 114.1798360000,22.3078310000 114.1798650000,22.3078860000 114.1799090000,22.3079450000 114.1799560000,22.3079910000 114.1800310000,22.3080490000 114.1800900000,22.3080800000 114.1801770000,22.3081130000 114.1802520000,22.3081310000 114.1803370000,22.3081400000 114.1804120000,22.3081360000 114.1811270000,22.3080310000 114.1812380000,22.3080210000 114.1813510000,22.3080160000 114.1814820000,22.3080200000 114.1816560000,22.3080420000 114.1818170000,22.3080830000 114.1820140000,22.3081470000 114.1822940000,22.3082440000 114.1824900000,22.3083530000 114.1826890000,22.3084680000 114.1829570000,22.3086170000 114.1830040000,22.3086480000 114.1830710000,22.3086910000 114.1832440000,22.3087990000 114.1833890000,22.3088890000 114.1835460000,22.3090140000 114.1836370000,22.3090810000 114.1837090000,22.3091350000 114.1837760000,22.3091890000 114.1838920000,22.3092840000 114.1839140000,22.3093020000 114.1839910000,22.3093640000 114.1840360000,22.3094010000 114.1841810000,22.3095220000 114.1842980000,22.3096210000 114.1844680000,22.3097610000 114.1845800000,22.3098570000 114.1846330000,22.3099030000 114.1846840000,22.3099530000 114.1847310000,22.3100070000 114.1847730000,22.3100620000 114.1849020000,22.3101790000 114.1849430000,22.3102180000 114.1850480000,22.3103290000 114.1851390000,22.3104370000 114.1852220000,22.3105550000 114.1852980000,22.3106670000 114.1853560000,22.3107620000 114.1854130000,22.3108680000 114.1855190000,22.3110620000 114.1855950000,22.3112000000 114.1856760000,22.3113400000 114.1857620000,22.3114840000 114.1858760000,22.3116560000 114.1864810000,22.3126060000 114.1869200000,22.3132810000 114.1870170000,22.3134410000 114.1871220000,22.3136230000 114.1871830000,22.3137400000 114.1872470000,22.3138640000 114.1872810000,22.3139390000 114.1873190000,22.3140280000 114.1873830000,22.3142090000 114.1874130000,22.3143040000 114.1874420000,22.3144050000 114.1874680000,22.3145190000 114.1874900000,22.3146410000 114.1875150000,22.3148190000 114.1875430000,22.3150200000 114.1875670000,22.3151800000 114.1875820000,22.3152620000 114.1875990000,22.3153460000 114.1876180000,22.3154300000 114.1876360000,22.3155080000 114.1876630000,22.3156150000 114.1876860000,22.3156950000 114.1877120000,22.3157790000 114.1877340000,22.3158400000 114.1877650000,22.3159230000 114.1877940000,22.3159900000 114.1878220000,22.3160540000 114.1879480000,22.3163410000 114.1879770000,22.3163980000 114.1881190000,22.3166700000 114.1884810000,22.3174020000 114.1890320000,22.3184980000 114.1892130000,22.3188510000 114.1892490000,22.3189150000 114.1893320000,22.3190650000 114.1893820000,22.3191430000 114.1894190000,22.3191950000 114.1894570000,22.3192450000 114.1898360000,22.3197650000 114.1898950000,22.3198470000 114.1899450000,22.3199190000 114.1899910000,22.3199900000 114.1900760000,22.3201300000 114.1901180000,22.3202020000 114.1901510000,22.3202660000 114.1902070000,22.3203830000 114.1902580000,22.3204980000 114.1902880000,22.3205760000 114.1903140000,22.3206510000 114.1903380000,22.3207300000 114.1903630000,22.3208310000 114.1904520000,22.3211520000 114.1904790000,22.3212540000 114.1905230000,22.3214340000 114.1905880000,22.3216490000 114.1906400000,22.3217910000 114.1909340000,22.3223840000 114.1909500000,22.3224180000 114.1913460000,22.3232190000 114.1915650000,22.3236020000 114.1917140000,22.3237870000 114.1923230000,22.3241530000 114.1926970000,22.3242800000 114.1929850000,22.3243250000 114.1970240000,22.3242210000 114.2004980000,22.3241320000 114.2005920000,22.3241290000 114.2008220000,22.3241230000 114.2010760000,22.3241070000 114.2011660000,22.3241060000 114.2013000000,22.3240850000 114.2017420000,22.3240020000 114.2018280000,22.3239670000 114.2019580000,22.3239230000 114.2021530000,22.3238520000 114.2025670000,22.3236480000 114.2029120000,22.3234420000 114.2031240000,22.3233070000 114.2036450000,22.3228540000 114.2037960000,22.3227140000 114.2044930000,22.3220720000 114.2046880000,22.3219490000 114.2052690000,22.3214040000 114.2055800000,22.3211260000 114.2056600000,22.3210450000 114.2057740000,22.3209270000 114.2063680000,22.3203810000 114.2064380000,22.3203130000 114.2064730000,22.3202780000 114.2067400000,22.3200240000 114.2073250000,22.3195300000 114.2074920000,22.3193830000 114.2076010000,22.3192880000 114.2076750000,22.3192170000 114.2077330000,22.3191560000 114.2078010000,22.3190770000 114.2078550000,22.3190060000 114.2078980000,22.3189400000 114.2079480000,22.3188560000 114.2080630000,22.3186410000 114.2081060000,22.3185520000 114.2081440000,22.3184810000 114.2082130000,22.3183700000 114.2082790000,22.3182750000 114.2083490000,22.3181880000 114.2084280000,22.3181020000 114.2085510000,22.3179680000 114.2086190000,22.3178940000 114.2086840000,22.3178230000 114.2087440000,22.3177540000 114.2089040000,22.3176590000 114.2090420000,22.3175720000 114.2091510000,22.3175130000 114.2093070000,22.3174380000 114.2094850000,22.3173620000 114.2095800000,22.3173240000 114.2096840000,22.3172880000 114.2097930000,22.3172510000 114.2100410000,22.3171920000 114.2101780000,22.3171680000 114.2102900000,22.3171520000 114.2104880000,22.3171320000 114.2105780000,22.3171280000 114.2114570000,22.3170970000 114.2115240000,22.3170920000 114.2115830000,22.3170870000 114.2116790000,22.3170760000 114.2117660000,22.3170630000 114.2118700000,22.3170480000 114.2119610000,22.3170280000 114.2120410000,22.3170080000 114.2121110000,22.3169890000 114.2122780000,22.3169410000 114.2123740000,22.3169050000 114.2124740000,22.3168660000 114.2125880000,22.3168170000 114.2126860000,22.3167710000 114.2128020000,22.3167100000 114.2128780000,22.3166650000 114.2129570000,22.3166170000 114.2130380000,22.3165620000 114.2131120000,22.3165080000 114.2131720000,22.3164640000 114.2132510000,22.3164000000 114.2134680000,22.3162080000 114.2138690000,22.3158060000 114.2142290000,22.3154490000 114.2144950000,22.3151780000 114.2145580000,22.3151140000 114.2148470000,22.3148200000 114.2153530000,22.3142870000 114.2163560000,22.3132420000 114.2173930000,22.3121960000 114.2177430000,22.3118360000 114.2181890000,22.3113600000 114.2187700000,22.3106940000 114.2194920000,22.3097790000 114.2201190000,22.3089800000 114.2206900000,22.3082660000 114.2208580000,22.3080590000 114.2211120000,22.3077160000 114.2211320000,22.3076900000 114.2212710000,22.3074870000 114.2216420000,22.3069660000 114.2217420000,22.3068270000 114.2218470000,22.3066940000 114.2219790000,22.3066100000 114.2221060000,22.3065310000 114.2222180000,22.3064690000 114.2222730000,22.3064390000 114.2223050000,22.3064210000 114.2223260000,22.3064100000 114.2223550000,22.3063970000 114.2223750000,22.3063870000 114.2223960000,22.3063770000 114.2224760000,22.3063430000 114.2225630000,22.3063050000 114.2226330000,22.3062800000 114.2226900000,22.3062600000 114.2227780000,22.3062390000 114.2228480000,22.3062240000 114.2229300000,22.3062070000 114.2230060000,22.3061970000 114.2230930000,22.3061880000 114.2231780000,22.3061830000 114.2232660000,22.3061820000 114.2233470000,22.3061850000 114.2234380000,22.3061870000 114.2235430000,22.3061940000 114.2236170000,22.3062050000 114.2237050000,22.3062210000 114.2237610000,22.3062320000 114.2238520000,22.3062610000 114.2239320000,22.3062940000 114.2240020000,22.3063260000 114.2240950000,22.3063750000 114.2241930000,22.3064020000 114.2242220000,22.3064100000 114.2242510000,22.3064200000 114.2243190000,22.3064430000 114.2244130000,22.3065110000 114.2245540000,22.3063590000 114.2246340000,22.3062720000 114.2246650000,22.3062350000 114.2247100000,22.3061860000 114.2247530000,22.3061420000 114.2247870000,22.3061010000 114.2248740000,22.3060090000 114.2249580000,22.3059160000 114.2250960000,22.3057500000 114.2251730000,22.3056570000 114.2255190000,22.3052610000 114.2255440000,22.3052330000 114.2255790000,22.3051930000 114.2261490000,22.3045420000 114.2263350000,22.3043330000 114.2265220000,22.3041240000 114.2265510000,22.3040900000 114.2266750000,22.3039520000 114.2267320000,22.3038900000 114.2268920000,22.3036890000 114.2269590000,22.3035710000 114.2270010000,22.3034480000 114.2270250000,22.3032480000 114.2270590000,22.3030990000 114.2270720000,22.3029560000 114.2270820000,22.3027540000 114.2270940000,22.3025350000 114.2271570000,22.3024730000 114.2272360000,22.3023190000 114.2272630000,22.3022770000 114.2274340000,22.3020150000 114.2275330000,22.3018660000 114.2278290000,22.3013970000 114.2279180000,22.3012390000 114.2285220000,22.3001440000 114.2287070000,22.2998480000 114.2288890000,22.2996330000 114.2289930000,22.2995310000 114.2291340000,22.2994150000 114.2292100000,22.2993570000 114.2293820000,22.2992520000 114.2294480000,22.2992080000 114.2295780000,22.2991440000 114.2296430000,22.2991140000 114.2297030000,22.2991000000 114.2298160000,22.2990850000 114.2299070000,22.2990930000 114.2299820000,22.2991050000 114.2300520000,22.2991290000 114.2301730000,22.2991680000 114.2301910000,22.2992140000 114.2302220000,22.2992540000 114.2302640000,22.2992850000 114.2304580000,22.2999510000 114.2304900000,22.3000890000 114.2305940000,22.3003420000 114.2307280000,22.3004880000 114.2308270000,22.3006120000 114.2309750000,22.3007520000 114.2310820000,22.3008290000 114.2312210000,22.3009040000 114.2313630000,22.3009660000 114.2320240000,22.3011620000 114.2325960000,22.3013320000 114.2327770000,22.3013980000 114.2329220000,22.3014790000 114.2330380000,22.3015720000 114.2331210000,22.3016720000 114.2331780000,22.3017750000 114.2332070000,22.3018660000 114.2332100000,22.3019750000 114.2332020000,22.3020720000 114.2331590000,22.3021690000 114.2330900000,22.3022540000 114.2330220000,22.3023150000 114.2329110000,22.3023890000 114.2328180000,22.3024240000 114.2326690000,22.3024680000 114.2325090000,22.3024940000 114.2324350000,22.3025080000 114.2323280000,22.3025440000 114.2319010000,22.3025450000 114.2316380000,22.3025460000 114.2311970000,22.3025000000 114.2310310000,22.3024540000 114.2309070000,22.3024060000 114.2308130000,22.3023470000 114.2307340000,22.3022840000 114.2306730000,22.3021920000 114.2306270000,22.3021000000 114.2306260000,22.3019770000 114.2306510000,22.3018730000 114.2306960000,22.3017660000 114.2307610000,22.3016930000 114.2308200000,22.3016410000 114.2309250000,22.3015910000 114.2310430000,22.3015550000 114.2312140000,22.3015460000 114.2313660000,22.3015630000 114.2315760000,22.3016140000 114.2318180000,22.3016950000 114.2319610000,22.3017500000 114.2321120000,22.3017970000 114.2323520000,22.3018620000 114.2327970000,22.3021250000 114.2329030000,22.3021980000 114.2332570000,22.3024120000 114.2334350000,22.3025210000 114.2336050000,22.3026330000 114.2337230000,22.3027040000 114.2338530000,22.3027700000 114.2339480000,22.3028360000 114.2350390000,22.3035570000 114.2355600000,22.3038460000 114.2361150000,22.3041060000 114.2365270000,22.3042620000 114.2369690000,22.3044030000 114.2378330000,22.3045890000 114.2384770000,22.3046690000 114.2389000000,22.3046890000 114.2393090000,22.3046920000 114.2398120000,22.3046420000 114.2402990000,22.3045780000 114.2409200000,22.3044530000 114.2415050000,22.3042620000 114.2420710000,22.3040460000 114.2426220000,22.3037960000 114.2430420000,22.3035640000 114.2435100000,22.3033130000 114.2441200000,22.3029960000 114.2447780000,22.3026500000 114.2450770000,22.3024930000 114.2454880000,22.3022770000 114.2460480000,22.3019840000 114.2493190000,22.3002670000 114.2495190000,22.3001510000 114.2497220000,22.3000320000 114.2500460000,22.2998260000 114.2503440000,22.2996220000 114.2506000000,22.2994330000 114.2507840000,22.2992910000 114.2509620000,22.2991440000 114.2511500000,22.2989840000 114.2514050000,22.2987510000 114.2527120000,22.2975060000 114.2528250000,22.2974010000 114.2528650000,22.2973630000 114.2529660000,22.2972660000 114.2530620000,22.2971880000 114.2532670000,22.2970100000 114.2534430000,22.2968570000 114.2536090000,22.2967330000 114.2537990000,22.2965920000 114.2538430000,22.2965620000 114.2540160000,22.2964260000 114.2541560000,22.2963260000 114.2542290000,22.2962790000 114.2543670000,22.2961980000 114.2545560000,22.2960930000 114.2548180000,22.2959580000 114.2550160000,22.2958650000 114.2552290000,22.2957740000 114.2560730000,22.2954520000 114.2562970000,22.2953620000 114.2575780000,22.2948040000 114.2576780000,22.2947630000 114.2578260000,22.2947010000 114.2580110000,22.2946250000 114.2582560000,22.2945350000 114.2586260000,22.2943760000 114.2595260000,22.2939890000 114.2601420000,22.2937320000 114.2620300000,22.2929460000 114.2626520000,22.2926910000 114.2627960000,22.2926360000 114.2630720000,22.2925390000 114.2633060000,22.2924650000 114.2635400000,22.2923970000 114.2638030000,22.2923320000 114.2640320000,22.2922750000 114.2643050000,22.2922240000 114.2646960000,22.2921600000 114.2649510000,22.2921240000 114.2651380000,22.2921050000 114.2655210000,22.2920760000 114.2657140000,22.2920670000 114.2660270000,22.2920630000 114.2661850000,22.2920620000 114.2664150000,22.2920610000 114.2667840000,22.2920610000 114.2668760000,22.2920620000 114.2686830000,22.2920680000 114.2689950000,22.2920710000 114.2691190000,22.2920750000 114.2694620000,22.2920760000 114.2697820000,22.2920800000 114.2703060000,22.2921000000 114.2704230000,22.2921010000 114.2717940000,22.2921040000 114.2721800000,22.2921060000 114.2722050000,22.2921070000 114.2723740000,22.2921080000 114.2731690000,22.2920990000 114.2734600000,22.2920960000 114.2736030000,22.2920940000 114.2736020000,22.2919710000 114.2736100000,22.2915030000 114.2736120000,22.2911130000 114.2736420000,22.2908820000 114.2736980000,22.2906220000 114.2738360000,22.2902910000 114.2739870000,22.2899510000 114.2740420000,22.2898430000 114.2746770000,22.2887010000 114.2750410000,22.2880270000 114.2752660000,22.2873930000 114.2753850000,22.2869700000 114.2754770000,22.2865530000 114.2755620000,22.2858890000 114.2755900000,22.2852300000 114.2755990000,22.2848880000 114.2756100000,22.2845710000 114.2756100000,22.2840500000 114.2755690000,22.2837260000 114.2754800000,22.2833620000 114.2753290000,22.2829600000 114.2748700000,22.2819840000 114.2745230000,22.2813080000 114.2744760000,22.2812000000 114.2743720000,22.2812330000 114.2741710000,22.2813110000 114.2730240000,22.2817550000 114.2715070000,22.2823760000 114.2714840000,22.2823850000 114.2713320000,22.2824690000 114.2712440000,22.2825360000 114.2705260000,22.2828220000 114.2697180000,22.2831440000 114.2699730000,22.2837400000 114.2702770000,22.2844050000 114.2707460000,22.2854460000 114.2711160000,22.2862670000 114.2711270000,22.2862910000 114.2714050000,22.2869070000 114.2715850000,22.2873050000 114.2716010000,22.2873440000 114.2716120000,22.2873660000 114.2718160000,22.2877690000 114.2718700000,22.2878840000 114.2718840000,22.2880380000 114.2719850000,22.2882780000 114.2720610000,22.2884420000 114.2721830000,22.2886970000 114.2723280000,22.2889380000 114.2724260000,22.2890600000 114.2725320000,22.2891850000 114.2726440000,22.2892880000 114.2727590000,22.2893660000 114.2729140000,22.2894600000 114.2730770000,22.2895380000 114.2734450000,22.2897020000 114.2735090000,22.2897720000 114.2735450000,22.2898290000 114.2735760000,22.2898790000 114.2735970000,22.2899260000 114.2736270000,22.2899950000 114.2736500000,22.2901100000 114.2736440000,22.2902290000 114.2735480000,22.2906240000 114.2734870000,22.2909720000 114.2734530000,22.2912710000 114.2734590000,22.2915930000 114.2734600000,22.2919700000 114.2734600000,22.2920960000 114.2734620000,22.2921370000 114.2734600000,22.2924110000 114.2734770000,22.2934150000 114.2734620000,22.2939510000 114.2734550000,22.2941650000 114.2734550000,22.2941890000 114.2734540000,22.2942110000 114.2734520000,22.2942510000 114.2734460000,22.2943540000 114.2734240000,22.2947600000 114.2733900000,22.2951840000 114.2733560000,22.2953670000 114.2733460000,22.2954250000 114.2733120000,22.2955250000 114.2732830000,22.2956110000 114.2731440000,22.2959790000 114.2729710000,22.2963200000 114.2727150000,22.2967790000 114.2726980000,22.2968100000 114.2726780000,22.2968450000 114.2726590000,22.2968810000 114.2723600000,22.2974140000 114.2720620000,22.2979340000 114.2720050000,22.2980310000 114.2716930000,22.2985870000 114.2714340000,22.2991520000 114.2713980000,22.2992430000 114.2713560000,22.2993720000 114.2713200000,22.2994990000 114.2712920000,22.2996280000 114.2712780000,22.2997340000 114.2712730000,22.2998150000 114.2712730000,22.2999080000 114.2712790000,22.3000100000 114.2712920000,22.3001140000 114.2713170000,22.3002260000 114.2713420000,22.3003120000 114.2713760000,22.3004040000 114.2714100000,22.3004830000 114.2714540000,22.3005710000 114.2715060000,22.3006600000 114.2715650000,22.3007470000 114.2716290000,22.3008290000 114.2716920000,22.3009030000 114.2720540000,22.3012740000 114.2721100000,22.3013580000 114.2721700000,22.3014560000 114.2722180000,22.3015480000 114.2722600000,22.3016390000 114.2722870000,22.3017200000 114.2723100000,22.3018010000 114.2723240000,22.3018760000 114.2723330000,22.3019510000 114.2723380000,22.3020390000 114.2723380000,22.3021400000 114.2723310000,22.3022300000 114.2723170000,22.3023370000 114.2722910000,22.3024610000 114.2722710000,22.3025330000 114.2722370000,22.3026230000 114.2721930000,22.3027210000 114.2721570000,22.3027880000 114.2721160000,22.3028520000 114.2720440000,22.3029460000 114.2719510000,22.3030510000 114.2718010000,22.3032000000 114.2716110000,22.3033560000 114.2714320000,22.3034970000 114.2711810000,22.3037340000 114.2709060000,22.3040270000 114.2707350000,22.3042800000 114.2704230000,22.3048300000 114.2703260000,22.3050170000 114.2702170000,22.3051850000 114.2700370000,22.3054180000 114.2698560000,22.3055990000 114.2697310000,22.3057090000 114.2696050000,22.3058190000 114.2695010000,22.3059050000 114.2691980000,22.3061630000 114.2690930000,22.3062540000 114.2687290000,22.3065710000 114.2684530000,22.3068920000 114.2684210000,22.3069390000 114.2683380000,22.3070600000 114.2682230000,22.3070100000 114.2681540000,22.3069800000 114.2681180000,22.3069640000 114.2680250000,22.3069260000 114.2678510000,22.3068900000 114.2677550000,22.3068360000 114.2675020000,22.3067400000 114.2674490000,22.3067320000 114.2673930000,22.3067270000 114.2672720000,22.3067490000 114.2672250000,22.3067860000 114.2672040000,22.3068630000 114.2672240000,22.3069590000 114.2673210000,22.3073710000 114.2673300000,22.3075140000 114.2673310000,22.3075790000 114.2672710000,22.3078690000 114.2672470000,22.3079440000 114.2672150000,22.3080180000 114.2671780000,22.3080870000 114.2671350000,22.3081570000 114.2670850000,22.3082280000 114.2670210000,22.3083060000 114.2669560000,22.3083750000 114.2667890000,22.3085230000 114.2667410000,22.3085740000 114.2666810000,22.3086590000 114.2666020000,22.3087840000 114.2665800000,22.3088180000 114.2665400000,22.3088890000 114.2664640000,22.3090230000 114.2663530000,22.3092290000 114.2663340000,22.3092680000 114.2663190000,22.3093150000 114.2663120000,22.3093560000 114.2663110000,22.3094040000 114.2663180000,22.3094540000 114.2663310000,22.3095030000 114.2663730000,22.3096470000 114.2663830000,22.3097020000 114.2663850000,22.3097120000 114.2663920000,22.3097510000 114.2663870000,22.3099280000 114.2663500000,22.3099940000 114.2662890000,22.3101050000 114.2661500000,22.3103550000 114.2660700000,22.3105360000 114.2658780000,22.3110140000 114.2658360000,22.3111190000 114.2657870000,22.3112220000 114.2656940000,22.3113680000 114.2655130000,22.3115070000 114.2654790000,22.3115100000 114.2654450000,22.3115160000 114.2652830000,22.3114580000 114.2651650000,22.3113890000 114.2651170000,22.3113550000 114.2650570000,22.3113070000 114.2650000000,22.3112580000 114.2649540000,22.3112130000 114.2649110000,22.3111670000 114.2648700000,22.3111190000 114.2648100000,22.3110380000 114.2647640000,22.3109700000 114.2647330000,22.3109160000 114.2647020000,22.3108590000 114.2646790000,22.3108110000 114.2646540000,22.3107540000 114.2646340000,22.3107000000 114.2646130000,22.3106280000 114.2645800000,22.3104890000 114.2645690000,22.3104030000 114.2645640000,22.3103250000 114.2645620000,22.3102130000 114.2645910000,22.3097080000 114.2645920000,22.3095930000 114.2645830000,22.3094570000 114.2645680000,22.3093590000 114.2645490000,22.3092740000 114.2645270000,22.3091960000 114.2644930000,22.3091030000 114.2644490000,22.3090040000 114.2644170000,22.3089440000 114.2643740000,22.3088720000 114.2643330000,22.3088070000 114.2642630000,22.3087110000 114.2641780000,22.3085810000 114.2641070000,22.3084450000 114.2641050000,22.3083830000 114.2640900000,22.3083230000 114.2640630000,22.3082670000 114.2640790000,22.3079890000 114.2640600000,22.3077990000 114.2640350000,22.3075450000 114.2640530000,22.3073860000 114.2640240000,22.3072090000 114.2639990000,22.3070500000 114.2637820000,22.3061360000 114.2637260000,22.3059080000 114.2636410000,22.3055780000 114.2635840000,22.3054000000 114.2635530000,22.3053160000 114.2635020000,22.3051900000 114.2634190000,22.3050700000 114.2633280000,22.3049660000 114.2631840000,22.3048770000 114.2630200000,22.3048170000 114.2628020000,22.3047910000 114.2621040000,22.3047910000 114.2616960000,22.3047920000 114.2615340000,22.3047910000 114.2614260000,22.3047990000 114.2614290000,22.3049660000 114.2614380000,22.3053010000 114.2614390000,22.3055220000 114.2614410000,22.3057810000 114.2614420000,22.3063090000 114.2614390000,22.3064670000 114.2614070000,22.3067580000 114.2613930000,22.3068970000 114.2613880000,22.3069290000 114.2613330000,22.3073130000 114.2613020000,22.3074580000 114.2612820000,22.3075670000 114.2612590000,22.3076800000 114.2612030000,22.3078770000 114.2610210000,22.3084100000 114.2608310000,22.3088940000 114.2608160000,22.3089430000 114.2607540000,22.3090890000 114.2607230000,22.3091680000 114.2606570000,22.3093360000 114.2602560000,22.3103130000 114.2601180000,22.3106810000 114.2600990000,22.3107360000 114.2600450000,22.3108780000 114.2600070000,22.3109770000 114.2599840000,22.3111200000 114.2599950000,22.3112640000 114.2599140000,22.3113840000 114.2598710000,22.3114810000 114.2598170000,22.3115690000 114.2597600000,22.3116210000 114.2596800000,22.3116670000 114.2596800000,22.3116670000 114.2599060000,22.3117250000 114.2598700000,22.3116450000 114.2598580000,22.3115740000 114.2598710000,22.3114810000 114.2599140000,22.3113840000 114.2599950000,22.3112640000 114.2600820000,22.3111420000 114.2600930000,22.3111180000 114.2601230000,22.3110160000 114.2601470000,22.3109100000 114.2601960000,22.3107660000 114.2605030000,22.3099900000 114.2605280000,22.3099250000 114.2607140000,22.3094600000 114.2607520000,22.3093680000 114.2608170000,22.3091970000 114.2608510000,22.3091200000 114.2609110000,22.3089750000 114.2611140000,22.3084400000 114.2612010000,22.3081970000 114.2613580000,22.3077560000 114.2613690000,22.3077110000 114.2613990000,22.3075930000 114.2614210000,22.3074970000 114.2614540000,22.3073500000 114.2615130000,22.3070480000 114.2615590000,22.3066850000 114.2615570000,22.3063780000 114.2615540000,22.3061770000 114.2615420000,22.3056450000 114.2615350000,22.3049640000 114.2615340000,22.3047910000 114.2616960000,22.3047920000 114.2621040000,22.3047910000 114.2628020000,22.3047910000 114.2630200000,22.3048170000 114.2631840000,22.3048770000 114.2633280000,22.3049660000 114.2634190000,22.3050700000 114.2635020000,22.3051900000 114.2635530000,22.3053160000 114.2635840000,22.3054000000 114.2636410000,22.3055780000 114.2637260000,22.3059080000 114.2637820000,22.3061360000 114.2639990000,22.3070500000 114.2640240000,22.3072090000 114.2640530000,22.3073860000 114.2640350000,22.3075450000 114.2640050000,22.3076670000 114.2639500000,22.3077940000 114.2639190000,22.3078540000 114.2638690000,22.3079480000 114.2637230000,22.3081210000 114.2636490000,22.3081270000 114.2636020000,22.3081370000 114.2635300000,22.3082230000 114.2634940000,22.3082710000 114.2634680000,22.3083250000 114.2634540000,22.3083820000 114.2634530000,22.3084400000 114.2634610000,22.3084920000 114.2634800000,22.3085420000 114.2635070000,22.3085890000 114.2635670000,22.3086510000 114.2636420000,22.3086960000 114.2637280000,22.3087200000 114.2638180000,22.3087220000 114.2638750000,22.3087110000 114.2639290000,22.3086900000 114.2640320000,22.3087040000 114.2640990000,22.3087260000 114.2641560000,22.3087600000 114.2641970000,22.3087950000 114.2642360000,22.3088370000 114.2642740000,22.3088860000 114.2643070000,22.3089360000 114.2643550000,22.3090260000 114.2644010000,22.3091270000 114.2644300000,22.3092070000 114.2644560000,22.3092920000 114.2644760000,22.3093800000 114.2644900000,22.3094760000 114.2644960000,22.3095600000 114.2644980000,22.3096590000 114.2644960000,22.3097480000 114.2644710000,22.3101120000 114.2644670000,22.3102010000 114.2644670000,22.3102980000 114.2644730000,22.3104070000 114.2644900000,22.3105270000 114.2645220000,22.3106600000 114.2645650000,22.3107850000 114.2646120000,22.3108890000 114.2646630000,22.3109840000 114.2647140000,22.3110660000 114.2647650000,22.3111360000 114.2648110000,22.3111920000 114.2648590000,22.3112460000 114.2649050000,22.3112920000 114.2650380000,22.3114150000 114.2650730000,22.3114540000 114.2650990000,22.3114890000 114.2651220000,22.3115330000 114.2651540000,22.3116110000 114.2651940000,22.3117320000 114.2651810000,22.3117760000 114.2651760000,22.3118210000 114.2651830000,22.3118850000 114.2652040000,22.3119450000 114.2652340000,22.3119940000 114.2652770000,22.3120500000 114.2653370000,22.3121020000 114.2654060000,22.3121330000 114.2654710000,22.3121500000 114.2655400000,22.3121540000 114.2656140000,22.3121440000 114.2657110000,22.3121060000 114.2657910000,22.3120430000 114.2658480000,22.3119610000 114.2658750000,22.3118680000 114.2658750000,22.3118390000 114.2658760000,22.3117980000 114.2659880000,22.3114940000 114.2662060000,22.3109860000 114.2662640000,22.3108500000 114.2663560000,22.3106160000 114.2664300000,22.3104340000 114.2665040000,22.3101990000 114.2666120000,22.3099420000 114.2666810000,22.3098010000 114.2667040000,22.3097360000 114.2667140000,22.3097110000 114.2667310000,22.3096640000 114.2667920000,22.3095740000 114.2668540000,22.3095010000 114.2669390000,22.3094100000 114.2670370000,22.3093040000 114.2671220000,22.3092140000 114.2672680000,22.3090580000 114.2673640000,22.3089680000 114.2674250000,22.3089110000 114.2675770000,22.3087410000 114.2676610000,22.3086490000 114.2677560000,22.3085310000 114.2678420000,22.3083830000 114.2678880000,22.3083030000 114.2679680000,22.3081650000 114.2680030000,22.3080890000 114.2680720000,22.3079090000 114.2680830000,22.3078830000 114.2681980000,22.3076030000 114.2682690000,22.3074130000 114.2683540000,22.3072710000 114.2683890000,22.3072080000 114.2684460000,22.3071090000 114.2683380000,22.3070600000 114.2682230000,22.3070100000 114.2681540000,22.3069800000 114.2681180000,22.3069640000 114.2680250000,22.3069260000 114.2678510000,22.3068900000 114.2679870000,22.3070030000 114.2680720000,22.3070490000 114.2681060000,22.3070680000 114.2681750000,22.3071040000 114.2682730000,22.3071550000 114.2681900000,22.3073680000 114.2681050000,22.3075740000 114.2679970000,22.3078510000 114.2679850000,22.3078790000 114.2679130000,22.3080670000 114.2678860000,22.3081290000 114.2678200000,22.3082850000 114.2677810000,22.3083530000 114.2676980000,22.3084950000 114.2676140000,22.3085990000 114.2675350000,22.3086960000 114.2673800000,22.3088370000 114.2672080000,22.3089920000 114.2670550000,22.3091270000 114.2669520000,22.3092110000 114.2668440000,22.3093230000 114.2667450000,22.3094410000 114.2666850000,22.3095120000 114.2666080000,22.3095430000 114.2665660000,22.3095590000 114.2665250000,22.3095690000 114.2664880000,22.3095690000 114.2664660000,22.3095660000 114.2664470000,22.3095640000 114.2664280000,22.3095570000 114.2663990000,22.3095460000 114.2663640000,22.3095230000 114.2663310000,22.3095030000 114.2663180000,22.3094540000 114.2663110000,22.3094040000 114.2663120000,22.3093560000 114.2663190000,22.3093150000 114.2663340000,22.3092680000 114.2663530000,22.3092290000 114.2664640000,22.3090230000 114.2665400000,22.3088890000 114.2665800000,22.3088180000 114.2666020000,22.3087840000 114.2666810000,22.3086590000 114.2667410000,22.3085740000 114.2667890000,22.3085230000 114.2669560000,22.3083750000 114.2670210000,22.3083060000 114.2670850000,22.3082280000 114.2671350000,22.3081570000 114.2671780000,22.3080870000 114.2672150000,22.3080180000 114.2672470000,22.3079440000 114.2672710000,22.3078690000 114.2673310000,22.3075790000 114.2673300000,22.3075140000 114.2673210000,22.3073710000 114.2672240000,22.3069590000 114.2672040000,22.3068630000 114.2672250000,22.3067860000 114.2672720000,22.3067490000 114.2673930000,22.3067270000 114.2674490000,22.3067320000 114.2675020000,22.3067400000 114.2677550000,22.3068360000 114.2678510000,22.3068900000 114.2679870000,22.3070030000 114.2680720000,22.3070490000 114.2681060000,22.3070680000 114.2681750000,22.3071040000 114.2682730000,22.3071550000 114.2683890000,22.3072080000 114.2684460000,22.3071090000 114.2685200000,22.3069980000 114.2685590000,22.3069480000 114.2686660000,22.3068090000 114.2688260000,22.3066320000 114.2691640000,22.3063060000 114.2692630000,22.3062240000 114.2696180000,22.3059260000 114.2699740000,22.3056120000 114.2701370000,22.3054570000 114.2703160000,22.3052100000 114.2708130000,22.3043130000 114.2709630000,22.3040770000 114.2712430000,22.3037820000 114.2714990000,22.3035580000 114.2716810000,22.3034110000 114.2719300000,22.3032140000 114.2721120000,22.3030140000 114.2721890000,22.3029010000 114.2722370000,22.3028180000 114.2722750000,22.3027460000 114.2723930000,22.3024720000 114.2724150000,22.3023680000 114.2724260000,22.3022140000 114.2724180000,22.3019670000 114.2723880000,22.3017870000 114.2723630000,22.3016880000 114.2723040000,22.3015360000 114.2722160000,22.3013710000 114.2721420000,22.3012630000 114.2720640000,22.3011670000 114.2719740000,22.3010700000 114.2718330000,22.3009340000 114.2717800000,22.3008800000 114.2717200000,22.3008120000 114.2716600000,22.3007390000 114.2716080000,22.3006700000 114.2715630000,22.3005980000 114.2715300000,22.3005410000 114.2714940000,22.3004690000 114.2714640000,22.3004020000 114.2714350000,22.3003250000 114.2714030000,22.3002230000 114.2713790000,22.3001210000 114.2713620000,22.3000050000 114.2713560000,22.2999010000 114.2713570000,22.2998110000 114.2713650000,22.2997100000 114.2713800000,22.2996050000 114.2714020000,22.2995070000 114.2714250000,22.2994250000 114.2714760000,22.2992740000 114.2715300000,22.2991320000 114.2715870000,22.2989930000 114.2721270000,22.2980860000 114.2724880000,22.2974650000 114.2725260000,22.2973990000 114.2725360000,22.2973810000 114.2728110000,22.2969030000 114.2731050000,22.2963860000 114.2732790000,22.2960300000 114.2734260000,22.2956450000 114.2734510000,22.2955590000 114.2734780000,22.2954520000 114.2734830000,22.2954320000 114.2735640000,22.2949720000 114.2736020000,22.2944950000 114.2736020000,22.2944680000 114.2736030000,22.2943940000 114.2736040000,22.2943240000 114.2736070000,22.2940200000 114.2736060000,22.2934970000 114.2736030000,22.2923780000 114.2736030000,22.2920940000 114.2736020000,22.2919710000 114.2736100000,22.2915030000 114.2736120000,22.2911130000 114.2736420000,22.2908820000 114.2736980000,22.2906220000 114.2738360000,22.2902910000 114.2739870000,22.2899510000 114.2740420000,22.2898430000 114.2746770000,22.2887010000 114.2750410000,22.2880270000 114.2752660000,22.2873930000 114.2753850000,22.2869700000 114.2754770000,22.2865530000 114.2755620000,22.2858890000 114.2755900000,22.2852300000 114.2755990000,22.2848880000 114.2756100000,22.2845710000 114.2756100000,22.2840500000 114.2755690000,22.2837260000 114.2754800000,22.2833620000 114.2753290000,22.2829600000 114.2748700000,22.2819840000 114.2745230000,22.2813080000 114.2744760000,22.2812000000 114.2743720000,22.2812330000 114.2741710000,22.2813110000 114.2730240000,22.2817550000 114.2715340000,22.2823650000 114.2714840000,22.2823850000 114.2713320000,22.2824690000 114.2712440000,22.2825360000 114.2705260000,22.2828220000 114.2697180000,22.2831440000 114.2699730000,22.2837400000 114.2702770000,22.2844050000 114.2707460000,22.2854460000 114.2711160000,22.2862670000 114.2711270000,22.2862910000 114.2714050000,22.2869070000 114.2715850000,22.2873050000 114.2716010000,22.2873440000 114.2716120000,22.2873660000 114.2718160000,22.2877690000 114.2718700000,22.2878840000 114.2718840000,22.2880380000 114.2719850000,22.2882780000 114.2720610000,22.2884420000 114.2721830000,22.2886970000 114.2723280000,22.2889380000 114.2724260000,22.2890600000 114.2725320000,22.2891850000 114.2726440000,22.2892880000 114.2727590000,22.2893660000 114.2729140000,22.2894600000 114.2730770000,22.2895380000 114.2734450000,22.2897020000 114.2735090000,22.2897720000 114.2735450000,22.2898290000 114.2735760000,22.2898790000 114.2735970000,22.2899260000 114.2736270000,22.2899950000 114.2736500000,22.2901100000 114.2736440000,22.2902290000 114.2735480000,22.2906240000 114.2734870000,22.2909720000 114.2734530000,22.2912710000 114.2734590000,22.2915930000 114.2734600000,22.2919700000 114.2731620000,22.2919710000 114.2730840000,22.2919710000 114.2724410000,22.2919790000 114.2723530000,22.2919810000 114.2723220000,22.2919810000 114.2720460000,22.2919860000 114.2710470000,22.2920040000 114.2702340000,22.2920000000 114.2697620000,22.2919840000 114.2694080000,22.2919740000 114.2691200000,22.2919690000 114.2689960000,22.2919660000 114.2686710000,22.2919650000 114.2668760000,22.2919560000 114.2667770000,22.2919570000 114.2664120000,22.2919570000 114.2661760000,22.2919590000 114.2660250000,22.2919630000 114.2657160000,22.2919660000 114.2655310000,22.2919760000 114.2651510000,22.2920030000 114.2649340000,22.2920250000 114.2646820000,22.2920610000 114.2642850000,22.2921210000 114.2640210000,22.2921790000 114.2637930000,22.2922280000 114.2635050000,22.2923020000 114.2631570000,22.2924060000 114.2630250000,22.2924490000 114.2627250000,22.2925560000 114.2619860000,22.2928550000 114.2600980000,22.2936400000 114.2594810000,22.2938980000 114.2585740000,22.2942620000 114.2584820000,22.2942990000 114.2579610000,22.2945110000 114.2577830000,22.2945980000 114.2576310000,22.2946690000 114.2575290000,22.2947150000 114.2563270000,22.2952520000 114.2560250000,22.2953740000 114.2552680000,22.2956590000 114.2551130000,22.2957190000 114.2546060000,22.2959290000 114.2543710000,22.2960260000 114.2542080000,22.2961090000 114.2540570000,22.2961890000 114.2538050000,22.2963340000 114.2535700000,22.2964930000 114.2533340000,22.2966560000 114.2531260000,22.2968010000 114.2528860000,22.2969930000 114.2528100000,22.2970620000 114.2526890000,22.2971720000 114.2526500000,22.2972080000 114.2525190000,22.2973310000 114.2512450000,22.2985380000 114.2509820000,22.2987870000 114.2508090000,22.2989350000 114.2506230000,22.2990860000 114.2504510000,22.2992260000 114.2501900000,22.2994110000 114.2498810000,22.2996270000 114.2496140000,22.2997960000 114.2493950000,22.2999280000 114.2491130000,22.3000860000 114.2476780000,22.3008400000 114.2458770000,22.3017750000 114.2454150000,22.3020140000 114.2449620000,22.3022250000 114.2445750000,22.3024380000 114.2438610000,22.3028180000 114.2436240000,22.3029760000 114.2433630000,22.3031500000 114.2432850000,22.3031870000 114.2430810000,22.3032830000 114.2428730000,22.3033820000 114.2425170000,22.3035510000 114.2419210000,22.3038330000 114.2409940000,22.3041660000 114.2401190000,22.3043420000 114.2396590000,22.3044010000 114.2390970000,22.3044190000 114.2384820000,22.3044110000 114.2376890000,22.3042980000 114.2369830000,22.3041320000 114.2365850000,22.3040070000 114.2361950000,22.3038510000 114.2356950000,22.3036110000 114.2352210000,22.3033410000 114.2341920000,22.3026940000 114.2340320000,22.3026050000 114.2335980000,22.3023120000 114.2334150000,22.3021010000 114.2332450000,22.3019870000 114.2329740000,22.3018130000 114.2324710000,22.3015120000 114.2322280000,22.3013640000 114.2320470000,22.3012540000 114.2318230000,22.3011110000 114.2317050000,22.3009960000 114.2316490000,22.3009500000 114.2315730000,22.3008820000 114.2314190000,22.3007540000 114.2313060000,22.3006590000 114.2312850000,22.3006410000 114.2312670000,22.3006260000 114.2311150000,22.3004980000 114.2309790000,22.3003580000 114.2308540000,22.3002280000 114.2307490000,22.3000930000 114.2306610000,22.2999770000 114.2305920000,22.2999040000 114.2305100000,22.2996130000 114.2304630000,22.2994510000 114.2304530000,22.2992860000 114.2305020000,22.2992490000 114.2305360000,22.2992000000 114.2305500000,22.2991430000 114.2305440000,22.2990850000 114.2305260000,22.2990450000 114.2304990000,22.2990110000 114.2304630000,22.2989830000 114.2304100000,22.2989610000 114.2303510000,22.2989550000 114.2302930000,22.2989660000 114.2302410000,22.2989930000 114.2302010000,22.2990330000 114.2301590000,22.2990160000 114.2301000000,22.2989930000 114.2300310000,22.2989770000 114.2296920000,22.2990080000 114.2295790000,22.2990400000 114.2294960000,22.2990730000 114.2294130000,22.2991140000 114.2293470000,22.2991540000 114.2292810000,22.2992030000 114.2290750000,22.2993470000 114.2289430000,22.2994630000 114.2288200000,22.2995940000 114.2286400000,22.2998030000 114.2284550000,22.3001050000 114.2281910000,22.3005920000 114.2278840000,22.3011770000 114.2277720000,22.3013680000 114.2277260000,22.3014420000 114.2274710000,22.3018330000 114.2273710000,22.3019760000 114.2271670000,22.3022740000 114.2271180000,22.3023660000 114.2270890000,22.3024550000 114.2270940000,22.3025350000 114.2270820000,22.3027540000 114.2270720000,22.3029560000 114.2270590000,22.3030990000 114.2270250000,22.3032480000 114.2269170000,22.3034220000 114.2267890000,22.3036240000 114.2266900000,22.3037660000 114.2266390000,22.3038370000 114.2265850000,22.3039010000 114.2264750000,22.3040300000 114.2260500000,22.3045180000 114.2254460000,22.3051990000 114.2253940000,22.3052580000 114.2253360000,22.3053240000 114.2251030000,22.3055870000 114.2248560000,22.3058450000 114.2246850000,22.3060370000 114.2246440000,22.3060820000 114.2245860000,22.3061020000 114.2245150000,22.3061210000 114.2244920000,22.3061280000 114.2244700000,22.3061330000 114.2244500000,22.3061380000 114.2244320000,22.3061400000 114.2244180000,22.3061410000 114.2243580000,22.3061430000 114.2243000000,22.3061440000 114.2242070000,22.3060920000 114.2239870000,22.3059850000 114.2239030000,22.3059520000 114.2238140000,22.3059260000 114.2237210000,22.3059030000 114.2236740000,22.3058920000 114.2235400000,22.3058700000 114.2234350000,22.3058600000 114.2233460000,22.3058570000 114.2232560000,22.3058540000 114.2231610000,22.3058570000 114.2230730000,22.3058610000 114.2229830000,22.3058690000 114.2228920000,22.3058830000 114.2228000000,22.3059010000 114.2226950000,22.3059210000 114.2225820000,22.3059520000 114.2225250000,22.3059730000 114.2224340000,22.3060070000 114.2223320000,22.3060490000 114.2222480000,22.3060900000 114.2222050000,22.3061150000 114.2221790000,22.3061300000 114.2221560000,22.3061450000 114.2221260000,22.3061650000 114.2220870000,22.3061930000 114.2220500000,22.3062200000 114.2219420000,22.3063130000 114.2218410000,22.3064100000 114.2217270000,22.3065540000 114.2216280000,22.3067100000 114.2215010000,22.3068920000 114.2211590000,22.3074240000 114.2210730000,22.3075480000 114.2210220000,22.3076230000 114.2210020000,22.3076520000 114.2207530000,22.3079900000 114.2205820000,22.3082080000 114.2201910000,22.3087040000 114.2192820000,22.3098570000 114.2189020000,22.3103410000 114.2185710000,22.3107330000 114.2181640000,22.3111990000 114.2179470000,22.3114370000 114.2176990000,22.3117080000 114.2174100000,22.3119890000 114.2172860000,22.3121100000 114.2163760000,22.3130530000 114.2152860000,22.3141730000 114.2147630000,22.3147110000 114.2144750000,22.3150060000 114.2144120000,22.3150710000 114.2141400000,22.3153500000 114.2137790000,22.3157210000 114.2133820000,22.3161450000 114.2131930000,22.3163010000 114.2130460000,22.3164050000 114.2129730000,22.3164550000 114.2128790000,22.3165200000 114.2126550000,22.3166460000 114.2125020000,22.3167240000 114.2124270000,22.3167550000 114.2123210000,22.3167980000 114.2122390000,22.3168220000 114.2121170000,22.3168520000 114.2120210000,22.3168740000 114.2119200000,22.3168980000 114.2115700000,22.3168980000 114.2115060000,22.3168990000 114.2114610000,22.3168980000 114.2114020000,22.3168990000 114.2107230000,22.3168930000 114.2106750000,22.3168920000 114.2105480000,22.3168910000 114.2103000000,22.3168670000 114.2102650000,22.3168670000 114.2102050000,22.3168690000 114.2099200000,22.3169060000 114.2097760000,22.3169310000 114.2096330000,22.3169600000 114.2094690000,22.3170020000 114.2093000000,22.3170570000 114.2092360000,22.3170820000 114.2091660000,22.3171160000 114.2091110000,22.3171470000 114.2090490000,22.3171870000 114.2089980000,22.3172230000 114.2089340000,22.3172730000 114.2088700000,22.3173290000 114.2088000000,22.3174030000 114.2087430000,22.3174720000 114.2087000000,22.3175310000 114.2084220000,22.3179530000 114.2082880000,22.3181520000 114.2081210000,22.3183800000 114.2078260000,22.3187650000 114.2076260000,22.3190000000 114.2073560000,22.3193160000 114.2072660000,22.3194170000 114.2068810000,22.3197830000 114.2067040000,22.3199390000 114.2063940000,22.3201890000 114.2063590000,22.3202140000 114.2062830000,22.3202680000 114.2062470000,22.3202940000 114.2062100000,22.3203190000 114.2061220000,22.3203810000 114.2058790000,22.3206180000 114.2052610000,22.3211940000 114.2050200000,22.3214120000 114.2048600000,22.3215660000 114.2048190000,22.3216030000 114.2047710000,22.3216490000 114.2045140000,22.3218950000 114.2041300000,22.3221370000 114.2038620000,22.3223210000 114.2036600000,22.3224810000 114.2034600000,22.3226000000 114.2031250000,22.3227360000 114.2030170000,22.3229410000 114.2029750000,22.3231480000 114.2028550000,22.3233650000 114.2027830000,22.3234120000 114.2027370000,22.3234380000 114.2026550000,22.3234850000 114.2023890000,22.3236230000 114.2022250000,22.3237000000 114.2020750000,22.3237620000 114.2019440000,22.3238110000 114.2017830000,22.3238620000 114.2016440000,22.3239020000 114.2014970000,22.3239370000 114.2013210000,22.3239730000 114.2010740000,22.3240060000 114.2009280000,22.3240210000 114.2007980000,22.3240310000 114.2005720000,22.3240420000 114.2004670000,22.3240460000 114.1981480000,22.3240740000 114.1969720000,22.3240900000 114.1931910000,22.3242060000 114.1929760000,22.3241900000 114.1927100000,22.3241580000 114.1924060000,22.3240540000 114.1919930000,22.3238190000 114.1917780000,22.3236810000 114.1916420000,22.3235340000 114.1914650000,22.3232640000 114.1907080000,22.3216680000 114.1906320000,22.3214540000 114.1905980000,22.3213270000 114.1905760000,22.3212280000 114.1905530000,22.3211330000 114.1905300000,22.3210450000 114.1904540000,22.3208050000 114.1903970000,22.3206400000 114.1903530000,22.3205180000 114.1903160000,22.3204260000 114.1902650000,22.3203170000 114.1902060000,22.3202010000 114.1901430000,22.3200830000 114.1900660000,22.3199610000 114.1899780000,22.3198240000 114.1899060000,22.3197210000 114.1897880000,22.3195560000 114.1896400000,22.3193570000 114.1895210000,22.3191930000 114.1894550000,22.3190990000 114.1894140000,22.3190380000 114.1893840000,22.3189900000 114.1893490000,22.3189280000 114.1893080000,22.3188520000 114.1892700000,22.3187800000 114.1891320000,22.3185030000 114.1885480000,22.3173290000 114.1881990000,22.3166390000 114.1880140000,22.3162710000 114.1879760000,22.3161940000 114.1879320000,22.3160990000 114.1878900000,22.3160040000 114.1878560000,22.3159210000 114.1878170000,22.3158200000 114.1877810000,22.3157200000 114.1877470000,22.3156140000 114.1877250000,22.3155370000 114.1877050000,22.3154550000 114.1876730000,22.3152820000 114.1876130000,22.3148810000 114.1876010000,22.3147950000 114.1875880000,22.3147130000 114.1875570000,22.3145620000 114.1875370000,22.3144630000 114.1875200000,22.3143820000 114.1874970000,22.3143040000 114.1874770000,22.3142420000 114.1873840000,22.3139840000 114.1873530000,22.3139010000 114.1873140000,22.3138090000 114.1872720000,22.3137180000 114.1872170000,22.3136100000 114.1871700000,22.3135250000 114.1871250000,22.3134500000 114.1869880000,22.3132340000 114.1865460000,22.3125520000 114.1860760000,22.3118220000 114.1859480000,22.3116210000 114.1858010000,22.3113940000 114.1857270000,22.3112690000 114.1856850000,22.3111940000 114.1854880000,22.3108360000 114.1854410000,22.3107540000 114.1853870000,22.3106640000 114.1853200000,22.3105530000 114.1852550000,22.3104580000 114.1851860000,22.3103670000 114.1851140000,22.3102800000 114.1848710000,22.3099790000 114.1847480000,22.3098390000 114.1845920000,22.3096680000 114.1844260000,22.3094970000 114.1844110000,22.3094800000 114.1842420000,22.3092930000 114.1841190000,22.3091860000 114.1838820000,22.3089980000 114.1837520000,22.3089020000 114.1835540000,22.3088030000 114.1834750000,22.3087620000 114.1832990000,22.3086690000 114.1830920000,22.3085460000 114.1828020000,22.3083920000 114.1825850000,22.3082650000 114.1825560000,22.3082480000 114.1824680000,22.3081960000 114.1821720000,22.3080070000 114.1818500000,22.3077770000 114.1815670000,22.3075690000 114.1812500000,22.3072970000 114.1811670000,22.3071420000 114.1811510000,22.3070250000 114.1811510000,22.3068800000 114.1811650000,22.3067970000 114.1811800000,22.3067440000 114.1812080000,22.3066490000 114.1812470000,22.3065950000 114.1813120000,22.3065030000 114.1813620000,22.3064260000 114.1814120000,22.3063370000 114.1814360000,22.3062840000 114.1814520000,22.3062400000 114.1814840000,22.3061160000 114.1815140000,22.3060580000 114.1815420000,22.3059900000 114.1815670000,22.3059130000 114.1815920000,22.3058110000 114.1816060000,22.3056980000 114.1816080000,22.3055890000 114.1816010000,22.3054770000 114.1815650000,22.3052920000 114.1815260000,22.3051840000 114.1814670000,22.3050200000 114.1814080000,22.3048800000 114.1812890000,22.3045890000 114.1812230000,22.3044290000 114.1811770000,22.3043200000 114.1811690000,22.3040960000 114.1811620000,22.3039990000 114.1811400000,22.3038590000 114.1811180000,22.3037060000 114.1810990000,22.3035630000 114.1810820000,22.3034320000 114.1810720000,22.3033400000 114.1810640000,22.3032580000 114.1810550000,22.3031450000 114.1809820000,22.3025630000 114.1809270000,22.3021540000 114.1809410000,22.3017570000 114.1808170000,22.3007620000 114.1808430000,22.3002610000 114.1808490000,22.3002110000 114.1808480000,22.3001200000 114.1808320000,22.3000450000 114.1808000000,22.2999700000 114.1807630000,22.2999090000 114.1807080000,22.2998460000 114.1806620000,22.2998080000 114.1806160000,22.2997820000 114.1805410000,22.2997770000 114.1804760000,22.2997840000 114.1804180000,22.2998060000 114.1803600000,22.2998520000 114.1803080000,22.2999350000 114.1803000000,22.3000050000 114.1802670000,22.3001330000 114.1802470000,22.3002170000 114.1801630000,22.3006400000 114.1800990000,22.3008600000 114.1800370000,22.3010270000 114.1798880000,22.3013220000 114.1798410000,22.3014150000 114.1798000000,22.3014900000 114.1797680000,22.3015150000 114.1796890000,22.3015760000 114.1796520000,22.3016200000 114.1795820000,22.3016900000 114.1794510000,22.3017770000 114.1794480000,22.3017790000 114.1793730000,22.3018290000 114.1792540000,22.3018920000 114.1790270000,22.3020100000 114.1790100000,22.3020190000 114.1788160000,22.3021190000 114.1781090000,22.3025230000 114.1777830000,22.3026590000 114.1776440000,22.3027030000 114.1775130000,22.3027570000 114.1773640000,22.3028220000 114.1773220000,22.3028410000 114.1771990000,22.3028990000 114.1771180000,22.3029390000 114.1770860000,22.3029600000 114.1770240000,22.3029950000 114.1769070000,22.3030410000 114.1768650000,22.3030570000 114.1768130000,22.3031070000 114.1763600000,22.3032960000 114.1761810000,22.3033620000 114.1760660000,22.3033960000 114.1759480000,22.3034190000 114.1758130000,22.3034210000 114.1756290000,22.3034100000 114.1755120000,22.3034060000 114.1745850000,22.3033760000 114.1735820000,22.3033570000 114.1734720000,22.3033540000 114.1724610000,22.3032950000 114.1721720000,22.3032770000 114.1719890000,22.3032580000 114.1719210000,22.3032530000 114.1719170000,22.3032520000 114.1718210000,22.3031980000 114.1717390000,22.3031920000 114.1716600000,22.3031890000 114.1716450000,22.3031880000 114.1714610000,22.3031790000 114.1710970000,22.3031590000 114.1707520000,22.3031400000 114.1706840000,22.3031370000 114.1705970000,22.3031320000 114.1705620000,22.3031300000 114.1703280000,22.3031180000 114.1702940000,22.3031170000 114.1702500000,22.3031140000 114.1697590000,22.3030820000 114.1693420000,22.3030430000 114.1693130000,22.3030400000 114.1692800000,22.3030370000 114.1690860000,22.3030210000 114.1682760000,22.3029610000 114.1682490000,22.3029590000 114.1681220000,22.3029490000 114.1679670000,22.3029380000 114.1678160000,22.3029290000 114.1672670000,22.3028850000 114.1671250000,22.3028710000 114.1669020000,22.3028470000 114.1666390000,22.3027480000 114.1665890000,22.3027350000 114.1664590000,22.3027170000 114.1659810000,22.3026650000 114.1655230000,22.3026160000 114.1652540000,22.3025760000 114.1648460000,22.3025150000 114.1645670000,22.3024950000 114.1642590000,22.3025000000 114.1639480000,22.3025770000 114.1638140000,22.3026740000 114.1636900000,22.3028350000 114.1636390000,22.3030440000 114.1636330000,22.3033440000 114.1636600000,22.3038970000 114.1636890000,22.3047980000 114.1637170000,22.3050670000 114.1637980000,22.3053690000 114.1638250000,22.3056110000 114.1638340000,22.3058970000 114.1637600000,22.3074900000 114.1637130000,22.3085600000 114.1636990000,22.3087140000 114.1636700000,22.3088570000 114.1636360000,22.3090110000 114.1635880000,22.3091170000 114.1635520000,22.3091870000 114.1635200000,22.3092570000 114.1634660000,22.3093580000 114.1633560000,22.3095580000 114.1632220000,22.3097580000 114.1630900000,22.3099330000 114.1629090000,22.3101240000 114.1626600000,22.3102980000 114.1623690000,22.3104570000 114.1620850000,22.3105760000 114.1617760000,22.3107270000 114.1615100000,22.3108940000 114.1613130000,22.3110850000 114.1611670000,22.3112590000 114.1610980000,22.3113730000 114.1610380000,22.3115050000 114.1609640000,22.3117030000 114.1609440000,22.3118380000 114.1609430000,22.3120110000 114.1609570000,22.3123110000 114.1610070000,22.3126620000 114.1610640000,22.3129820000 114.1610900000,22.3133050000 114.1610840000,22.3134510000 114.1610830000,22.3135530000 114.1610760000,22.3136740000 114.1610630000,22.3138200000 114.1610430000,22.3140050000 114.1610330000,22.3140850000 114.1610100000,22.3142940000 114.1610000000,22.3143810000 114.1609900000,22.3144740000 114.1609700000,22.3146090000 114.1608720000,22.3148930000 114.1608170000,22.3150540000 114.1607220000,22.3152950000 114.1606600000,22.3154510000 114.1605320000,22.3157770000 114.1604310000,22.3160340000 114.1604020000,22.3161020000 114.1602320000,22.3165050000 114.1601490000,22.3167130000 114.1600170000,22.3170510000 114.1599140000,22.3172960000 114.1597820000,22.3176120000 114.1595720000,22.3181370000 114.1594170000,22.3185250000 114.1592550000,22.3188970000 114.1592030000,22.3190150000 114.1590080000,22.3194180000 114.1587420000,22.3199420000 114.1583530000,22.3206340000 114.1580280000,22.3211960000 114.1578120000,22.3215320000 114.1575490000,22.3219090000 114.1572310000,22.3223570000 114.1568960000,22.3228060000 114.1566210000,22.3231540000 114.1563410000,22.3235090000 114.1560360000,22.3238490000 114.1557920000,22.3241230000 114.1553950000,22.3245530000 114.1550540000,22.3249040000 114.1547300000,22.3252310000 114.1543620000,22.3255780000 114.1540020000,22.3258970000 114.1535900000,22.3262530000 114.1531170000,22.3266270000 114.1527770000,22.3268800000 114.1522560000,22.3272720000 114.1518220000,22.3275630000 114.1514760000,22.3277850000 114.1512290000,22.3279450000 114.1504710000,22.3283960000 114.1499850000,22.3286710000 114.1496200000,22.3288590000 114.1490590000,22.3291340000 114.1489510000,22.3291850000 114.1486060000,22.3293440000 114.1478890000,22.3296390000 114.1475170000,22.3297910000 114.1471780000,22.3299180000 114.1464480000,22.3302230000 114.1463850000,22.3302470000 114.1454820000,22.3305840000 114.1452560000,22.3306640000 114.1445070000,22.3309320000 114.1438590000,22.3311530000 114.1436130000,22.3312480000 114.1429310000,22.3315740000 114.1428530000,22.3316050000 114.1412890000,22.3322090000 114.1405410000,22.3324930000 114.1403740000,22.3325580000 114.1395880000,22.3328230000 114.1394970000,22.3328500000 114.1385640000,22.3332330000 114.1378030000,22.3335180000 114.1373210000,22.3337010000 114.1368860000,22.3338730000 114.1365640000,22.3340150000 114.1362710000,22.3341510000 114.1359690000,22.3343040000 114.1356310000,22.3344910000 114.1354440000,22.3346060000 114.1353440000,22.3346670000 114.1352220000,22.3347460000 114.1350140000,22.3348820000 114.1348000000,22.3350240000 114.1344480000,22.3352610000 114.1342910000,22.3353690000 114.1341900000,22.3354590000 114.1338720000,22.3357390000 114.1334860000,22.3361210000 114.1332200000,22.3364150000 114.1330340000,22.3366250000 114.1327260000,22.3370270000 114.1325120000,22.3373330000 114.1322740000,22.3377130000 114.1321960000,22.3378480000 114.1320510000,22.3380930000 114.1318960000,22.3383900000 114.1318580000,22.3384640000 114.1316890000,22.3387910000 114.1313190000,22.3395860000 114.1310380000,22.3402110000 114.1309620000,22.3403700000 114.1308660000,22.3405680000 114.1307020000,22.3409030000 114.1306300000,22.3410380000 114.1305920000,22.3411100000 114.1305250000,22.3412340000 114.1304660000,22.3413420000 114.1303470000,22.3415350000 114.1302580000,22.3416670000 114.1301950000,22.3417640000 114.1300900000,22.3418930000 114.1300170000,22.3419770000 114.1299130000,22.3420940000 114.1297960000,22.3422120000 114.1296700000,22.3423320000 114.1295520000,22.3424400000 114.1294840000,22.3425000000 114.1293200000,22.3426370000 114.1291160000,22.3427790000 114.1289430000,22.3428890000 114.1287970000,22.3429780000 114.1286030000,22.3430850000 114.1283130000,22.3432270000 114.1281970000,22.3432800000 114.1280870000,22.3433250000 114.1278230000,22.3434330000 114.1275370000,22.3435510000 114.1272190000,22.3436900000 114.1270920000,22.3437490000 114.1269950000,22.3437970000 114.1269170000,22.3438390000 114.1268020000,22.3439050000 114.1265700000,22.3440470000 114.1263600000,22.3441870000 114.1261980000,22.3443040000 114.1260630000,22.3444120000 114.1259430000,22.3445150000 114.1257850000,22.3446620000 114.1256620000,22.3447850000 114.1254920000,22.3449680000 114.1252790000,22.3452360000 114.1251700000,22.3453840000 114.1250580000,22.3455550000 114.1249770000,22.3456920000 114.1248460000,22.3459330000 114.1246780000,22.3462410000 114.1245680000,22.3463860000 114.1245460000,22.3464240000 114.1245060000,22.3464960000 114.1244710000,22.3465580000 114.1244440000,22.3466280000 114.1243980000,22.3467450000 114.1243470000,22.3468790000 114.1243110000,22.3469980000 114.1242950000,22.3470490000 114.1242790000,22.3471060000 114.1241560000,22.3476070000 114.1240880000,22.3480250000 114.1240530000,22.3484440000 114.1240590000,22.3488230000 114.1240800000,22.3491510000 114.1241390000,22.3494120000 114.1242250000,22.3496050000 114.1244600000,22.3500140000 114.1246570000,22.3503560000 114.1250360000,22.3509280000 114.1250900000,22.3510010000 114.1255920000,22.3517230000 114.1260680000,22.3523700000 114.1262520000,22.3526120000 114.1264870000,22.3529060000 114.1268270000,22.3532890000 114.1268440000,22.3533070000 114.1273520000,22.3538440000 114.1276570000,22.3541510000 114.1280070000,22.3544590000 114.1283000000,22.3547400000 114.1285050000,22.3549120000 114.1286460000,22.3550420000 114.1286610000,22.3550560000 114.1288760000,22.3552520000 114.1291830000,22.3555860000 114.1293130000,22.3557660000 114.1294280000,22.3559380000 114.1296960000,22.3564200000 114.1298250000,22.3567330000 114.1298800000,22.3568870000 114.1299420000,22.3570920000 114.1299510000,22.3571220000 114.1299720000,22.3571970000 114.1300050000,22.3572910000 114.1300590000,22.3574470000 114.1303640000,22.3582650000 114.1304370000,22.3584620000 114.1307920000,22.3594480000 114.1308680000,22.3596510000 114.1309020000,22.3597650000 114.1309400000,22.3598810000 114.1309650000,22.3599570000 114.1309950000,22.3600480000 114.1310080000,22.3602360000 114.1309990000,22.3603980000 114.1309830000,22.3605600000 114.1309530000,22.3607280000 114.1308890000,22.3609480000 114.1308810000,22.3609650000 114.1308530000,22.3610240000 114.1307350000,22.3611650000 114.1305980000,22.3612490000 114.1304950000,22.3613100000 114.1303950000,22.3613760000 114.1303760000,22.3613890000 114.1303550000,22.3614030000 114.1303310000,22.3614190000 114.1302440000,22.3614920000 114.1301320000,22.3613930000 114.1300660000,22.3613340000 114.1299850000,22.3613070000 114.1298150000,22.3611470000 114.1297940000,22.3611270000 114.1297160000,22.3610530000 114.1296750000,22.3610150000 114.1295670000,22.3609160000 114.1294000000,22.3607640000 114.1292630000,22.3606370000 114.1288730000,22.3602680000 114.1288510000,22.3601930000 114.1288210000,22.3601640000 114.1287230000,22.3600590000 114.1286010000,22.3599460000 114.1285570000,22.3599050000 114.1284250000,22.3598430000 114.1283660000,22.3597780000 114.1281400000,22.3595630000 114.1280930000,22.3595210000 114.1279300000,22.3593660000 114.1278530000,22.3592910000 114.1278080000,22.3592420000 114.1277710000,22.3591510000 114.1276080000,22.3589990000 114.1275760000,22.3589670000 114.1275370000,22.3589280000 114.1274640000,22.3588380000 114.1274040000,22.3587870000 114.1273790000,22.3587650000 114.1273110000,22.3587080000 114.1272560000,22.3586300000 114.1271830000,22.3585860000 114.1271140000,22.3585390000 114.1268920000,22.3583870000 114.1266770000,22.3582350000 114.1263880000,22.3580260000 114.1262010000,22.3578880000 114.1261200000,22.3578280000 114.1259580000,22.3577110000 114.1257110000,22.3575330000 114.1256910000,22.3575180000 114.1256610000,22.3574940000 114.1253730000,22.3572570000 114.1251900000,22.3571280000 114.1251150000,22.3570700000 114.1250090000,22.3569810000 114.1249110000,22.3570860000 114.1248440000,22.3571590000 114.1247320000,22.3572720000 114.1246560000,22.3573430000 114.1243530000,22.3576340000 114.1242480000,22.3577260000 114.1241590000,22.3578100000 114.1240640000,22.3579270000 114.1235900000,22.3581380000 114.1219940000,22.3587330000 114.1216470000,22.3588690000 114.1215740000,22.3588970000 114.1214930000,22.3589280000 114.1215660000,22.3590970000 114.1217520000,22.3595230000 114.1217640000,22.3595530000 114.1217990000,22.3596320000 114.1216130000,22.3596950000 114.1216130000,22.3596950000 114.1214720000,22.3597720000 114.1210710000,22.3599060000 114.1210060000,22.3599390000 114.1208950000,22.3600150000 114.1208150000,22.3600950000 114.1207760000,22.3601500000 114.1207490000,22.3601870000 114.1207040000,22.3602860000 114.1206740000,22.3603970000 114.1206770000,22.3613410000 114.1206880000,22.3614050000 114.1207080000,22.3614770000 114.1207430000,22.3615560000 114.1207840000,22.3616280000 114.1208450000,22.3617110000 114.1209120000,22.3617740000 114.1209960000,22.3618280000 114.1212380000,22.3619270000 114.1217300000,22.3621290000 114.1218620000,22.3621840000 114.1219800000,22.3622330000 114.1223690000,22.3623950000 114.1224730000,22.3624720000 114.1225870000,22.3625780000 114.1226600000,22.3627080000 114.1227180000,22.3628280000 114.1227510000,22.3629800000 114.1228010000,22.3636120000 114.1228090000,22.3637070000 114.1228190000,22.3638360000 114.1228280000,22.3639530000 114.1228410000,22.3641140000 114.1228430000,22.3641420000 114.1228460000,22.3641690000 114.1228570000,22.3643130000 114.1228590000,22.3643370000 114.1228940000,22.3644830000 114.1229370000,22.3645910000 114.1230120000,22.3646950000 114.1231020000,22.3647850000 114.1232060000,22.3648560000 114.1233310000,22.3649130000 114.1234710000,22.3649480000 114.1236160000,22.3649640000 114.1238280000,22.3649590000 114.1238890000,22.3649580000 114.1243070000,22.3649480000 114.1253800000,22.3649160000 114.1255090000,22.3649250000 114.1256360000,22.3649430000 114.1256470000,22.3647760000 114.1256540000,22.3642040000 114.1256290000,22.3637330000 114.1256120000,22.3636650000 114.1255670000,22.3635790000 114.1255230000,22.3635180000 114.1254630000,22.3634390000 114.1252400000,22.3632640000 114.1249840000,22.3630800000 114.1247640000,22.3629680000 114.1246500000,22.3629010000</coordinates>
                </LineString>
                <ExtendedData>
                    <Data name="length">
                        <value>69386.78617645161</value>
                    </Data>
                    <Data name="duration">
                        <value>01:22:45</value>
                    </Data>
                </ExtendedData>
            </Placemark>
        </Document>
    </Document>
</kml>