<?xml version="1.0" encoding="UTF-8"?>
<kml xmlns="http://www.opengis.net/kml/2.2" xmlns:gx="http://www.google.com/kml/ext/2.2">
    <Document>
        <name>Route</name>
        <Folder>
            <name>Route Request</name>
            <Placemark>
                <Point>
                    <coordinates>114.2507745547,22.2663462552</coordinates>
                </Point>
                <ExtendedData>
                    <Data name="postcode">
                        <value>DD132 586</value>
                    </Data>
                    <Data name="hamlet">
                        <value>Tsing Shan Tsuen</value>
                    </Data>
                    <Data name="country">
                        <value>PRC</value>
                    </Data>
                    <Data name="state">
                        <value>Hong Kong</value>
                    </Data>
                    <Data name="building">
                        <value>Block 15</value>
                    </Data>
                    <Data name="country_code">
                        <value>cn</value>
                    </Data>
                    <Data name="suburb">
                        <value>Castle Peak Bay</value>
                    </Data>
                    <Data name="road">
                        <value>Lung Chak Road</value>
                    </Data>
                    <Data name="neighbourhood">
                        <value>Yeung Siu Hang</value>
                    </Data>
                    <Data name="routingVisited">
                        <value>false</value>
                    </Data>
                    <Data name="region">
                        <value>New Territories</value>
                    </Data>
                </ExtendedData>
            </Placemark>
            <Placemark>
                <address>Siu Sai Wan Estate Bus Terminus, Siu Sai Wan Road, Siu Sai Wan, Eastern District, Hong Kong, CWIL 176, PRC</address>
                <Point>
                    <coordinates>114.2489374757,22.2629215391</coordinates>
                </Point>
                <ExtendedData>
                    <Data name="postcode">
                        <value>CWIL 176</value>
                    </Data>
                    <Data name="country">
                        <value>PRC</value>
                    </Data>
                    <Data name="bus_station">
                        <value>Siu Sai Wan Estate Bus Terminus</value>
                    </Data>
                    <Data name="country_code">
                        <value>cn</value>
                    </Data>
                    <Data name="suburb">
                        <value>Siu Sai Wan</value>
                    </Data>
                    <Data name="road">
                        <value>Siu Sai Wan Road</value>
                    </Data>
                    <Data name="county">
                        <value>Eastern District</value>
                    </Data>
                </ExtendedData>
            </Placemark>
            <Placemark>
                <address>Wan Tsui Commercial Centre, Wah Ha Street, Wan Tsui Estate, Chai Wan, Eastern District, Hong Kong, CWIL 176, PRC</address>
                <Point>
                    <coordinates>114.2381978474,22.2630887363</coordinates>
                </Point>
                <ExtendedData>
                    <Data name="postcode">
                        <value>CWIL 176</value>
                    </Data>
                    <Data name="country">
                        <value>PRC</value>
                    </Data>
                    <Data name="road">
                        <value>Wah Ha Street</value>
                    </Data>
                    <Data name="suburb">
                        <value>Chai Wan</value>
                    </Data>
                    <Data name="country_code">
                        <value>cn</value>
                    </Data>
                    <Data name="county">
                        <value>Eastern District</value>
                    </Data>
                    <Data name="mall">
                        <value>Wan Tsui Commercial Centre</value>
                    </Data>
                    <Data name="residential">
                        <value>Wan Tsui Estate</value>
                    </Data>
                </ExtendedData>
            </Placemark>
            <Placemark>
                <address>Chai Wan Bus Terminus Rest Area, Lee Chung Street, Chai Wan, Eastern District, Hong Kong, CWIL 176, PRC</address>
                <Point>
                    <coordinates>114.2369762063,22.2649277997</coordinates>
                </Point>
                <ExtendedData>
                    <Data name="postcode">
                        <value>CWIL 176</value>
                    </Data>
                    <Data name="country">
                        <value>PRC</value>
                    </Data>
                    <Data name="road">
                        <value>Lee Chung Street</value>
                    </Data>
                    <Data name="suburb">
                        <value>Chai Wan</value>
                    </Data>
                    <Data name="country_code">
                        <value>cn</value>
                    </Data>
                    <Data name="garden">
                        <value>Chai Wan Bus Terminus Rest Area</value>
                    </Data>
                    <Data name="county">
                        <value>Eastern District</value>
                    </Data>
                </ExtendedData>
            </Placemark>
            <Placemark>
                <address>Block 3, Shau Kei Wan Main Street East, Shau Kei Wan, Eastern District, Hong Kong, SL 144, PRC</address>
                <Point>
                    <coordinates>114.2295663218,22.2790764027</coordinates>
                </Point>
                <ExtendedData>
                    <Data name="postcode">
                        <value>SL 144</value>
                    </Data>
                    <Data name="country">
                        <value>PRC</value>
                    </Data>
                    <Data name="building">
                        <value>Block 3</value>
                    </Data>
                    <Data name="road">
                        <value>Shau Kei Wan Main Street East</value>
                    </Data>
                    <Data name="suburb">
                        <value>Shau Kei Wan</value>
                    </Data>
                    <Data name="country_code">
                        <value>cn</value>
                    </Data>
                    <Data name="county">
                        <value>Eastern District</value>
                    </Data>
                </ExtendedData>
            </Placemark>
            <Placemark>
                <address>Kornhill, Quarry Bay, Eastern District, Hong Kong, SML 3, PRC</address>
                <Point>
                    <coordinates>114.2161209323,22.2845574546</coordinates>
                </Point>
                <ExtendedData>
                    <Data name="postcode">
                        <value>SML 3</value>
                    </Data>
                    <Data name="country">
                        <value>PRC</value>
                    </Data>
                    <Data name="suburb">
                        <value>Quarry Bay</value>
                    </Data>
                    <Data name="country_code">
                        <value>cn</value>
                    </Data>
                    <Data name="footway">
                        <value>Kornhill</value>
                    </Data>
                    <Data name="tram_stop">
                        <value>Kornhill</value>
                    </Data>
                    <Data name="county">
                        <value>Eastern District</value>
                    </Data>
                </ExtendedData>
            </Placemark>
            <Placemark>
                <address>Tien Lu Dispensary, King's Road, Fortress Hill, Tsat Tsz Mui, Eastern District, Hong Kong, KINGSFIELD MANSION LEVEL B, PRC</address>
                <Point>
                    <coordinates>114.2067030681,22.2919438135</coordinates>
                </Point>
                <ExtendedData>
                    <Data name="postcode">
                        <value>KINGSFIELD MANSION LEVEL B</value>
                    </Data>
                    <Data name="convenience">
                        <value>Tien Lu Dispensary</value>
                    </Data>
                    <Data name="country">
                        <value>PRC</value>
                    </Data>
                    <Data name="road">
                        <value>King's Road</value>
                    </Data>
                    <Data name="suburb">
                        <value>Tsat Tsz Mui</value>
                    </Data>
                    <Data name="country_code">
                        <value>cn</value>
                    </Data>
                    <Data name="neighbourhood">
                        <value>Fortress Hill</value>
                    </Data>
                    <Data name="county">
                        <value>Eastern District</value>
                    </Data>
                </ExtendedData>
            </Placemark>
            <Placemark>
                <address>King's Road, Fortress Hill, North Point, Eastern District, Hong Kong, KINGSFIELD MANSION LEVEL B, PRC</address>
                <Point>
                    <coordinates>114.1993975109,22.2907552995</coordinates>
                </Point>
                <ExtendedData>
                    <Data name="postcode">
                        <value>KINGSFIELD MANSION LEVEL B</value>
                    </Data>
                    <Data name="country">
                        <value>PRC</value>
                    </Data>
                    <Data name="road">
                        <value>King's Road</value>
                    </Data>
                    <Data name="suburb">
                        <value>North Point</value>
                    </Data>
                    <Data name="country_code">
                        <value>cn</value>
                    </Data>
                    <Data name="neighbourhood">
                        <value>Fortress Hill</value>
                    </Data>
                    <Data name="county">
                        <value>Eastern District</value>
                    </Data>
                </ExtendedData>
            </Placemark>
            <Placemark>
                <address>Airport Road, Sha Lo Wan, Tung Chung, Islands District, Hong Kong, 000000, PRC</address>
                <Point>
                    <coordinates>113.9347445661,22.3009642913</coordinates>
                </Point>
                <ExtendedData>
                    <Data name="postcode">
                        <value>000000</value>
                    </Data>
                    <Data name="town">
                        <value>Tung Chung</value>
                    </Data>
                    <Data name="country">
                        <value>PRC</value>
                    </Data>
                    <Data name="road">
                        <value>Airport Road</value>
                    </Data>
                    <Data name="suburb">
                        <value>Sha Lo Wan</value>
                    </Data>
                    <Data name="country_code">
                        <value>cn</value>
                    </Data>
                    <Data name="county">
                        <value>Islands District</value>
                    </Data>
                </ExtendedData>
            </Placemark>
            <Placemark>
                <address>Hong Kong International Airport Car Park 4, Cheong Tat Road, Sha Lo Wan, Tung Chung, Islands District, Hong Kong, 000000, PRC</address>
                <Point>
                    <coordinates>113.9352601625,22.3183624667</coordinates>
                </Point>
                <ExtendedData>
                    <Data name="postcode">
                        <value>000000</value>
                    </Data>
                    <Data name="town">
                        <value>Tung Chung</value>
                    </Data>
                    <Data name="country">
                        <value>PRC</value>
                    </Data>
                    <Data name="road">
                        <value>Cheong Tat Road</value>
                    </Data>
                    <Data name="suburb">
                        <value>Sha Lo Wan</value>
                    </Data>
                    <Data name="country_code">
                        <value>cn</value>
                    </Data>
                    <Data name="parking">
                        <value>Hong Kong International Airport Car Park 4</value>
                    </Data>
                    <Data name="county">
                        <value>Islands District</value>
                    </Data>
                </ExtendedData>
            </Placemark>
            <Placemark>
                <address>Sky City Road, Tung Chung, Islands District, Hong Kong, 000000, PRC</address>
                <Point>
                    <coordinates>113.9380713087,22.3209517769</coordinates>
                </Point>
                <ExtendedData>
                    <Data name="postcode">
                        <value>000000</value>
                    </Data>
                    <Data name="town">
                        <value>Tung Chung</value>
                    </Data>
                    <Data name="country">
                        <value>PRC</value>
                    </Data>
                    <Data name="road">
                        <value>Sky City Road</value>
                    </Data>
                    <Data name="country_code">
                        <value>cn</value>
                    </Data>
                    <Data name="county">
                        <value>Islands District</value>
                    </Data>
                </ExtendedData>
            </Placemark>
            <Placemark>
                <address>SkyCity Car Park, Airport Expo Boulevard, Tung Chung, Islands District, Hong Kong, 000000, PRC</address>
                <Point>
                    <coordinates>113.9415563549,22.3188482162</coordinates>
                </Point>
                <ExtendedData>
                    <Data name="postcode">
                        <value>000000</value>
                    </Data>
                    <Data name="town">
                        <value>Tung Chung</value>
                    </Data>
                    <Data name="country">
                        <value>PRC</value>
                    </Data>
                    <Data name="road">
                        <value>Airport Expo Boulevard</value>
                    </Data>
                    <Data name="country_code">
                        <value>cn</value>
                    </Data>
                    <Data name="parking">
                        <value>SkyCity Car Park</value>
                    </Data>
                    <Data name="county">
                        <value>Islands District</value>
                    </Data>
                </ExtendedData>
            </Placemark>
            <Placemark>
                <address>Terminal 2, Sky Plaza Drive, Sha Lo Wan, Tung Chung, Islands District, Hong Kong, 000000, PRC</address>
                <Point>
                    <coordinates>113.9376211282,22.3157683735</coordinates>
                </Point>
                <ExtendedData>
                    <Data name="postcode">
                        <value>000000</value>
                    </Data>
                    <Data name="town">
                        <value>Tung Chung</value>
                    </Data>
                    <Data name="country">
                        <value>PRC</value>
                    </Data>
                    <Data name="road">
                        <value>Sky Plaza Drive</value>
                    </Data>
                    <Data name="suburb">
                        <value>Sha Lo Wan</value>
                    </Data>
                    <Data name="country_code">
                        <value>cn</value>
                    </Data>
                    <Data name="county">
                        <value>Islands District</value>
                    </Data>
                    <Data name="address29">
                        <value>Terminal 2</value>
                    </Data>
                </ExtendedData>
            </Placemark>
            <Placemark>
                <address>East Coast Road, Sha Lo Wan, Tung Chung, Islands District, Hong Kong, 000000, PRC</address>
                <Point>
                    <coordinates>113.9356832006,22.2991602978</coordinates>
                </Point>
                <ExtendedData>
                    <Data name="postcode">
                        <value>000000</value>
                    </Data>
                    <Data name="town">
                        <value>Tung Chung</value>
                    </Data>
                    <Data name="country">
                        <value>PRC</value>
                    </Data>
                    <Data name="road">
                        <value>East Coast Road</value>
                    </Data>
                    <Data name="suburb">
                        <value>Sha Lo Wan</value>
                    </Data>
                    <Data name="country_code">
                        <value>cn</value>
                    </Data>
                    <Data name="county">
                        <value>Islands District</value>
                    </Data>
                </ExtendedData>
            </Placemark>
            <Placemark>
                <address>Customs Headquarters Building, 222, Java Road, Fortress Hill, Tsat Tsz Mui, Eastern District, Hong Kong, KINGSFIELD MANSION LEVEL B, PRC</address>
                <Point>
                    <coordinates>114.2035947977,22.2930297799</coordinates>
                </Point>
                <ExtendedData>
                    <Data name="postcode">
                        <value>KINGSFIELD MANSION LEVEL B</value>
                    </Data>
                    <Data name="country">
                        <value>PRC</value>
                    </Data>
                    <Data name="road">
                        <value>Java Road</value>
                    </Data>
                    <Data name="suburb">
                        <value>Tsat Tsz Mui</value>
                    </Data>
                    <Data name="country_code">
                        <value>cn</value>
                    </Data>
                    <Data name="neighbourhood">
                        <value>Fortress Hill</value>
                    </Data>
                    <Data name="county">
                        <value>Eastern District</value>
                    </Data>
                    <Data name="house_number">
                        <value>222</value>
                    </Data>
                    <Data name="address29">
                        <value>Customs Headquarters Building</value>
                    </Data>
                </ExtendedData>
            </Placemark>
            <Placemark>
                <address>Block 4, 1116, King's Road, Quarry Bay, Eastern District, Hong Kong, SML 3, PRC</address>
                <Point>
                    <coordinates>114.2157666461,22.2858142160</coordinates>
                </Point>
                <ExtendedData>
                    <Data name="postcode">
                        <value>SML 3</value>
                    </Data>
                    <Data name="country">
                        <value>PRC</value>
                    </Data>
                    <Data name="building">
                        <value>Block 4</value>
                    </Data>
                    <Data name="road">
                        <value>King's Road</value>
                    </Data>
                    <Data name="suburb">
                        <value>Quarry Bay</value>
                    </Data>
                    <Data name="country_code">
                        <value>cn</value>
                    </Data>
                    <Data name="county">
                        <value>Eastern District</value>
                    </Data>
                    <Data name="house_number">
                        <value>1116</value>
                    </Data>
                </ExtendedData>
            </Placemark>
            <Placemark>
                <address>Circle K, Shau Kei Wan Road, Shau Kei Wan, Eastern District, Hong Kong, SIL 850, PRC</address>
                <Point>
                    <coordinates>114.2274750956,22.2774349149</coordinates>
                </Point>
                <ExtendedData>
                    <Data name="postcode">
                        <value>SIL 850</value>
                    </Data>
                    <Data name="convenience">
                        <value>Circle K</value>
                    </Data>
                    <Data name="country">
                        <value>PRC</value>
                    </Data>
                    <Data name="road">
                        <value>Shau Kei Wan Road</value>
                    </Data>
                    <Data name="suburb">
                        <value>Shau Kei Wan</value>
                    </Data>
                    <Data name="country_code">
                        <value>cn</value>
                    </Data>
                    <Data name="county">
                        <value>Eastern District</value>
                    </Data>
                </ExtendedData>
            </Placemark>
            <Placemark>
                <address>Hong Kong Art School Pao Haung Sue Ing Campus, 8, Tam Kung Temple Road, Shau Kei Wan, Eastern District, Hong Kong, SIL 739, PRC</address>
                <Point>
                    <coordinates>114.2311598137,22.2826824004</coordinates>
                </Point>
                <ExtendedData>
                    <Data name="postcode">
                        <value>SIL 739</value>
                    </Data>
                    <Data name="country">
                        <value>PRC</value>
                    </Data>
                    <Data name="building">
                        <value>Hong Kong Art School Pao Haung Sue Ing Campus</value>
                    </Data>
                    <Data name="road">
                        <value>Tam Kung Temple Road</value>
                    </Data>
                    <Data name="suburb">
                        <value>Shau Kei Wan</value>
                    </Data>
                    <Data name="country_code">
                        <value>cn</value>
                    </Data>
                    <Data name="county">
                        <value>Eastern District</value>
                    </Data>
                    <Data name="house_number">
                        <value>8</value>
                    </Data>
                </ExtendedData>
            </Placemark>
            <Placemark>
                <address>Chai Wan Bus Terminus Rest Area, Lee Chung Street, Chai Wan, Eastern District, Hong Kong, CWIL 176, PRC</address>
                <Point>
                    <coordinates>114.2369863573,22.2649132423</coordinates>
                </Point>
                <ExtendedData>
                    <Data name="postcode">
                        <value>CWIL 176</value>
                    </Data>
                    <Data name="country">
                        <value>PRC</value>
                    </Data>
                    <Data name="road">
                        <value>Lee Chung Street</value>
                    </Data>
                    <Data name="suburb">
                        <value>Chai Wan</value>
                    </Data>
                    <Data name="country_code">
                        <value>cn</value>
                    </Data>
                    <Data name="garden">
                        <value>Chai Wan Bus Terminus Rest Area</value>
                    </Data>
                    <Data name="county">
                        <value>Eastern District</value>
                    </Data>
                </ExtendedData>
            </Placemark>
            <Placemark>
                <address>Block 1, Siu Sai Wan Road, Siu Sai Wan, Eastern District, Hong Kong, CWIL 176, PRC</address>
                <Point>
                    <coordinates>114.2516418211,22.2644529132</coordinates>
                </Point>
                <ExtendedData>
                    <Data name="postcode">
                        <value>CWIL 176</value>
                    </Data>
                    <Data name="country">
                        <value>PRC</value>
                    </Data>
                    <Data name="building">
                        <value>Block 1</value>
                    </Data>
                    <Data name="road">
                        <value>Siu Sai Wan Road</value>
                    </Data>
                    <Data name="suburb">
                        <value>Siu Sai Wan</value>
                    </Data>
                    <Data name="country_code">
                        <value>cn</value>
                    </Data>
                    <Data name="county">
                        <value>Eastern District</value>
                    </Data>
                </ExtendedData>
            </Placemark>
            <Placemark>
                <address>Siu Sai Wan (Island Resort) Bus Terminus, Siu Sai Wan Road, Siu Sai Wan, Eastern District, Hong Kong, CWIL 176, PRC</address>
                <Point>
                    <coordinates>114.2507678519,22.2663639430</coordinates>
                </Point>
                <ExtendedData>
                    <Data name="postcode">
                        <value>CWIL 176</value>
                    </Data>
                    <Data name="bus_station">
                        <value>Siu Sai Wan (Island Resort) Bus Terminus</value>
                    </Data>
                    <Data name="country">
                        <value>PRC</value>
                    </Data>
                    <Data name="road">
                        <value>Siu Sai Wan Road</value>
                    </Data>
                    <Data name="suburb">
                        <value>Siu Sai Wan</value>
                    </Data>
                    <Data name="country_code">
                        <value>cn</value>
                    </Data>
                    <Data name="county">
                        <value>Eastern District</value>
                    </Data>
                </ExtendedData>
            </Placemark>
        </Folder>
        <Document>
            <name>110.2 km; 03:12 h (OSRM)</name>
            <Placemark>
                <name>Route</name>
                <LineString>
                    <coordinates>114.2507720000,22.2663430000 114.2512280000,22.2659670000 114.2511950000,22.2659310000 114.2511560000,22.2658880000 114.2511210000,22.2658510000 114.2510840000,22.2658100000 114.2510500000,22.2657730000 114.2510190000,22.2657410000 114.2509660000,22.2656830000 114.2509580000,22.2656750000 114.2509490000,22.2656700000 114.2509390000,22.2656680000 114.2509290000,22.2656670000 114.2509070000,22.2656690000 114.2508970000,22.2656710000 114.2508810000,22.2656790000 114.2508690000,22.2656860000 114.2508560000,22.2656950000 114.2508440000,22.2657050000 114.2508270000,22.2657230000 114.2508090000,22.2657420000 114.2507930000,22.2657630000 114.2507820000,22.2657850000 114.2507770000,22.2657990000 114.2507740000,22.2658140000 114.2507660000,22.2658440000 114.2507600000,22.2658590000 114.2507510000,22.2658770000 114.2507420000,22.2658910000 114.2507300000,22.2659060000 114.2507170000,22.2659170000 114.2507010000,22.2659260000 114.2506850000,22.2659340000 114.2506690000,22.2659390000 114.2506510000,22.2659430000 114.2506330000,22.2659450000 114.2506160000,22.2659450000 114.2506000000,22.2659430000 114.2505790000,22.2659320000 114.2505620000,22.2659190000 114.2505450000,22.2659040000 114.2505260000,22.2658840000 114.2504630000,22.2658080000 114.2507000000,22.2656300000 114.2510300000,22.2653900000 114.2510440000,22.2653780000 114.2513580000,22.2651160000 114.2514460000,22.2650310000 114.2514720000,22.2650060000 114.2515740000,22.2649070000 114.2516450000,22.2648310000 114.2517300000,22.2647510000 114.2518020000,22.2646640000 114.2520000000,22.2643500000 114.2520700000,22.2641700000 114.2520900000,22.2640600000 114.2520920000,22.2639300000 114.2520680000,22.2637600000 114.2520270000,22.2636050000 114.2519700000,22.2634800000 114.2518700000,22.2633400000 114.2517600000,22.2632000000 114.2516780000,22.2631020000 114.2514900000,22.2629200000 114.2513000000,22.2627600000 114.2511230000,22.2626400000 114.2510590000,22.2626010000 114.2510290000,22.2625820000 114.2509600000,22.2625400000 114.2509040000,22.2625130000 114.2507700000,22.2624500000 114.2506550000,22.2624100000 114.2505400000,22.2623800000 114.2504200000,22.2623630000 114.2503000000,22.2623600000 114.2501700000,22.2623700000 114.2500400000,22.2624000000 114.2500000000,22.2624140000 114.2499000000,22.2624500000 114.2497770000,22.2625070000 114.2496800000,22.2625700000 114.2496400000,22.2626080000 114.2495930000,22.2626520000 114.2495390000,22.2627160000 114.2494670000,22.2628010000 114.2494120000,22.2628820000 114.2492570000,22.2631090000 114.2490640000,22.2633920000 114.2488630000,22.2636760000 114.2486870000,22.2639110000 114.2486510000,22.2639590000 114.2485850000,22.2640460000 114.2485340000,22.2641040000 114.2484490000,22.2642010000 114.2482300000,22.2644500000 114.2481500000,22.2645390000 114.2479950000,22.2646900000 114.2478000000,22.2648700000 114.2477070000,22.2649460000 114.2472900000,22.2652900000 114.2471900000,22.2653600000 114.2469460000,22.2654880000 114.2469010000,22.2655150000 114.2468110000,22.2655690000 114.2467090000,22.2656150000 114.2465200000,22.2656900000 114.2463500000,22.2657400000 114.2462000000,22.2657810000 114.2460500000,22.2658200000 114.2457600000,22.2658400000 114.2456300000,22.2658450000 114.2453500000,22.2658300000 114.2450700000,22.2657900000 114.2449660000,22.2657710000 114.2447800000,22.2657380000 114.2446880000,22.2657190000 114.2445710000,22.2656960000 114.2441600000,22.2656550000 114.2441030000,22.2656560000 114.2440380000,22.2656630000 114.2432950000,22.2657930000 114.2432330000,22.2657930000 114.2430970000,22.2657930000 114.2428730000,22.2657670000 114.2426580000,22.2657150000 114.2421780000,22.2653660000 114.2417790000,22.2650770000 114.2414720000,22.2648500000 114.2409280000,22.2644360000 114.2408570000,22.2643820000 114.2407910000,22.2643320000 114.2403270000,22.2639900000 114.2399110000,22.2636740000 114.2398630000,22.2636390000 114.2396900000,22.2635130000 114.2396810000,22.2635070000 114.2396340000,22.2634760000 114.2395690000,22.2634320000 114.2393160000,22.2633140000 114.2391060000,22.2632370000 114.2389590000,22.2632160000 114.2387530000,22.2632080000 114.2384680000,22.2632120000 114.2382660000,22.2632180000 114.2382030000,22.2632200000 114.2381350000,22.2632220000 114.2379970000,22.2632160000 114.2378720000,22.2631940000 114.2378270000,22.2631850000 114.2376000000,22.2630500000 114.2375100000,22.2630400000 114.2374190000,22.2630330000 114.2373380000,22.2630430000 114.2372590000,22.2630640000 114.2372080000,22.2631000000 114.2371500000,22.2631500000 114.2371070000,22.2632200000 114.2371010000,22.2632700000 114.2371030000,22.2633200000 114.2371210000,22.2634300000 114.2371700000,22.2635300000 114.2373260000,22.2636430000 114.2374300000,22.2637900000 114.2374800000,22.2639100000 114.2375000000,22.2640200000 114.2374850000,22.2643720000 114.2374870000,22.2645740000 114.2375110000,22.2647170000 114.2375400000,22.2648550000 114.2375780000,22.2649960000 114.2377400000,22.2654750000 114.2377150000,22.2656180000 114.2376990000,22.2656450000 114.2376620000,22.2656700000 114.2376070000,22.2656930000 114.2375630000,22.2656950000 114.2375150000,22.2656830000 114.2374770000,22.2656640000 114.2374060000,22.2655890000 114.2373780000,22.2655210000 114.2373340000,22.2654490000 114.2372430000,22.2653590000 114.2372240000,22.2653400000 114.2371070000,22.2652540000 114.2371190000,22.2652080000 114.2369600000,22.2649360000 114.2369390000,22.2649000000 114.2369510000,22.2648030000 114.2369650000,22.2646950000 114.2369370000,22.2646510000 114.2369500000,22.2645920000 114.2369270000,22.2645100000 114.2369260000,22.2645080000 114.2368580000,22.2644540000 114.2365320000,22.2641920000 114.2362570000,22.2639740000 114.2361660000,22.2639050000 114.2361120000,22.2637400000 114.2361210000,22.2636800000 114.2361400000,22.2636200000 114.2361800000,22.2635700000 114.2362400000,22.2635300000 114.2363000000,22.2635070000 114.2364370000,22.2634720000 114.2365200000,22.2634500000 114.2367700000,22.2634400000 114.2368600000,22.2634380000 114.2369700000,22.2634500000 114.2370890000,22.2634860000 114.2371700000,22.2635300000 114.2373260000,22.2636430000 114.2374300000,22.2637900000 114.2374800000,22.2639100000 114.2375000000,22.2640200000 114.2374850000,22.2643720000 114.2374870000,22.2645740000 114.2375110000,22.2647170000 114.2375400000,22.2648550000 114.2375780000,22.2649960000 114.2377400000,22.2654750000 114.2377670000,22.2655760000 114.2377820000,22.2656880000 114.2377780000,22.2658310000 114.2377620000,22.2660290000 114.2377250000,22.2662410000 114.2376570000,22.2666640000 114.2376250000,22.2670080000 114.2376110000,22.2671910000 114.2376050000,22.2673950000 114.2376050000,22.2675290000 114.2376050000,22.2675470000 114.2376070000,22.2676520000 114.2376080000,22.2676780000 114.2376180000,22.2678590000 114.2376370000,22.2679860000 114.2376560000,22.2680620000 114.2376750000,22.2681370000 114.2377280000,22.2683050000 114.2378030000,22.2685390000 114.2382440000,22.2696400000 114.2383700000,22.2699420000 114.2384340000,22.2701100000 114.2385820000,22.2705900000 114.2386930000,22.2708790000 114.2388590000,22.2713520000 114.2390420000,22.2719110000 114.2392580000,22.2725550000 114.2393230000,22.2727990000 114.2393660000,22.2730330000 114.2393880000,22.2732620000 114.2393900000,22.2734620000 114.2393700000,22.2736780000 114.2393400000,22.2738430000 114.2392960000,22.2740530000 114.2392230000,22.2742640000 114.2391280000,22.2744840000 114.2389860000,22.2747480000 114.2384260000,22.2754300000 114.2374110000,22.2766310000 114.2372600000,22.2768500000 114.2371100000,22.2770900000 114.2369900000,22.2773250000 114.2368700000,22.2776600000 114.2367930000,22.2779100000 114.2366200000,22.2785900000 114.2365100000,22.2789200000 114.2363700000,22.2792200000 114.2361900000,22.2795100000 114.2356520000,22.2802620000 114.2353570000,22.2806520000 114.2350820000,22.2809220000 114.2346900000,22.2813790000 114.2341170000,22.2819750000 114.2338540000,22.2822240000 114.2336890000,22.2823240000 114.2335080000,22.2824400000 114.2333560000,22.2825100000 114.2330810000,22.2826070000 114.2329690000,22.2826520000 114.2328340000,22.2826860000 114.2326310000,22.2827050000 114.2323200000,22.2827070000 114.2322190000,22.2826990000 114.2320280000,22.2826740000 114.2318180000,22.2826220000 114.2315640000,22.2825360000 114.2313730000,22.2824650000 114.2311710000,22.2823570000 114.2309230000,22.2821920000 114.2307060000,22.2819780000 114.2305900000,22.2818500000 114.2305130000,22.2817400000 114.2303860000,22.2814890000 114.2302920000,22.2812380000 114.2300410000,22.2803180000 114.2298900000,22.2800000000 114.2297200000,22.2797500000 114.2296300000,22.2796500000 114.2294360000,22.2794730000 114.2294210000,22.2794360000 114.2294140000,22.2794100000 114.2294110000,22.2793810000 114.2294150000,22.2793270000 114.2294250000,22.2792870000 114.2294790000,22.2790580000 114.2295130000,22.2789120000 114.2295890000,22.2785920000 114.2296810000,22.2783900000 114.2295680000,22.2779110000 114.2294170000,22.2772180000 114.2298050000,22.2770430000 114.2298170000,22.2770370000 114.2298400000,22.2770260000 114.2298490000,22.2770220000 114.2297320000,22.2768030000 114.2296620000,22.2767440000 114.2295590000,22.2766970000 114.2294960000,22.2766880000 114.2294170000,22.2766890000 114.2288490000,22.2767800000 114.2285510000,22.2768270000 114.2284610000,22.2768500000 114.2283450000,22.2768830000 114.2282000000,22.2769420000 114.2278590000,22.2771080000 114.2274070000,22.2773480000 114.2272270000,22.2774430000 114.2271250000,22.2774970000 114.2270770000,22.2775230000 114.2270180000,22.2775680000 114.2269490000,22.2776250000 114.2269000000,22.2776730000 114.2268340000,22.2777680000 114.2267230000,22.2779530000 114.2265360000,22.2782610000 114.2264890000,22.2783410000 114.2263470000,22.2785850000 114.2261700000,22.2788810000 114.2260890000,22.2790170000 114.2257370000,22.2796000000 114.2256960000,22.2796730000 114.2255360000,22.2799100000 114.2254880000,22.2799740000 114.2254280000,22.2800400000 114.2253520000,22.2801130000 114.2253090000,22.2801460000 114.2252510000,22.2801780000 114.2251310000,22.2802160000 114.2250530000,22.2802330000 114.2246800000,22.2803140000 114.2245770000,22.2803360000 114.2244040000,22.2803740000 114.2242820000,22.2804030000 114.2239400000,22.2805220000 114.2234840000,22.2807150000 114.2233880000,22.2807550000 114.2230170000,22.2809250000 114.2229060000,22.2809810000 114.2226660000,22.2811310000 114.2225800000,22.2811980000 114.2224840000,22.2812850000 114.2224220000,22.2813480000 114.2223700000,22.2814040000 114.2223160000,22.2814740000 114.2221100000,22.2817370000 114.2219440000,22.2819500000 114.2219190000,22.2819810000 114.2218180000,22.2821090000 114.2217600000,22.2821810000 114.2215380000,22.2824620000 114.2212820000,22.2827850000 114.2212450000,22.2828320000 114.2211960000,22.2828930000 114.2211290000,22.2829770000 114.2209500000,22.2832020000 114.2208600000,22.2833160000 114.2206570000,22.2835720000 114.2205350000,22.2837270000 114.2200820000,22.2842960000 114.2200720000,22.2843070000 114.2200000000,22.2843870000 114.2199390000,22.2844560000 114.2198400000,22.2845600000 114.2197420000,22.2846440000 114.2196090000,22.2847300000 114.2195000000,22.2847810000 114.2193870000,22.2848190000 114.2192780000,22.2848470000 114.2191300000,22.2848740000 114.2189670000,22.2848920000 114.2188450000,22.2848950000 114.2186990000,22.2848840000 114.2185050000,22.2848580000 114.2183310000,22.2848200000 114.2180150000,22.2847420000 114.2178790000,22.2847130000 114.2174830000,22.2846240000 114.2172680000,22.2845900000 114.2170560000,22.2845700000 114.2165880000,22.2845520000 114.2161210000,22.2845580000 114.2157500000,22.2845620000 114.2157230000,22.2845620000 114.2152740000,22.2846000000 114.2150330000,22.2846080000 114.2147480000,22.2846060000 114.2144560000,22.2846010000 114.2142930000,22.2845990000 114.2137750000,22.2845940000 114.2135580000,22.2845910000 114.2132520000,22.2845930000 114.2129220000,22.2845930000 114.2128590000,22.2845980000 114.2125760000,22.2846360000 114.2120680000,22.2847670000 114.2119510000,22.2847940000 114.2117530000,22.2848610000 114.2116280000,22.2849230000 114.2115580000,22.2849670000 114.2114570000,22.2850650000 114.2113360000,22.2852830000 114.2112470000,22.2854040000 114.2110380000,22.2857520000 114.2108050000,22.2861340000 114.2107650000,22.2862040000 114.2105650000,22.2865550000 114.2105010000,22.2866820000 114.2104410000,22.2868290000 114.2102780000,22.2872900000 114.2102580000,22.2873460000 114.2101890000,22.2875460000 114.2100790000,22.2878710000 114.2100070000,22.2880650000 114.2099770000,22.2881640000 114.2099080000,22.2883660000 114.2098910000,22.2884140000 114.2097940000,22.2886970000 114.2097700000,22.2887680000 114.2096010000,22.2892590000 114.2094960000,22.2895630000 114.2092730000,22.2901980000 114.2092300000,22.2903170000 114.2092050000,22.2903790000 114.2091470000,22.2905260000 114.2090610000,22.2906940000 114.2090470000,22.2907220000 114.2090250000,22.2907550000 114.2089810000,22.2908170000 114.2088940000,22.2909090000 114.2087980000,22.2910210000 114.2087350000,22.2910800000 114.2086210000,22.2911670000 114.2084750000,22.2912630000 114.2083310000,22.2913310000 114.2078660000,22.2915230000 114.2073790000,22.2917190000 114.2071690000,22.2917970000 114.2069980000,22.2918480000 114.2067820000,22.2919010000 114.2066970000,22.2919190000 114.2065390000,22.2919530000 114.2062540000,22.2919990000 114.2057870000,22.2920480000 114.2055800000,22.2920480000 114.2053770000,22.2920450000 114.2048830000,22.2920200000 114.2047300000,22.2920020000 114.2046820000,22.2919950000 114.2045250000,22.2919710000 114.2040180000,22.2918590000 114.2033330000,22.2917070000 114.2031280000,22.2916610000 114.2018200000,22.2913940000 114.2016840000,22.2913660000 114.2013070000,22.2912900000 114.2004230000,22.2911100000 114.2003270000,22.2910910000 114.1998410000,22.2909940000 114.1994500000,22.2909130000 114.1993640000,22.2908950000 114.1990260000,22.2908250000 114.1989530000,22.2908100000 114.1989400000,22.2908600000 114.1989340000,22.2908820000 114.1989200000,22.2909370000 114.1989090000,22.2909800000 114.1988780000,22.2911280000 114.1988160000,22.2913960000 114.1985710000,22.2924250000 114.1985010000,22.2927140000 114.1984570000,22.2928510000 114.1983800000,22.2929900000 114.1982670000,22.2930910000 114.1981800000,22.2931600000 114.1980300000,22.2932280000 114.1978690000,22.2932490000 114.1976800000,22.2932200000 114.1971900000,22.2931000000 114.1966510000,22.2929680000 114.1961990000,22.2928930000 114.1957430000,22.2928260000 114.1954150000,22.2928670000 114.1952160000,22.2928310000 114.1950220000,22.2927680000 114.1948140000,22.2926860000 114.1946450000,22.2926110000 114.1944520000,22.2925320000 114.1942080000,22.2923860000 114.1937870000,22.2920820000 114.1932690000,22.2916340000 114.1925710000,22.2910210000 114.1916880000,22.2901400000 114.1916280000,22.2900800000 114.1908310000,22.2892850000 114.1896270000,22.2880510000 114.1890070000,22.2874240000 114.1887100000,22.2871190000 114.1880630000,22.2864400000 114.1875550000,22.2859550000 114.1871420000,22.2855720000 114.1866620000,22.2851510000 114.1862310000,22.2848250000 114.1857820000,22.2845010000 114.1853990000,22.2842880000 114.1849510000,22.2840740000 114.1845390000,22.2839000000 114.1831910000,22.2834360000 114.1826270000,22.2832920000 114.1823140000,22.2832240000 114.1819090000,22.2831690000 114.1810050000,22.2830450000 114.1754920000,22.2822970000 114.1750470000,22.2822520000 114.1746750000,22.2822160000 114.1739920000,22.2821710000 114.1720520000,22.2820750000 114.1711380000,22.2821030000 114.1704030000,22.2821280000 114.1698130000,22.2821520000 114.1683260000,22.2822470000 114.1672870000,22.2824010000 114.1666020000,22.2824840000 114.1661110000,22.2825700000 114.1655830000,22.2826840000 114.1650570000,22.2828180000 114.1644620000,22.2830230000 114.1638030000,22.2833210000 114.1630460000,22.2837350000 114.1602300000,22.2853890000 114.1601940000,22.2854090000 114.1600750000,22.2854820000 114.1590350000,22.2860910000 114.1585600000,22.2863200000 114.1584600000,22.2863770000 114.1581200000,22.2865700000 114.1577110000,22.2867570000 114.1574130000,22.2868680000 114.1571610000,22.2869520000 114.1567900000,22.2870380000 114.1564330000,22.2870900000 114.1561800000,22.2871040000 114.1558400000,22.2870920000 114.1553100000,22.2870400000 114.1546200000,22.2869530000 114.1542500000,22.2869200000 114.1537860000,22.2869110000 114.1536660000,22.2869140000 114.1535400000,22.2869180000 114.1533310000,22.2869370000 114.1531920000,22.2869840000 114.1510010000,22.2876360000 114.1507380000,22.2877100000 114.1504730000,22.2877840000 114.1501090000,22.2878870000 114.1498740000,22.2879470000 114.1485800000,22.2882650000 114.1481560000,22.2883830000 114.1478070000,22.2884500000 114.1465150000,22.2885760000 114.1459620000,22.2885950000 114.1452320000,22.2886320000 114.1435020000,22.2887960000 114.1430480000,22.2888500000 114.1422200000,22.2888420000 114.1416660000,22.2887810000 114.1412930000,22.2887900000 114.1409970000,22.2888550000 114.1408690000,22.2889080000 114.1407200000,22.2890200000 114.1406560000,22.2890990000 114.1405580000,22.2892100000 114.1404990000,22.2893200000 114.1404760000,22.2893800000 114.1404580000,22.2894500000 114.1404460000,22.2895300000 114.1404410000,22.2896200000 114.1404500000,22.2897300000 114.1404650000,22.2898130000 114.1404810000,22.2898690000 114.1405020000,22.2899200000 114.1405240000,22.2899600000 114.1405640000,22.2900210000 114.1406100000,22.2900800000 114.1406710000,22.2901470000 114.1407340000,22.2902000000 114.1408080000,22.2902500000 114.1409000000,22.2903000000 114.1410020000,22.2903380000 114.1411080000,22.2903630000 114.1411900000,22.2903750000 114.1412800000,22.2903800000 114.1413500000,22.2903740000 114.1414300000,22.2903610000 114.1415000000,22.2903450000 114.1415900000,22.2903200000 114.1416500000,22.2903000000 114.1417800000,22.2902500000 114.1419540000,22.2901670000 114.1421210000,22.2900710000 114.1422900000,22.2899700000 114.1424600000,22.2898600000 114.1425830000,22.2897820000 114.1427100000,22.2897090000 114.1428220000,22.2896550000 114.1429370000,22.2896050000 114.1430450000,22.2895600000 114.1431500000,22.2895200000 114.1433550000,22.2894500000 114.1438540000,22.2893380000 114.1443030000,22.2893170000 114.1448240000,22.2893420000 114.1451430000,22.2893800000 114.1452440000,22.2893890000 114.1455740000,22.2894930000 114.1458720000,22.2896760000 114.1461270000,22.2899050000 114.1463680000,22.2901390000 114.1549210000,22.2993610000 114.1554730000,22.2999560000 114.1558600000,22.3003730000 114.1563030000,22.3008510000 114.1566240000,22.3011970000 114.1572490000,22.3020230000 114.1575930000,22.3024530000 114.1584690000,22.3035120000 114.1587960000,22.3039740000 114.1590500000,22.3043470000 114.1593030000,22.3046920000 114.1595210000,22.3049930000 114.1598430000,22.3055210000 114.1600550000,22.3059020000 114.1602070000,22.3062040000 114.1604750000,22.3067300000 114.1606170000,22.3070380000 114.1607670000,22.3073780000 114.1608370000,22.3075450000 114.1609490000,22.3077480000 114.1610550000,22.3079960000 114.1612440000,22.3086610000 114.1613700000,22.3093040000 114.1614650000,22.3098320000 114.1614950000,22.3100760000 114.1615260000,22.3103950000 114.1615390000,22.3106280000 114.1615570000,22.3111090000 114.1615500000,22.3115460000 114.1615310000,22.3120660000 114.1615120000,22.3123440000 114.1614680000,22.3127020000 114.1613990000,22.3130790000 114.1612700000,22.3136940000 114.1611770000,22.3140650000 114.1610690000,22.3144060000 114.1606690000,22.3154690000 114.1605850000,22.3156680000 114.1603970000,22.3161240000 114.1602390000,22.3165010000 114.1601630000,22.3166960000 114.1595970000,22.3181420000 114.1594260000,22.3185310000 114.1592030000,22.3190150000 114.1590080000,22.3194180000 114.1587420000,22.3199420000 114.1583530000,22.3206340000 114.1580280000,22.3211960000 114.1578120000,22.3215320000 114.1575490000,22.3219090000 114.1572310000,22.3223570000 114.1568960000,22.3228060000 114.1566210000,22.3231540000 114.1563410000,22.3235090000 114.1560360000,22.3238490000 114.1557920000,22.3241230000 114.1553950000,22.3245530000 114.1550540000,22.3249040000 114.1547300000,22.3252310000 114.1543620000,22.3255780000 114.1540020000,22.3258970000 114.1535900000,22.3262530000 114.1531170000,22.3266270000 114.1527770000,22.3268800000 114.1522560000,22.3272720000 114.1518290000,22.3275680000 114.1512320000,22.3279540000 114.1505810000,22.3283320000 114.1499900000,22.3286760000 114.1494700000,22.3289400000 114.1489510000,22.3291850000 114.1484410000,22.3294160000 114.1478890000,22.3296390000 114.1476360000,22.3297380000 114.1472800000,22.3298440000 114.1469460000,22.3299710000 114.1466640000,22.3300640000 114.1464890000,22.3301170000 114.1463240000,22.3301620000 114.1460250000,22.3302350000 114.1456730000,22.3303170000 114.1452660000,22.3304050000 114.1449440000,22.3304720000 114.1447940000,22.3304990000 114.1446340000,22.3305250000 114.1444720000,22.3305460000 114.1443010000,22.3305570000 114.1441460000,22.3305600000 114.1438960000,22.3305520000 114.1436610000,22.3305340000 114.1435290000,22.3305200000 114.1433930000,22.3304920000 114.1431140000,22.3304130000 114.1428650000,22.3303200000 114.1426200000,22.3301990000 114.1423910000,22.3300640000 114.1421720000,22.3299240000 114.1419140000,22.3297380000 114.1406570000,22.3288040000 114.1393580000,22.3277930000 114.1372510000,22.3262280000 114.1329670000,22.3232980000 114.1304300000,22.3215260000 114.1297250000,22.3210500000 114.1295640000,22.3209410000 114.1291520000,22.3207160000 114.1287660000,22.3205440000 114.1283870000,22.3204050000 114.1281410000,22.3203390000 114.1277120000,22.3202540000 114.1274800000,22.3202300000 114.1271740000,22.3202160000 114.1268280000,22.3202230000 114.1265120000,22.3202530000 114.1261930000,22.3203030000 114.1258750000,22.3203850000 114.1255310000,22.3204960000 114.1251220000,22.3206800000 114.1247720000,22.3208690000 114.1244700000,22.3210570000 114.1242460000,22.3212180000 114.1240250000,22.3213890000 114.1235720000,22.3217420000 114.1190730000,22.3252080000 114.1145960000,22.3286330000 114.1140110000,22.3291100000 114.1134100000,22.3296030000 114.1131450000,22.3298190000 114.1128400000,22.3300640000 114.1125270000,22.3303070000 114.1105660000,22.3318400000 114.1093810000,22.3327020000 114.1076170000,22.3338380000 114.1068160000,22.3343620000 114.1067390000,22.3344120000 114.1064510000,22.3346240000 114.1061740000,22.3348150000 114.1061220000,22.3348510000 114.1058890000,22.3350010000 114.0959480000,22.3419690000 114.0957840000,22.3420840000 114.0953240000,22.3424060000 114.0950230000,22.3426480000 114.0947730000,22.3428070000 114.0944040000,22.3430240000 114.0938920000,22.3433240000 114.0933330000,22.3437100000 114.0927510000,22.3441960000 114.0922370000,22.3445950000 114.0919520000,22.3448050000 114.0916680000,22.3449890000 114.0904310000,22.3455690000 114.0898830000,22.3458100000 114.0895720000,22.3459650000 114.0892530000,22.3461490000 114.0889290000,22.3463640000 114.0886120000,22.3466280000 114.0883480000,22.3468860000 114.0881380000,22.3471260000 114.0879500000,22.3473740000 114.0878190000,22.3475790000 114.0876430000,22.3478870000 114.0875120000,22.3481480000 114.0873690000,22.3484480000 114.0872650000,22.3488580000 114.0870480000,22.3496230000 114.0868010000,22.3504720000 114.0866580000,22.3510130000 114.0864260000,22.3516140000 114.0862980000,22.3519490000 114.0862210000,22.3521380000 114.0861460000,22.3522940000 114.0860400000,22.3524900000 114.0859360000,22.3526540000 114.0858140000,22.3528160000 114.0856470000,22.3529900000 114.0854670000,22.3531420000 114.0852860000,22.3532710000 114.0850800000,22.3533900000 114.0848900000,22.3534770000 114.0846380000,22.3535740000 114.0844120000,22.3536250000 114.0842100000,22.3536550000 114.0840480000,22.3536720000 114.0838220000,22.3536690000 114.0836610000,22.3536670000 114.0834020000,22.3536380000 114.0831240000,22.3535860000 114.0828450000,22.3535210000 114.0825230000,22.3534300000 114.0822660000,22.3533590000 114.0818300000,22.3532420000 114.0809620000,22.3530000000 114.0807580000,22.3529290000 114.0628910000,22.3479420000 114.0621920000,22.3477430000 114.0617970000,22.3476210000 114.0613990000,22.3474890000 114.0610110000,22.3473460000 114.0606270000,22.3471880000 114.0602360000,22.3470150000 114.0598750000,22.3468400000 114.0595140000,22.3466480000 114.0591600000,22.3464470000 114.0588470000,22.3462540000 114.0585430000,22.3460600000 114.0525500000,22.3421550000 114.0519850000,22.3418020000 114.0517420000,22.3416520000 114.0514980000,22.3415220000 114.0511970000,22.3413840000 114.0509050000,22.3412690000 114.0504640000,22.3411370000 114.0501150000,22.3410650000 114.0496320000,22.3409870000 114.0488040000,22.3409060000 114.0482030000,22.3408520000 114.0472620000,22.3407500000 114.0466410000,22.3406480000 114.0460530000,22.3405040000 114.0458190000,22.3404340000 114.0456190000,22.3403700000 114.0453110000,22.3402400000 114.0449720000,22.3400670000 114.0440850000,22.3395510000 114.0432940000,22.3391030000 114.0404020000,22.3378420000 114.0397780000,22.3375450000 114.0393360000,22.3373640000 114.0390890000,22.3372750000 114.0387840000,22.3371820000 114.0384720000,22.3371100000 114.0380410000,22.3370070000 114.0375410000,22.3369040000 114.0371380000,22.3368240000 114.0367080000,22.3367090000 114.0364270000,22.3366290000 114.0362160000,22.3365560000 114.0357730000,22.3363950000 114.0352720000,22.3361990000 114.0347250000,22.3359550000 114.0342730000,22.3357320000 114.0338990000,22.3355020000 114.0333890000,22.3351500000 114.0328770000,22.3347490000 114.0324430000,22.3343380000 114.0299060000,22.3319080000 114.0272230000,22.3293370000 114.0265270000,22.3286850000 114.0251240000,22.3273490000 114.0247260000,22.3270220000 114.0244480000,22.3267970000 114.0243000000,22.3266910000 114.0239930000,22.3264980000 114.0235970000,22.3262700000 114.0230920000,22.3260010000 114.0226320000,22.3257790000 114.0218850000,22.3254810000 114.0213490000,22.3253080000 114.0208380000,22.3251670000 114.0203120000,22.3250680000 114.0198860000,22.3249950000 114.0194280000,22.3249350000 114.0189490000,22.3248840000 114.0184730000,22.3248690000 114.0179280000,22.3248690000 114.0157280000,22.3250250000 114.0151360000,22.3250500000 114.0146250000,22.3250580000 114.0140290000,22.3250370000 114.0134250000,22.3249950000 114.0129230000,22.3249450000 114.0124980000,22.3248840000 114.0120280000,22.3247880000 114.0109800000,22.3245210000 114.0104470000,22.3243410000 114.0099940000,22.3241710000 114.0092210000,22.3238440000 114.0073390000,22.3230500000 114.0030460000,22.3210970000 114.0022110000,22.3207110000 114.0018700000,22.3205380000 114.0015450000,22.3203740000 114.0012450000,22.3202230000 114.0009200000,22.3200340000 114.0006410000,22.3198590000 114.0004230000,22.3197030000 114.0001470000,22.3195040000 113.9998380000,22.3192620000 113.9994860000,22.3189590000 113.9992090000,22.3186870000 113.9989500000,22.3184190000 113.9985960000,22.3180270000 113.9983040000,22.3176570000 113.9980000000,22.3172060000 113.9977570000,22.3168210000 113.9974960000,22.3163870000 113.9973020000,22.3160790000 113.9971020000,22.3157770000 113.9968930000,22.3154780000 113.9966240000,22.3151180000 113.9964650000,22.3149000000 113.9961560000,22.3145280000 113.9959240000,22.3142630000 113.9957120000,22.3140280000 113.9954890000,22.3137910000 113.9951210000,22.3134260000 113.9948160000,22.3131480000 113.9944550000,22.3128470000 113.9940660000,22.3125250000 113.9937300000,22.3122730000 113.9933570000,22.3120010000 113.9929640000,22.3117410000 113.9926010000,22.3115140000 113.9877960000,22.3087560000 113.9856810000,22.3074790000 113.9851170000,22.3071400000 113.9844290000,22.3067090000 113.9829960000,22.3058040000 113.9820570000,22.3051880000 113.9804410000,22.3041820000 113.9795070000,22.3036070000 113.9785100000,22.3030050000 113.9778550000,22.3026450000 113.9769330000,22.3021450000 113.9757440000,22.3015630000 113.9745330000,22.3009340000 113.9737440000,22.3005560000 113.9731390000,22.3002800000 113.9722740000,22.2999010000 113.9715800000,22.2996450000 113.9710390000,22.2994730000 113.9705160000,22.2993110000 113.9698770000,22.2991360000 113.9689750000,22.2989320000 113.9680470000,22.2986900000 113.9677470000,22.2986190000 113.9635320000,22.2977010000 113.9609300000,22.2971350000 113.9603210000,22.2969830000 113.9595720000,22.2967670000 113.9587890000,22.2964930000 113.9582960000,22.2962940000 113.9578120000,22.2960870000 113.9572830000,22.2958390000 113.9567450000,22.2955430000 113.9560790000,22.2951570000 113.9558210000,22.2949960000 113.9555750000,22.2948250000 113.9552750000,22.2946020000 113.9549650000,22.2943560000 113.9546260000,22.2940770000 113.9542590000,22.2937580000 113.9538700000,22.2934090000 113.9535270000,22.2930740000 113.9532730000,22.2927990000 113.9528750000,22.2923800000 113.9523830000,22.2918530000 113.9521350000,22.2916130000 113.9518830000,22.2913840000 113.9515220000,22.2910870000 113.9512400000,22.2908870000 113.9510840000,22.2907630000 113.9504990000,22.2904060000 113.9500840000,22.2901790000 113.9496380000,22.2899900000 113.9491880000,22.2898330000 113.9487170000,22.2896800000 113.9483130000,22.2895790000 113.9478750000,22.2894950000 113.9474000000,22.2894160000 113.9468720000,22.2893630000 113.9463440000,22.2893450000 113.9459210000,22.2893440000 113.9454980000,22.2893540000 113.9448930000,22.2894100000 113.9445070000,22.2894660000 113.9439680000,22.2895710000 113.9434870000,22.2896900000 113.9431440000,22.2897990000 113.9427810000,22.2899170000 113.9422260000,22.2901410000 113.9417000000,22.2903820000 113.9413010000,22.2906010000 113.9409940000,22.2907830000 113.9406600000,22.2910100000 113.9403680000,22.2912140000 113.9400220000,22.2914810000 113.9396530000,22.2918110000 113.9394110000,22.2920570000 113.9387640000,22.2926780000 113.9384570000,22.2930260000 113.9381460000,22.2933970000 113.9378070000,22.2938530000 113.9374580000,22.2943700000 113.9370460000,22.2950450000 113.9360670000,22.2966820000 113.9358920000,22.2969650000 113.9356150000,22.2974640000 113.9354890000,22.2976900000 113.9352940000,22.2980840000 113.9351860000,22.2984220000 113.9351080000,22.2987100000 113.9349960000,22.2989850000 113.9349220000,22.2991160000 113.9348370000,22.2992260000 113.9347150000,22.2993100000 113.9346140000,22.2993630000 113.9344570000,22.2994100000 113.9342440000,22.2994350000 113.9340730000,22.2994330000 113.9339720000,22.2994100000 113.9338530000,22.2993660000 113.9337490000,22.2993140000 113.9336330000,22.2992540000 113.9334800000,22.2991600000 113.9332910000,22.2990010000 113.9331740000,22.2988710000 113.9331510000,22.2986820000 113.9331130000,22.2985340000 113.9331300000,22.2983670000 113.9332340000,22.2979900000 113.9332910000,22.2978150000 113.9333360000,22.2976760000 113.9333450000,22.2975620000 113.9333520000,22.2973800000 113.9333670000,22.2972170000 113.9333710000,22.2970970000 113.9333750000,22.2968630000 113.9333950000,22.2967580000 113.9334540000,22.2966600000 113.9335020000,22.2966020000 113.9336040000,22.2965870000 113.9337480000,22.2965970000 113.9339080000,22.2966370000 113.9341050000,22.2966900000 113.9343810000,22.2967890000 113.9345770000,22.2968980000 113.9347230000,22.2970120000 113.9348270000,22.2971260000 113.9349170000,22.2972940000 113.9349720000,22.2974370000 113.9349960000,22.2976060000 113.9349860000,22.2978080000 113.9349390000,22.2980020000 113.9348760000,22.2982430000 113.9347870000,22.2985580000 113.9347350000,22.2987830000 113.9347010000,22.2989680000 113.9346670000,22.2992420000 113.9346570000,22.2994040000 113.9346550000,22.2996860000 113.9346620000,22.2999700000 113.9346940000,22.3002850000 113.9347530000,22.3005990000 113.9348260000,22.3009320000 113.9348300000,22.3009490000 113.9349430000,22.3015040000 113.9350530000,22.3018520000 113.9352030000,22.3023310000 113.9355150000,22.3031420000 113.9361240000,22.3044080000 113.9364770000,22.3053440000 113.9368540000,22.3063950000 113.9369210000,22.3066690000 113.9372190000,22.3081210000 113.9372590000,22.3082870000 113.9374760000,22.3095760000 113.9375670000,22.3100200000 113.9376320000,22.3102770000 113.9376640000,22.3104300000 113.9376890000,22.3106240000 113.9376930000,22.3108590000 113.9376940000,22.3111780000 113.9376600000,22.3115390000 113.9375780000,22.3119780000 113.9374820000,22.3123540000 113.9373060000,22.3128580000 113.9371960000,22.3131470000 113.9370880000,22.3134870000 113.9368690000,22.3140740000 113.9362310000,22.3157880000 113.9355280000,22.3176750000 113.9353140000,22.3182230000 113.9352680000,22.3183640000 113.9352020000,22.3185670000 113.9351780000,22.3186890000 113.9351690000,22.3187950000 113.9351750000,22.3189650000 113.9351950000,22.3191140000 113.9352530000,22.3192830000 113.9353230000,22.3194140000 113.9354030000,22.3195300000 113.9356000000,22.3197410000 113.9357970000,22.3198700000 113.9360020000,22.3199710000 113.9363100000,22.3200970000 113.9364720000,22.3201460000 113.9367070000,22.3202210000 113.9369330000,22.3202820000 113.9372560000,22.3203070000 113.9375140000,22.3202930000 113.9377300000,22.3202510000 113.9379220000,22.3201690000 113.9380410000,22.3200600000 113.9381210000,22.3199620000 113.9381810000,22.3198710000 113.9382170000,22.3197790000 113.9382360000,22.3196580000 113.9382300000,22.3195480000 113.9381930000,22.3194180000 113.9381350000,22.3193100000 113.9380910000,22.3192500000 113.9379570000,22.3191560000 113.9378110000,22.3190920000 113.9376610000,22.3190480000 113.9375210000,22.3190530000 113.9374820000,22.3190540000 113.9373460000,22.3190830000 113.9371540000,22.3191400000 113.9369650000,22.3192350000 113.9367830000,22.3193110000 113.9366460000,22.3192510000 113.9365090000,22.3192730000 113.9364180000,22.3193170000 113.9363240000,22.3193940000 113.9363000000,22.3194950000 113.9363240000,22.3196350000 113.9363760000,22.3197530000 113.9364930000,22.3198910000 113.9366300000,22.3199830000 113.9367930000,22.3201750000 113.9368340000,22.3202230000 113.9370100000,22.3204210000 113.9371680000,22.3205650000 113.9374480000,22.3207650000 113.9376240000,22.3208430000 113.9377090000,22.3208760000 113.9378670000,22.3209390000 113.9380130000,22.3209790000 113.9380660000,22.3209860000 113.9381340000,22.3209940000 113.9382200000,22.3209940000 113.9383440000,22.3209830000 113.9384510000,22.3209450000 113.9385340000,22.3208830000 113.9386020000,22.3208190000 113.9386870000,22.3207120000 113.9387440000,22.3205900000 113.9387900000,22.3204480000 113.9387960000,22.3204300000 113.9389600000,22.3198070000 113.9390010000,22.3196500000 113.9390880000,22.3193060000 113.9391540000,22.3190390000 113.9393220000,22.3190680000 113.9393810000,22.3190840000 113.9397850000,22.3191830000 113.9403250000,22.3192980000 113.9404520000,22.3193300000 113.9405730000,22.3193610000 113.9410160000,22.3194400000 113.9413060000,22.3194840000 113.9415960000,22.3195120000 113.9418520000,22.3195370000 113.9420650000,22.3195530000 113.9422610000,22.3195940000 113.9423770000,22.3196410000 113.9424690000,22.3196900000 113.9425070000,22.3197390000 113.9425550000,22.3197720000 113.9426210000,22.3197940000 113.9426960000,22.3197930000 113.9427280000,22.3197850000 113.9428090000,22.3197370000 113.9428480000,22.3196870000 113.9428510000,22.3196800000 113.9428690000,22.3196140000 113.9428670000,22.3195700000 113.9428350000,22.3194930000 113.9428070000,22.3194620000 113.9427270000,22.3194150000 113.9426550000,22.3194040000 113.9425960000,22.3194120000 113.9425380000,22.3194380000 113.9423360000,22.3195270000 113.9422870000,22.3195380000 113.9422260000,22.3195470000 113.9420650000,22.3195530000 113.9418520000,22.3195370000 113.9415960000,22.3195120000 113.9413060000,22.3194840000 113.9410160000,22.3194400000 113.9405730000,22.3193610000 113.9404780000,22.3191610000 113.9404900000,22.3191330000 113.9405240000,22.3190320000 113.9405700000,22.3188870000 113.9406150000,22.3187590000 113.9406710000,22.3186180000 113.9415380000,22.3188950000 113.9417380000,22.3189590000 113.9424400000,22.3191790000 113.9425130000,22.3190590000 113.9426410000,22.3191030000 113.9427830000,22.3191470000 113.9427640000,22.3191950000 113.9426990000,22.3193040000 113.9426320000,22.3193680000 113.9425380000,22.3194380000 113.9423360000,22.3195270000 113.9422870000,22.3195380000 113.9422260000,22.3195470000 113.9420650000,22.3195530000 113.9418520000,22.3195370000 113.9415960000,22.3195120000 113.9413060000,22.3194840000 113.9410160000,22.3194400000 113.9405730000,22.3193610000 113.9404520000,22.3193300000 113.9403250000,22.3192980000 113.9397850000,22.3191830000 113.9393810000,22.3190840000 113.9393220000,22.3190680000 113.9391540000,22.3190390000 113.9390880000,22.3193060000 113.9390010000,22.3196500000 113.9389600000,22.3198070000 113.9387960000,22.3204300000 113.9387900000,22.3204480000 113.9387440000,22.3205900000 113.9386870000,22.3207120000 113.9386020000,22.3208190000 113.9385340000,22.3208830000 113.9384510000,22.3209450000 113.9383440000,22.3209830000 113.9382200000,22.3209940000 113.9381340000,22.3209940000 113.9380130000,22.3209790000 113.9378670000,22.3209390000 113.9377090000,22.3208760000 113.9376240000,22.3208430000 113.9374480000,22.3207650000 113.9371680000,22.3205650000 113.9370100000,22.3204210000 113.9368340000,22.3202230000 113.9367930000,22.3201750000 113.9367660000,22.3200930000 113.9367790000,22.3200380000 113.9368400000,22.3199500000 113.9369300000,22.3199070000 113.9369980000,22.3197990000 113.9370080000,22.3196880000 113.9369730000,22.3195720000 113.9368900000,22.3194350000 113.9367830000,22.3193110000 113.9366460000,22.3192510000 113.9365710000,22.3191430000 113.9364900000,22.3189890000 113.9364400000,22.3188110000 113.9364260000,22.3185890000 113.9364410000,22.3184130000 113.9364820000,22.3183080000 113.9365490000,22.3181620000 113.9366200000,22.3180690000 113.9367410000,22.3179350000 113.9368280000,22.3178380000 113.9370840000,22.3175520000 113.9371400000,22.3174290000 113.9371700000,22.3173620000 113.9377560000,22.3158120000 113.9379400000,22.3153250000 113.9380110000,22.3151380000 113.9380470000,22.3148230000 113.9380310000,22.3146610000 113.9380210000,22.3145720000 113.9380120000,22.3144950000 113.9380060000,22.3144120000 113.9380000000,22.3143460000 113.9380030000,22.3141310000 113.9380610000,22.3139040000 113.9381600000,22.3136740000 113.9382400000,22.3135320000 113.9383340000,22.3134100000 113.9385970000,22.3131290000 113.9387650000,22.3129310000 113.9388740000,22.3127760000 113.9389610000,22.3125860000 113.9390100000,22.3124120000 113.9390390000,22.3122170000 113.9390490000,22.3120280000 113.9390270000,22.3118120000 113.9389490000,22.3116070000 113.9388900000,22.3114780000 113.9388090000,22.3113290000 113.9383670000,22.3107780000 113.9381710000,22.3104090000 113.9380770000,22.3101460000 113.9378760000,22.3095350000 113.9378090000,22.3089490000 113.9377530000,22.3083740000 113.9376770000,22.3078150000 113.9375460000,22.3071650000 113.9373850000,22.3065230000 113.9370440000,22.3054300000 113.9368240000,22.3048480000 113.9364970000,22.3040530000 113.9361740000,22.3029020000 113.9361030000,22.3024780000 113.9360510000,22.3020720000 113.9360020000,22.3014920000 113.9359600000,22.3010020000 113.9358750000,22.3005900000 113.9358530000,22.3002150000 113.9358790000,22.2996680000 113.9358940000,22.2993200000 113.9361000000,22.2985340000 113.9361520000,22.2983040000 113.9361690000,22.2980660000 113.9361520000,22.2978990000 113.9361000000,22.2977160000 113.9360140000,22.2975570000 113.9358940000,22.2973980000 113.9357650000,22.2972630000 113.9356370000,22.2971600000 113.9354740000,22.2970490000 113.9353100000,22.2969620000 113.9348820000,22.2968260000 113.9345760000,22.2967160000 113.9341540000,22.2965890000 113.9339400000,22.2965190000 113.9338060000,22.2964480000 113.9337240000,22.2963800000 113.9336500000,22.2962800000 113.9336050000,22.2961750000 113.9335210000,22.2960920000 113.9334110000,22.2960430000 113.9332740000,22.2960350000 113.9331610000,22.2960700000 113.9330690000,22.2961390000 113.9330090000,22.2962330000 113.9329890000,22.2963220000 113.9329970000,22.2964120000 113.9330430000,22.2965620000 113.9331010000,22.2966720000 113.9331400000,22.2967630000 113.9331780000,22.2968740000 113.9331940000,22.2970350000 113.9332010000,22.2972500000 113.9331960000,22.2974210000 113.9331770000,22.2975390000 113.9331390000,22.2978080000 113.9330700000,22.2980890000 113.9330020000,22.2982480000 113.9329240000,22.2983280000 113.9328470000,22.2983750000 113.9327530000,22.2983830000 113.9325720000,22.2984070000 113.9324610000,22.2984720000 113.9323490000,22.2985750000 113.9322360000,22.2987190000 113.9321500000,22.2988520000 113.9320900000,22.2990120000 113.9320540000,22.2991280000 113.9320490000,22.2992810000 113.9320750000,22.2993680000 113.9321350000,22.2994630000 113.9322380000,22.2995350000 113.9323350000,22.2995700000 113.9325500000,22.2995930000 113.9326700000,22.2995580000 113.9327560000,22.2994980000 113.9328590000,22.2994590000 113.9329710000,22.2994430000 113.9330890000,22.2994540000 113.9332200000,22.2994950000 113.9334780000,22.2995640000 113.9337510000,22.2996450000 113.9339990000,22.2996860000 113.9342460000,22.2996860000 113.9344950000,22.2996700000 113.9347270000,22.2996300000 113.9349820000,22.2995480000 113.9351990000,22.2994350000 113.9353910000,22.2992910000 113.9355670000,22.2990910000 113.9355670000,22.2990910000 113.9356710000,22.2988960000 113.9357300000,22.2986880000 113.9357610000,22.2985320000 113.9357880000,22.2982950000 113.9358440000,22.2979960000 113.9360400000,22.2974240000 113.9361990000,22.2969270000 113.9362830000,22.2967440000 113.9370540000,22.2953400000 113.9371990000,22.2951090000 113.9375900000,22.2944560000 113.9379380000,22.2939420000 113.9382870000,22.2934870000 113.9385880000,22.2931240000 113.9388880000,22.2927930000 113.9395100000,22.2921520000 113.9397590000,22.2919250000 113.9401570000,22.2915970000 113.9404820000,22.2913300000 113.9407840000,22.2911200000 113.9410860000,22.2909230000 113.9413870000,22.2907440000 113.9417410000,22.2905350000 113.9420750000,22.2903750000 113.9424260000,22.2902200000 113.9428150000,22.2900690000 113.9431540000,22.2899500000 113.9435630000,22.2898200000 113.9437980000,22.2897610000 113.9440050000,22.2897220000 113.9445240000,22.2896210000 113.9449220000,22.2895610000 113.9455030000,22.2895030000 113.9459200000,22.2894860000 113.9463230000,22.2894810000 113.9468520000,22.2894990000 113.9473740000,22.2895500000 113.9478450000,22.2896190000 113.9482740000,22.2897030000 113.9486710000,22.2898030000 113.9491390000,22.2899470000 113.9495790000,22.2901040000 113.9500170000,22.2902940000 113.9504160000,22.2905100000 113.9508250000,22.2907660000 113.9511440000,22.2909890000 113.9514100000,22.2911870000 113.9517590000,22.2914840000 113.9520180000,22.2917120000 113.9522680000,22.2919420000 113.9527780000,22.2924680000 113.9531720000,22.2928820000 113.9534390000,22.2931600000 113.9537750000,22.2935030000 113.9541670000,22.2938580000 113.9545370000,22.2941730000 113.9548740000,22.2944520000 113.9552060000,22.2947120000 113.9554890000,22.2949220000 113.9557400000,22.2950960000 113.9560230000,22.2952790000 113.9566790000,22.2956560000 113.9572090000,22.2959450000 113.9577490000,22.2961950000 113.9582250000,22.2964030000 113.9587420000,22.2966140000 113.9595180000,22.2968860000 113.9602780000,22.2971090000 113.9608980000,22.2972520000 113.9649850000,22.2981570000 113.9677100000,22.2987600000 113.9680060000,22.2988330000 113.9689400000,22.2990560000 113.9698420000,22.2992600000 113.9704600000,22.2994310000 113.9709990000,22.2995910000 113.9715350000,22.2997640000 113.9722070000,22.3000200000 113.9730740000,22.3003880000 113.9736760000,22.3006700000 113.9751620000,22.3014060000 113.9756620000,22.3016650000 113.9768670000,22.3022560000 113.9777980000,22.3027520000 113.9784390000,22.3031040000 113.9794340000,22.3037060000 113.9816500000,22.3051080000 113.9837140000,22.3064070000 113.9843200000,22.3067900000 113.9850400000,22.3072450000 113.9856060000,22.3075890000 113.9877310000,22.3088640000 113.9925320000,22.3116130000 113.9928940000,22.3118400000 113.9932800000,22.3121080000 113.9936540000,22.3123690000 113.9939850000,22.3126240000 113.9943640000,22.3129400000 113.9947170000,22.3132380000 113.9950160000,22.3135030000 113.9953880000,22.3138680000 113.9956090000,22.3141060000 113.9958140000,22.3143200000 113.9960710000,22.3146170000 113.9963520000,22.3149690000 113.9965180000,22.3151920000 113.9967760000,22.3155490000 113.9969850000,22.3158460000 113.9971800000,22.3161470000 113.9973750000,22.3164580000 113.9976390000,22.3168830000 113.9978800000,22.3172650000 113.9981960000,22.3177340000 113.9984880000,22.3181120000 113.9988430000,22.3185050000 113.9990980000,22.3187760000 113.9994070000,22.3190820000 114.0000590000,22.3196040000 114.0003390000,22.3198090000 114.0005530000,22.3199570000 114.0008490000,22.3201550000 114.0011770000,22.3203390000 114.0014940000,22.3205080000 114.0018710000,22.3206920000 114.0022100000,22.3208580000 114.0029710000,22.3212190000 114.0091410000,22.3239620000 114.0099340000,22.3243030000 114.0104060000,22.3244710000 114.0109360000,22.3246490000 114.0119840000,22.3249220000 114.0124700000,22.3250190000 114.0129110000,22.3250790000 114.0134120000,22.3251210000 114.0140080000,22.3251570000 114.0146170000,22.3251700000 114.0151360000,22.3251530000 114.0157200000,22.3251290000 114.0179230000,22.3249950000 114.0184700000,22.3249970000 114.0189250000,22.3250100000 114.0194170000,22.3250510000 114.0198690000,22.3251110000 114.0202650000,22.3251710000 114.0207940000,22.3252890000 114.0213080000,22.3254290000 114.0218170000,22.3256010000 114.0225660000,22.3258960000 114.0230280000,22.3261070000 114.0235650000,22.3263960000 114.0239050000,22.3266040000 114.0242100000,22.3268090000 114.0243490000,22.3269190000 114.0246080000,22.3271220000 114.0247390000,22.3272290000 114.0253400000,22.3277860000 114.0260460000,22.3284120000 114.0264620000,22.3287970000 114.0297800000,22.3320070000 114.0323360000,22.3344360000 114.0327820000,22.3348390000 114.0333080000,22.3352490000 114.0338240000,22.3356090000 114.0341940000,22.3358400000 114.0344370000,22.3359930000 114.0347430000,22.3361510000 114.0350240000,22.3362900000 114.0355250000,22.3365430000 114.0360790000,22.3367460000 114.0366460000,22.3369090000 114.0370510000,22.3370060000 114.0374980000,22.3370760000 114.0380100000,22.3371620000 114.0384370000,22.3372490000 114.0388250000,22.3373460000 114.0392640000,22.3374860000 114.0397170000,22.3376620000 114.0403300000,22.3379590000 114.0409450000,22.3382610000 114.0430490000,22.3395020000 114.0438450000,22.3398740000 114.0444670000,22.3401500000 114.0450310000,22.3403730000 114.0457530000,22.3405940000 114.0460570000,22.3406770000 114.0466800000,22.3408170000 114.0473730000,22.3409100000 114.0482450000,22.3409950000 114.0487620000,22.3410670000 114.0496140000,22.3411750000 114.0500720000,22.3412490000 114.0504120000,22.3413120000 114.0508330000,22.3414360000 114.0511730000,22.3415610000 114.0514230000,22.3416710000 114.0516610000,22.3417990000 114.0518850000,22.3419290000 114.0520460000,22.3420240000 114.0524520000,22.3422840000 114.0584460000,22.3461890000 114.0587520000,22.3463840000 114.0590690000,22.3465800000 114.0594270000,22.3467830000 114.0597930000,22.3469780000 114.0601590000,22.3471560000 114.0605560000,22.3473310000 114.0609450000,22.3474910000 114.0613390000,22.3476360000 114.0617410000,22.3477700000 114.0621400000,22.3478920000 114.0628380000,22.3480920000 114.0807100000,22.3530780000 114.0815240000,22.3533110000 114.0817130000,22.3533370000 114.0825070000,22.3535570000 114.0828080000,22.3536310000 114.0830850000,22.3536960000 114.0833800000,22.3537460000 114.0836480000,22.3537770000 114.0838530000,22.3537890000 114.0840990000,22.3538070000 114.0843340000,22.3537900000 114.0845590000,22.3537530000 114.0847590000,22.3536900000 114.0849350000,22.3536030000 114.0851170000,22.3535150000 114.0853340000,22.3533820000 114.0855450000,22.3532530000 114.0857250000,22.3530940000 114.0859070000,22.3528660000 114.0860250000,22.3527030000 114.0861270000,22.3525300000 114.0862360000,22.3523300000 114.0863110000,22.3521660000 114.0863840000,22.3519790000 114.0865190000,22.3516380000 114.0867690000,22.3510350000 114.0869240000,22.3505090000 114.0871740000,22.3496630000 114.0873780000,22.3488840000 114.0874520000,22.3486380000 114.0875000000,22.3484730000 114.0876080000,22.3481850000 114.0877140000,22.3479700000 114.0879160000,22.3476130000 114.0881090000,22.3473270000 114.0882740000,22.3471340000 114.0884290000,22.3469540000 114.0886770000,22.3467220000 114.0890140000,22.3464590000 114.0893260000,22.3462430000 114.0896520000,22.3460620000 114.0899380000,22.3459110000 114.0904770000,22.3456650000 114.0911580000,22.3453520000 114.0917180000,22.3450940000 114.0920660000,22.3449160000 114.0923180000,22.3447670000 114.0928810000,22.3443480000 114.0934070000,22.3439670000 114.0940150000,22.3435760000 114.0945510000,22.3432470000 114.0953480000,22.3427520000 114.0955390000,22.3426300000 114.0959060000,22.3423930000 114.0960750000,22.3422770000 114.1060810000,22.3352560000 114.1063020000,22.3351100000 114.1063870000,22.3350530000 114.1065580000,22.3349350000 114.1069190000,22.3346810000 114.1071100000,22.3345430000 114.1075480000,22.3342270000 114.1081110000,22.3338070000 114.1086050000,22.3334250000 114.1091110000,22.3330530000 114.1092060000,22.3329860000 114.1098480000,22.3325330000 114.1106390000,22.3319390000 114.1126170000,22.3304120000 114.1129290000,22.3301720000 114.1132430000,22.3299410000 114.1138750000,22.3294960000 114.1141860000,22.3292720000 114.1148030000,22.3288130000 114.1164170000,22.3275710000 114.1237260000,22.3219400000 114.1242050000,22.3215770000 114.1244240000,22.3214170000 114.1246310000,22.3212690000 114.1249050000,22.3210870000 114.1251790000,22.3209220000 114.1256320000,22.3207180000 114.1260250000,22.3205840000 114.1262900000,22.3205130000 114.1265650000,22.3204640000 114.1271680000,22.3204130000 114.1275510000,22.3204230000 114.1277620000,22.3204410000 114.1279980000,22.3204820000 114.1282650000,22.3205410000 114.1285450000,22.3206200000 114.1288260000,22.3207180000 114.1290540000,22.3208190000 114.1293660000,22.3209790000 114.1296790000,22.3211690000 114.1301660000,22.3214880000 114.1307750000,22.3219120000 114.1313950000,22.3223460000 114.1318520000,22.3226580000 114.1327140000,22.3232640000 114.1336730000,22.3239300000 114.1352450000,22.3250180000 114.1370950000,22.3263050000 114.1390640000,22.3277370000 114.1408920000,22.3290610000 114.1421310000,22.3300350000 114.1425440000,22.3303000000 114.1429600000,22.3305900000 114.1432280000,22.3307650000 114.1434580000,22.3308970000 114.1436380000,22.3309810000 114.1438420000,22.3310590000 114.1440760000,22.3311220000 114.1443260000,22.3311740000 114.1445310000,22.3312000000 114.1447270000,22.3312000000 114.1449380000,22.3311930000 114.1451800000,22.3311740000 114.1454920000,22.3311030000 114.1457770000,22.3310100000 114.1460250000,22.3309180000 114.1465950000,22.3306730000 114.1473180000,22.3303650000 114.1475380000,22.3302680000 114.1481120000,22.3300180000 114.1486230000,22.3297400000 114.1488870000,22.3295790000 114.1491210000,22.3294300000 114.1496350000,22.3291150000 114.1501430000,22.3287970000 114.1508110000,22.3283430000 114.1512720000,22.3280540000 114.1518840000,22.3276670000 114.1522940000,22.3273890000 114.1528420000,22.3269960000 114.1532080000,22.3267150000 114.1536570000,22.3263590000 114.1540770000,22.3260070000 114.1544350000,22.3256710000 114.1547960000,22.3253360000 114.1551400000,22.3249960000 114.1554890000,22.3246310000 114.1556770000,22.3244380000 114.1558850000,22.3242120000 114.1561370000,22.3239280000 114.1564520000,22.3235770000 114.1567130000,22.3232530000 114.1569820000,22.3229170000 114.1573320000,22.3224540000 114.1576600000,22.3219910000 114.1579160000,22.3216230000 114.1581500000,22.3212580000 114.1584730000,22.3206990000 114.1588490000,22.3199810000 114.1591160000,22.3194600000 114.1593190000,22.3190490000 114.1595390000,22.3185730000 114.1597120000,22.3181800000 114.1603290000,22.3167100000 114.1605310000,22.3162300000 114.1608300000,22.3155880000 114.1610290000,22.3150940000 114.1612400000,22.3145370000 114.1613060000,22.3142740000 114.1613610000,22.3139650000 114.1614070000,22.3137140000 114.1615260000,22.3131120000 114.1616050000,22.3127250000 114.1616500000,22.3123490000 114.1616650000,22.3120670000 114.1616820000,22.3115320000 114.1616810000,22.3111110000 114.1616640000,22.3106220000 114.1616100000,22.3099200000 114.1615780000,22.3096370000 114.1615490000,22.3094110000 114.1614960000,22.3091360000 114.1614770000,22.3090510000 114.1613850000,22.3086340000 114.1612360000,22.3080240000 114.1611580000,22.3077070000 114.1610650000,22.3074870000 114.1609840000,22.3072940000 114.1608400000,22.3069860000 114.1606820000,22.3066440000 114.1604320000,22.3061120000 114.1602290000,22.3055990000 114.1600220000,22.3051640000 114.1595820000,22.3044750000 114.1591920000,22.3038320000 114.1588780000,22.3033830000 114.1588150000,22.3033040000 114.1587600000,22.3032220000 114.1584540000,22.3028700000 114.1582710000,22.3026750000 114.1580860000,22.3025020000 114.1578670000,22.3023060000 114.1576670000,22.3021240000 114.1573610000,22.3018450000 114.1567120000,22.3011290000 114.1561410000,22.3005100000 114.1464940000,22.2900780000 114.1462210000,22.2898010000 114.1459600000,22.2895670000 114.1456370000,22.2893730000 114.1452960000,22.2892670000 114.1448620000,22.2892080000 114.1443140000,22.2891800000 114.1438080000,22.2892140000 114.1432940000,22.2893100000 114.1431250000,22.2893610000 114.1429260000,22.2894330000 114.1426100000,22.2895720000 114.1417810000,22.2901180000 114.1416500000,22.2901830000 114.1414900000,22.2902400000 114.1413710000,22.2902560000 114.1412800000,22.2902620000 114.1411800000,22.2902580000 114.1411000000,22.2902450000 114.1410100000,22.2902200000 114.1409380000,22.2901920000 114.1408610000,22.2901480000 114.1407890000,22.2900920000 114.1407280000,22.2900300000 114.1406720000,22.2899600000 114.1406300000,22.2898900000 114.1405990000,22.2898220000 114.1405740000,22.2897400000 114.1405610000,22.2896700000 114.1405570000,22.2896100000 114.1405690000,22.2895400000 114.1405990000,22.2894240000 114.1406340000,22.2893400000 114.1406820000,22.2892580000 114.1407510000,22.2891720000 114.1408220000,22.2891010000 114.1409100000,22.2890440000 114.1409860000,22.2890020000 114.1410680000,22.2889750000 114.1411560000,22.2889570000 114.1412580000,22.2889480000 114.1413780000,22.2889490000 114.1415010000,22.2889600000 114.1417360000,22.2889960000 114.1420890000,22.2890700000 114.1422550000,22.2891060000 114.1424150000,22.2891400000 114.1425610000,22.2891520000 114.1426760000,22.2891570000 114.1428260000,22.2891440000 114.1440380000,22.2890280000 114.1443150000,22.2889960000 114.1445880000,22.2889820000 114.1448880000,22.2889780000 114.1453200000,22.2889810000 114.1462600000,22.2889950000 114.1465430000,22.2890000000 114.1467390000,22.2889870000 114.1469680000,22.2889480000 114.1472330000,22.2888840000 114.1474670000,22.2888000000 114.1486240000,22.2883850000 114.1488300000,22.2883290000 114.1499140000,22.2880400000 114.1501420000,22.2879790000 114.1504980000,22.2878820000 114.1507790000,22.2878060000 114.1510020000,22.2877460000 114.1523540000,22.2873400000 114.1526930000,22.2872720000 114.1529490000,22.2871970000 114.1532590000,22.2871120000 114.1535440000,22.2870580000 114.1537620000,22.2870270000 114.1539430000,22.2870220000 114.1542390000,22.2870290000 114.1545900000,22.2870690000 114.1547690000,22.2870860000 114.1551710000,22.2871270000 114.1553840000,22.2871480000 114.1555850000,22.2871670000 114.1558900000,22.2871870000 114.1560600000,22.2871930000 114.1561800000,22.2871900000 114.1564400000,22.2871770000 114.1566200000,22.2871560000 114.1568030000,22.2871290000 114.1569880000,22.2870970000 114.1571800000,22.2870520000 114.1574500000,22.2869730000 114.1577600000,22.2868700000 114.1582000000,22.2867000000 114.1584200000,22.2865980000 114.1585550000,22.2865150000 114.1586590000,22.2864510000 114.1590950000,22.2862220000 114.1631330000,22.2838940000 114.1638610000,22.2834790000 114.1645180000,22.2831880000 114.1651480000,22.2829840000 114.1656310000,22.2828690000 114.1661520000,22.2827670000 114.1666350000,22.2826760000 114.1670700000,22.2825890000 114.1688610000,22.2823690000 114.1697610000,22.2823090000 114.1707090000,22.2822780000 114.1711590000,22.2822620000 114.1718140000,22.2822540000 114.1731560000,22.2823000000 114.1740420000,22.2823610000 114.1746280000,22.2823910000 114.1749850000,22.2824210000 114.1754620000,22.2824730000 114.1809290000,22.2832320000 114.1818510000,22.2833680000 114.1822590000,22.2834450000 114.1827730000,22.2835840000 114.1832300000,22.2837190000 114.1844560000,22.2841080000 114.1848910000,22.2842950000 114.1853950000,22.2845420000 114.1858760000,22.2848500000 114.1863130000,22.2851780000 114.1866410000,22.2854140000 114.1870350000,22.2857100000 114.1874410000,22.2860740000 114.1879310000,22.2865420000 114.1885990000,22.2872120000 114.1889060000,22.2875260000 114.1907580000,22.2893580000 114.1915530000,22.2901590000 114.1916000000,22.2902060000 114.1919220000,22.2905300000 114.1921150000,22.2907240000 114.1924760000,22.2910880000 114.1926200000,22.2912330000 114.1934820000,22.2919690000 114.1939800000,22.2923650000 114.1943820000,22.2926650000 114.1946970000,22.2928220000 114.1950310000,22.2929330000 114.1953540000,22.2929900000 114.1955810000,22.2930280000 114.1963230000,22.2932360000 114.1967850000,22.2933720000 114.1974710000,22.2935680000 114.1976570000,22.2936070000 114.1978850000,22.2936210000 114.1980000000,22.2935900000 114.1981700000,22.2935420000 114.1982890000,22.2934570000 114.1983550000,22.2933920000 114.1984110000,22.2933390000 114.1984510000,22.2932890000 114.1984890000,22.2932040000 114.1985230000,22.2930870000 114.1985620000,22.2929500000 114.1985710000,22.2929120000 114.1986940000,22.2923740000 114.1987690000,22.2920510000 114.1987770000,22.2920150000 114.2000420000,22.2922820000 114.2008440000,22.2924500000 114.2013940000,22.2925660000 114.2023880000,22.2927630000 114.2028370000,22.2928520000 114.2035980000,22.2930170000 114.2040090000,22.2931060000 114.2041030000,22.2931160000 114.2041780000,22.2931160000 114.2042870000,22.2931030000 114.2043840000,22.2930770000 114.2044760000,22.2930580000 114.2049780000,22.2929460000 114.2050730000,22.2929390000 114.2058810000,22.2926900000 114.2060770000,22.2926300000 114.2062180000,22.2925820000 114.2063890000,22.2925290000 114.2072600000,22.2922590000 114.2072780000,22.2922530000 114.2073230000,22.2922390000 114.2075360000,22.2921730000 114.2077060000,22.2921200000 114.2079130000,22.2920560000 114.2084960000,22.2918750000 114.2085760000,22.2918500000 114.2086130000,22.2918390000 114.2091270000,22.2916800000 114.2092170000,22.2916080000 114.2093170000,22.2914850000 114.2093600000,22.2913560000 114.2093860000,22.2912060000 114.2093720000,22.2910910000 114.2093320000,22.2909950000 114.2092530000,22.2908290000 114.2092380000,22.2907550000 114.2092390000,22.2906830000 114.2092720000,22.2905910000 114.2093340000,22.2904190000 114.2093980000,22.2902350000 114.2095350000,22.2898200000 114.2097160000,22.2892970000 114.2098030000,22.2890460000 114.2099140000,22.2887240000 114.2100160000,22.2884180000 114.2101210000,22.2881060000 114.2103350000,22.2875170000 114.2103830000,22.2873990000 114.2104870000,22.2871000000 114.2105650000,22.2868790000 114.2106280000,22.2867360000 114.2106880000,22.2866200000 114.2107650000,22.2864890000 114.2108810000,22.2862920000 114.2111690000,22.2858190000 114.2113300000,22.2855520000 114.2114350000,22.2853600000 114.2114810000,22.2852870000 114.2115270000,22.2851950000 114.2116720000,22.2850900000 114.2117470000,22.2850390000 114.2118770000,22.2849680000 114.2121560000,22.2848700000 114.2126120000,22.2847430000 114.2130230000,22.2847280000 114.2132780000,22.2847330000 114.2135560000,22.2847400000 114.2137760000,22.2847410000 114.2142450000,22.2847470000 114.2144400000,22.2847500000 114.2146200000,22.2847500000 114.2147870000,22.2847970000 114.2148670000,22.2848540000 114.2149120000,22.2849250000 114.2149660000,22.2850130000 114.2150160000,22.2851170000 114.2150740000,22.2852570000 114.2151130000,22.2853260000 114.2151650000,22.2853940000 114.2152720000,22.2855210000 114.2154140000,22.2856640000 114.2156810000,22.2858170000 114.2157600000,22.2858370000 114.2158820000,22.2858670000 114.2161090000,22.2858820000 114.2161700000,22.2858750000 114.2163900000,22.2858490000 114.2165780000,22.2857910000 114.2167490000,22.2856980000 114.2169130000,22.2855980000 114.2172210000,22.2854230000 114.2179890000,22.2851260000 114.2183060000,22.2850750000 114.2187820000,22.2850100000 114.2189620000,22.2850070000 114.2190340000,22.2850000000 114.2191050000,22.2849930000 114.2192500000,22.2849710000 114.2194080000,22.2849380000 114.2195400000,22.2848940000 114.2196700000,22.2848330000 114.2198360000,22.2847360000 114.2199440000,22.2846500000 114.2199770000,22.2846180000 114.2200510000,22.2845460000 114.2201160000,22.2844700000 114.2202320000,22.2843170000 114.2206400000,22.2837990000 114.2209640000,22.2833900000 114.2212360000,22.2830460000 114.2213000000,22.2829670000 114.2216280000,22.2825540000 114.2216440000,22.2825330000 114.2218630000,22.2822550000 114.2219550000,22.2821380000 114.2220190000,22.2820590000 114.2220560000,22.2820130000 114.2224230000,22.2815510000 114.2224860000,22.2814730000 114.2225230000,22.2814320000 114.2225680000,22.2813790000 114.2226310000,22.2813140000 114.2226870000,22.2812650000 114.2227450000,22.2812230000 114.2228500000,22.2811500000 114.2228920000,22.2811240000 114.2229660000,22.2810800000 114.2230730000,22.2810250000 114.2235360000,22.2808090000 114.2238400000,22.2806670000 114.2239610000,22.2806140000 114.2239820000,22.2806050000 114.2239910000,22.2806010000 114.2242910000,22.2804870000 114.2243480000,22.2804700000 114.2245970000,22.2804130000 114.2247000000,22.2803900000 114.2251540000,22.2802990000 114.2253020000,22.2802600000 114.2253850000,22.2802190000 114.2254360000,22.2801780000 114.2254960000,22.2801140000 114.2255410000,22.2800590000 114.2255910000,22.2799950000 114.2256130000,22.2799640000 114.2257780000,22.2797230000 114.2258250000,22.2796450000 114.2260470000,22.2792810000 114.2262950000,22.2788630000 114.2265790000,22.2783860000 114.2266270000,22.2783060000 114.2269200000,22.2778190000 114.2269690000,22.2777540000 114.2270630000,22.2776590000 114.2271380000,22.2776020000 114.2271930000,22.2775710000 114.2272810000,22.2775240000 114.2274670000,22.2774230000 114.2279020000,22.2771870000 114.2280360000,22.2771170000 114.2282140000,22.2770240000 114.2283000000,22.2774100000 114.2283800000,22.2776840000 114.2284050000,22.2777710000 114.2284770000,22.2781360000 114.2285230000,22.2785590000 114.2285270000,22.2785860000 114.2285440000,22.2786080000 114.2285680000,22.2786210000 114.2285950000,22.2786220000 114.2286960000,22.2786050000 114.2294000000,22.2784700000 114.2294770000,22.2784760000 114.2295380000,22.2784920000 114.2295560000,22.2785080000 114.2295720000,22.2785300000 114.2295840000,22.2785580000 114.2295890000,22.2785920000 114.2295130000,22.2789120000 114.2294250000,22.2792870000 114.2294150000,22.2793270000 114.2293570000,22.2794130000 114.2292300000,22.2795300000 114.2293100000,22.2795900000 114.2294290000,22.2796800000 114.2295100000,22.2797600000 114.2295520000,22.2798080000 114.2296550000,22.2799400000 114.2297420000,22.2800680000 114.2298100000,22.2801900000 114.2298420000,22.2802660000 114.2298700000,22.2803500000 114.2299800000,22.2808400000 114.2300500000,22.2811300000 114.2300730000,22.2812100000 114.2301070000,22.2813110000 114.2301710000,22.2814790000 114.2302600000,22.2816500000 114.2303700000,22.2818200000 114.2305100000,22.2819990000 114.2307300000,22.2822600000 114.2310800000,22.2825030000 114.2312240000,22.2825850000 114.2313250000,22.2826420000 114.2315230000,22.2827330000 114.2318020000,22.2828160000 114.2321580000,22.2828590000 114.2325540000,22.2828660000 114.2329280000,22.2828180000 114.2331180000,22.2827730000 114.2335250000,22.2826700000 114.2338120000,22.2825640000 114.2342700000,22.2823190000 114.2346110000,22.2820260000 114.2349730000,22.2815370000 114.2352110000,22.2811530000 114.2353890000,22.2808190000 114.2357490000,22.2803230000 114.2365010000,22.2793280000 114.2366530000,22.2789740000 114.2367510000,22.2786090000 114.2368870000,22.2780710000 114.2369860000,22.2777080000 114.2371090000,22.2773770000 114.2372030000,22.2771620000 114.2373510000,22.2769120000 114.2375180000,22.2766730000 114.2385300000,22.2754780000 114.2390750000,22.2748040000 114.2392380000,22.2745330000 114.2393380000,22.2742810000 114.2394030000,22.2740730000 114.2394540000,22.2738640000 114.2394810000,22.2736900000 114.2395030000,22.2734760000 114.2395040000,22.2732570000 114.2394850000,22.2730260000 114.2394420000,22.2727820000 114.2393280000,22.2723540000 114.2391500000,22.2715110000 114.2388360000,22.2704010000 114.2387550000,22.2701890000 114.2386460000,22.2699870000 114.2385180000,22.2697700000 114.2380110000,22.2688260000 114.2379500000,22.2686950000 114.2379090000,22.2686000000 114.2378750000,22.2685210000 114.2378180000,22.2683540000 114.2377990000,22.2682910000 114.2377500000,22.2681220000 114.2377190000,22.2679750000 114.2377000000,22.2678510000 114.2376830000,22.2676750000 114.2376830000,22.2676470000 114.2376810000,22.2675450000 114.2376810000,22.2675240000 114.2376780000,22.2673930000 114.2376850000,22.2671900000 114.2376970000,22.2670460000 114.2377000000,22.2670070000 114.2377460000,22.2666650000 114.2378210000,22.2662410000 114.2378520000,22.2660350000 114.2378650000,22.2658260000 114.2378660000,22.2656810000 114.2378530000,22.2655580000 114.2378230000,22.2654480000 114.2376610000,22.2649810000 114.2376200000,22.2648420000 114.2375940000,22.2647040000 114.2375700000,22.2645650000 114.2375740000,22.2643850000 114.2376430000,22.2640320000 114.2376980000,22.2639010000 114.2377530000,22.2637870000 114.2377780000,22.2637320000 114.2378020000,22.2636820000 114.2378250000,22.2636360000 114.2378790000,22.2635620000 114.2379000000,22.2634900000 114.2379130000,22.2634320000 114.2379070000,22.2633600000 114.2378890000,22.2632970000 114.2378270000,22.2631850000 114.2376000000,22.2630500000 114.2375100000,22.2630400000 114.2374190000,22.2630330000 114.2373380000,22.2630430000 114.2372590000,22.2630640000 114.2372080000,22.2631000000 114.2371500000,22.2631500000 114.2371070000,22.2632200000 114.2371010000,22.2632700000 114.2371030000,22.2633200000 114.2371210000,22.2634300000 114.2371700000,22.2635300000 114.2373260000,22.2636430000 114.2374300000,22.2637900000 114.2374800000,22.2639100000 114.2375000000,22.2640200000 114.2374850000,22.2643720000 114.2374870000,22.2645740000 114.2375110000,22.2647170000 114.2375400000,22.2648550000 114.2375780000,22.2649960000 114.2377400000,22.2654750000 114.2377150000,22.2656180000 114.2376990000,22.2656450000 114.2376620000,22.2656700000 114.2376070000,22.2656930000 114.2375630000,22.2656950000 114.2375150000,22.2656830000 114.2374770000,22.2656640000 114.2374060000,22.2655890000 114.2373780000,22.2655210000 114.2373340000,22.2654490000 114.2372430000,22.2653590000 114.2372240000,22.2653400000 114.2371070000,22.2652540000 114.2371190000,22.2652080000 114.2371540000,22.2651310000 114.2370110000,22.2649000000 114.2369510000,22.2648030000 114.2369650000,22.2646950000 114.2369370000,22.2646510000 114.2369500000,22.2645920000 114.2369270000,22.2645100000 114.2369260000,22.2645080000 114.2368580000,22.2644540000 114.2365320000,22.2641920000 114.2362570000,22.2639740000 114.2361660000,22.2639050000 114.2361120000,22.2637400000 114.2361210000,22.2636800000 114.2361400000,22.2636200000 114.2361800000,22.2635700000 114.2362400000,22.2635300000 114.2363000000,22.2635070000 114.2364370000,22.2634720000 114.2365200000,22.2634500000 114.2367700000,22.2634400000 114.2368600000,22.2634380000 114.2369700000,22.2634500000 114.2370890000,22.2634860000 114.2371700000,22.2635300000 114.2373260000,22.2636430000 114.2374520000,22.2637080000 114.2375500000,22.2637220000 114.2376200000,22.2637200000 114.2377100000,22.2637000000 114.2378250000,22.2636360000 114.2378790000,22.2635620000 114.2379450000,22.2634960000 114.2380110000,22.2634450000 114.2380880000,22.2633910000 114.2381770000,22.2633440000 114.2382620000,22.2633210000 114.2383690000,22.2632960000 114.2384890000,22.2632920000 114.2387770000,22.2632930000 114.2389500000,22.2633140000 114.2390810000,22.2633400000 114.2392660000,22.2634100000 114.2393860000,22.2634700000 114.2394930000,22.2635230000 114.2395520000,22.2635640000 114.2396100000,22.2636030000 114.2397310000,22.2636870000 114.2402610000,22.2640680000 114.2406920000,22.2643670000 114.2407350000,22.2643970000 114.2407990000,22.2644460000 114.2409140000,22.2645330000 114.2421090000,22.2654410000 114.2423950000,22.2656580000 114.2430770000,22.2661400000 114.2432580000,22.2662660000 114.2433210000,22.2661860000 114.2434650000,22.2660400000 114.2435860000,22.2659580000 114.2437200000,22.2658920000 114.2439200000,22.2658210000 114.2441220000,22.2657760000 114.2443480000,22.2657740000 114.2443890000,22.2657790000 114.2445610000,22.2657990000 114.2446670000,22.2658180000 114.2447530000,22.2658340000 114.2450700000,22.2658900000 114.2452800000,22.2659200000 114.2454700000,22.2659400000 114.2457800000,22.2659400000 114.2460000000,22.2659200000 114.2461500000,22.2659000000 114.2463800000,22.2658400000 114.2465380000,22.2657990000 114.2467620000,22.2657210000 114.2468620000,22.2656740000 114.2469550000,22.2656170000 114.2470080000,22.2655850000 114.2471240000,22.2655150000 114.2472450000,22.2654350000 114.2473700000,22.2653500000 114.2476900000,22.2650800000 114.2477720000,22.2650080000 114.2478500000,22.2649400000 114.2479320000,22.2648620000 114.2480400000,22.2647600000 114.2481500000,22.2646600000 114.2482530000,22.2645530000 114.2483500000,22.2644500000 114.2484300000,22.2643700000 114.2484740000,22.2643170000 114.2485260000,22.2642550000 114.2486030000,22.2641630000 114.2486500000,22.2641000000 114.2487190000,22.2640030000 114.2491530000,22.2633910000 114.2493980000,22.2630450000 114.2494800000,22.2629300000 114.2495400000,22.2628500000 114.2496600000,22.2627300000 114.2497300000,22.2626700000 114.2498560000,22.2625810000 114.2500190000,22.2625080000 114.2500800000,22.2624880000 114.2501600000,22.2624700000 114.2502400000,22.2624600000 114.2503400000,22.2624560000 114.2505300000,22.2624800000 114.2506600000,22.2625200000 114.2507470000,22.2625570000 114.2509080000,22.2626240000 114.2509620000,22.2626570000 114.2511400000,22.2627700000 114.2514200000,22.2629900000 114.2516000000,22.2631600000 114.2517500000,22.2633350000 114.2517730000,22.2633690000 114.2518700000,22.2635100000 114.2519340000,22.2636440000 114.2519600000,22.2637300000 114.2519850000,22.2638900000 114.2519800000,22.2640600000 114.2519500000,22.2642000000 114.2519000000,22.2643200000 114.2517600000,22.2645230000 114.2517150000,22.2645870000 114.2516600000,22.2646480000 114.2516260000,22.2646860000 114.2515560000,22.2647650000 114.2514830000,22.2648440000 114.2514040000,22.2649270000 114.2512840000,22.2650540000 114.2511400000,22.2651840000 114.2509800000,22.2653300000 114.2506500000,22.2655700000 114.2505430000,22.2656440000 114.2504010000,22.2657440000 114.2503300000,22.2657950000 114.2503810000,22.2658590000 114.2504320000,22.2659290000 114.2504760000,22.2660380000 114.2505570000,22.2661250000 114.2506200000,22.2661910000 114.2506540000,22.2662280000 114.2506910000,22.2662700000 114.2507290000,22.2663130000 114.2507620000,22.2663510000 114.2507720000,22.2663610000</coordinates>
                </LineString>
                <ExtendedData>
                    <Data name="duration">
                        <value>03:12:33</value>
                    </Data>
                    <Data name="length">
                        <value>110213.01112782804</value>
                    </Data>
                </ExtendedData>
            </Placemark>
        </Document>
    </Document>
</kml>