<?xml version="1.0" encoding="UTF-8"?>
<kml xmlns="http://www.opengis.net/kml/2.2" xmlns:gx="http://www.google.com/kml/ext/2.2">
    <Document>
        <name>Route</name>
        <Folder>
            <name>Route Request</name>
            <Placemark>
                <Point>
                    <coordinates>114.1539144903,22.5532700241</coordinates>
                </Point>
                <ExtendedData>
                    <Data name="routingVisited">
                        <value>false</value>
                    </Data>
                </ExtendedData>
            </Placemark>
            <Placemark>
                <Point>
                    <coordinates>114.1583403029,22.4517263678</coordinates>
                </Point>
            </Placemark>
            <Placemark>
                <Point>
                    <coordinates>114.1765351951,22.4624079972</coordinates>
                </Point>
            </Placemark>
            <Placemark>
                <Point>
                    <coordinates>114.1938897930,22.4671732353</coordinates>
                </Point>
                <ExtendedData>
                    <Data name="routingVisited">
                        <value>false</value>
                    </Data>
                </ExtendedData>
            </Placemark>
            <Placemark>
                <Point>
                    <coordinates>114.2333441284,22.4712750020</coordinates>
                </Point>
            </Placemark>
            <Placemark>
                <Point>
                    <coordinates>114.1938897930,22.4671732353</coordinates>
                </Point>
            </Placemark>
            <Placemark>
                <Point>
                    <coordinates>114.1765056301,22.4623943392</coordinates>
                </Point>
            </Placemark>
            <Placemark>
                <Point>
                    <coordinates>114.1539736565,22.5533246658</coordinates>
                </Point>
                <ExtendedData>
                    <Data name="routingVisited">
                        <value>false</value>
                    </Data>
                </ExtendedData>
            </Placemark>
        </Folder>
        <Document>
            <name>58.0 km; 01:14 h (OSRM)</name>
            <Placemark>
                <name>Route</name>
                <LineString>
                    <coordinates>114.1544400000,22.5532770000 114.1544420000,22.5531330000 114.1544530000,22.5523400000 114.1544530000,22.5522640000 114.1544610000,22.5519140000 114.1544610000,22.5518830000 114.1544570000,22.5518460000 114.1544490000,22.5518100000 114.1544350000,22.5517780000 114.1544150000,22.5517490000 114.1543890000,22.5517200000 114.1543560000,22.5516930000 114.1543130000,22.5516660000 114.1542740000,22.5516510000 114.1542270000,22.5516380000 114.1541840000,22.5516320000 114.1541300000,22.5516260000 114.1539790000,22.5516250000 114.1533680000,22.5516280000 114.1533190000,22.5515630000 114.1532710000,22.5515170000 114.1531830000,22.5514170000 114.1531160000,22.5513350000 114.1530510000,22.5512520000 114.1529520000,22.5511090000 114.1528000000,22.5509080000 114.1525930000,22.5506350000 114.1523870000,22.5503620000 114.1522920000,22.5502360000 114.1521850000,22.5500420000 114.1521170000,22.5498840000 114.1520980000,22.5498160000 114.1520580000,22.5496490000 114.1520380000,22.5494640000 114.1520320000,22.5493200000 114.1520750000,22.5491720000 114.1520920000,22.5491290000 114.1521110000,22.5490920000 114.1521420000,22.5490390000 114.1521610000,22.5489370000 114.1521690000,22.5488970000 114.1521850000,22.5488390000 114.1522750000,22.5485970000 114.1523170000,22.5484820000 114.1523460000,22.5484100000 114.1523560000,22.5483820000 114.1524510000,22.5481260000 114.1525070000,22.5479520000 114.1525400000,22.5478310000 114.1525650000,22.5477010000 114.1525880000,22.5475720000 114.1526090000,22.5473770000 114.1526170000,22.5472390000 114.1526170000,22.5470680000 114.1526110000,22.5468860000 114.1525940000,22.5466630000 114.1525230000,22.5459840000 114.1525100000,22.5457940000 114.1525050000,22.5456510000 114.1525050000,22.5454860000 114.1525120000,22.5453040000 114.1525240000,22.5451360000 114.1525370000,22.5450310000 114.1525570000,22.5448980000 114.1525870000,22.5447450000 114.1526150000,22.5446130000 114.1526480000,22.5444810000 114.1527120000,22.5442640000 114.1527810000,22.5440670000 114.1528580000,22.5438780000 114.1529580000,22.5436700000 114.1530510000,22.5434930000 114.1531630000,22.5433030000 114.1532710000,22.5431390000 114.1533860000,22.5429850000 114.1535440000,22.5427910000 114.1537090000,22.5426050000 114.1538680000,22.5424410000 114.1551420000,22.5411920000 114.1553180000,22.5410370000 114.1554880000,22.5409040000 114.1556670000,22.5407820000 114.1558200000,22.5406880000 114.1559530000,22.5406140000 114.1561090000,22.5405390000 114.1562690000,22.5404690000 114.1564210000,22.5404150000 114.1566200000,22.5403510000 114.1567860000,22.5403030000 114.1581300000,22.5399620000 114.1589650000,22.5397350000 114.1596240000,22.5395450000 114.1642750000,22.5381170000 114.1644260000,22.5380640000 114.1645540000,22.5380170000 114.1646920000,22.5379610000 114.1648410000,22.5378940000 114.1650420000,22.5377940000 114.1652330000,22.5376900000 114.1654290000,22.5375720000 114.1656420000,22.5374310000 114.1658140000,22.5373070000 114.1659330000,22.5372160000 114.1661480000,22.5370350000 114.1662770000,22.5369140000 114.1664140000,22.5367790000 114.1664900000,22.5366990000 114.1665880000,22.5365920000 114.1667300000,22.5364220000 114.1669030000,22.5361940000 114.1670420000,22.5359880000 114.1671350000,22.5358400000 114.1672620000,22.5356280000 114.1687560000,22.5333190000 114.1697560000,22.5317710000 114.1700200000,22.5313640000 114.1701320000,22.5311970000 114.1702410000,22.5310430000 114.1703660000,22.5308740000 114.1704930000,22.5307100000 114.1709460000,22.5301840000 114.1713710000,22.5297460000 114.1716950000,22.5294050000 114.1717750000,22.5293210000 114.1718250000,22.5292720000 114.1718540000,22.5292420000 114.1726840000,22.5286510000 114.1729800000,22.5284510000 114.1732540000,22.5282770000 114.1734860000,22.5281360000 114.1742300000,22.5277080000 114.1745460000,22.5275110000 114.1748550000,22.5273010000 114.1751760000,22.5270590000 114.1754210000,22.5268660000 114.1756470000,22.5266730000 114.1758370000,22.5265000000 114.1760880000,22.5262590000 114.1763140000,22.5260260000 114.1765130000,22.5258100000 114.1768250000,22.5254380000 114.1770620000,22.5251330000 114.1772830000,22.5248240000 114.1773360000,22.5247430000 114.1773680000,22.5246940000 114.1775170000,22.5244610000 114.1776090000,22.5243030000 114.1776600000,22.5242050000 114.1776720000,22.5241830000 114.1778800000,22.5237810000 114.1779920000,22.5235940000 114.1781650000,22.5233250000 114.1783610000,22.5230370000 114.1786440000,22.5226360000 114.1789150000,22.5222740000 114.1792300000,22.5218750000 114.1796520000,22.5213740000 114.1798410000,22.5211630000 114.1800890000,22.5208930000 114.1803480000,22.5206210000 114.1807800000,22.5201950000 114.1811260000,22.5198710000 114.1814830000,22.5195530000 114.1818400000,22.5192500000 114.1819470000,22.5191520000 114.1820660000,22.5190390000 114.1821170000,22.5189890000 114.1822340000,22.5188640000 114.1823510000,22.5187250000 114.1824310000,22.5186160000 114.1825310000,22.5184530000 114.1825500000,22.5184140000 114.1826120000,22.5182820000 114.1827060000,22.5180490000 114.1827760000,22.5178330000 114.1828230000,22.5176230000 114.1828550000,22.5174110000 114.1828730000,22.5172170000 114.1828790000,22.5170500000 114.1828710000,22.5168430000 114.1828510000,22.5166500000 114.1828200000,22.5164700000 114.1827830000,22.5163020000 114.1827340000,22.5161330000 114.1826740000,22.5159650000 114.1826030000,22.5158000000 114.1825220000,22.5156400000 114.1824340000,22.5154870000 114.1823340000,22.5153300000 114.1822200000,22.5151710000 114.1821020000,22.5150300000 114.1819680000,22.5148870000 114.1818200000,22.5147500000 114.1816620000,22.5146200000 114.1814790000,22.5144850000 114.1812530000,22.5143440000 114.1810000000,22.5142060000 114.1807450000,22.5140730000 114.1773400000,22.5124410000 114.1769000000,22.5122160000 114.1765000000,22.5119800000 114.1761000000,22.5117240000 114.1757000000,22.5114380000 114.1753000000,22.5111220000 114.1749120000,22.5107800000 114.1745800000,22.5104580000 114.1742580000,22.5101100000 114.1670300000,22.5017500000 114.1664250000,22.5010100000 114.1658600000,22.5002700000 114.1653350000,22.4995300000 114.1648370000,22.4987800000 114.1610530000,22.4927810000 114.1601000000,22.4912700000 114.1598740000,22.4909220000 114.1596450000,22.4905800000 114.1594060000,22.4902360000 114.1591660000,22.4899000000 114.1560470000,22.4856900000 114.1558660000,22.4854300000 114.1557060000,22.4851700000 114.1555670000,22.4849270000 114.1554400000,22.4846780000 114.1553660000,22.4845210000 114.1553340000,22.4844540000 114.1552930000,22.4843680000 114.1552740000,22.4843290000 114.1552170000,22.4842090000 114.1550990000,22.4839610000 114.1550700000,22.4839000000 114.1547540000,22.4831800000 114.1546930000,22.4830350000 114.1546420000,22.4829000000 114.1545830000,22.4827220000 114.1545300000,22.4825330000 114.1544900000,22.4823500000 114.1544530000,22.4821670000 114.1544200000,22.4819800000 114.1544000000,22.4818200000 114.1543960000,22.4816900000 114.1543950000,22.4815600000 114.1544030000,22.4813000000 114.1544270000,22.4810860000 114.1544500000,22.4808980000 114.1544870000,22.4805260000 114.1545060000,22.4803250000 114.1545220000,22.4800700000 114.1545130000,22.4796890000 114.1544580000,22.4792250000 114.1543350000,22.4785790000 114.1543100000,22.4784300000 114.1542620000,22.4781510000 114.1542560000,22.4777350000 114.1542590000,22.4771710000 114.1542530000,22.4768480000 114.1542460000,22.4767150000 114.1542300000,22.4764500000 114.1542050000,22.4762660000 114.1541610000,22.4760900000 114.1541080000,22.4759580000 114.1540750000,22.4757400000 114.1540200000,22.4753960000 114.1538780000,22.4746690000 114.1535360000,22.4728460000 114.1532800000,22.4715150000 114.1530240000,22.4701860000 114.1529030000,22.4696220000 114.1527420000,22.4690020000 114.1526400000,22.4686850000 114.1524700000,22.4681670000 114.1524260000,22.4680740000 114.1522780000,22.4677580000 114.1521230000,22.4674770000 114.1519600000,22.4672160000 114.1518070000,22.4670180000 114.1515910000,22.4667410000 114.1513980000,22.4665150000 114.1511130000,22.4662190000 114.1507720000,22.4658870000 114.1505570000,22.4656910000 114.1503510000,22.4655000000 114.1500850000,22.4652190000 114.1498090000,22.4648840000 114.1496230000,22.4646300000 114.1494680000,22.4643740000 114.1492690000,22.4639980000 114.1489950000,22.4633830000 114.1488090000,22.4629750000 114.1486320000,22.4626600000 114.1484430000,22.4623750000 114.1482090000,22.4620750000 114.1479340000,22.4617330000 114.1476470000,22.4613700000 114.1475010000,22.4611460000 114.1474300000,22.4610110000 114.1473670000,22.4608390000 114.1473030000,22.4606020000 114.1472740000,22.4604000000 114.1472680000,22.4602490000 114.1472740000,22.4600730000 114.1473070000,22.4598770000 114.1473490000,22.4597160000 114.1474180000,22.4595470000 114.1475250000,22.4593440000 114.1476850000,22.4590980000 114.1478850000,22.4588210000 114.1486520000,22.4578430000 114.1488560000,22.4575980000 114.1490500000,22.4573720000 114.1491730000,22.4572360000 114.1494680000,22.4568700000 114.1497720000,22.4565060000 114.1500500000,22.4561440000 114.1503580000,22.4557280000 114.1510310000,22.4547920000 114.1516040000,22.4540020000 114.1517510000,22.4539690000 114.1518380000,22.4538710000 114.1522300000,22.4534360000 114.1524240000,22.4532120000 114.1525050000,22.4531160000 114.1525880000,22.4530110000 114.1527170000,22.4528230000 114.1528670000,22.4525870000 114.1529340000,22.4524870000 114.1530220000,22.4523780000 114.1531150000,22.4522840000 114.1532070000,22.4522090000 114.1533180000,22.4521310000 114.1534980000,22.4519990000 114.1536180000,22.4518870000 114.1537350000,22.4517740000 114.1538590000,22.4516450000 114.1539890000,22.4514810000 114.1540720000,22.4513630000 114.1541990000,22.4511870000 114.1542690000,22.4510920000 114.1543530000,22.4509920000 114.1544270000,22.4509100000 114.1545130000,22.4508220000 114.1546240000,22.4507220000 114.1547630000,22.4506060000 114.1548900000,22.4505190000 114.1550260000,22.4504370000 114.1551800000,22.4503500000 114.1553070000,22.4502910000 114.1554320000,22.4502360000 114.1555600000,22.4501870000 114.1557280000,22.4501330000 114.1558680000,22.4500940000 114.1560790000,22.4500510000 114.1562240000,22.4500290000 114.1563570000,22.4500190000 114.1564950000,22.4500120000 114.1566570000,22.4500230000 114.1567940000,22.4500440000 114.1569290000,22.4500730000 114.1570450000,22.4501080000 114.1571640000,22.4501520000 114.1572620000,22.4501940000 114.1573560000,22.4502400000 114.1574830000,22.4503180000 114.1575780000,22.4503850000 114.1576530000,22.4504430000 114.1577460000,22.4505270000 114.1578290000,22.4506180000 114.1578940000,22.4506960000 114.1579780000,22.4508120000 114.1580600000,22.4509500000 114.1583710000,22.4515970000 114.1584200000,22.4516900000 114.1585750000,22.4519870000 114.1586340000,22.4520910000 114.1586420000,22.4521030000 114.1587170000,22.4522790000 114.1587830000,22.4524260000 114.1589040000,22.4526430000 114.1590040000,22.4527990000 114.1591240000,22.4529510000 114.1592810000,22.4531010000 114.1594660000,22.4532650000 114.1596390000,22.4533400000 114.1597990000,22.4533990000 114.1599760000,22.4534500000 114.1600900000,22.4534720000 114.1602100000,22.4534990000 114.1603470000,22.4535090000 114.1604900000,22.4534950000 114.1606680000,22.4534670000 114.1607950000,22.4534430000 114.1609230000,22.4534120000 114.1612090000,22.4532960000 114.1615490000,22.4531280000 114.1618290000,22.4529840000 114.1618940000,22.4529760000 114.1620020000,22.4529640000 114.1620690000,22.4529720000 114.1621230000,22.4529840000 114.1621700000,22.4530140000 114.1622210000,22.4530560000 114.1622640000,22.4531000000 114.1623460000,22.4532970000 114.1624360000,22.4534660000 114.1624990000,22.4535640000 114.1625740000,22.4536630000 114.1626230000,22.4537200000 114.1626840000,22.4537810000 114.1627210000,22.4538190000 114.1628360000,22.4539060000 114.1629640000,22.4539920000 114.1630860000,22.4540550000 114.1637360000,22.4544040000 114.1642300000,22.4546750000 114.1647670000,22.4549360000 114.1655310000,22.4553220000 114.1656310000,22.4553730000 114.1657160000,22.4554150000 114.1658560000,22.4554880000 114.1663860000,22.4557870000 114.1664250000,22.4558150000 114.1664640000,22.4558440000 114.1665160000,22.4558860000 114.1666600000,22.4560160000 114.1667160000,22.4560570000 114.1668080000,22.4561250000 114.1669700000,22.4562340000 114.1672400000,22.4564160000 114.1673700000,22.4565040000 114.1673860000,22.4565140000 114.1675250000,22.4566050000 114.1675870000,22.4566440000 114.1676720000,22.4566980000 114.1677550000,22.4567560000 114.1680410000,22.4569390000 114.1681010000,22.4569770000 114.1682860000,22.4570690000 114.1683540000,22.4570970000 114.1684410000,22.4571200000 114.1685710000,22.4571360000 114.1686790000,22.4571330000 114.1687520000,22.4571260000 114.1688670000,22.4571020000 114.1689560000,22.4570730000 114.1691510000,22.4569910000 114.1695670000,22.4567900000 114.1696340000,22.4567930000 114.1696830000,22.4568020000 114.1697020000,22.4568150000 114.1697240000,22.4568310000 114.1697660000,22.4568590000 114.1698140000,22.4568970000 114.1699470000,22.4572060000 114.1700010000,22.4573980000 114.1700230000,22.4576260000 114.1700160000,22.4578380000 114.1700070000,22.4579700000 114.1699760000,22.4580940000 114.1699710000,22.4582020000 114.1699680000,22.4582910000 114.1699680000,22.4583760000 114.1699760000,22.4585340000 114.1699780000,22.4585740000 114.1700190000,22.4587020000 114.1700300000,22.4590700000 114.1700350000,22.4591800000 114.1701370000,22.4598200000 114.1701700000,22.4599720000 114.1702360000,22.4601900000 114.1703200000,22.4603950000 114.1704180000,22.4605900000 114.1705400000,22.4607740000 114.1706800000,22.4609320000 114.1708380000,22.4610600000 114.1709860000,22.4611530000 114.1711000000,22.4612090000 114.1712190000,22.4612510000 114.1713900000,22.4612930000 114.1715700000,22.4613200000 114.1717000000,22.4613310000 114.1718500000,22.4613360000 114.1719700000,22.4613310000 114.1720900000,22.4613200000 114.1722330000,22.4612970000 114.1722800000,22.4612900000 114.1723520000,22.4612680000 114.1725170000,22.4612180000 114.1727290000,22.4611340000 114.1728270000,22.4610750000 114.1729030000,22.4610230000 114.1729460000,22.4609940000 114.1730050000,22.4609440000 114.1731270000,22.4609980000 114.1732660000,22.4610430000 114.1733740000,22.4610680000 114.1734550000,22.4610760000 114.1734990000,22.4610750000 114.1735210000,22.4611870000 114.1735970000,22.4616450000 114.1736150000,22.4616910000 114.1736310000,22.4617220000 114.1736670000,22.4617780000 114.1737160000,22.4618310000 114.1737600000,22.4618650000 114.1738210000,22.4618940000 114.1738990000,22.4619130000 114.1740720000,22.4619380000 114.1741700000,22.4619600000 114.1742250000,22.4619810000 114.1743110000,22.4620250000 114.1743830000,22.4620970000 114.1744100000,22.4621320000 114.1744380000,22.4621930000 114.1745810000,22.4624950000 114.1746170000,22.4625700000 114.1746600000,22.4626420000 114.1747100000,22.4627090000 114.1747670000,22.4627730000 114.1748300000,22.4628310000 114.1748990000,22.4628830000 114.1749720000,22.4629300000 114.1750500000,22.4629700000 114.1751220000,22.4630030000 114.1751980000,22.4630280000 114.1752770000,22.4630450000 114.1753160000,22.4630490000 114.1753570000,22.4630520000 114.1754370000,22.4630510000 114.1755170000,22.4630410000 114.1755950000,22.4630210000 114.1756700000,22.4629930000 114.1757400000,22.4629570000 114.1758060000,22.4629130000 114.1758650000,22.4628630000 114.1760770000,22.4626520000 114.1762450000,22.4624850000 114.1762840000,22.4624510000 114.1763260000,22.4624210000 114.1763720000,22.4623970000 114.1764210000,22.4623770000 114.1764720000,22.4623630000 114.1765250000,22.4623560000 114.1765250000,22.4623560000 114.1764720000,22.4623630000 114.1764210000,22.4623770000 114.1763720000,22.4623970000 114.1763260000,22.4624210000 114.1762840000,22.4624510000 114.1762450000,22.4624850000 114.1760770000,22.4626520000 114.1758650000,22.4628630000 114.1758060000,22.4629130000 114.1757400000,22.4629570000 114.1756700000,22.4629930000 114.1755950000,22.4630210000 114.1755170000,22.4630410000 114.1754370000,22.4630510000 114.1753570000,22.4630520000 114.1753160000,22.4630490000 114.1752770000,22.4630450000 114.1751980000,22.4630280000 114.1751220000,22.4630030000 114.1750500000,22.4629700000 114.1749720000,22.4629300000 114.1748990000,22.4628830000 114.1748300000,22.4628310000 114.1747670000,22.4627730000 114.1747100000,22.4627090000 114.1746600000,22.4626420000 114.1746170000,22.4625700000 114.1745810000,22.4624950000 114.1744380000,22.4621930000 114.1744100000,22.4621320000 114.1743830000,22.4620970000 114.1743110000,22.4620250000 114.1742250000,22.4619810000 114.1741700000,22.4619600000 114.1740720000,22.4619380000 114.1738990000,22.4619130000 114.1738210000,22.4618940000 114.1737600000,22.4618650000 114.1737160000,22.4618310000 114.1736670000,22.4617780000 114.1736310000,22.4617220000 114.1736150000,22.4616910000 114.1735970000,22.4616450000 114.1735210000,22.4611870000 114.1734990000,22.4610750000 114.1734550000,22.4610760000 114.1733740000,22.4610680000 114.1732660000,22.4610430000 114.1731270000,22.4609980000 114.1730050000,22.4609440000 114.1730740000,22.4608250000 114.1731340000,22.4606420000 114.1731340000,22.4604710000 114.1731290000,22.4604400000 114.1731220000,22.4603550000 114.1730470000,22.4601090000 114.1730010000,22.4600050000 114.1728750000,22.4597010000 114.1727460000,22.4594330000 114.1725600000,22.4590490000 114.1724420000,22.4587410000 114.1723830000,22.4585770000 114.1723420000,22.4583480000 114.1722880000,22.4580380000 114.1722560000,22.4577180000 114.1722460000,22.4576010000 114.1722440000,22.4575440000 114.1722810000,22.4574270000 114.1722750000,22.4572780000 114.1722600000,22.4569300000 114.1722320000,22.4566050000 114.1722170000,22.4564700000 114.1721770000,22.4560660000 114.1721690000,22.4559850000 114.1728460000,22.4559190000 114.1730570000,22.4558850000 114.1734990000,22.4558410000 114.1737560000,22.4558060000 114.1740420000,22.4557740000 114.1744470000,22.4557240000 114.1746440000,22.4557030000 114.1748350000,22.4556990000 114.1749790000,22.4557130000 114.1750750000,22.4557340000 114.1752320000,22.4557860000 114.1754330000,22.4558910000 114.1756070000,22.4560100000 114.1758450000,22.4562060000 114.1760000000,22.4563260000 114.1761350000,22.4564330000 114.1762960000,22.4565210000 114.1764300000,22.4565850000 114.1765020000,22.4566150000 114.1766500000,22.4566760000 114.1768320000,22.4567200000 114.1769790000,22.4567520000 114.1771320000,22.4567640000 114.1773570000,22.4567680000 114.1774840000,22.4567690000 114.1774800000,22.4568870000 114.1775050000,22.4573990000 114.1775120000,22.4575160000 114.1775290000,22.4576640000 114.1775550000,22.4578120000 114.1775700000,22.4578740000 114.1776180000,22.4580290000 114.1777360000,22.4583610000 114.1778110000,22.4585260000 114.1778510000,22.4585820000 114.1778920000,22.4586390000 114.1779830000,22.4587520000 114.1780790000,22.4588490000 114.1782140000,22.4589560000 114.1783440000,22.4590430000 114.1784900000,22.4591160000 114.1786480000,22.4591770000 114.1788070000,22.4592200000 114.1790100000,22.4592450000 114.1791550000,22.4592470000 114.1793470000,22.4592340000 114.1794710000,22.4592220000 114.1796400000,22.4591940000 114.1797860000,22.4591760000 114.1799270000,22.4591640000 114.1801650000,22.4591470000 114.1802680000,22.4591410000 114.1803860000,22.4591390000 114.1805160000,22.4591380000 114.1806360000,22.4591380000 114.1809550000,22.4591360000 114.1810250000,22.4591350000 114.1810620000,22.4591350000 114.1811280000,22.4591340000 114.1812170000,22.4591330000 114.1818320000,22.4591320000 114.1820010000,22.4591510000 114.1821530000,22.4591790000 114.1822030000,22.4591930000 114.1823000000,22.4592190000 114.1824400000,22.4592660000 114.1825640000,22.4593190000 114.1826440000,22.4593570000 114.1827620000,22.4594220000 114.1828700000,22.4594930000 114.1830030000,22.4595960000 114.1831520000,22.4597340000 114.1833340000,22.4599410000 114.1834820000,22.4601320000 114.1836440000,22.4603420000 114.1838540000,22.4605970000 114.1839450000,22.4607090000 114.1841280000,22.4609380000 114.1841940000,22.4610330000 114.1842880000,22.4611740000 114.1843520000,22.4612480000 114.1844260000,22.4613350000 114.1845340000,22.4614590000 114.1846440000,22.4615850000 114.1847620000,22.4616990000 114.1849100000,22.4618110000 114.1849990000,22.4618670000 114.1850870000,22.4619230000 114.1852650000,22.4620180000 114.1854020000,22.4620840000 114.1856060000,22.4621580000 114.1857900000,22.4622090000 114.1858860000,22.4622250000 114.1860290000,22.4622470000 114.1862090000,22.4622620000 114.1865070000,22.4622600000 114.1866410000,22.4622610000 114.1868060000,22.4622600000 114.1870190000,22.4622570000 114.1874410000,22.4622670000 114.1876700000,22.4622640000 114.1880050000,22.4622600000 114.1882790000,22.4622620000 114.1883580000,22.4622620000 114.1884750000,22.4622640000 114.1885110000,22.4622650000 114.1889090000,22.4622580000 114.1898870000,22.4622610000 114.1900970000,22.4622520000 114.1903060000,22.4622360000 114.1903560000,22.4622270000 114.1905350000,22.4622080000 114.1905560000,22.4622030000 114.1907240000,22.4621640000 114.1908130000,22.4621370000 114.1909250000,22.4621040000 114.1910600000,22.4620540000 114.1911160000,22.4620330000 114.1913330000,22.4619440000 114.1915380000,22.4618610000 114.1917660000,22.4617700000 114.1918520000,22.4617430000 114.1919230000,22.4617180000 114.1919890000,22.4618140000 114.1920430000,22.4618960000 114.1921160000,22.4619590000 114.1922120000,22.4621190000 114.1922590000,22.4622670000 114.1922720000,22.4624310000 114.1922490000,22.4625870000 114.1922170000,22.4627360000 114.1922170000,22.4629560000 114.1922650000,22.4630770000 114.1923300000,22.4631910000 114.1924150000,22.4632960000 114.1925220000,22.4633770000 114.1927400000,22.4635550000 114.1929030000,22.4637160000 114.1930360000,22.4639220000 114.1930850000,22.4641650000 114.1930860000,22.4643630000 114.1930770000,22.4645450000 114.1930750000,22.4647620000 114.1930900000,22.4649790000 114.1931560000,22.4651790000 114.1932260000,22.4652980000 114.1932970000,22.4653860000 114.1933460000,22.4654430000 114.1934120000,22.4654890000 114.1935030000,22.4655440000 114.1936480000,22.4656110000 114.1936030000,22.4657150000 114.1934840000,22.4659920000 114.1933780000,22.4662370000 114.1933640000,22.4662840000 114.1933540000,22.4663320000 114.1933490000,22.4663810000 114.1933470000,22.4664300000 114.1933490000,22.4664890000 114.1933580000,22.4665520000 114.1933730000,22.4666140000 114.1934100000,22.4667430000 114.1934230000,22.4667890000 114.1934420000,22.4668550000 114.1934890000,22.4669310000 114.1935090000,22.4669660000 114.1935460000,22.4670290000 114.1935630000,22.4670770000 114.1936460000,22.4673370000 114.1937670000,22.4673160000 114.1937980000,22.4673000000 114.1938110000,22.4672730000 114.1938120000,22.4672380000 114.1938000000,22.4671930000 114.1937800000,22.4671150000 114.1937430000,22.4670750000 114.1936920000,22.4670510000 114.1935630000,22.4670770000 114.1935460000,22.4670290000 114.1935090000,22.4669660000 114.1934890000,22.4669310000 114.1934420000,22.4668550000 114.1934230000,22.4667890000 114.1934100000,22.4667430000 114.1933730000,22.4666140000 114.1933580000,22.4665520000 114.1933490000,22.4664890000 114.1933470000,22.4664300000 114.1933490000,22.4663810000 114.1933540000,22.4663320000 114.1933640000,22.4662840000 114.1933780000,22.4662370000 114.1934840000,22.4659920000 114.1936030000,22.4657150000 114.1936480000,22.4656110000 114.1935030000,22.4655440000 114.1934120000,22.4654890000 114.1933460000,22.4654430000 114.1932970000,22.4653860000 114.1932260000,22.4652980000 114.1931560000,22.4651790000 114.1930900000,22.4649790000 114.1930750000,22.4647620000 114.1930770000,22.4645450000 114.1930860000,22.4643630000 114.1930850000,22.4641650000 114.1930360000,22.4639220000 114.1929030000,22.4637160000 114.1927400000,22.4635550000 114.1925220000,22.4633770000 114.1924150000,22.4632960000 114.1923300000,22.4631910000 114.1922650000,22.4630770000 114.1922170000,22.4629560000 114.1922170000,22.4627360000 114.1922490000,22.4625870000 114.1922720000,22.4624310000 114.1922590000,22.4622670000 114.1922120000,22.4621190000 114.1921160000,22.4619590000 114.1921030000,22.4618700000 114.1920830000,22.4618120000 114.1920390000,22.4616730000 114.1921520000,22.4616240000 114.1923920000,22.4615510000 114.1925730000,22.4614990000 114.1927880000,22.4614400000 114.1929060000,22.4614170000 114.1931250000,22.4613690000 114.1933330000,22.4613250000 114.1935630000,22.4612750000 114.1940660000,22.4611140000 114.1941920000,22.4610720000 114.1942550000,22.4610480000 114.1945000000,22.4609610000 114.1949720000,22.4607510000 114.1961740000,22.4602800000 114.1963980000,22.4601770000 114.1966430000,22.4600450000 114.1972070000,22.4597040000 114.1973860000,22.4596200000 114.1974970000,22.4595770000 114.1976630000,22.4595190000 114.1977340000,22.4594960000 114.1978020000,22.4594810000 114.1978960000,22.4594640000 114.1979340000,22.4594630000 114.1980250000,22.4594610000 114.1980880000,22.4594630000 114.1982450000,22.4594720000 114.1984360000,22.4595040000 114.1994600000,22.4597060000 114.2005930000,22.4599440000 114.2008000000,22.4599780000 114.2011270000,22.4600040000 114.2024100000,22.4601150000 114.2029120000,22.4601770000 114.2032400000,22.4602320000 114.2033990000,22.4602750000 114.2034350000,22.4602850000 114.2034960000,22.4603020000 114.2035480000,22.4603190000 114.2035890000,22.4603340000 114.2036550000,22.4603580000 114.2036740000,22.4603640000 114.2036890000,22.4603700000 114.2037060000,22.4603770000 114.2037300000,22.4603870000 114.2037450000,22.4603930000 114.2038930000,22.4604300000 114.2039730000,22.4604740000 114.2040390000,22.4605150000 114.2041680000,22.4605970000 114.2042590000,22.4606540000 114.2043400000,22.4607060000 114.2044480000,22.4608000000 114.2045180000,22.4608740000 114.2045930000,22.4609670000 114.2047430000,22.4611320000 114.2048080000,22.4612110000 114.2049640000,22.4614190000 114.2050010000,22.4614640000 114.2051270000,22.4616120000 114.2051950000,22.4616840000 114.2052590000,22.4617520000 114.2053840000,22.4618640000 114.2055010000,22.4619610000 114.2057960000,22.4621660000 114.2062230000,22.4624070000 114.2064180000,22.4625290000 114.2066160000,22.4626650000 114.2067750000,22.4627960000 114.2069330000,22.4629560000 114.2070620000,22.4631000000 114.2072230000,22.4633410000 114.2073430000,22.4635500000 114.2074400000,22.4637350000 114.2074940000,22.4638610000 114.2075970000,22.4641370000 114.2076480000,22.4642650000 114.2076660000,22.4642990000 114.2077120000,22.4643820000 114.2077810000,22.4644830000 114.2078940000,22.4646460000 114.2079580000,22.4647190000 114.2081530000,22.4649190000 114.2081980000,22.4649660000 114.2082280000,22.4649960000 114.2085390000,22.4653290000 114.2086080000,22.4654350000 114.2086840000,22.4655580000 114.2087380000,22.4656780000 114.2087840000,22.4658020000 114.2088500000,22.4661200000 114.2089860000,22.4670850000 114.2090330000,22.4675490000 114.2090730000,22.4680480000 114.2091220000,22.4683800000 114.2091300000,22.4684140000 114.2091420000,22.4684650000 114.2091480000,22.4684920000 114.2092310000,22.4687080000 114.2092780000,22.4688050000 114.2093590000,22.4689710000 114.2094380000,22.4690980000 114.2095350000,22.4692240000 114.2096320000,22.4693290000 114.2100000000,22.4697310000 114.2102110000,22.4699250000 114.2107870000,22.4704930000 114.2108170000,22.4705230000 114.2111470000,22.4708470000 114.2113470000,22.4710430000 114.2115510000,22.4712440000 114.2116030000,22.4712950000 114.2118160000,22.4715050000 114.2118880000,22.4715870000 114.2122090000,22.4719540000 114.2123680000,22.4721430000 114.2125770000,22.4724060000 114.2125980000,22.4724330000 114.2127810000,22.4726840000 114.2128840000,22.4728450000 114.2130050000,22.4730740000 114.2130720000,22.4731870000 114.2131360000,22.4732790000 114.2131860000,22.4733500000 114.2132810000,22.4734390000 114.2133700000,22.4735060000 114.2134640000,22.4735760000 114.2135970000,22.4736470000 114.2136710000,22.4736750000 114.2137470000,22.4737000000 114.2138230000,22.4737170000 114.2139030000,22.4737260000 114.2139900000,22.4737320000 114.2140790000,22.4737300000 114.2142090000,22.4737080000 114.2144170000,22.4736540000 114.2145860000,22.4735830000 114.2147760000,22.4734810000 114.2150000000,22.4733520000 114.2152240000,22.4731730000 114.2153200000,22.4730990000 114.2154460000,22.4730010000 114.2157690000,22.4726980000 114.2158330000,22.4726190000 114.2161380000,22.4722410000 114.2164210000,22.4718890000 114.2166190000,22.4716580000 114.2168400000,22.4714370000 114.2171330000,22.4712040000 114.2174740000,22.4709910000 114.2179810000,22.4707720000 114.2184070000,22.4706440000 114.2189890000,22.4704960000 114.2191070000,22.4704630000 114.2192330000,22.4704320000 114.2193150000,22.4704140000 114.2194750000,22.4703870000 114.2195180000,22.4703850000 114.2196010000,22.4703810000 114.2197490000,22.4703740000 114.2199910000,22.4703890000 114.2201820000,22.4704090000 114.2205370000,22.4704820000 114.2207190000,22.4705380000 114.2221510000,22.4710970000 114.2223810000,22.4711860000 114.2225210000,22.4712420000 114.2227860000,22.4713340000 114.2229770000,22.4713930000 114.2230510000,22.4714120000 114.2231530000,22.4714380000 114.2233220000,22.4714660000 114.2234490000,22.4714890000 114.2248000000,22.4715860000 114.2257630000,22.4716600000 114.2261160000,22.4716900000 114.2264030000,22.4717140000 114.2266950000,22.4717440000 114.2273060000,22.4718070000 114.2273630000,22.4718130000 114.2279630000,22.4718820000 114.2282530000,22.4719150000 114.2283160000,22.4719260000 114.2285390000,22.4719650000 114.2287560000,22.4719990000 114.2295360000,22.4721350000 114.2297840000,22.4721780000 114.2305020000,22.4723040000 114.2313280000,22.4724470000 114.2317220000,22.4725220000 114.2319470000,22.4725660000 114.2320320000,22.4725860000 114.2324260000,22.4726820000 114.2326270000,22.4727380000 114.2329420000,22.4728340000 114.2330140000,22.4728570000 114.2330440000,22.4727240000 114.2330560000,22.4726720000 114.2331980000,22.4720330000 114.2331910000,22.4718080000 114.2332850000,22.4717380000 114.2333180000,22.4717150000 114.2333410000,22.4716760000 114.2333640000,22.4715890000 114.2333660000,22.4714750000 114.2333110000,22.4712870000 114.2333110000,22.4712870000 114.2332320000,22.4711290000 114.2331580000,22.4709990000 114.2330780000,22.4708620000 114.2330450000,22.4707480000 114.2330460000,22.4705380000 114.2330530000,22.4703220000 114.2330890000,22.4701070000 114.2331480000,22.4698860000 114.2332310000,22.4697010000 114.2333600000,22.4695580000 114.2334310000,22.4694790000 114.2334770000,22.4694340000 114.2335050000,22.4694050000 114.2335620000,22.4693090000 114.2335790000,22.4692940000 114.2335900000,22.4692740000 114.2335940000,22.4692530000 114.2335910000,22.4692320000 114.2335820000,22.4692120000 114.2335650000,22.4691940000 114.2335440000,22.4691830000 114.2335190000,22.4691780000 114.2334940000,22.4691800000 114.2334710000,22.4691900000 114.2334540000,22.4692050000 114.2334420000,22.4692230000 114.2334370000,22.4692440000 114.2334390000,22.4692660000 114.2334470000,22.4692860000 114.2334610000,22.4693030000 114.2334760000,22.4693130000 114.2334930000,22.4693200000 114.2335110000,22.4693230000 114.2335380000,22.4693200000 114.2335620000,22.4693090000 114.2335050000,22.4694050000 114.2334770000,22.4694340000 114.2334310000,22.4694790000 114.2333600000,22.4695580000 114.2332310000,22.4697010000 114.2331480000,22.4698860000 114.2330890000,22.4701070000 114.2330530000,22.4703220000 114.2330460000,22.4705380000 114.2330450000,22.4707480000 114.2330780000,22.4708620000 114.2331580000,22.4709990000 114.2332320000,22.4711290000 114.2333110000,22.4712870000 114.2333660000,22.4714750000 114.2333640000,22.4715890000 114.2333410000,22.4716760000 114.2333180000,22.4717150000 114.2332850000,22.4717380000 114.2331910000,22.4718080000 114.2331560000,22.4717670000 114.2331150000,22.4717390000 114.2330670000,22.4717160000 114.2330190000,22.4717060000 114.2329770000,22.4717060000 114.2329270000,22.4717310000 114.2328880000,22.4717550000 114.2328610000,22.4717780000 114.2328380000,22.4718240000 114.2326660000,22.4725430000 114.2326270000,22.4727380000 114.2324260000,22.4726820000 114.2320320000,22.4725860000 114.2319470000,22.4725660000 114.2317220000,22.4725220000 114.2313280000,22.4724470000 114.2305020000,22.4723040000 114.2297840000,22.4721780000 114.2295360000,22.4721350000 114.2287560000,22.4719990000 114.2285390000,22.4719650000 114.2283160000,22.4719260000 114.2282530000,22.4719150000 114.2279630000,22.4718820000 114.2274810000,22.4717630000 114.2274630000,22.4717610000 114.2273650000,22.4717510000 114.2271800000,22.4717350000 114.2270260000,22.4717210000 114.2269690000,22.4717160000 114.2266950000,22.4717440000 114.2264030000,22.4717140000 114.2261160000,22.4716900000 114.2257630000,22.4716600000 114.2248000000,22.4715860000 114.2234490000,22.4714890000 114.2233220000,22.4714660000 114.2231530000,22.4714380000 114.2230510000,22.4714120000 114.2229770000,22.4713930000 114.2227860000,22.4713340000 114.2225210000,22.4712420000 114.2223810000,22.4711860000 114.2221510000,22.4710970000 114.2207190000,22.4705380000 114.2205370000,22.4704820000 114.2201820000,22.4704090000 114.2199910000,22.4703890000 114.2197490000,22.4703740000 114.2196010000,22.4703810000 114.2195180000,22.4703850000 114.2194750000,22.4703870000 114.2193150000,22.4704140000 114.2192330000,22.4704320000 114.2191070000,22.4704630000 114.2189890000,22.4704960000 114.2184070000,22.4706440000 114.2179810000,22.4707720000 114.2174740000,22.4709910000 114.2171330000,22.4712040000 114.2168400000,22.4714370000 114.2166190000,22.4716580000 114.2164210000,22.4718890000 114.2161380000,22.4722410000 114.2158330000,22.4726190000 114.2157690000,22.4726980000 114.2154460000,22.4730010000 114.2153200000,22.4730990000 114.2152240000,22.4731730000 114.2150000000,22.4733520000 114.2147760000,22.4734810000 114.2145860000,22.4735830000 114.2144170000,22.4736540000 114.2142090000,22.4737080000 114.2140790000,22.4737300000 114.2139900000,22.4737320000 114.2139030000,22.4737260000 114.2138230000,22.4737170000 114.2137470000,22.4737000000 114.2136710000,22.4736750000 114.2135970000,22.4736470000 114.2134640000,22.4735760000 114.2133700000,22.4735060000 114.2132810000,22.4734390000 114.2131860000,22.4733500000 114.2131360000,22.4732790000 114.2130720000,22.4731870000 114.2130050000,22.4730740000 114.2128840000,22.4728450000 114.2127810000,22.4726840000 114.2125980000,22.4724330000 114.2125770000,22.4724060000 114.2123680000,22.4721430000 114.2122090000,22.4719540000 114.2118880000,22.4715870000 114.2118160000,22.4715050000 114.2116030000,22.4712950000 114.2115510000,22.4712440000 114.2113470000,22.4710430000 114.2111470000,22.4708470000 114.2108170000,22.4705230000 114.2107870000,22.4704930000 114.2102110000,22.4699250000 114.2100000000,22.4697310000 114.2096320000,22.4693290000 114.2095350000,22.4692240000 114.2094380000,22.4690980000 114.2093590000,22.4689710000 114.2092780000,22.4688050000 114.2092310000,22.4687080000 114.2091480000,22.4684920000 114.2091420000,22.4684650000 114.2091300000,22.4684140000 114.2091220000,22.4683800000 114.2090730000,22.4680480000 114.2090330000,22.4675490000 114.2089860000,22.4670850000 114.2088500000,22.4661200000 114.2087840000,22.4658020000 114.2087380000,22.4656780000 114.2086840000,22.4655580000 114.2086080000,22.4654350000 114.2085390000,22.4653290000 114.2082280000,22.4649960000 114.2081980000,22.4649660000 114.2081530000,22.4649190000 114.2079580000,22.4647190000 114.2078940000,22.4646460000 114.2077810000,22.4644830000 114.2077120000,22.4643820000 114.2076660000,22.4642990000 114.2076480000,22.4642650000 114.2075970000,22.4641370000 114.2074940000,22.4638610000 114.2074400000,22.4637350000 114.2073430000,22.4635500000 114.2072230000,22.4633410000 114.2070620000,22.4631000000 114.2069330000,22.4629560000 114.2067750000,22.4627960000 114.2066160000,22.4626650000 114.2064180000,22.4625290000 114.2062230000,22.4624070000 114.2057960000,22.4621660000 114.2055010000,22.4619610000 114.2053840000,22.4618640000 114.2052590000,22.4617520000 114.2051950000,22.4616840000 114.2051270000,22.4616120000 114.2050010000,22.4614640000 114.2049640000,22.4614190000 114.2048080000,22.4612110000 114.2047430000,22.4611320000 114.2045930000,22.4609670000 114.2045180000,22.4608740000 114.2044480000,22.4608000000 114.2043400000,22.4607060000 114.2042590000,22.4606540000 114.2041680000,22.4605970000 114.2040390000,22.4605150000 114.2039730000,22.4604740000 114.2038930000,22.4604300000 114.2037750000,22.4603280000 114.2037600000,22.4603210000 114.2037440000,22.4603140000 114.2037260000,22.4603050000 114.2037050000,22.4602940000 114.2036840000,22.4602850000 114.2036220000,22.4602570000 114.2035740000,22.4602400000 114.2035280000,22.4602240000 114.2034640000,22.4602050000 114.2034160000,22.4601900000 114.2032660000,22.4601460000 114.2029370000,22.4600830000 114.2024070000,22.4600210000 114.2009640000,22.4599020000 114.2008560000,22.4598910000 114.2007460000,22.4598770000 114.2006020000,22.4598560000 114.2004700000,22.4598320000 114.1995630000,22.4596380000 114.1992690000,22.4595780000 114.1983250000,22.4593960000 114.1982070000,22.4593760000 114.1980900000,22.4593650000 114.1980230000,22.4593680000 114.1979230000,22.4593790000 114.1977910000,22.4594030000 114.1976200000,22.4594350000 114.1974490000,22.4594800000 114.1973500000,22.4595240000 114.1971540000,22.4596190000 114.1970450000,22.4596840000 114.1966140000,22.4599610000 114.1965150000,22.4600210000 114.1963930000,22.4600880000 114.1962620000,22.4601520000 114.1960550000,22.4602410000 114.1942050000,22.4609490000 114.1941390000,22.4609770000 114.1938650000,22.4610730000 114.1935350000,22.4611760000 114.1933020000,22.4612410000 114.1930490000,22.4612960000 114.1927680000,22.4613650000 114.1923930000,22.4614630000 114.1921190000,22.4615540000 114.1920020000,22.4615950000 114.1918880000,22.4616430000 114.1919230000,22.4617180000 114.1919890000,22.4618140000 114.1920430000,22.4618960000 114.1921160000,22.4619590000 114.1922120000,22.4621190000 114.1922590000,22.4622670000 114.1922720000,22.4624310000 114.1922490000,22.4625870000 114.1922170000,22.4627360000 114.1922170000,22.4629560000 114.1922650000,22.4630770000 114.1923300000,22.4631910000 114.1924150000,22.4632960000 114.1925220000,22.4633770000 114.1927400000,22.4635550000 114.1929030000,22.4637160000 114.1930360000,22.4639220000 114.1930850000,22.4641650000 114.1930860000,22.4643630000 114.1930770000,22.4645450000 114.1930750000,22.4647620000 114.1930900000,22.4649790000 114.1931560000,22.4651790000 114.1932260000,22.4652980000 114.1932970000,22.4653860000 114.1933460000,22.4654430000 114.1934120000,22.4654890000 114.1935030000,22.4655440000 114.1936480000,22.4656110000 114.1936030000,22.4657150000 114.1934840000,22.4659920000 114.1933780000,22.4662370000 114.1933640000,22.4662840000 114.1933540000,22.4663320000 114.1933490000,22.4663810000 114.1933470000,22.4664300000 114.1933490000,22.4664890000 114.1933580000,22.4665520000 114.1933730000,22.4666140000 114.1934100000,22.4667430000 114.1934230000,22.4667890000 114.1934420000,22.4668550000 114.1934890000,22.4669310000 114.1935090000,22.4669660000 114.1935460000,22.4670290000 114.1935630000,22.4670770000 114.1936460000,22.4673370000 114.1937670000,22.4673160000 114.1937980000,22.4673000000 114.1938110000,22.4672730000 114.1938120000,22.4672380000 114.1938000000,22.4671930000 114.1937800000,22.4671150000 114.1937430000,22.4670750000 114.1936920000,22.4670510000 114.1935630000,22.4670770000 114.1935460000,22.4670290000 114.1935090000,22.4669660000 114.1934890000,22.4669310000 114.1934420000,22.4668550000 114.1934230000,22.4667890000 114.1934100000,22.4667430000 114.1933730000,22.4666140000 114.1933580000,22.4665520000 114.1933490000,22.4664890000 114.1933470000,22.4664300000 114.1933490000,22.4663810000 114.1933540000,22.4663320000 114.1933640000,22.4662840000 114.1933780000,22.4662370000 114.1934840000,22.4659920000 114.1936030000,22.4657150000 114.1936480000,22.4656110000 114.1935030000,22.4655440000 114.1934120000,22.4654890000 114.1933460000,22.4654430000 114.1932970000,22.4653860000 114.1932260000,22.4652980000 114.1931560000,22.4651790000 114.1930900000,22.4649790000 114.1930750000,22.4647620000 114.1930770000,22.4645450000 114.1930860000,22.4643630000 114.1930850000,22.4641650000 114.1930360000,22.4639220000 114.1929030000,22.4637160000 114.1927400000,22.4635550000 114.1925220000,22.4633770000 114.1924150000,22.4632960000 114.1923300000,22.4631910000 114.1922650000,22.4630770000 114.1922170000,22.4629560000 114.1922170000,22.4627360000 114.1922490000,22.4625870000 114.1922720000,22.4624310000 114.1922590000,22.4622670000 114.1922120000,22.4621190000 114.1921160000,22.4619590000 114.1921030000,22.4618700000 114.1920830000,22.4618120000 114.1920390000,22.4616730000 114.1920020000,22.4615950000 114.1918880000,22.4616430000 114.1918100000,22.4616740000 114.1917310000,22.4617080000 114.1912350000,22.4619370000 114.1907990000,22.4620810000 114.1907630000,22.4620930000 114.1907520000,22.4620960000 114.1905480000,22.4621430000 114.1903090000,22.4621740000 114.1900770000,22.4621810000 114.1894700000,22.4621820000 114.1889110000,22.4621780000 114.1885110000,22.4621730000 114.1884790000,22.4621730000 114.1883580000,22.4621710000 114.1882790000,22.4621710000 114.1875740000,22.4621700000 114.1868100000,22.4621740000 114.1866420000,22.4621730000 114.1862970000,22.4621810000 114.1861560000,22.4621690000 114.1860260000,22.4621640000 114.1859630000,22.4621530000 114.1858230000,22.4621280000 114.1856350000,22.4620750000 114.1854380000,22.4620130000 114.1852890000,22.4619480000 114.1851220000,22.4618490000 114.1850400000,22.4617940000 114.1849620000,22.4617340000 114.1848130000,22.4616130000 114.1847130000,22.4615190000 114.1846210000,22.4614200000 114.1842540000,22.4609660000 114.1841000000,22.4607660000 114.1840090000,22.4606660000 114.1839360000,22.4605750000 114.1838510000,22.4604570000 114.1835980000,22.4601450000 114.1834020000,22.4598940000 114.1832440000,22.4596990000 114.1830590000,22.4595370000 114.1829320000,22.4594380000 114.1828020000,22.4593490000 114.1826560000,22.4592700000 114.1825550000,22.4592230000 114.1824880000,22.4591920000 114.1823500000,22.4591480000 114.1821960000,22.4591080000 114.1820100000,22.4590680000 114.1818260000,22.4590470000 114.1813680000,22.4590480000 114.1812230000,22.4590480000 114.1811300000,22.4590480000 114.1809580000,22.4590490000 114.1806630000,22.4590500000 114.1805020000,22.4590500000 114.1804140000,22.4590530000 114.1801280000,22.4590640000 114.1799370000,22.4590780000 114.1797880000,22.4590960000 114.1796340000,22.4591180000 114.1794640000,22.4591430000 114.1793410000,22.4591580000 114.1791890000,22.4591680000 114.1791040000,22.4591670000 114.1790190000,22.4591610000 114.1789400000,22.4591520000 114.1788580000,22.4591390000 114.1787740000,22.4591200000 114.1786610000,22.4590850000 114.1785880000,22.4590590000 114.1785120000,22.4590300000 114.1784540000,22.4590040000 114.1783860000,22.4589670000 114.1783180000,22.4589240000 114.1782510000,22.4588780000 114.1781940000,22.4588330000 114.1781290000,22.4587770000 114.1780710000,22.4587200000 114.1780160000,22.4586610000 114.1779700000,22.4586070000 114.1779260000,22.4585450000 114.1778830000,22.4584760000 114.1778490000,22.4584120000 114.1778080000,22.4583230000 114.1777650000,22.4582040000 114.1777380000,22.4581120000 114.1777070000,22.4579690000 114.1776830000,22.4578480000 114.1776680000,22.4577360000 114.1776440000,22.4573710000 114.1776410000,22.4570330000 114.1776410000,22.4568870000 114.1776440000,22.4567480000 114.1776470000,22.4566340000 114.1774900000,22.4566300000 114.1773500000,22.4566260000 114.1771050000,22.4566100000 114.1769010000,22.4565870000 114.1766680000,22.4565400000 114.1765310000,22.4564890000 114.1764240000,22.4564470000 114.1763160000,22.4563970000 114.1761140000,22.4562710000 114.1760240000,22.4562090000 114.1758710000,22.4561050000 114.1757330000,22.4560040000 114.1755320000,22.4558380000 114.1754220000,22.4557700000 114.1752650000,22.4556960000 114.1751790000,22.4556600000 114.1750890000,22.4556320000 114.1749330000,22.4556040000 114.1748440000,22.4555980000 114.1746790000,22.4555930000 114.1743510000,22.4556260000 114.1734890000,22.4557170000 114.1730390000,22.4557740000 114.1726770000,22.4558260000 114.1725340000,22.4558390000 114.1722670000,22.4558640000 114.1721580000,22.4558740000 114.1720500000,22.4558820000 114.1720600000,22.4559960000 114.1721290000,22.4568300000 114.1721800000,22.4572870000 114.1721920000,22.4574310000 114.1722440000,22.4575440000 114.1722460000,22.4576010000 114.1722560000,22.4577180000 114.1722880000,22.4580380000 114.1723420000,22.4583480000 114.1723830000,22.4585770000 114.1724420000,22.4587410000 114.1725600000,22.4590490000 114.1727460000,22.4594330000 114.1728750000,22.4597010000 114.1730010000,22.4600050000 114.1730470000,22.4601090000 114.1731220000,22.4603550000 114.1731290000,22.4604400000 114.1731340000,22.4604710000 114.1731340000,22.4606420000 114.1730740000,22.4608250000 114.1730050000,22.4609440000 114.1731270000,22.4609980000 114.1732660000,22.4610430000 114.1733740000,22.4610680000 114.1734550000,22.4610760000 114.1734990000,22.4610750000 114.1735210000,22.4611870000 114.1735970000,22.4616450000 114.1736150000,22.4616910000 114.1736310000,22.4617220000 114.1736670000,22.4617780000 114.1737160000,22.4618310000 114.1737600000,22.4618650000 114.1738210000,22.4618940000 114.1738990000,22.4619130000 114.1740720000,22.4619380000 114.1741700000,22.4619600000 114.1742250000,22.4619810000 114.1743110000,22.4620250000 114.1743830000,22.4620970000 114.1744100000,22.4621320000 114.1744380000,22.4621930000 114.1745810000,22.4624950000 114.1746170000,22.4625700000 114.1746600000,22.4626420000 114.1747100000,22.4627090000 114.1747670000,22.4627730000 114.1748300000,22.4628310000 114.1748990000,22.4628830000 114.1749720000,22.4629300000 114.1750500000,22.4629700000 114.1751220000,22.4630030000 114.1751980000,22.4630280000 114.1752770000,22.4630450000 114.1753160000,22.4630490000 114.1753570000,22.4630520000 114.1754370000,22.4630510000 114.1755170000,22.4630410000 114.1755950000,22.4630210000 114.1756700000,22.4629930000 114.1757400000,22.4629570000 114.1758060000,22.4629130000 114.1758650000,22.4628630000 114.1760770000,22.4626520000 114.1762450000,22.4624850000 114.1762840000,22.4624510000 114.1763260000,22.4624210000 114.1763720000,22.4623970000 114.1764210000,22.4623770000 114.1764720000,22.4623630000 114.1765250000,22.4623560000 114.1765010000,22.4623590000 114.1764720000,22.4623630000 114.1764210000,22.4623770000 114.1763720000,22.4623970000 114.1763260000,22.4624210000 114.1762840000,22.4624510000 114.1762450000,22.4624850000 114.1760770000,22.4626520000 114.1758650000,22.4628630000 114.1758060000,22.4629130000 114.1757400000,22.4629570000 114.1756700000,22.4629930000 114.1755950000,22.4630210000 114.1755170000,22.4630410000 114.1754370000,22.4630510000 114.1753570000,22.4630520000 114.1753160000,22.4630490000 114.1752770000,22.4630450000 114.1751980000,22.4630280000 114.1751220000,22.4630030000 114.1750500000,22.4629700000 114.1749720000,22.4629300000 114.1748990000,22.4628830000 114.1748300000,22.4628310000 114.1747670000,22.4627730000 114.1747100000,22.4627090000 114.1746600000,22.4626420000 114.1746170000,22.4625700000 114.1745810000,22.4624950000 114.1744380000,22.4621930000 114.1744100000,22.4621320000 114.1743830000,22.4620970000 114.1743110000,22.4620250000 114.1742250000,22.4619810000 114.1741700000,22.4619600000 114.1740720000,22.4619380000 114.1738990000,22.4619130000 114.1738210000,22.4618940000 114.1737600000,22.4618650000 114.1737160000,22.4618310000 114.1736670000,22.4617780000 114.1736310000,22.4617220000 114.1736150000,22.4616910000 114.1735970000,22.4616450000 114.1735210000,22.4611870000 114.1734990000,22.4610750000 114.1734550000,22.4610760000 114.1733740000,22.4610680000 114.1732660000,22.4610430000 114.1731270000,22.4609980000 114.1730050000,22.4609440000 114.1730740000,22.4608250000 114.1731340000,22.4606420000 114.1731340000,22.4604710000 114.1731290000,22.4604400000 114.1731220000,22.4603550000 114.1730470000,22.4601090000 114.1730010000,22.4600050000 114.1728750000,22.4597010000 114.1727460000,22.4594330000 114.1725600000,22.4590490000 114.1724420000,22.4587410000 114.1723830000,22.4585770000 114.1723420000,22.4583480000 114.1722880000,22.4580380000 114.1722560000,22.4577180000 114.1722460000,22.4576010000 114.1722440000,22.4575440000 114.1722810000,22.4574270000 114.1722750000,22.4572780000 114.1722600000,22.4569300000 114.1722320000,22.4566050000 114.1722170000,22.4564700000 114.1721770000,22.4560660000 114.1721690000,22.4559850000 114.1721580000,22.4558740000 114.1720500000,22.4558820000 114.1719360000,22.4558910000 114.1716280000,22.4559170000 114.1714960000,22.4559340000 114.1712940000,22.4559630000 114.1710940000,22.4559980000 114.1709300000,22.4560360000 114.1706960000,22.4561120000 114.1704790000,22.4562170000 114.1700810000,22.4564100000 114.1697730000,22.4565670000 114.1695470000,22.4566820000 114.1690220000,22.4569410000 114.1687990000,22.4570070000 114.1686400000,22.4570260000 114.1685460000,22.4570210000 114.1684540000,22.4570100000 114.1683650000,22.4569830000 114.1682750000,22.4569480000 114.1681650000,22.4568900000 114.1678990000,22.4567170000 114.1674830000,22.4564350000 114.1674660000,22.4564230000 114.1672480000,22.4562750000 114.1669340000,22.4560610000 114.1667980000,22.4559680000 114.1666780000,22.4558630000 114.1665910000,22.4557880000 114.1665100000,22.4557340000 114.1659340000,22.4554080000 114.1659200000,22.4554000000 114.1658060000,22.4553370000 114.1657040000,22.4552910000 114.1638770000,22.4543530000 114.1631700000,22.4539850000 114.1630620000,22.4539100000 114.1629410000,22.4538300000 114.1628670000,22.4537690000 114.1626930000,22.4536160000 114.1626140000,22.4535240000 114.1625420000,22.4534370000 114.1625130000,22.4533980000 114.1624800000,22.4533480000 114.1624100000,22.4531920000 114.1622900000,22.4529210000 114.1622360000,22.4527950000 114.1621890000,22.4526880000 114.1621130000,22.4527360000 114.1613210000,22.4531100000 114.1611410000,22.4532060000 114.1609020000,22.4533020000 114.1606950000,22.4533550000 114.1604950000,22.4533830000 114.1603010000,22.4533830000 114.1601160000,22.4533640000 114.1599780000,22.4533380000 114.1598440000,22.4532970000 114.1597060000,22.4532370000 114.1595400000,22.4531470000 114.1594470000,22.4530820000 114.1593600000,22.4530150000 114.1592190000,22.4528830000 114.1591150000,22.4527560000 114.1590120000,22.4526120000 114.1588840000,22.4523770000 114.1588180000,22.4522430000 114.1587540000,22.4520900000 114.1587320000,22.4520480000 114.1581390000,22.4509120000 114.1580520000,22.4507700000 114.1579650000,22.4506480000 114.1578940000,22.4505640000 114.1578020000,22.4504710000 114.1577210000,22.4503930000 114.1576320000,22.4503230000 114.1575290000,22.4502480000 114.1574380000,22.4501920000 114.1574040000,22.4501740000 114.1572950000,22.4501390000 114.1572020000,22.4500930000 114.1570770000,22.4500450000 114.1569520000,22.4500090000 114.1568070000,22.4499760000 114.1566650000,22.4499580000 114.1564970000,22.4499450000 114.1563510000,22.4499480000 114.1562140000,22.4499570000 114.1560620000,22.4499780000 114.1558530000,22.4500230000 114.1557080000,22.4500600000 114.1555440000,22.4501120000 114.1553970000,22.4501690000 114.1552640000,22.4502250000 114.1551370000,22.4502850000 114.1549800000,22.4503690000 114.1548460000,22.4504520000 114.1547140000,22.4505430000 114.1545650000,22.4506710000 114.1544570000,22.4507750000 114.1543720000,22.4508620000 114.1542750000,22.4509720000 114.1542150000,22.4510470000 114.1541380000,22.4511480000 114.1540130000,22.4513250000 114.1539250000,22.4514410000 114.1537970000,22.4516040000 114.1536820000,22.4517230000 114.1535900000,22.4518090000 114.1534990000,22.4518810000 114.1533670000,22.4519680000 114.1532140000,22.4520520000 114.1530470000,22.4521140000 114.1528780000,22.4521600000 114.1526910000,22.4521860000 114.1525390000,22.4522020000 114.1524020000,22.4522060000 114.1520570000,22.4522090000 114.1518010000,22.4522130000 114.1517350000,22.4522160000 114.1516860000,22.4522200000 114.1516120000,22.4522270000 114.1515480000,22.4522390000 114.1514910000,22.4522530000 114.1514360000,22.4522710000 114.1513870000,22.4522920000 114.1513540000,22.4523100000 114.1513160000,22.4523340000 114.1512740000,22.4523660000 114.1512440000,22.4523930000 114.1512200000,22.4524180000 114.1511990000,22.4524440000 114.1511790000,22.4524720000 114.1511560000,22.4525170000 114.1511330000,22.4525670000 114.1511190000,22.4526050000 114.1511120000,22.4526360000 114.1511040000,22.4526880000 114.1511030000,22.4527530000 114.1511070000,22.4528050000 114.1511160000,22.4528600000 114.1511290000,22.4529120000 114.1511570000,22.4530010000 114.1511900000,22.4530950000 114.1512570000,22.4532690000 114.1512730000,22.4533170000 114.1512870000,22.4533660000 114.1513000000,22.4534270000 114.1513090000,22.4534880000 114.1513140000,22.4535540000 114.1513160000,22.4536180000 114.1513140000,22.4536760000 114.1513080000,22.4537370000 114.1512980000,22.4537950000 114.1512820000,22.4538600000 114.1512630000,22.4539260000 114.1512440000,22.4539780000 114.1512240000,22.4540250000 114.1511940000,22.4540830000 114.1511280000,22.4541950000 114.1508130000,22.4546990000 114.1506760000,22.4549660000 114.1501840000,22.4556720000 114.1498910000,22.4560650000 114.1495970000,22.4564220000 114.1491170000,22.4570150000 114.1486490000,22.4575630000 114.1482240000,22.4580740000 114.1476840000,22.4587670000 114.1475090000,22.4590100000 114.1473730000,22.4592170000 114.1472660000,22.4594210000 114.1471930000,22.4595960000 114.1471270000,22.4598080000 114.1470880000,22.4600350000 114.1470780000,22.4602090000 114.1470800000,22.4604350000 114.1471180000,22.4606650000 114.1471950000,22.4609350000 114.1472570000,22.4610840000 114.1473270000,22.4612200000 114.1474760000,22.4614580000 114.1477510000,22.4618060000 114.1480720000,22.4621890000 114.1482870000,22.4624600000 114.1484660000,22.4627440000 114.1486520000,22.4630650000 114.1488180000,22.4634100000 114.1490460000,22.4639460000 114.1491760000,22.4642180000 114.1493050000,22.4644610000 114.1494730000,22.4647250000 114.1496990000,22.4650310000 114.1498920000,22.4652500000 114.1504530000,22.4658190000 114.1509170000,22.4662480000 114.1511900000,22.4665150000 114.1513360000,22.4666770000 114.1515470000,22.4669450000 114.1519390000,22.4675060000 114.1522250000,22.4680640000 114.1522950000,22.4682260000 114.1523900000,22.4684520000 114.1525060000,22.4688100000 114.1526160000,22.4691860000 114.1527310000,22.4696570000 114.1528520000,22.4702150000 114.1533670000,22.4728940000 114.1537620000,22.4750100000 114.1538310000,22.4753460000 114.1538910000,22.4757150000 114.1539250000,22.4760050000 114.1539560000,22.4762480000 114.1539640000,22.4764870000 114.1539590000,22.4766640000 114.1537800000,22.4774170000 114.1536150000,22.4782330000 114.1535750000,22.4784850000 114.1535610000,22.4786620000 114.1535570000,22.4788260000 114.1535600000,22.4789850000 114.1535710000,22.4791520000 114.1535940000,22.4793180000 114.1536300000,22.4795000000 114.1536690000,22.4796630000 114.1537170000,22.4798250000 114.1537710000,22.4799880000 114.1538300000,22.4801500000 114.1539590000,22.4805000000 114.1539950000,22.4806040000 114.1540280000,22.4807100000 114.1540930000,22.4809500000 114.1541330000,22.4811300000 114.1541700000,22.4813450000 114.1541920000,22.4815120000 114.1542100000,22.4816840000 114.1542230000,22.4817740000 114.1542400000,22.4818630000 114.1542920000,22.4820850000 114.1543040000,22.4821460000 114.1543130000,22.4822050000 114.1543340000,22.4823540000 114.1543620000,22.4825390000 114.1543900000,22.4826800000 114.1544850000,22.4830340000 114.1545580000,22.4832510000 114.1546540000,22.4834940000 114.1548570000,22.4839800000 114.1548870000,22.4840520000 114.1550480000,22.4844370000 114.1550880000,22.4845330000 114.1551190000,22.4846060000 114.1551900000,22.4847760000 114.1553250000,22.4850400000 114.1554650000,22.4852900000 114.1556270000,22.4855500000 114.1558000000,22.4858000000 114.1589300000,22.4900300000 114.1591700000,22.4903630000 114.1594030000,22.4907000000 114.1596360000,22.4910450000 114.1598670000,22.4914000000 114.1608850000,22.4930130000 114.1646010000,22.4989000000 114.1650880000,22.4996400000 114.1656120000,22.5003800000 114.1661740000,22.5011200000 114.1667700000,22.5018500000 114.1739850000,22.5102000000 114.1743400000,22.5105900000 114.1747100000,22.5109550000 114.1751340000,22.5113300000 114.1755200000,22.5116380000 114.1759200000,22.5119260000 114.1763500000,22.5122020000 114.1767500000,22.5124350000 114.1773000000,22.5127200000 114.1806000000,22.5143020000 114.1807910000,22.5143970000 114.1809770000,22.5144940000 114.1811490000,22.5145930000 114.1813270000,22.5147080000 114.1814970000,22.5148290000 114.1815750000,22.5148920000 114.1816520000,22.5149570000 114.1817230000,22.5150240000 114.1817950000,22.5150950000 114.1818600000,22.5151650000 114.1819230000,22.5152370000 114.1819840000,22.5153100000 114.1820430000,22.5153860000 114.1821000000,22.5154670000 114.1821550000,22.5155500000 114.1822060000,22.5156350000 114.1822550000,22.5157210000 114.1823060000,22.5158210000 114.1823530000,22.5159220000 114.1823990000,22.5160340000 114.1824410000,22.5161480000 114.1824750000,22.5162570000 114.1825060000,22.5163680000 114.1825320000,22.5164820000 114.1825530000,22.5165980000 114.1825690000,22.5167130000 114.1825810000,22.5168290000 114.1825870000,22.5169390000 114.1825900000,22.5170500000 114.1825880000,22.5171560000 114.1825820000,22.5172610000 114.1825710000,22.5173720000 114.1825560000,22.5174820000 114.1825390000,22.5175820000 114.1825180000,22.5176810000 114.1824900000,22.5177910000 114.1824570000,22.5179020000 114.1824200000,22.5180100000 114.1823780000,22.5181170000 114.1823360000,22.5182130000 114.1822900000,22.5183080000 114.1822680000,22.5183500000 114.1821600000,22.5185420000 114.1820670000,22.5187000000 114.1819790000,22.5188400000 114.1819130000,22.5189360000 114.1818780000,22.5189820000 114.1818300000,22.5190430000 114.1817760000,22.5191100000 114.1817210000,22.5191740000 114.1816330000,22.5192690000 114.1815490000,22.5193540000 114.1814510000,22.5194450000 114.1811950000,22.5196730000 114.1809430000,22.5199010000 114.1806050000,22.5202220000 114.1802760000,22.5205500000 114.1799610000,22.5208790000 114.1795460000,22.5213380000 114.1791230000,22.5218470000 114.1788270000,22.5222240000 114.1783920000,22.5228160000 114.1779260000,22.5234870000 114.1778440000,22.5236010000 114.1774790000,22.5240760000 114.1774690000,22.5240900000 114.1772840000,22.5243470000 114.1771500000,22.5245450000 114.1770990000,22.5246230000 114.1770540000,22.5246910000 114.1767640000,22.5250870000 114.1764880000,22.5254380000 114.1762980000,22.5256580000 114.1759350000,22.5260410000 114.1756900000,22.5262790000 114.1754470000,22.5265000000 114.1752390000,22.5266770000 114.1747840000,22.5270320000 114.1744580000,22.5272610000 114.1741090000,22.5274830000 114.1731730000,22.5280240000 114.1728730000,22.5282130000 114.1725930000,22.5284000000 114.1721990000,22.5286930000 114.1720110000,22.5288410000 114.1717100000,22.5290940000 114.1716000000,22.5291900000 114.1714930000,22.5292890000 114.1713280000,22.5294530000 114.1711570000,22.5296350000 114.1709680000,22.5298520000 114.1708240000,22.5300350000 114.1706600000,22.5302470000 114.1705210000,22.5304350000 114.1703460000,22.5306860000 114.1700540000,22.5311270000 114.1696670000,22.5317220000 114.1686670000,22.5332690000 114.1671720000,22.5355780000 114.1669510000,22.5359180000 114.1668510000,22.5360640000 114.1667530000,22.5362000000 114.1666590000,22.5363230000 114.1665750000,22.5364280000 114.1664880000,22.5365280000 114.1663760000,22.5366500000 114.1662100000,22.5368180000 114.1660580000,22.5369610000 114.1660430000,22.5369750000 114.1660210000,22.5369940000 114.1659930000,22.5370200000 114.1657550000,22.5372070000 114.1655750000,22.5373410000 114.1653700000,22.5374750000 114.1651430000,22.5376090000 114.1649330000,22.5377220000 114.1647520000,22.5378100000 114.1645550000,22.5378970000 114.1643500000,22.5379770000 114.1642160000,22.5380240000 114.1639200000,22.5381200000 114.1604200000,22.5392040000 114.1595820000,22.5394560000 114.1590290000,22.5396170000 114.1583360000,22.5398070000 114.1581470000,22.5398580000 114.1579200000,22.5399160000 114.1569220000,22.5401630000 114.1565930000,22.5402420000 114.1564260000,22.5402920000 114.1562440000,22.5403580000 114.1560650000,22.5404330000 114.1558610000,22.5405320000 114.1557090000,22.5406180000 114.1555650000,22.5407080000 114.1554300000,22.5407990000 114.1553100000,22.5408920000 114.1551800000,22.5410020000 114.1550590000,22.5411110000 114.1547630000,22.5414150000 114.1540410000,22.5421230000 114.1537070000,22.5424380000 114.1535860000,22.5425620000 114.1534580000,22.5427060000 114.1533550000,22.5428300000 114.1532500000,22.5429660000 114.1531460000,22.5431120000 114.1530500000,22.5432600000 114.1529550000,22.5434190000 114.1528520000,22.5436080000 114.1527560000,22.5438130000 114.1526640000,22.5440360000 114.1526170000,22.5441600000 114.1525780000,22.5442820000 114.1525430000,22.5443980000 114.1525050000,22.5445370000 114.1524700000,22.5447000000 114.1524400000,22.5448520000 114.1524180000,22.5450020000 114.1524010000,22.5451540000 114.1523890000,22.5453100000 114.1523800000,22.5454630000 114.1523790000,22.5455590000 114.1523820000,22.5456510000 114.1523900000,22.5458320000 114.1524110000,22.5460310000 114.1524430000,22.5462450000 114.1524670000,22.5464400000 114.1524990000,22.5467600000 114.1525070000,22.5468820000 114.1525130000,22.5470210000 114.1525120000,22.5472740000 114.1525020000,22.5474220000 114.1524700000,22.5476530000 114.1524450000,22.5477820000 114.1524240000,22.5478660000 114.1523990000,22.5479520000 114.1523630000,22.5480690000 114.1523450000,22.5481240000 114.1522980000,22.5482680000 114.1522740000,22.5483280000 114.1522150000,22.5484670000 114.1522010000,22.5485000000 114.1521790000,22.5485530000 114.1520230000,22.5487730000 114.1519880000,22.5488110000 114.1519230000,22.5489320000 114.1518990000,22.5489910000 114.1518840000,22.5490410000 114.1518760000,22.5490770000 114.1518560000,22.5491560000 114.1518420000,22.5492460000 114.1518430000,22.5492960000 114.1518500000,22.5494320000 114.1518700000,22.5495250000 114.1519830000,22.5498600000 114.1520090000,22.5499210000 114.1520910000,22.5500840000 114.1522120000,22.5502910000 114.1523040000,22.5504110000 114.1525250000,22.5506950000 114.1527200000,22.5509450000 114.1528800000,22.5511510000 114.1529860000,22.5512850000 114.1530570000,22.5513720000 114.1530810000,22.5514260000 114.1530910000,22.5515170000 114.1530920000,22.5515650000 114.1530930000,22.5516200000 114.1530850000,22.5516570000 114.1530760000,22.5516980000 114.1530800000,22.5519120000 114.1530830000,22.5521640000 114.1530880000,22.5522240000 114.1531000000,22.5522860000 114.1531200000,22.5523370000 114.1531590000,22.5524230000 114.1531870000,22.5524940000 114.1532010000,22.5525450000 114.1532080000,22.5525960000 114.1532080000,22.5527970000 114.1532060000,22.5529830000 114.1532040000,22.5531640000 114.1532050000,22.5532180000 114.1532130000,22.5532750000 114.1532670000,22.5535230000 114.1532760000,22.5535810000 114.1532790000,22.5536260000 114.1532790000,22.5539780000 114.1530120000,22.5539670000 114.1528020000,22.5539660000 114.1527510000,22.5539600000 114.1527070000,22.5539480000 114.1526630000,22.5539300000 114.1526270000,22.5539100000 114.1525890000,22.5538820000 114.1525570000,22.5538480000 114.1525300000,22.5538120000 114.1525020000,22.5537690000 114.1524840000,22.5537340000 114.1524740000,22.5536980000 114.1524710000,22.5536660000 114.1524750000,22.5536310000 114.1524840000,22.5536000000 114.1525000000,22.5535700000 114.1525230000,22.5535390000 114.1525510000,22.5535140000 114.1525800000,22.5534970000 114.1526130000,22.5534840000 114.1526480000,22.5534750000 114.1526870000,22.5534740000 114.1527260000,22.5534780000 114.1527630000,22.5534890000 114.1527970000,22.5535060000 114.1528270000,22.5535290000 114.1528530000,22.5535580000 114.1528720000,22.5535870000 114.1528850000,22.5536210000 114.1528900000,22.5536580000 114.1528910000,22.5537610000 114.1528910000,22.5538610000 114.1528970000,22.5539010000 114.1529070000,22.5539280000 114.1529240000,22.5539580000 114.1529460000,22.5539850000 114.1530080000,22.5540280000 114.1530640000,22.5540410000 114.1542850000,22.5540470000 114.1544060000,22.5539970000 114.1544770000,22.5539350000 114.1545040000,22.5538650000 114.1545220000,22.5531580000 114.1545330000,22.5530830000 114.1545700000,22.5530290000 114.1546530000,22.5529800000 114.1547600000,22.5529710000 114.1548440000,22.5530070000 114.1549130000,22.5530820000 114.1549310000,22.5531710000 114.1549290000,22.5536880000 114.1549200000,22.5537510000 114.1548700000,22.5538330000 114.1548270000,22.5538670000 114.1547450000,22.5538910000 114.1546890000,22.5538930000 114.1543970000,22.5538890000 114.1544120000,22.5538650000 114.1544250000,22.5538380000 114.1544320000,22.5538020000 114.1544350000,22.5537590000 114.1544360000,22.5535010000 114.1544390000,22.5533310000</coordinates>
                </LineString>
                <ExtendedData>
                    <Data name="duration">
                        <value>01:14:42</value>
                    </Data>
                    <Data name="length">
                        <value>58007.116169642635</value>
                    </Data>
                </ExtendedData>
            </Placemark>
        </Document>
    </Document>
</kml>