<?xml version="1.0" encoding="UTF-8"?>
<kml xmlns="http://www.opengis.net/kml/2.2" xmlns:gx="http://www.google.com/kml/ext/2.2">
    <Document>
        <name>Route</name>
        <Folder>
            <name>Route Request</name>
            <Placemark>
                <Point>
                    <coordinates>114.0942273255,22.3562801309</coordinates>
                </Point>
                <ExtendedData>
                    <Data name="routingVisited">
                        <value>false</value>
                    </Data>
                </ExtendedData>
            </Placemark>
            <Placemark>
                <Point>
                    <coordinates>114.1065136030,22.3547070739</coordinates>
                </Point>
            </Placemark>
            <Placemark>
                <Point>
                    <coordinates>114.1179004694,22.3632987557</coordinates>
                </Point>
            </Placemark>
            <Placemark>
                <Point>
                    <coordinates>114.1335327265,22.3701326376</coordinates>
                </Point>
            </Placemark>
            <Placemark>
                <Point>
                    <coordinates>114.2037561219,22.3387578056</coordinates>
                </Point>
            </Placemark>
            <Placemark>
                <Point>
                    <coordinates>114.2374847882,22.3092837267</coordinates>
                </Point>
            </Placemark>
            <Placemark>
                <Point>
                    <coordinates>114.2295890328,22.3098321580</coordinates>
                </Point>
            </Placemark>
            <Placemark>
                <Point>
                    <coordinates>114.2072590451,22.3336162899</coordinates>
                </Point>
            </Placemark>
            <Placemark>
                <Point>
                    <coordinates>114.1172305806,22.3628594888</coordinates>
                </Point>
            </Placemark>
            <Placemark>
                <Point>
                    <coordinates>114.1040616951,22.3533684038</coordinates>
                </Point>
                <ExtendedData>
                    <Data name="routingVisited">
                        <value>false</value>
                    </Data>
                </ExtendedData>
            </Placemark>
            <Placemark>
                <Point>
                    <coordinates>114.0942222025,22.3562645280</coordinates>
                </Point>
                <ExtendedData>
                    <Data name="routingVisited">
                        <value>false</value>
                    </Data>
                </ExtendedData>
            </Placemark>
        </Folder>
        <Document>
            <name>51.8 km; 01:06 h (OSRM)</name>
            <Placemark>
                <name>Route</name>
                <LineString>
                    <coordinates>114.0940140000,22.3564940000 114.0939330000,22.3566600000 114.0938800000,22.3567750000 114.0938640000,22.3569370000 114.0938820000,22.3571260000 114.0939620000,22.3573170000 114.0940490000,22.3574420000 114.0941240000,22.3575140000 114.0943220000,22.3576380000 114.0943570000,22.3576600000 114.0945790000,22.3577350000 114.0948430000,22.3577610000 114.0949850000,22.3577510000 114.0950600000,22.3577450000 114.0955000000,22.3576720000 114.0960130000,22.3575810000 114.0960770000,22.3575700000 114.0961000000,22.3575660000 114.0963260000,22.3575240000 114.0965790000,22.3574780000 114.0967550000,22.3574400000 114.0968210000,22.3574210000 114.0968430000,22.3574360000 114.0968690000,22.3574440000 114.0968960000,22.3574440000 114.0969220000,22.3574370000 114.0969420000,22.3574250000 114.0969590000,22.3574080000 114.0969690000,22.3573880000 114.0969730000,22.3573650000 114.0969710000,22.3573430000 114.0969620000,22.3573220000 114.0970810000,22.3572460000 114.0972170000,22.3571050000 114.0972900000,22.3570030000 114.0973570000,22.3568790000 114.0974410000,22.3566670000 114.0974710000,22.3564270000 114.0974830000,22.3561640000 114.0974640000,22.3558960000 114.0974520000,22.3558110000 114.0974350000,22.3556850000 114.0974250000,22.3556160000 114.0974100000,22.3555380000 114.0974050000,22.3555070000 114.0974010000,22.3554680000 114.0973570000,22.3551930000 114.0973420000,22.3550340000 114.0973490000,22.3548630000 114.0974430000,22.3543450000 114.0974590000,22.3542490000 114.0974770000,22.3541390000 114.0974980000,22.3540380000 114.0975630000,22.3537360000 114.0975880000,22.3536430000 114.0976190000,22.3535270000 114.0977600000,22.3530680000 114.0977760000,22.3530210000 114.0977980000,22.3529760000 114.0978240000,22.3529210000 114.0978910000,22.3527790000 114.0980570000,22.3526060000 114.0982560000,22.3524770000 114.0984130000,22.3523980000 114.0985300000,22.3526650000 114.0986010000,22.3528250000 114.0987490000,22.3531620000 114.0987560000,22.3531780000 114.0987810000,22.3532350000 114.0988030000,22.3532850000 114.0988100000,22.3533010000 114.0988620000,22.3534230000 114.0990780000,22.3539350000 114.0991000000,22.3539860000 114.0991150000,22.3540220000 114.0993300000,22.3545270000 114.0996560000,22.3552490000 114.0999330000,22.3558980000 114.1000350000,22.3561020000 114.1001590000,22.3562880000 114.1003010000,22.3564980000 114.1005860000,22.3568670000 114.1006980000,22.3570020000 114.1008750000,22.3571940000 114.1010790000,22.3573680000 114.1011950000,22.3574430000 114.1012680000,22.3575540000 114.1013570000,22.3576470000 114.1014570000,22.3577290000 114.1015110000,22.3578080000 114.1015880000,22.3577230000 114.1016380000,22.3576690000 114.1016920000,22.3576130000 114.1017280000,22.3575600000 114.1017940000,22.3573890000 114.1018170000,22.3573130000 114.1018640000,22.3571470000 114.1019830000,22.3567640000 114.1022030000,22.3559650000 114.1022240000,22.3558170000 114.1022600000,22.3555690000 114.1023030000,22.3553010000 114.1023180000,22.3552060000 114.1024410000,22.3552110000 114.1025340000,22.3552130000 114.1029450000,22.3551580000 114.1030720000,22.3551380000 114.1033340000,22.3550970000 114.1037710000,22.3550290000 114.1037800000,22.3550600000 114.1037980000,22.3550870000 114.1038230000,22.3551090000 114.1038540000,22.3551230000 114.1038880000,22.3551290000 114.1039280000,22.3551240000 114.1039650000,22.3551080000 114.1039930000,22.3550810000 114.1040100000,22.3550520000 114.1040160000,22.3550200000 114.1040120000,22.3549870000 114.1039990000,22.3549570000 114.1039760000,22.3549320000 114.1039470000,22.3549130000 114.1039140000,22.3549030000 114.1038780000,22.3549020000 114.1038850000,22.3547680000 114.1038940000,22.3544720000 114.1038980000,22.3543320000 114.1039000000,22.3542830000 114.1039070000,22.3541100000 114.1039090000,22.3540540000 114.1039180000,22.3538460000 114.1039260000,22.3537840000 114.1039460000,22.3536710000 114.1039990000,22.3535250000 114.1040850000,22.3534060000 114.1041610000,22.3533250000 114.1042230000,22.3532690000 114.1043000000,22.3532130000 114.1043630000,22.3531750000 114.1044330000,22.3531410000 114.1045040000,22.3531130000 114.1045810000,22.3530910000 114.1046560000,22.3530780000 114.1047330000,22.3530730000 114.1048140000,22.3530730000 114.1049090000,22.3530770000 114.1049920000,22.3530820000 114.1050520000,22.3530860000 114.1051560000,22.3530920000 114.1052910000,22.3531010000 114.1053690000,22.3531090000 114.1054520000,22.3531250000 114.1055280000,22.3531450000 114.1056030000,22.3531720000 114.1056830000,22.3532160000 114.1057590000,22.3532640000 114.1058210000,22.3533160000 114.1058930000,22.3533850000 114.1059460000,22.3534530000 114.1059900000,22.3535220000 114.1060260000,22.3535980000 114.1060540000,22.3536770000 114.1060770000,22.3537680000 114.1060890000,22.3538630000 114.1060940000,22.3543320000 114.1061010000,22.3543900000 114.1061230000,22.3544640000 114.1062030000,22.3545690000 114.1063530000,22.3546590000 114.1065180000,22.3546840000 114.1065540000,22.3546890000 114.1068110000,22.3547160000 114.1068720000,22.3547160000 114.1068600000,22.3548760000 114.1068340000,22.3552030000 114.1068280000,22.3556340000 114.1068170000,22.3557660000 114.1068120000,22.3558140000 114.1068090000,22.3558660000 114.1068060000,22.3559050000 114.1067930000,22.3560950000 114.1067920000,22.3561630000 114.1067850000,22.3562050000 114.1067780000,22.3562480000 114.1067560000,22.3563100000 114.1067020000,22.3565330000 114.1065980000,22.3567790000 114.1065380000,22.3569190000 114.1065060000,22.3569800000 114.1064650000,22.3570410000 114.1063120000,22.3572270000 114.1062150000,22.3573480000 114.1061620000,22.3574210000 114.1061320000,22.3574630000 114.1059500000,22.3577600000 114.1058040000,22.3579800000 114.1057900000,22.3580010000 114.1057770000,22.3580210000 114.1057500000,22.3580640000 114.1057140000,22.3581190000 114.1056940000,22.3581510000 114.1056430000,22.3582230000 114.1056110000,22.3582620000 114.1055780000,22.3583040000 114.1055270000,22.3583970000 114.1054220000,22.3585330000 114.1053450000,22.3586970000 114.1053300000,22.3587510000 114.1053290000,22.3588040000 114.1053330000,22.3588870000 114.1053330000,22.3589830000 114.1053470000,22.3590610000 114.1053770000,22.3592190000 114.1054540000,22.3594320000 114.1055480000,22.3595220000 114.1057110000,22.3597750000 114.1057210000,22.3598620000 114.1057530000,22.3599150000 114.1057810000,22.3599660000 114.1058220000,22.3600440000 114.1058600000,22.3601270000 114.1059370000,22.3603410000 114.1059520000,22.3605360000 114.1058970000,22.3607150000 114.1058560000,22.3607940000 114.1058310000,22.3608450000 114.1057840000,22.3609160000 114.1056900000,22.3610320000 114.1055850000,22.3611150000 114.1054870000,22.3611670000 114.1054450000,22.3611820000 114.1053440000,22.3612230000 114.1051820000,22.3612530000 114.1050770000,22.3612160000 114.1048590000,22.3612220000 114.1047360000,22.3612240000 114.1045830000,22.3612270000 114.1044730000,22.3612290000 114.1044370000,22.3612300000 114.1042760000,22.3612210000 114.1042190000,22.3612130000 114.1041600000,22.3611920000 114.1040300000,22.3611900000 114.1039700000,22.3611590000 114.1038670000,22.3610940000 114.1037710000,22.3610170000 114.1037260000,22.3609590000 114.1036200000,22.3608220000 114.1035810000,22.3606920000 114.1035570000,22.3606090000 114.1035310000,22.3605610000 114.1034920000,22.3604930000 114.1034500000,22.3604100000 114.1034250000,22.3603610000 114.1033640000,22.3602150000 114.1033300000,22.3601350000 114.1032780000,22.3600130000 114.1032580000,22.3599350000 114.1032890000,22.3598220000 114.1033060000,22.3597250000 114.1033540000,22.3596720000 114.1034190000,22.3596330000 114.1035490000,22.3595790000 114.1036680000,22.3595480000 114.1038260000,22.3595060000 114.1039220000,22.3594900000 114.1041950000,22.3594390000 114.1043640000,22.3594180000 114.1045660000,22.3593960000 114.1047260000,22.3593810000 114.1048870000,22.3593730000 114.1050720000,22.3593720000 114.1052840000,22.3593720000 114.1053470000,22.3593700000 114.1055870000,22.3593750000 114.1057260000,22.3593800000 114.1059280000,22.3593890000 114.1061990000,22.3594040000 114.1063290000,22.3594210000 114.1064740000,22.3594430000 114.1068560000,22.3595000000 114.1069350000,22.3595130000 114.1071560000,22.3595440000 114.1072430000,22.3595580000 114.1075050000,22.3596040000 114.1079190000,22.3596770000 114.1083150000,22.3597450000 114.1086020000,22.3597940000 114.1089860000,22.3598690000 114.1094760000,22.3599550000 114.1098450000,22.3600190000 114.1110100000,22.3602260000 114.1117000000,22.3603390000 114.1119150000,22.3603750000 114.1127150000,22.3605170000 114.1129240000,22.3605550000 114.1130810000,22.3605890000 114.1132300000,22.3606270000 114.1133580000,22.3606650000 114.1135340000,22.3607220000 114.1136500000,22.3607690000 114.1137500000,22.3608160000 114.1138800000,22.3608820000 114.1139770000,22.3609420000 114.1141040000,22.3610330000 114.1142870000,22.3611660000 114.1143920000,22.3612460000 114.1145230000,22.3613430000 114.1147030000,22.3614830000 114.1148050000,22.3615510000 114.1150370000,22.3617060000 114.1151100000,22.3617660000 114.1152310000,22.3618580000 114.1152830000,22.3618980000 114.1154990000,22.3620480000 114.1156610000,22.3621530000 114.1158040000,22.3622380000 114.1160320000,22.3623630000 114.1163730000,22.3625280000 114.1167380000,22.3626980000 114.1168100000,22.3627310000 114.1169070000,22.3627730000 114.1170720000,22.3628450000 114.1171850000,22.3629050000 114.1172960000,22.3629630000 114.1177270000,22.3631490000 114.1179310000,22.3632350000 114.1181620000,22.3633320000 114.1186110000,22.3634660000 114.1190390000,22.3635930000 114.1192620000,22.3636630000 114.1194240000,22.3637370000 114.1195400000,22.3637960000 114.1196620000,22.3639010000 114.1197390000,22.3640060000 114.1199240000,22.3641930000 114.1200870000,22.3643790000 114.1202350000,22.3645650000 114.1202460000,22.3645810000 114.1203590000,22.3647420000 114.1204810000,22.3649100000 114.1206170000,22.3651120000 114.1207020000,22.3652360000 114.1207220000,22.3652650000 114.1207610000,22.3653640000 114.1207910000,22.3654290000 114.1208000000,22.3654480000 114.1209320000,22.3657380000 114.1209650000,22.3658870000 114.1209860000,22.3659810000 114.1209990000,22.3660350000 114.1210040000,22.3660580000 114.1210250000,22.3662920000 114.1210500000,22.3664190000 114.1210680000,22.3665050000 114.1211020000,22.3665680000 114.1211660000,22.3666880000 114.1213250000,22.3670110000 114.1213360000,22.3670400000 114.1213780000,22.3671510000 114.1214030000,22.3672330000 114.1214230000,22.3672630000 114.1216370000,22.3675420000 114.1219200000,22.3679690000 114.1222730000,22.3685110000 114.1223280000,22.3685940000 114.1222650000,22.3686350000 114.1221620000,22.3687020000 114.1218820000,22.3688600000 114.1218280000,22.3688890000 114.1217480000,22.3689330000 114.1216160000,22.3690080000 114.1213920000,22.3691360000 114.1213210000,22.3692070000 114.1212490000,22.3692900000 114.1210870000,22.3695050000 114.1210790000,22.3695180000 114.1210560000,22.3695540000 114.1210080000,22.3696410000 114.1211120000,22.3697450000 114.1212830000,22.3699590000 114.1213550000,22.3700790000 114.1214050000,22.3701680000 114.1214670000,22.3702990000 114.1215960000,22.3703080000 114.1220430000,22.3703390000 114.1224220000,22.3703690000 114.1230170000,22.3703990000 114.1232530000,22.3704090000 114.1233950000,22.3704250000 114.1236180000,22.3704530000 114.1237240000,22.3704610000 114.1238290000,22.3704690000 114.1240340000,22.3704850000 114.1245590000,22.3705190000 114.1248510000,22.3705470000 114.1250250000,22.3706570000 114.1251230000,22.3707670000 114.1251560000,22.3708720000 114.1251550000,22.3709580000 114.1251360000,22.3710320000 114.1251170000,22.3711030000 114.1252160000,22.3710980000 114.1252960000,22.3711040000 114.1258700000,22.3711380000 114.1264150000,22.3711660000 114.1266060000,22.3711870000 114.1269520000,22.3712540000 114.1271550000,22.3713060000 114.1278560000,22.3715290000 114.1279800000,22.3715480000 114.1283830000,22.3716070000 114.1288150000,22.3716500000 114.1290620000,22.3716690000 114.1299590000,22.3717270000 114.1301480000,22.3717240000 114.1302680000,22.3717120000 114.1303910000,22.3716990000 114.1305080000,22.3716650000 114.1306740000,22.3716100000 114.1309100000,22.3715250000 114.1311990000,22.3714130000 114.1315330000,22.3712770000 114.1319760000,22.3710380000 114.1326750000,22.3705980000 114.1328120000,22.3705120000 114.1332900000,22.3702120000 114.1333350000,22.3701800000 114.1334700000,22.3701280000 114.1335160000,22.3701050000 114.1335540000,22.3700860000 114.1336030000,22.3700630000 114.1336500000,22.3700480000 114.1337480000,22.3700220000 114.1338820000,22.3699940000 114.1339680000,22.3700050000 114.1340480000,22.3700080000 114.1341650000,22.3699470000 114.1342380000,22.3699060000 114.1342590000,22.3699000000 114.1342860000,22.3698830000 114.1343830000,22.3698030000 114.1344470000,22.3697400000 114.1343890000,22.3694170000 114.1342910000,22.3688630000 114.1343340000,22.3685710000 114.1343680000,22.3684670000 114.1343860000,22.3684130000 114.1344080000,22.3683620000 114.1344320000,22.3683230000 114.1344540000,22.3682810000 114.1346920000,22.3678450000 114.1348410000,22.3675890000 114.1348830000,22.3674910000 114.1349180000,22.3673970000 114.1349340000,22.3673410000 114.1349490000,22.3672800000 114.1349750000,22.3671590000 114.1349900000,22.3670920000 114.1350130000,22.3669770000 114.1350430000,22.3667590000 114.1350610000,22.3665300000 114.1350610000,22.3663300000 114.1350640000,22.3663040000 114.1350960000,22.3660510000 114.1351770000,22.3658290000 114.1354340000,22.3652260000 114.1354670000,22.3651490000 114.1355020000,22.3650710000 114.1355460000,22.3649850000 114.1356090000,22.3648650000 114.1356430000,22.3647800000 114.1356900000,22.3646610000 114.1357080000,22.3646170000 114.1357360000,22.3645450000 114.1357830000,22.3644280000 114.1358630000,22.3641810000 114.1359090000,22.3640190000 114.1359500000,22.3638080000 114.1360450000,22.3631290000 114.1360930000,22.3627600000 114.1361250000,22.3625370000 114.1361430000,22.3623990000 114.1361760000,22.3621930000 114.1361960000,22.3620280000 114.1362140000,22.3617960000 114.1362060000,22.3616270000 114.1361650000,22.3612690000 114.1361270000,22.3611240000 114.1360730000,22.3609970000 114.1360250000,22.3608710000 114.1360080000,22.3608350000 114.1358100000,22.3605400000 114.1356940000,22.3604030000 114.1349670000,22.3596540000 114.1347170000,22.3593980000 114.1345970000,22.3592600000 114.1344860000,22.3591130000 114.1344530000,22.3590590000 114.1343460000,22.3588770000 114.1342270000,22.3586210000 114.1341410000,22.3584020000 114.1340930000,22.3582090000 114.1340440000,22.3580000000 114.1338340000,22.3564530000 114.1337740000,22.3560820000 114.1337330000,22.3559350000 114.1336840000,22.3558030000 114.1333900000,22.3551620000 114.1333270000,22.3550170000 114.1332700000,22.3548120000 114.1332440000,22.3546590000 114.1331550000,22.3540190000 114.1331300000,22.3538780000 114.1330620000,22.3532200000 114.1330350000,22.3528750000 114.1330290000,22.3526150000 114.1330310000,22.3524270000 114.1330370000,22.3517520000 114.1330390000,22.3513910000 114.1330420000,22.3512490000 114.1330850000,22.3508840000 114.1330920000,22.3508510000 114.1331150000,22.3507400000 114.1331840000,22.3505340000 114.1332660000,22.3503460000 114.1334080000,22.3501550000 114.1335420000,22.3500010000 114.1339190000,22.3496800000 114.1353210000,22.3485750000 114.1354740000,22.3484460000 114.1355790000,22.3483160000 114.1357200000,22.3481010000 114.1359040000,22.3478000000 114.1360460000,22.3476330000 114.1361150000,22.3475570000 114.1362280000,22.3474840000 114.1365310000,22.3473900000 114.1371490000,22.3472390000 114.1377810000,22.3470840000 114.1379340000,22.3470340000 114.1380940000,22.3469650000 114.1382240000,22.3468660000 114.1383390000,22.3467380000 114.1384220000,22.3465950000 114.1384820000,22.3464210000 114.1385120000,22.3462290000 114.1385640000,22.3457540000 114.1386190000,22.3451090000 114.1386920000,22.3448380000 114.1388040000,22.3445860000 114.1389530000,22.3443440000 114.1391250000,22.3441660000 114.1393040000,22.3439810000 114.1393760000,22.3439140000 114.1394460000,22.3438500000 114.1396410000,22.3436480000 114.1397430000,22.3435130000 114.1398210000,22.3433810000 114.1399360000,22.3431860000 114.1403830000,22.3423860000 114.1405250000,22.3421610000 114.1407440000,22.3418750000 114.1413700000,22.3410940000 114.1414320000,22.3410140000 114.1415080000,22.3409100000 114.1416960000,22.3407890000 114.1417130000,22.3407780000 114.1417420000,22.3407690000 114.1418040000,22.3407420000 114.1419850000,22.3407390000 114.1420380000,22.3407450000 114.1420850000,22.3407550000 114.1421410000,22.3407700000 114.1422020000,22.3407880000 114.1422590000,22.3408170000 114.1423250000,22.3408590000 114.1427560000,22.3411390000 114.1428090000,22.3411610000 114.1428560000,22.3411790000 114.1429440000,22.3412090000 114.1430220000,22.3412370000 114.1430720000,22.3412540000 114.1431280000,22.3412660000 114.1431770000,22.3412730000 114.1432360000,22.3412760000 114.1433090000,22.3412780000 114.1433830000,22.3412800000 114.1434330000,22.3412790000 114.1434900000,22.3412760000 114.1435410000,22.3412710000 114.1436060000,22.3412600000 114.1436630000,22.3412440000 114.1437200000,22.3412260000 114.1437690000,22.3412070000 114.1438080000,22.3411930000 114.1438650000,22.3411670000 114.1439090000,22.3411410000 114.1439470000,22.3411130000 114.1439850000,22.3410790000 114.1441210000,22.3409370000 114.1441820000,22.3408830000 114.1442970000,22.3407580000 114.1443860000,22.3406440000 114.1444850000,22.3405110000 114.1445480000,22.3404280000 114.1446060000,22.3403540000 114.1446590000,22.3402930000 114.1447180000,22.3402350000 114.1447800000,22.3401790000 114.1448430000,22.3401300000 114.1449330000,22.3400790000 114.1450450000,22.3400240000 114.1451600000,22.3399860000 114.1452730000,22.3399600000 114.1453950000,22.3399440000 114.1455630000,22.3399380000 114.1459090000,22.3399470000 114.1463220000,22.3399670000 114.1466420000,22.3399880000 114.1468860000,22.3400300000 114.1471450000,22.3400940000 114.1476840000,22.3402510000 114.1480720000,22.3403630000 114.1485800000,22.3405130000 114.1489050000,22.3406070000 114.1492800000,22.3407200000 114.1495170000,22.3407970000 114.1497400000,22.3408710000 114.1499830000,22.3409730000 114.1508210000,22.3413500000 114.1512090000,22.3415070000 114.1519470000,22.3418090000 114.1525610000,22.3420600000 114.1526890000,22.3421150000 114.1541330000,22.3427360000 114.1544090000,22.3428120000 114.1545880000,22.3428540000 114.1547240000,22.3428780000 114.1549310000,22.3428920000 114.1550660000,22.3428860000 114.1552360000,22.3428690000 114.1556280000,22.3428120000 114.1557440000,22.3428000000 114.1558490000,22.3427930000 114.1559310000,22.3427910000 114.1561140000,22.3427940000 114.1563600000,22.3428050000 114.1565910000,22.3428270000 114.1569160000,22.3428630000 114.1572730000,22.3429060000 114.1575430000,22.3429040000 114.1578970000,22.3429020000 114.1580670000,22.3428950000 114.1582950000,22.3428800000 114.1583690000,22.3428740000 114.1584470000,22.3428640000 114.1585210000,22.3428510000 114.1586370000,22.3428260000 114.1587600000,22.3427960000 114.1588080000,22.3427820000 114.1588810000,22.3427580000 114.1589520000,22.3427310000 114.1590290000,22.3426970000 114.1590970000,22.3426630000 114.1591530000,22.3426300000 114.1592470000,22.3425710000 114.1593420000,22.3425060000 114.1593940000,22.3424650000 114.1594580000,22.3424080000 114.1595160000,22.3423490000 114.1596370000,22.3422330000 114.1598460000,22.3420270000 114.1600020000,22.3418720000 114.1601160000,22.3417620000 114.1602520000,22.3416460000 114.1603910000,22.3415500000 114.1605100000,22.3414770000 114.1606310000,22.3414080000 114.1607760000,22.3413470000 114.1609520000,22.3412820000 114.1611020000,22.3412370000 114.1612170000,22.3412100000 114.1613710000,22.3411780000 114.1615320000,22.3411610000 114.1617250000,22.3411500000 114.1618520000,22.3411480000 114.1619180000,22.3411480000 114.1619820000,22.3411510000 114.1620350000,22.3411550000 114.1621280000,22.3411680000 114.1622370000,22.3411860000 114.1624000000,22.3412240000 114.1625300000,22.3412620000 114.1627070000,22.3413300000 114.1628270000,22.3413790000 114.1628850000,22.3414050000 114.1631560000,22.3415280000 114.1632330000,22.3415620000 114.1635520000,22.3417200000 114.1636630000,22.3417680000 114.1637230000,22.3417900000 114.1638380000,22.3418280000 114.1640180000,22.3418810000 114.1640400000,22.3418870000 114.1641260000,22.3419110000 114.1642220000,22.3419310000 114.1642540000,22.3419380000 114.1643410000,22.3419530000 114.1644310000,22.3419690000 114.1645210000,22.3419870000 114.1645810000,22.3419900000 114.1646630000,22.3419930000 114.1647430000,22.3419970000 114.1649050000,22.3420040000 114.1651230000,22.3420130000 114.1652910000,22.3420200000 114.1655110000,22.3420270000 114.1657280000,22.3420290000 114.1658550000,22.3420250000 114.1659710000,22.3420180000 114.1660920000,22.3420050000 114.1662020000,22.3419900000 114.1663100000,22.3419700000 114.1664140000,22.3419460000 114.1665230000,22.3419140000 114.1666280000,22.3418770000 114.1667040000,22.3418480000 114.1667730000,22.3418190000 114.1668460000,22.3417840000 114.1669330000,22.3417400000 114.1670190000,22.3416950000 114.1672110000,22.3415870000 114.1673330000,22.3415170000 114.1674440000,22.3414550000 114.1675110000,22.3414200000 114.1675780000,22.3413870000 114.1676500000,22.3413530000 114.1676790000,22.3413400000 114.1677140000,22.3413240000 114.1677740000,22.3412990000 114.1678460000,22.3412720000 114.1679660000,22.3412330000 114.1680420000,22.3412130000 114.1680950000,22.3412000000 114.1681430000,22.3411900000 114.1681890000,22.3411830000 114.1682410000,22.3411770000 114.1682930000,22.3411730000 114.1683430000,22.3411720000 114.1683990000,22.3411720000 114.1684620000,22.3411730000 114.1685300000,22.3411780000 114.1685820000,22.3411850000 114.1686390000,22.3411970000 114.1686980000,22.3412110000 114.1687620000,22.3412310000 114.1688270000,22.3412540000 114.1688880000,22.3412790000 114.1689490000,22.3413100000 114.1689960000,22.3413360000 114.1690410000,22.3413620000 114.1691070000,22.3414050000 114.1691420000,22.3414280000 114.1691970000,22.3414700000 114.1692540000,22.3415140000 114.1693640000,22.3416070000 114.1694970000,22.3417350000 114.1695610000,22.3418000000 114.1696840000,22.3419210000 114.1697630000,22.3420010000 114.1698320000,22.3420700000 114.1699930000,22.3422680000 114.1701810000,22.3424630000 114.1706000000,22.3428990000 114.1707190000,22.3430160000 114.1708320000,22.3431150000 114.1709240000,22.3431840000 114.1710160000,22.3432370000 114.1711200000,22.3432780000 114.1712410000,22.3433280000 114.1713440000,22.3433560000 114.1714290000,22.3433760000 114.1715620000,22.3433960000 114.1716490000,22.3434040000 114.1717090000,22.3434050000 114.1717910000,22.3434010000 114.1718770000,22.3433940000 114.1719730000,22.3433770000 114.1720800000,22.3433560000 114.1722190000,22.3433160000 114.1723310000,22.3432770000 114.1724320000,22.3432330000 114.1725420000,22.3431670000 114.1726150000,22.3431180000 114.1726820000,22.3430740000 114.1727620000,22.3430270000 114.1728340000,22.3429850000 114.1730030000,22.3428760000 114.1730840000,22.3428230000 114.1731690000,22.3427680000 114.1732400000,22.3427260000 114.1733070000,22.3427000000 114.1733870000,22.3426770000 114.1734560000,22.3426620000 114.1735360000,22.3426480000 114.1736090000,22.3426380000 114.1736780000,22.3426360000 114.1737600000,22.3426360000 114.1738380000,22.3426430000 114.1738940000,22.3426520000 114.1739500000,22.3426650000 114.1740450000,22.3426900000 114.1741010000,22.3427110000 114.1741490000,22.3427320000 114.1742240000,22.3427660000 114.1742960000,22.3428080000 114.1743780000,22.3428610000 114.1744460000,22.3429170000 114.1744870000,22.3429610000 114.1745480000,22.3430270000 114.1746090000,22.3431020000 114.1746380000,22.3431390000 114.1746830000,22.3432080000 114.1747180000,22.3432600000 114.1747920000,22.3433800000 114.1750660000,22.3438410000 114.1751920000,22.3440120000 114.1752430000,22.3440780000 114.1753070000,22.3441430000 114.1754210000,22.3442290000 114.1755820000,22.3443270000 114.1757290000,22.3444040000 114.1758860000,22.3444580000 114.1763600000,22.3446090000 114.1768240000,22.3447630000 114.1769540000,22.3447960000 114.1771140000,22.3448320000 114.1772640000,22.3448530000 114.1774130000,22.3448600000 114.1775800000,22.3448540000 114.1777520000,22.3448200000 114.1778990000,22.3447780000 114.1781180000,22.3446880000 114.1783410000,22.3445980000 114.1788090000,22.3444280000 114.1788370000,22.3444190000 114.1790500000,22.3443460000 114.1791310000,22.3443200000 114.1792350000,22.3442910000 114.1793550000,22.3442590000 114.1794210000,22.3442430000 114.1794720000,22.3442320000 114.1795510000,22.3442170000 114.1796030000,22.3442090000 114.1796580000,22.3442000000 114.1798460000,22.3441740000 114.1800610000,22.3441500000 114.1802850000,22.3441480000 114.1804590000,22.3441470000 114.1808300000,22.3441360000 114.1809890000,22.3441380000 114.1811010000,22.3441410000 114.1811720000,22.3441430000 114.1813190000,22.3441480000 114.1819890000,22.3441980000 114.1820980000,22.3442080000 114.1821550000,22.3442090000 114.1822020000,22.3442070000 114.1822850000,22.3442020000 114.1823980000,22.3441920000 114.1824290000,22.3441890000 114.1824550000,22.3441850000 114.1824840000,22.3441790000 114.1825110000,22.3441730000 114.1826160000,22.3441400000 114.1826730000,22.3441200000 114.1827350000,22.3441010000 114.1828030000,22.3440790000 114.1828620000,22.3440480000 114.1829050000,22.3440230000 114.1829470000,22.3439970000 114.1830110000,22.3439550000 114.1831870000,22.3438280000 114.1833240000,22.3437270000 114.1834050000,22.3436720000 114.1834800000,22.3436230000 114.1835750000,22.3435640000 114.1836620000,22.3435110000 114.1837440000,22.3434690000 114.1838360000,22.3434190000 114.1840130000,22.3433340000 114.1841540000,22.3432700000 114.1846080000,22.3430790000 114.1847230000,22.3430300000 114.1853140000,22.3428270000 114.1854810000,22.3427760000 114.1856410000,22.3427320000 114.1857940000,22.3426980000 114.1860700000,22.3426450000 114.1863840000,22.3425980000 114.1864240000,22.3425920000 114.1865080000,22.3425810000 114.1865990000,22.3425710000 114.1867350000,22.3425610000 114.1868320000,22.3425550000 114.1870010000,22.3425480000 114.1876390000,22.3425450000 114.1885190000,22.3425370000 114.1887980000,22.3425290000 114.1889250000,22.3425170000 114.1890330000,22.3425030000 114.1891320000,22.3424850000 114.1892510000,22.3424570000 114.1893710000,22.3424260000 114.1894890000,22.3423900000 114.1896030000,22.3423450000 114.1899600000,22.3421820000 114.1900460000,22.3421430000 114.1902140000,22.3420630000 114.1904470000,22.3419520000 114.1905380000,22.3419090000 114.1906330000,22.3418690000 114.1907220000,22.3418340000 114.1907820000,22.3418130000 114.1908460000,22.3417930000 114.1909640000,22.3417650000 114.1910150000,22.3417550000 114.1910910000,22.3417420000 114.1911500000,22.3417320000 114.1912040000,22.3417260000 114.1912210000,22.3417240000 114.1912580000,22.3417220000 114.1912820000,22.3417210000 114.1913140000,22.3417200000 114.1913500000,22.3417180000 114.1913960000,22.3417160000 114.1914400000,22.3417150000 114.1915650000,22.3417140000 114.1916090000,22.3417130000 114.1916780000,22.3417130000 114.1917400000,22.3417130000 114.1919160000,22.3417150000 114.1920130000,22.3417160000 114.1924530000,22.3417200000 114.1925840000,22.3417220000 114.1927770000,22.3417220000 114.1928860000,22.3417240000 114.1929860000,22.3417240000 114.1935210000,22.3417330000 114.1955430000,22.3417590000 114.1955540000,22.3417590000 114.1957670000,22.3417600000 114.1964560000,22.3417660000 114.1964930000,22.3417660000 114.1967840000,22.3417680000 114.1969890000,22.3417660000 114.1970660000,22.3417650000 114.1972400000,22.3417680000 114.1975050000,22.3417720000 114.1976140000,22.3417720000 114.1977450000,22.3417630000 114.1979580000,22.3417480000 114.1982630000,22.3416950000 114.1985400000,22.3416250000 114.1987500000,22.3415320000 114.1988420000,22.3414920000 114.1989090000,22.3414580000 114.1989650000,22.3414290000 114.1990540000,22.3413840000 114.1991110000,22.3413540000 114.1991920000,22.3413130000 114.1992270000,22.3412940000 114.1995210000,22.3411350000 114.1996450000,22.3410650000 114.1996880000,22.3410410000 114.1997490000,22.3410380000 114.1998590000,22.3410330000 114.1999750000,22.3409820000 114.2003110000,22.3408550000 114.2006380000,22.3407230000 114.2007560000,22.3406750000 114.2009420000,22.3406020000 114.2010520000,22.3405460000 114.2012790000,22.3404310000 114.2022050000,22.3398660000 114.2022610000,22.3398350000 114.2024040000,22.3397530000 114.2024350000,22.3397350000 114.2025060000,22.3396840000 114.2027850000,22.3394950000 114.2028110000,22.3394780000 114.2030620000,22.3393190000 114.2035020000,22.3389530000 114.2036950000,22.3387740000 114.2037320000,22.3387370000 114.2038150000,22.3386550000 114.2039810000,22.3385010000 114.2044920000,22.3382080000 114.2045710000,22.3381630000 114.2049180000,22.3379640000 114.2052840000,22.3377490000 114.2053430000,22.3377150000 114.2054050000,22.3376790000 114.2057640000,22.3374760000 114.2058990000,22.3374080000 114.2060760000,22.3373200000 114.2062130000,22.3372520000 114.2066060000,22.3370130000 114.2066980000,22.3369560000 114.2068700000,22.3368380000 114.2069610000,22.3367740000 114.2069830000,22.3367580000 114.2069960000,22.3367490000 114.2070770000,22.3366780000 114.2071600000,22.3366290000 114.2072290000,22.3365590000 114.2072650000,22.3365220000 114.2073100000,22.3364680000 114.2073510000,22.3364190000 114.2073980000,22.3363490000 114.2074210000,22.3363160000 114.2074450000,22.3362820000 114.2074570000,22.3362600000 114.2074740000,22.3362340000 114.2074940000,22.3361920000 114.2075110000,22.3361570000 114.2075290000,22.3361170000 114.2075470000,22.3360780000 114.2075580000,22.3360540000 114.2075570000,22.3359510000 114.2079110000,22.3351640000 114.2081190000,22.3347100000 114.2081660000,22.3346000000 114.2081910000,22.3345320000 114.2082130000,22.3344600000 114.2082280000,22.3343880000 114.2082340000,22.3343150000 114.2082330000,22.3342480000 114.2082240000,22.3341780000 114.2082120000,22.3341150000 114.2081930000,22.3340520000 114.2081690000,22.3339870000 114.2081380000,22.3339230000 114.2081070000,22.3338640000 114.2080690000,22.3338010000 114.2080120000,22.3337190000 114.2078070000,22.3334450000 114.2077660000,22.3333840000 114.2077020000,22.3332730000 114.2076750000,22.3332130000 114.2076510000,22.3331520000 114.2076340000,22.3330920000 114.2076240000,22.3330370000 114.2076190000,22.3329770000 114.2076200000,22.3329180000 114.2076270000,22.3328550000 114.2076390000,22.3327930000 114.2076550000,22.3327390000 114.2076720000,22.3326910000 114.2076920000,22.3326490000 114.2077140000,22.3326110000 114.2077400000,22.3325730000 114.2077740000,22.3325300000 114.2078150000,22.3324840000 114.2078630000,22.3324330000 114.2079100000,22.3323890000 114.2079810000,22.3323260000 114.2081200000,22.3322130000 114.2087380000,22.3317140000 114.2088120000,22.3316540000 114.2091050000,22.3314440000 114.2093270000,22.3312690000 114.2093830000,22.3312260000 114.2098850000,22.3308290000 114.2100440000,22.3306970000 114.2104770000,22.3303290000 114.2106270000,22.3301920000 114.2107080000,22.3301170000 114.2110990000,22.3297400000 114.2112590000,22.3296370000 114.2115490000,22.3294400000 114.2116340000,22.3294130000 114.2117160000,22.3293910000 114.2118870000,22.3292670000 114.2120170000,22.3291790000 114.2124190000,22.3288910000 114.2126010000,22.3287240000 114.2127480000,22.3285510000 114.2128560000,22.3283830000 114.2132780000,22.3277190000 114.2133370000,22.3276270000 114.2134010000,22.3275270000 114.2135140000,22.3273490000 114.2136210000,22.3271950000 114.2137050000,22.3270750000 114.2137840000,22.3269500000 114.2138760000,22.3268070000 114.2139780000,22.3266470000 114.2140790000,22.3264880000 114.2141190000,22.3263910000 114.2141400000,22.3263430000 114.2141570000,22.3262850000 114.2141720000,22.3262400000 114.2141920000,22.3261680000 114.2142060000,22.3261000000 114.2142150000,22.3260610000 114.2142210000,22.3260220000 114.2142320000,22.3259530000 114.2142400000,22.3258690000 114.2142420000,22.3258200000 114.2142430000,22.3257400000 114.2142430000,22.3256140000 114.2142400000,22.3255530000 114.2142350000,22.3254370000 114.2142320000,22.3253760000 114.2142300000,22.3253260000 114.2142290000,22.3252750000 114.2142300000,22.3252060000 114.2142340000,22.3251230000 114.2142390000,22.3250490000 114.2142470000,22.3249650000 114.2142860000,22.3245720000 114.2143180000,22.3244750000 114.2143590000,22.3240830000 114.2143670000,22.3240050000 114.2143750000,22.3239450000 114.2144190000,22.3234140000 114.2144220000,22.3233880000 114.2144320000,22.3232630000 114.2144400000,22.3231850000 114.2144440000,22.3231140000 114.2144740000,22.3228290000 114.2144750000,22.3227130000 114.2144840000,22.3226050000 114.2145110000,22.3223120000 114.2145700000,22.3216590000 114.2145820000,22.3215600000 114.2145950000,22.3214540000 114.2146030000,22.3213830000 114.2146150000,22.3212850000 114.2146210000,22.3212320000 114.2146330000,22.3211330000 114.2147400000,22.3202260000 114.2148280000,22.3194540000 114.2148530000,22.3191100000 114.2149060000,22.3186270000 114.2149220000,22.3184930000 114.2149330000,22.3184190000 114.2149530000,22.3183120000 114.2149890000,22.3181510000 114.2150030000,22.3180950000 114.2150170000,22.3180450000 114.2150350000,22.3179920000 114.2150700000,22.3178930000 114.2151350000,22.3177310000 114.2151680000,22.3176600000 114.2152080000,22.3175760000 114.2152730000,22.3174540000 114.2152940000,22.3174130000 114.2153510000,22.3173180000 114.2153930000,22.3172520000 114.2154360000,22.3171870000 114.2154740000,22.3171370000 114.2155070000,22.3170940000 114.2155420000,22.3170510000 114.2155940000,22.3169900000 114.2156300000,22.3169510000 114.2156890000,22.3168940000 114.2157830000,22.3168080000 114.2158690000,22.3167340000 114.2159540000,22.3166610000 114.2160110000,22.3166160000 114.2161500000,22.3165160000 114.2161980000,22.3164840000 114.2162560000,22.3164430000 114.2162720000,22.3164320000 114.2163170000,22.3164080000 114.2163710000,22.3163810000 114.2164760000,22.3163290000 114.2165300000,22.3163020000 114.2166430000,22.3162370000 114.2168000000,22.3161580000 114.2168990000,22.3161100000 114.2170130000,22.3160590000 114.2171280000,22.3160140000 114.2174620000,22.3158950000 114.2180590000,22.3156710000 114.2183510000,22.3155550000 114.2184180000,22.3155330000 114.2184930000,22.3155070000 114.2186200000,22.3154580000 114.2187890000,22.3154040000 114.2189020000,22.3153340000 114.2193490000,22.3151600000 114.2194160000,22.3151340000 114.2194390000,22.3151250000 114.2195160000,22.3150940000 114.2196060000,22.3150590000 114.2196270000,22.3150510000 114.2199670000,22.3149150000 114.2201660000,22.3148360000 114.2202750000,22.3147880000 114.2203250000,22.3147560000 114.2204440000,22.3146800000 114.2205270000,22.3146270000 114.2205840000,22.3146070000 114.2206800000,22.3145730000 114.2208620000,22.3145090000 114.2211590000,22.3144050000 114.2213650000,22.3143330000 114.2215830000,22.3142570000 114.2219280000,22.3141360000 114.2220970000,22.3140730000 114.2223190000,22.3139900000 114.2225340000,22.3139080000 114.2226020000,22.3138830000 114.2226560000,22.3138650000 114.2227490000,22.3138320000 114.2227780000,22.3138210000 114.2228600000,22.3137920000 114.2229220000,22.3137690000 114.2231650000,22.3136910000 114.2231840000,22.3136850000 114.2232990000,22.3136320000 114.2233670000,22.3136070000 114.2237080000,22.3134830000 114.2238130000,22.3134450000 114.2239090000,22.3134080000 114.2240110000,22.3133700000 114.2241680000,22.3133100000 114.2242430000,22.3132820000 114.2244240000,22.3132150000 114.2245850000,22.3131510000 114.2247460000,22.3130590000 114.2249390000,22.3129560000 114.2252550000,22.3128270000 114.2254020000,22.3127620000 114.2257000000,22.3126250000 114.2258480000,22.3125570000 114.2261480000,22.3124150000 114.2264110000,22.3122690000 114.2267130000,22.3120890000 114.2268440000,22.3120040000 114.2270900000,22.3118410000 114.2273940000,22.3116260000 114.2278040000,22.3113600000 114.2279090000,22.3112930000 114.2279660000,22.3112660000 114.2280440000,22.3112310000 114.2282810000,22.3110800000 114.2284840000,22.3109520000 114.2285870000,22.3108810000 114.2290930000,22.3105750000 114.2292350000,22.3104850000 114.2293490000,22.3104020000 114.2294730000,22.3103240000 114.2295110000,22.3103000000 114.2295500000,22.3102760000 114.2296780000,22.3101950000 114.2296900000,22.3101880000 114.2298720000,22.3101070000 114.2299250000,22.3100740000 114.2301840000,22.3099060000 114.2302660000,22.3098520000 114.2303460000,22.3097990000 114.2304140000,22.3097580000 114.2304510000,22.3097350000 114.2305350000,22.3096810000 114.2307890000,22.3095060000 114.2310830000,22.3093070000 114.2313660000,22.3091040000 114.2315360000,22.3089900000 114.2316740000,22.3088750000 114.2319800000,22.3085380000 114.2325960000,22.3078270000 114.2327220000,22.3076760000 114.2329300000,22.3074290000 114.2330240000,22.3072430000 114.2333470000,22.3068620000 114.2334430000,22.3067490000 114.2335250000,22.3066520000 114.2335720000,22.3065960000 114.2336060000,22.3065560000 114.2336370000,22.3065180000 114.2337480000,22.3063870000 114.2340030000,22.3061410000 114.2341760000,22.3059730000 114.2343180000,22.3058050000 114.2346340000,22.3054220000 114.2347500000,22.3052900000 114.2348620000,22.3051650000 114.2351080000,22.3048900000 114.2352370000,22.3047640000 114.2352930000,22.3047140000 114.2353470000,22.3046970000 114.2353970000,22.3046730000 114.2354300000,22.3046620000 114.2354650000,22.3046560000 114.2355010000,22.3046560000 114.2355360000,22.3046610000 114.2355790000,22.3046760000 114.2356170000,22.3046990000 114.2356490000,22.3047300000 114.2356550000,22.3048030000 114.2356550000,22.3048750000 114.2356470000,22.3049470000 114.2355980000,22.3049930000 114.2355670000,22.3051500000 114.2355100000,22.3054090000 114.2355290000,22.3054490000 114.2355110000,22.3055250000 114.2354760000,22.3055540000 114.2354670000,22.3055890000 114.2354590000,22.3056240000 114.2354780000,22.3056650000 114.2354280000,22.3058760000 114.2354110000,22.3059470000 114.2353760000,22.3061130000 114.2353500000,22.3062420000 114.2353400000,22.3062860000 114.2352420000,22.3067570000 114.2351920000,22.3069990000 114.2351410000,22.3072420000 114.2350970000,22.3074540000 114.2350530000,22.3076130000 114.2349920000,22.3077460000 114.2348550000,22.3080030000 114.2348150000,22.3080500000 114.2347880000,22.3080820000 114.2346460000,22.3082380000 114.2346180000,22.3082690000 114.2345500000,22.3083440000 114.2345350000,22.3083620000 114.2342320000,22.3086970000 114.2340790000,22.3088710000 114.2339620000,22.3090040000 114.2339220000,22.3090580000 114.2338570000,22.3091660000 114.2338140000,22.3092450000 114.2338050000,22.3092630000 114.2337620000,22.3093630000 114.2337540000,22.3093910000 114.2337300000,22.3094660000 114.2337090000,22.3095720000 114.2336970000,22.3096790000 114.2336810000,22.3098770000 114.2336630000,22.3099010000 114.2336530000,22.3099280000 114.2336520000,22.3099560000 114.2336590000,22.3099840000 114.2336760000,22.3100090000 114.2336990000,22.3100280000 114.2337280000,22.3100400000 114.2337630000,22.3100440000 114.2337980000,22.3100360000 114.2338280000,22.3100190000 114.2338500000,22.3099930000 114.2340970000,22.3099780000 114.2342270000,22.3099700000 114.2345110000,22.3099530000 114.2347530000,22.3099380000 114.2348430000,22.3099330000 114.2348910000,22.3099300000 114.2349280000,22.3099280000 114.2351070000,22.3099170000 114.2352790000,22.3099070000 114.2356460000,22.3098890000 114.2367380000,22.3098240000 114.2371840000,22.3097980000 114.2372050000,22.3097970000 114.2375610000,22.3097750000 114.2375940000,22.3097700000 114.2377130000,22.3097650000 114.2377100000,22.3096290000 114.2377080000,22.3095820000 114.2377060000,22.3095060000 114.2377220000,22.3093000000 114.2377320000,22.3091670000 114.2377260000,22.3090270000 114.2377140000,22.3085890000 114.2377130000,22.3084720000 114.2377110000,22.3083640000 114.2376630000,22.3076620000 114.2376540000,22.3075310000 114.2376470000,22.3074470000 114.2376390000,22.3073550000 114.2376030000,22.3069590000 114.2375600000,22.3065780000 114.2375470000,22.3065030000 114.2374900000,22.3063830000 114.2374160000,22.3063190000 114.2373380000,22.3062860000 114.2372590000,22.3062850000 114.2372530000,22.3062850000 114.2372170000,22.3062880000 114.2371820000,22.3062910000 114.2371590000,22.3062930000 114.2370400000,22.3063360000 114.2366960000,22.3065020000 114.2363440000,22.3066820000 114.2361020000,22.3068030000 114.2359240000,22.3069470000 114.2358730000,22.3069880000 114.2358580000,22.3070130000 114.2358270000,22.3070830000 114.2357990000,22.3071750000 114.2357810000,22.3072670000 114.2357870000,22.3074390000 114.2358300000,22.3078860000 114.2358430000,22.3080630000 114.2358230000,22.3082210000 114.2357740000,22.3084290000 114.2357220000,22.3085880000 114.2357060000,22.3086460000 114.2356250000,22.3089880000 114.2356170000,22.3091990000 114.2356370000,22.3096600000 114.2356410000,22.3097700000 114.2356430000,22.3097970000 114.2356460000,22.3098890000 114.2352790000,22.3099070000 114.2351070000,22.3099170000 114.2349280000,22.3099280000 114.2348910000,22.3099300000 114.2348430000,22.3099330000 114.2347530000,22.3099380000 114.2345110000,22.3099530000 114.2342270000,22.3099700000 114.2340970000,22.3099780000 114.2338630000,22.3099390000 114.2338560000,22.3099130000 114.2338430000,22.3098880000 114.2338220000,22.3098690000 114.2337960000,22.3098550000 114.2336970000,22.3096790000 114.2337090000,22.3095720000 114.2337300000,22.3094660000 114.2337540000,22.3093910000 114.2337620000,22.3093630000 114.2338050000,22.3092630000 114.2338140000,22.3092450000 114.2338570000,22.3091660000 114.2339220000,22.3090580000 114.2339620000,22.3090040000 114.2340790000,22.3088710000 114.2342320000,22.3086970000 114.2345350000,22.3083620000 114.2345500000,22.3083440000 114.2346180000,22.3082690000 114.2346460000,22.3082380000 114.2347880000,22.3080820000 114.2348150000,22.3080500000 114.2348550000,22.3080030000 114.2349920000,22.3077460000 114.2350530000,22.3076130000 114.2350970000,22.3074540000 114.2351410000,22.3072420000 114.2351920000,22.3069990000 114.2352420000,22.3067570000 114.2353400000,22.3062860000 114.2353500000,22.3062420000 114.2353760000,22.3061130000 114.2354110000,22.3059470000 114.2354280000,22.3058760000 114.2354780000,22.3056650000 114.2355140000,22.3056360000 114.2355220000,22.3056010000 114.2355300000,22.3055650000 114.2355110000,22.3055250000 114.2355290000,22.3054490000 114.2355650000,22.3054200000 114.2356360000,22.3051620000 114.2356350000,22.3051180000 114.2356660000,22.3050080000 114.2356470000,22.3049470000 114.2356550000,22.3048750000 114.2356550000,22.3048030000 114.2356490000,22.3047300000 114.2356330000,22.3046610000 114.2356120000,22.3045920000 114.2355830000,22.3045250000 114.2355480000,22.3044610000 114.2355530000,22.3044090000 114.2355480000,22.3043570000 114.2355340000,22.3043060000 114.2355120000,22.3042580000 114.2354810000,22.3042150000 114.2354430000,22.3041760000 114.2354020000,22.3041460000 114.2353560000,22.3041220000 114.2353070000,22.3041050000 114.2352560000,22.3040950000 114.2351980000,22.3040930000 114.2351410000,22.3040990000 114.2350850000,22.3041150000 114.2350340000,22.3041390000 114.2349870000,22.3041710000 114.2349470000,22.3042090000 114.2349140000,22.3042540000 114.2348900000,22.3043020000 114.2348760000,22.3043540000 114.2348710000,22.3044070000 114.2348760000,22.3044610000 114.2348900000,22.3045130000 114.2348910000,22.3045650000 114.2348850000,22.3046180000 114.2348730000,22.3046700000 114.2348560000,22.3047170000 114.2348330000,22.3047630000 114.2348060000,22.3048070000 114.2347440000,22.3048910000 114.2345260000,22.3051660000 114.2344320000,22.3052760000 114.2343210000,22.3054100000 114.2342610000,22.3054830000 114.2342020000,22.3055540000 114.2340780000,22.3057000000 114.2339720000,22.3058260000 114.2336090000,22.3062930000 114.2328750000,22.3071600000 114.2327200000,22.3072830000 114.2324240000,22.3076520000 114.2319310000,22.3082190000 114.2315590000,22.3086570000 114.2313770000,22.3088390000 114.2312180000,22.3089510000 114.2309300000,22.3091210000 114.2309030000,22.3091400000 114.2308790000,22.3091550000 114.2307850000,22.3092140000 114.2306840000,22.3092810000 114.2304860000,22.3094100000 114.2304340000,22.3094430000 114.2302720000,22.3095480000 114.2300430000,22.3096970000 114.2299530000,22.3097770000 114.2299240000,22.3098060000 114.2298750000,22.3098370000 114.2297810000,22.3098960000 114.2296940000,22.3099510000 114.2296820000,22.3099580000 114.2296750000,22.3099630000 114.2293170000,22.3101970000 114.2292290000,22.3102550000 114.2290200000,22.3103910000 114.2287160000,22.3105840000 114.2286780000,22.3106200000 114.2286260000,22.3106530000 114.2285520000,22.3106980000 114.2285190000,22.3107140000 114.2284990000,22.3107240000 114.2282970000,22.3108580000 114.2281520000,22.3109540000 114.2280840000,22.3109990000 114.2279490000,22.3110860000 114.2278830000,22.3111290000 114.2278090000,22.3111770000 114.2277470000,22.3112660000 114.2273450000,22.3115460000 114.2270280000,22.3117740000 114.2266760000,22.3120110000 114.2263970000,22.3121720000 114.2258170000,22.3124850000 114.2256630000,22.3125630000 114.2253150000,22.3127380000 114.2249280000,22.3128900000 114.2247190000,22.3129730000 114.2245380000,22.3130030000 114.2243780000,22.3130710000 114.2243680000,22.3130750000 114.2242760000,22.3131100000 114.2241880000,22.3131440000 114.2240960000,22.3131780000 114.2239290000,22.3132390000 114.2236360000,22.3133460000 114.2235750000,22.3133690000 114.2235160000,22.3133900000 114.2233740000,22.3134420000 114.2233070000,22.3134660000 114.2231210000,22.3135340000 114.2228640000,22.3136270000 114.2227820000,22.3136570000 114.2226390000,22.3137090000 114.2224870000,22.3137640000 114.2224290000,22.3137850000 114.2222580000,22.3138470000 114.2221040000,22.3139040000 114.2220390000,22.3139280000 114.2218560000,22.3139950000 114.2217590000,22.3140310000 114.2215610000,22.3141030000 114.2213020000,22.3141980000 114.2210670000,22.3142840000 114.2209000000,22.3143490000 114.2207390000,22.3144110000 114.2205620000,22.3144800000 114.2204900000,22.3145070000 114.2203910000,22.3145460000 114.2202490000,22.3145780000 114.2201910000,22.3145920000 114.2201350000,22.3146140000 114.2197620000,22.3147570000 114.2197360000,22.3147640000 114.2197040000,22.3147710000 114.2196300000,22.3147990000 114.2193310000,22.3149130000 114.2189470000,22.3150600000 114.2187690000,22.3151280000 114.2186400000,22.3151730000 114.2185410000,22.3152090000 114.2184000000,22.3152610000 114.2181410000,22.3153450000 114.2175210000,22.3155660000 114.2173230000,22.3156480000 114.2169360000,22.3157980000 114.2167860000,22.3158610000 114.2166890000,22.3159140000 114.2166400000,22.3159380000 114.2165760000,22.3159770000 114.2164760000,22.3160360000 114.2164010000,22.3160810000 114.2163690000,22.3161010000 114.2163190000,22.3161320000 114.2162140000,22.3161960000 114.2161870000,22.3162170000 114.2161470000,22.3162490000 114.2160840000,22.3162990000 114.2160330000,22.3163390000 114.2159480000,22.3164060000 114.2158710000,22.3164660000 114.2158000000,22.3165230000 114.2156690000,22.3166440000 114.2156250000,22.3166830000 114.2155020000,22.3167930000 114.2153290000,22.3169920000 114.2152300000,22.3171410000 114.2151940000,22.3171960000 114.2151090000,22.3173450000 114.2150440000,22.3174740000 114.2149780000,22.3176290000 114.2149150000,22.3178050000 114.2148580000,22.3179800000 114.2148220000,22.3181040000 114.2147950000,22.3182230000 114.2147730000,22.3183510000 114.2147400000,22.3185790000 114.2147090000,22.3189020000 114.2147040000,22.3189730000 114.2146790000,22.3193310000 114.2146640000,22.3195560000 114.2146290000,22.3199060000 114.2146160000,22.3200310000 114.2146030000,22.3201610000 114.2144300000,22.3216710000 114.2144190000,22.3217670000 114.2144070000,22.3218760000 114.2143950000,22.3219840000 114.2143910000,22.3220140000 114.2143790000,22.3221170000 114.2143550000,22.3223310000 114.2143390000,22.3224820000 114.2143310000,22.3225550000 114.2143230000,22.3226320000 114.2142660000,22.3231640000 114.2142580000,22.3232480000 114.2142490000,22.3233260000 114.2142440000,22.3233730000 114.2142410000,22.3234060000 114.2141360000,22.3243970000 114.2141300000,22.3244490000 114.2141280000,22.3244710000 114.2141240000,22.3245100000 114.2141230000,22.3245120000 114.2141170000,22.3245730000 114.2141160000,22.3245850000 114.2141160000,22.3245850000 114.2140920000,22.3249480000 114.2140850000,22.3250440000 114.2140800000,22.3251220000 114.2140750000,22.3251990000 114.2140730000,22.3252350000 114.2140730000,22.3252390000 114.2140690000,22.3253000000 114.2140630000,22.3253730000 114.2140590000,22.3254370000 114.2140560000,22.3254640000 114.2140330000,22.3255960000 114.2139970000,22.3257440000 114.2139800000,22.3258030000 114.2139430000,22.3259030000 114.2138820000,22.3260440000 114.2138130000,22.3261910000 114.2136480000,22.3265480000 114.2134370000,22.3270090000 114.2133740000,22.3271680000 114.2133410000,22.3272510000 114.2133010000,22.3273440000 114.2132670000,22.3274240000 114.2131800000,22.3275570000 114.2131280000,22.3276370000 114.2129520000,22.3278720000 114.2128610000,22.3279840000 114.2126100000,22.3282630000 114.2125500000,22.3283300000 114.2124890000,22.3283950000 114.2123930000,22.3284830000 114.2123140000,22.3285510000 114.2122360000,22.3286190000 114.2121840000,22.3286590000 114.2120040000,22.3287760000 114.2119080000,22.3288490000 114.2118120000,22.3289220000 114.2116900000,22.3290120000 114.2115880000,22.3290940000 114.2115000000,22.3291650000 114.2114450000,22.3291940000 114.2113770000,22.3292300000 114.2109910000,22.3295430000 114.2107160000,22.3297990000 114.2102920000,22.3302080000 114.2101630000,22.3303200000 114.2101430000,22.3303570000 114.2101060000,22.3304280000 114.2100020000,22.3305170000 114.2099570000,22.3305570000 114.2098360000,22.3306550000 114.2096500000,22.3307950000 114.2095690000,22.3308540000 114.2094000000,22.3309520000 114.2093640000,22.3309740000 114.2093180000,22.3310020000 114.2091910000,22.3310790000 114.2088910000,22.3313180000 114.2086710000,22.3315430000 114.2083180000,22.3318560000 114.2080150000,22.3320870000 114.2078770000,22.3321630000 114.2077030000,22.3322490000 114.2075600000,22.3323340000 114.2074530000,22.3324080000 114.2072180000,22.3325950000 114.2068250000,22.3329060000 114.2065030000,22.3331610000 114.2064540000,22.3332020000 114.2064080000,22.3332460000 114.2063750000,22.3332840000 114.2063460000,22.3333250000 114.2063250000,22.3333680000 114.2063110000,22.3334060000 114.2063050000,22.3334450000 114.2063040000,22.3334910000 114.2063110000,22.3335350000 114.2063230000,22.3335750000 114.2063410000,22.3336120000 114.2063640000,22.3336450000 114.2063910000,22.3336740000 114.2064230000,22.3336980000 114.2064610000,22.3337190000 114.2065030000,22.3337350000 114.2065450000,22.3337440000 114.2065830000,22.3337490000 114.2066240000,22.3337470000 114.2066660000,22.3337420000 114.2067060000,22.3337330000 114.2067480000,22.3337190000 114.2067950000,22.3336990000 114.2068510000,22.3336700000 114.2070050000,22.3335750000 114.2070510000,22.3335500000 114.2071000000,22.3335270000 114.2071550000,22.3335080000 114.2072080000,22.3334960000 114.2072430000,22.3334920000 114.2072630000,22.3334900000 114.2073160000,22.3334920000 114.2073600000,22.3335010000 114.2073970000,22.3335150000 114.2074420000,22.3335360000 114.2074770000,22.3335580000 114.2075140000,22.3335840000 114.2075480000,22.3336110000 114.2075810000,22.3336420000 114.2076140000,22.3336740000 114.2076560000,22.3337060000 114.2077610000,22.3337660000 114.2078320000,22.3338530000 114.2078940000,22.3339400000 114.2079370000,22.3340260000 114.2079670000,22.3341100000 114.2079780000,22.3341630000 114.2079950000,22.3342350000 114.2080000000,22.3343360000 114.2080050000,22.3344320000 114.2080030000,22.3345270000 114.2079940000,22.3345770000 114.2079880000,22.3346070000 114.2079790000,22.3346360000 114.2079570000,22.3346940000 114.2078730000,22.3348950000 114.2077320000,22.3351980000 114.2077250000,22.3352110000 114.2076860000,22.3352950000 114.2076510000,22.3353700000 114.2076190000,22.3354420000 114.2075480000,22.3355980000 114.2074350000,22.3358460000 114.2074100000,22.3359010000 114.2074010000,22.3359970000 114.2073760000,22.3360480000 114.2073560000,22.3360870000 114.2073230000,22.3361410000 114.2072850000,22.3361990000 114.2072740000,22.3362150000 114.2072580000,22.3362400000 114.2072210000,22.3362940000 114.2071800000,22.3363450000 114.2071440000,22.3363850000 114.2071020000,22.3364290000 114.2070320000,22.3364970000 114.2069650000,22.3365610000 114.2068930000,22.3366200000 114.2068400000,22.3366590000 114.2067850000,22.3366990000 114.2067040000,22.3367530000 114.2065980000,22.3368240000 114.2065370000,22.3368620000 114.2065140000,22.3368770000 114.2064720000,22.3369040000 114.2063830000,22.3369600000 114.2063260000,22.3369950000 114.2062660000,22.3370330000 114.2061340000,22.3371140000 114.2060170000,22.3371880000 114.2058320000,22.3372900000 114.2056660000,22.3373870000 114.2053080000,22.3375820000 114.2052620000,22.3376170000 114.2051970000,22.3376710000 114.2046310000,22.3379940000 114.2045110000,22.3380630000 114.2044400000,22.3381040000 114.2042370000,22.3382210000 114.2038960000,22.3384230000 114.2037480000,22.3385110000 114.2035800000,22.3385870000 114.2034540000,22.3386670000 114.2031670000,22.3388460000 114.2030800000,22.3389010000 114.2029090000,22.3389990000 114.2028670000,22.3390220000 114.2024520000,22.3392660000 114.2024210000,22.3392840000 114.2024040000,22.3392940000 114.2023920000,22.3393020000 114.2023130000,22.3393480000 114.2022820000,22.3393660000 114.2019180000,22.3395740000 114.2016920000,22.3397040000 114.2015860000,22.3397640000 114.2005870000,22.3403520000 114.2002070000,22.3405730000 114.2000820000,22.3406460000 114.1999480000,22.3407320000 114.1998280000,22.3408090000 114.1997410000,22.3408640000 114.1996590000,22.3409170000 114.1991570000,22.3411960000 114.1991050000,22.3412240000 114.1990500000,22.3412500000 114.1989960000,22.3412730000 114.1989190000,22.3413040000 114.1988480000,22.3413400000 114.1987770000,22.3413730000 114.1987090000,22.3414070000 114.1985240000,22.3414840000 114.1982660000,22.3415610000 114.1979200000,22.3416220000 114.1977250000,22.3416480000 114.1976250000,22.3416510000 114.1975060000,22.3416560000 114.1972480000,22.3416550000 114.1970540000,22.3416540000 114.1969790000,22.3416540000 114.1968670000,22.3416540000 114.1967670000,22.3416530000 114.1964930000,22.3416520000 114.1964500000,22.3416520000 114.1958270000,22.3416540000 114.1956690000,22.3416520000 114.1955420000,22.3416510000 114.1954050000,22.3416500000 114.1947310000,22.3416450000 114.1943230000,22.3416420000 114.1938970000,22.3416380000 114.1935070000,22.3416360000 114.1929920000,22.3416320000 114.1928820000,22.3416310000 114.1927790000,22.3416300000 114.1925840000,22.3416290000 114.1924800000,22.3416270000 114.1919230000,22.3416100000 114.1917630000,22.3416040000 114.1916880000,22.3416020000 114.1915670000,22.3415980000 114.1914890000,22.3415970000 114.1914770000,22.3415970000 114.1914060000,22.3416000000 114.1912840000,22.3416100000 114.1912020000,22.3416220000 114.1911890000,22.3416230000 114.1911290000,22.3416310000 114.1910710000,22.3416400000 114.1909990000,22.3416520000 114.1909380000,22.3416640000 114.1908750000,22.3416780000 114.1908050000,22.3416960000 114.1907460000,22.3417140000 114.1906810000,22.3417360000 114.1905830000,22.3417720000 114.1904490000,22.3418280000 114.1901390000,22.3419650000 114.1897600000,22.3421430000 114.1894280000,22.3422830000 114.1893850000,22.3422990000 114.1893010000,22.3423250000 114.1892170000,22.3423490000 114.1891060000,22.3423750000 114.1889930000,22.3424010000 114.1888940000,22.3424180000 114.1887960000,22.3424290000 114.1886880000,22.3424330000 114.1885530000,22.3424320000 114.1884710000,22.3424320000 114.1884320000,22.3424330000 114.1883540000,22.3424330000 114.1875180000,22.3424390000 114.1868290000,22.3424490000 114.1867070000,22.3424570000 114.1864590000,22.3424810000 114.1862950000,22.3425020000 114.1860620000,22.3425420000 114.1860200000,22.3425500000 114.1859350000,22.3425660000 114.1856710000,22.3426160000 114.1854060000,22.3426840000 114.1850690000,22.3427850000 114.1842260000,22.3431310000 114.1841160000,22.3431770000 114.1838670000,22.3432890000 114.1837970000,22.3433240000 114.1836470000,22.3434070000 114.1833220000,22.3436020000 114.1829390000,22.3438570000 114.1828280000,22.3439280000 114.1827760000,22.3439580000 114.1827340000,22.3439810000 114.1826350000,22.3440280000 114.1824790000,22.3440810000 114.1824200000,22.3440970000 114.1823620000,22.3441070000 114.1822470000,22.3441150000 114.1822020000,22.3441150000 114.1821490000,22.3441100000 114.1820800000,22.3441020000 114.1820300000,22.3441010000 114.1815930000,22.3440780000 114.1813330000,22.3440620000 114.1811760000,22.3440510000 114.1811030000,22.3440470000 114.1810330000,22.3440420000 114.1807890000,22.3440280000 114.1806000000,22.3440270000 114.1803340000,22.3440360000 114.1801880000,22.3440400000 114.1800690000,22.3440470000 114.1799690000,22.3440550000 114.1798530000,22.3440670000 114.1797140000,22.3440860000 114.1796190000,22.3441010000 114.1795290000,22.3441160000 114.1795050000,22.3441210000 114.1794590000,22.3441300000 114.1793400000,22.3441540000 114.1792030000,22.3441850000 114.1791020000,22.3442100000 114.1790020000,22.3442390000 114.1788880000,22.3442750000 114.1788200000,22.3442990000 114.1787280000,22.3443320000 114.1779220000,22.3446530000 114.1778360000,22.3446830000 114.1777390000,22.3447100000 114.1776470000,22.3447250000 114.1775530000,22.3447380000 114.1774780000,22.3447450000 114.1773690000,22.3447460000 114.1772700000,22.3447380000 114.1771470000,22.3447200000 114.1770370000,22.3446920000 114.1768940000,22.3446490000 114.1758970000,22.3443260000 114.1757270000,22.3442560000 114.1755780000,22.3441760000 114.1754120000,22.3440510000 114.1752930000,22.3439240000 114.1752030000,22.3437750000 114.1749310000,22.3433230000 114.1748550000,22.3431950000 114.1748210000,22.3431390000 114.1747640000,22.3430650000 114.1747360000,22.3430290000 114.1746730000,22.3429520000 114.1746100000,22.3428770000 114.1745540000,22.3428280000 114.1744690000,22.3427530000 114.1743770000,22.3426940000 114.1743100000,22.3426510000 114.1742070000,22.3426030000 114.1741510000,22.3425770000 114.1740900000,22.3425560000 114.1739850000,22.3425200000 114.1738850000,22.3425080000 114.1738440000,22.3425030000 114.1737860000,22.3425000000 114.1736660000,22.3424940000 114.1735370000,22.3424900000 114.1734320000,22.3424950000 114.1733000000,22.3425120000 114.1731770000,22.3425600000 114.1731280000,22.3425790000 114.1730660000,22.3426100000 114.1730210000,22.3426350000 114.1729340000,22.3426920000 114.1728310000,22.3427590000 114.1727340000,22.3428180000 114.1724360000,22.3430230000 114.1723420000,22.3430850000 114.1722320000,22.3431370000 114.1720780000,22.3432030000 114.1719320000,22.3432500000 114.1718040000,22.3432690000 114.1716860000,22.3432780000 114.1715690000,22.3432770000 114.1714350000,22.3432600000 114.1713070000,22.3432270000 114.1711970000,22.3431840000 114.1711020000,22.3431310000 114.1710120000,22.3430720000 114.1708890000,22.3429780000 114.1708120000,22.3429020000 114.1707170000,22.3428080000 114.1705000000,22.3425770000 114.1700810000,22.3421510000 114.1699250000,22.3419880000 114.1698460000,22.3419060000 114.1695820000,22.3416760000 114.1694490000,22.3415410000 114.1693270000,22.3414250000 114.1692720000,22.3413790000 114.1692000000,22.3413250000 114.1691670000,22.3413020000 114.1691110000,22.3412610000 114.1690610000,22.3412280000 114.1690110000,22.3411990000 114.1689460000,22.3411650000 114.1688790000,22.3411350000 114.1688110000,22.3411110000 114.1687380000,22.3410890000 114.1686710000,22.3410730000 114.1686080000,22.3410620000 114.1685460000,22.3410530000 114.1684730000,22.3410460000 114.1684060000,22.3410410000 114.1683460000,22.3410400000 114.1682870000,22.3410410000 114.1682290000,22.3410450000 114.1681730000,22.3410530000 114.1681150000,22.3410640000 114.1680640000,22.3410770000 114.1680070000,22.3410940000 114.1679210000,22.3411250000 114.1678030000,22.3411730000 114.1677290000,22.3412040000 114.1676730000,22.3412280000 114.1676400000,22.3412430000 114.1676060000,22.3412580000 114.1675370000,22.3412910000 114.1674660000,22.3413260000 114.1673940000,22.3413630000 114.1672770000,22.3414240000 114.1671530000,22.3414910000 114.1669690000,22.3415970000 114.1668570000,22.3416580000 114.1667980000,22.3416890000 114.1667300000,22.3417210000 114.1666590000,22.3417520000 114.1665870000,22.3417830000 114.1664910000,22.3418180000 114.1663840000,22.3418500000 114.1662870000,22.3418730000 114.1661860000,22.3418930000 114.1660880000,22.3419070000 114.1659670000,22.3419200000 114.1658600000,22.3419270000 114.1657250000,22.3419320000 114.1655140000,22.3419260000 114.1653030000,22.3419110000 114.1650700000,22.3418990000 114.1649140000,22.3418900000 114.1647570000,22.3418820000 114.1646800000,22.3418780000 114.1646000000,22.3418750000 114.1645410000,22.3418690000 114.1644540000,22.3418600000 114.1643310000,22.3418440000 114.1642790000,22.3418360000 114.1642460000,22.3418310000 114.1641480000,22.3418090000 114.1640610000,22.3417900000 114.1640410000,22.3417850000 114.1638820000,22.3417390000 114.1636810000,22.3416680000 114.1632310000,22.3414640000 114.1631590000,22.3414290000 114.1627770000,22.3412460000 114.1625570000,22.3411600000 114.1622970000,22.3410890000 114.1620480000,22.3410370000 114.1619270000,22.3410170000 114.1618180000,22.3410110000 114.1617210000,22.3410080000 114.1615760000,22.3410040000 114.1614400000,22.3410130000 114.1613180000,22.3410260000 114.1612110000,22.3410440000 114.1610980000,22.3410710000 114.1609950000,22.3410980000 114.1608970000,22.3411280000 114.1608050000,22.3411640000 114.1607110000,22.3412010000 114.1605900000,22.3412540000 114.1604990000,22.3413040000 114.1603840000,22.3413750000 114.1602450000,22.3414700000 114.1602080000,22.3415000000 114.1600940000,22.3416050000 114.1600230000,22.3416710000 114.1599540000,22.3417390000 114.1595840000,22.3421550000 114.1594570000,22.3422990000 114.1593490000,22.3424050000 114.1592300000,22.3425000000 114.1590960000,22.3425810000 114.1589210000,22.3426590000 114.1588270000,22.3426940000 114.1587310000,22.3427250000 114.1586460000,22.3427490000 114.1585740000,22.3427660000 114.1584700000,22.3427840000 114.1583810000,22.3427950000 114.1582480000,22.3428110000 114.1581100000,22.3428220000 114.1580240000,22.3428280000 114.1579280000,22.3428320000 114.1578230000,22.3428310000 114.1574940000,22.3428200000 114.1572910000,22.3428110000 114.1567770000,22.3427460000 114.1565920000,22.3427270000 114.1564280000,22.3427150000 114.1561340000,22.3426960000 114.1560770000,22.3426930000 114.1560160000,22.3426910000 114.1559220000,22.3426930000 114.1558430000,22.3426960000 114.1557970000,22.3426990000 114.1557090000,22.3427090000 114.1556090000,22.3427240000 114.1551680000,22.3427810000 114.1550640000,22.3427890000 114.1549500000,22.3427930000 114.1548800000,22.3427920000 114.1547950000,22.3427870000 114.1547000000,22.3427780000 114.1545910000,22.3427610000 114.1545290000,22.3427480000 114.1544640000,22.3427290000 114.1543810000,22.3427020000 114.1543090000,22.3426750000 114.1540910000,22.3425860000 114.1537240000,22.3424270000 114.1535410000,22.3423270000 114.1531180000,22.3421470000 114.1508650000,22.3411960000 114.1505890000,22.3410750000 114.1500430000,22.3408430000 114.1496850000,22.3406930000 114.1494990000,22.3406340000 114.1494220000,22.3406120000 114.1470770000,22.3399400000 114.1469650000,22.3399100000 114.1468690000,22.3398890000 114.1467810000,22.3398760000 114.1466880000,22.3398640000 114.1464880000,22.3398470000 114.1464150000,22.3398440000 114.1455730000,22.3398230000 114.1454390000,22.3398280000 114.1453370000,22.3398330000 114.1451710000,22.3398560000 114.1450930000,22.3398750000 114.1450020000,22.3399020000 114.1449420000,22.3399260000 114.1448680000,22.3399640000 114.1447740000,22.3400250000 114.1447060000,22.3400750000 114.1446460000,22.3401270000 114.1445870000,22.3401830000 114.1445300000,22.3402440000 114.1444790000,22.3403080000 114.1442340000,22.3406420000 114.1441670000,22.3407230000 114.1441190000,22.3407730000 114.1440660000,22.3408240000 114.1440070000,22.3408750000 114.1439500000,22.3409170000 114.1438900000,22.3409530000 114.1438240000,22.3409860000 114.1437750000,22.3410070000 114.1437100000,22.3410320000 114.1436350000,22.3410560000 114.1435720000,22.3410740000 114.1435300000,22.3410840000 114.1434910000,22.3410910000 114.1434540000,22.3410950000 114.1434230000,22.3410970000 114.1433880000,22.3410970000 114.1433580000,22.3410950000 114.1433350000,22.3410930000 114.1433050000,22.3410900000 114.1432500000,22.3410800000 114.1429410000,22.3409190000 114.1428130000,22.3408400000 114.1427640000,22.3408060000 114.1426890000,22.3407470000 114.1425450000,22.3406260000 114.1423730000,22.3404660000 114.1422960000,22.3403850000 114.1421780000,22.3402240000 114.1420910000,22.3401060000 114.1420310000,22.3400350000 114.1419850000,22.3399900000 114.1419260000,22.3399450000 114.1418780000,22.3399180000 114.1418320000,22.3398950000 114.1417780000,22.3398740000 114.1417300000,22.3398620000 114.1416870000,22.3398570000 114.1416320000,22.3398580000 114.1415770000,22.3398600000 114.1415260000,22.3398690000 114.1414590000,22.3398910000 114.1414030000,22.3399210000 114.1413370000,22.3399610000 114.1413040000,22.3399860000 114.1412710000,22.3400200000 114.1412350000,22.3400720000 114.1412160000,22.3401030000 114.1411960000,22.3401440000 114.1411760000,22.3402030000 114.1411620000,22.3402600000 114.1411480000,22.3403250000 114.1411430000,22.3403660000 114.1411170000,22.3406460000 114.1410930000,22.3408330000 114.1410480000,22.3411560000 114.1410130000,22.3412760000 114.1409310000,22.3414900000 114.1406800000,22.3418160000 114.1406150000,22.3419000000 114.1402040000,22.3425260000 114.1397700000,22.3433530000 114.1396660000,22.3435090000 114.1395320000,22.3436640000 114.1394710000,22.3437290000 114.1394340000,22.3437680000 114.1393260000,22.3438710000 114.1392490000,22.3439430000 114.1388940000,22.3442940000 114.1387060000,22.3445460000 114.1386200000,22.3447600000 114.1385680000,22.3449420000 114.1385200000,22.3451860000 114.1385090000,22.3453980000 114.1384390000,22.3461340000 114.1384130000,22.3462940000 114.1383750000,22.3464730000 114.1382880000,22.3466530000 114.1381960000,22.3467650000 114.1380530000,22.3468860000 114.1379040000,22.3469560000 114.1377450000,22.3470170000 114.1365460000,22.3473110000 114.1362230000,22.3474010000 114.1361200000,22.3474520000 114.1360090000,22.3475280000 114.1359350000,22.3476090000 114.1358260000,22.3477710000 114.1357140000,22.3479490000 114.1356300000,22.3480970000 114.1354820000,22.3483270000 114.1352790000,22.3485330000 114.1350790000,22.3486980000 114.1340230000,22.3495010000 114.1335340000,22.3498920000 114.1333900000,22.3500490000 114.1331840000,22.3503210000 114.1330720000,22.3505290000 114.1330020000,22.3507390000 114.1329830000,22.3508550000 114.1329790000,22.3508830000 114.1329650000,22.3509700000 114.1329530000,22.3510820000 114.1329440000,22.3512920000 114.1329400000,22.3514540000 114.1329340000,22.3516630000 114.1329330000,22.3519320000 114.1329360000,22.3520230000 114.1329330000,22.3521520000 114.1329310000,22.3522770000 114.1329730000,22.3531710000 114.1329820000,22.3532490000 114.1331710000,22.3546920000 114.1332100000,22.3549090000 114.1332840000,22.3551340000 114.1334930000,22.3555670000 114.1336230000,22.3558700000 114.1336920000,22.3560840000 114.1337160000,22.3562020000 114.1337520000,22.3564400000 114.1337880000,22.3567220000 114.1338860000,22.3574440000 114.1339770000,22.3580560000 114.1340150000,22.3582760000 114.1340780000,22.3584990000 114.1341550000,22.3586880000 114.1342790000,22.3589240000 114.1343910000,22.3591150000 114.1344230000,22.3591570000 114.1345390000,22.3593080000 114.1346390000,22.3594230000 114.1347800000,22.3595740000 114.1349610000,22.3597510000 114.1351990000,22.3599920000 114.1352450000,22.3600410000 114.1356360000,22.3604490000 114.1357630000,22.3605980000 114.1358850000,22.3607730000 114.1359600000,22.3609010000 114.1360130000,22.3610310000 114.1360320000,22.3610750000 114.1360780000,22.3612770000 114.1361300000,22.3615350000 114.1361360000,22.3616120000 114.1361380000,22.3617140000 114.1361320000,22.3617840000 114.1361020000,22.3620490000 114.1360600000,22.3622300000 114.1360470000,22.3623200000 114.1360390000,22.3623860000 114.1360330000,22.3624660000 114.1360430000,22.3625530000 114.1360250000,22.3626970000 114.1359730000,22.3631310000 114.1358960000,22.3637140000 114.1358820000,22.3637940000 114.1358380000,22.3640050000 114.1357890000,22.3641690000 114.1356880000,22.3644050000 114.1356420000,22.3645240000 114.1355980000,22.3646280000 114.1355460000,22.3647590000 114.1355140000,22.3648310000 114.1354640000,22.3649450000 114.1354410000,22.3649980000 114.1354140000,22.3650330000 114.1353680000,22.3651140000 114.1353280000,22.3651950000 114.1351290000,22.3656160000 114.1350640000,22.3657960000 114.1349840000,22.3660490000 114.1349770000,22.3661010000 114.1349510000,22.3663160000 114.1349200000,22.3664330000 114.1348940000,22.3666280000 114.1348600000,22.3668600000 114.1348390000,22.3670270000 114.1348060000,22.3671530000 114.1347510000,22.3673370000 114.1347150000,22.3674360000 114.1346370000,22.3676230000 114.1345340000,22.3678340000 114.1344430000,22.3679880000 114.1343530000,22.3681570000 114.1342320000,22.3683250000 114.1341410000,22.3684310000 114.1338410000,22.3687500000 114.1337780000,22.3688160000 114.1335980000,22.3689950000 114.1334790000,22.3690920000 114.1333780000,22.3691540000 114.1331660000,22.3692840000 114.1331210000,22.3693320000 114.1330870000,22.3693770000 114.1330590000,22.3694250000 114.1330420000,22.3694780000 114.1330380000,22.3695330000 114.1330460000,22.3695870000 114.1330670000,22.3696390000 114.1331000000,22.3696850000 114.1331420000,22.3697240000 114.1331810000,22.3697430000 114.1332450000,22.3697720000 114.1333130000,22.3697960000 114.1333660000,22.3698110000 114.1334060000,22.3698520000 114.1334330000,22.3699010000 114.1334470000,22.3699540000 114.1334480000,22.3700090000 114.1334290000,22.3700760000 114.1333900000,22.3701340000 114.1333350000,22.3701800000 114.1332900000,22.3702120000 114.1328120000,22.3705120000 114.1326750000,22.3705980000 114.1319760000,22.3710380000 114.1315330000,22.3712770000 114.1311990000,22.3714130000 114.1309100000,22.3715250000 114.1306740000,22.3716100000 114.1305080000,22.3716650000 114.1303910000,22.3716990000 114.1302680000,22.3717120000 114.1301480000,22.3717240000 114.1299590000,22.3717270000 114.1290620000,22.3716690000 114.1288150000,22.3716500000 114.1283830000,22.3716070000 114.1279800000,22.3715480000 114.1278560000,22.3715290000 114.1271550000,22.3713060000 114.1269520000,22.3712540000 114.1266060000,22.3711870000 114.1264150000,22.3711660000 114.1258700000,22.3711380000 114.1252960000,22.3711040000 114.1252160000,22.3710980000 114.1251170000,22.3711030000 114.1249810000,22.3711170000 114.1248250000,22.3711660000 114.1247530000,22.3711850000 114.1246150000,22.3712300000 114.1245990000,22.3712350000 114.1244650000,22.3712760000 114.1243460000,22.3712850000 114.1237500000,22.3712970000 114.1236830000,22.3712850000 114.1236440000,22.3712670000 114.1236050000,22.3712420000 114.1235630000,22.3712060000 114.1235260000,22.3711580000 114.1234890000,22.3710820000 114.1234840000,22.3708900000 114.1234780000,22.3706360000 114.1234290000,22.3703850000 114.1233820000,22.3701890000 114.1233460000,22.3700960000 114.1232880000,22.3699450000 114.1232590000,22.3698660000 114.1231550000,22.3697120000 114.1230600000,22.3695370000 114.1230250000,22.3694720000 114.1229470000,22.3693440000 114.1228370000,22.3691710000 114.1225970000,22.3688230000 114.1224900000,22.3686600000 114.1224040000,22.3685290000 114.1221960000,22.3681960000 114.1218740000,22.3677070000 114.1216010000,22.3673340000 114.1215150000,22.3671460000 114.1214320000,22.3669660000 114.1213360000,22.3666970000 114.1212850000,22.3665180000 114.1212040000,22.3661380000 114.1211350000,22.3658410000 114.1210830000,22.3656710000 114.1210070000,22.3654600000 114.1209050000,22.3652600000 114.1208020000,22.3650900000 114.1205500000,22.3647540000 114.1202350000,22.3643820000 114.1201080000,22.3642430000 114.1199640000,22.3640860000 114.1198290000,22.3639440000 114.1197480000,22.3638620000 114.1194330000,22.3636940000 114.1192800000,22.3636300000 114.1186200000,22.3634180000 114.1181880000,22.3632930000 114.1177410000,22.3631060000 114.1173980000,22.3629630000 114.1172190000,22.3628810000 114.1172060000,22.3628750000 114.1170850000,22.3628190000 114.1169190000,22.3627410000 114.1168290000,22.3626990000 114.1166340000,22.3626080000 114.1164820000,22.3625310000 114.1163820000,22.3624750000 114.1162470000,22.3623920000 114.1160290000,22.3622510000 114.1157230000,22.3620410000 114.1154320000,22.3618380000 114.1152270000,22.3616850000 114.1151000000,22.3615910000 114.1149250000,22.3614610000 114.1147420000,22.3613250000 114.1146050000,22.3612330000 114.1144740000,22.3611400000 114.1143620000,22.3610580000 114.1142540000,22.3609830000 114.1141990000,22.3609460000 114.1140710000,22.3608570000 114.1139900000,22.3608160000 114.1138870000,22.3607690000 114.1138040000,22.3607320000 114.1136640000,22.3606760000 114.1135790000,22.3606450000 114.1135500000,22.3606360000 114.1134190000,22.3605950000 114.1133140000,22.3605690000 114.1131590000,22.3605260000 114.1130220000,22.3604930000 114.1127800000,22.3604420000 114.1127340000,22.3604330000 114.1121940000,22.3603340000 114.1119350000,22.3602930000 114.1117100000,22.3602550000 114.1110260000,22.3601300000 114.1106630000,22.3600640000 114.1097060000,22.3599040000 114.1095060000,22.3598670000 114.1090180000,22.3597840000 114.1086220000,22.3597020000 114.1083270000,22.3596480000 114.1081850000,22.3596210000 114.1079880000,22.3595890000 114.1075300000,22.3595100000 114.1072610000,22.3594630000 114.1071700000,22.3594480000 114.1069630000,22.3594140000 114.1068850000,22.3594010000 114.1065010000,22.3593280000 114.1063200000,22.3592970000 114.1062100000,22.3592800000 114.1061060000,22.3592650000 114.1059380000,22.3592410000 114.1058700000,22.3592320000 114.1056530000,22.3591810000 114.1055010000,22.3591470000 114.1053470000,22.3591180000 114.1050540000,22.3591120000 114.1049330000,22.3591120000 114.1047570000,22.3591180000 114.1046180000,22.3591270000 114.1044600000,22.3591430000 114.1042720000,22.3591630000 114.1040910000,22.3591900000 114.1038650000,22.3592340000 114.1037690000,22.3592540000 114.1036990000,22.3592690000 114.1033460000,22.3593420000 114.1032920000,22.3593510000 114.1031470000,22.3593500000 114.1030200000,22.3593340000 114.1029420000,22.3593050000 114.1029010000,22.3592920000 114.1028510000,22.3592840000 114.1028030000,22.3592830000 114.1027100000,22.3592910000 114.1026170000,22.3593140000 114.1025460000,22.3593450000 114.1024810000,22.3593860000 114.1024230000,22.3594360000 114.1023760000,22.3594950000 114.1023420000,22.3595650000 114.1023110000,22.3596350000 114.1023050000,22.3597050000 114.1023170000,22.3597980000 114.1023700000,22.3599290000 114.1024280000,22.3600010000 114.1025030000,22.3600650000 114.1026000000,22.3601010000 114.1027270000,22.3601280000 114.1028540000,22.3601340000 114.1029390000,22.3601230000 114.1029970000,22.3601040000 114.1030500000,22.3600900000 114.1031470000,22.3601460000 114.1032190000,22.3602050000 114.1032760000,22.3602660000 114.1033520000,22.3603980000 114.1033760000,22.3604480000 114.1034170000,22.3605300000 114.1034540000,22.3605930000 114.1034850000,22.3606410000 114.1036200000,22.3608220000 114.1037260000,22.3609590000 114.1037710000,22.3610170000 114.1038670000,22.3610940000 114.1039700000,22.3611590000 114.1040300000,22.3611900000 114.1041370000,22.3612820000 114.1041920000,22.3612980000 114.1042480000,22.3613160000 114.1044230000,22.3613270000 114.1044730000,22.3613270000 114.1045860000,22.3613260000 114.1047350000,22.3613240000 114.1048580000,22.3613220000 114.1050660000,22.3612970000 114.1051820000,22.3612530000 114.1053440000,22.3612230000 114.1054450000,22.3611820000 114.1054870000,22.3611670000 114.1055850000,22.3611150000 114.1056900000,22.3610320000 114.1057840000,22.3609160000 114.1058310000,22.3608450000 114.1058560000,22.3607940000 114.1058970000,22.3607150000 114.1059520000,22.3605360000 114.1059370000,22.3603410000 114.1059390000,22.3601060000 114.1059210000,22.3600460000 114.1059050000,22.3600050000 114.1058370000,22.3599050000 114.1057940000,22.3598300000 114.1057110000,22.3597750000 114.1055480000,22.3595220000 114.1055120000,22.3594120000 114.1054510000,22.3592100000 114.1054250000,22.3590590000 114.1054110000,22.3589740000 114.1054130000,22.3588080000 114.1054430000,22.3587160000 114.1055270000,22.3585700000 114.1056220000,22.3584270000 114.1056670000,22.3583470000 114.1057010000,22.3583000000 114.1057270000,22.3582650000 114.1057740000,22.3581980000 114.1057990000,22.3581630000 114.1058400000,22.3581000000 114.1058600000,22.3580700000 114.1058750000,22.3580500000 114.1058900000,22.3580290000 114.1062520000,22.3575220000 114.1062920000,22.3574670000 114.1063290000,22.3574220000 114.1064620000,22.3572540000 114.1065210000,22.3571700000 114.1066460000,22.3569690000 114.1067270000,22.3568380000 114.1068450000,22.3565700000 114.1069040000,22.3563830000 114.1069270000,22.3562570000 114.1069320000,22.3561800000 114.1069490000,22.3559190000 114.1069540000,22.3558350000 114.1069570000,22.3557840000 114.1069850000,22.3553430000 114.1070190000,22.3548820000 114.1070380000,22.3547170000 114.1068720000,22.3547160000 114.1068110000,22.3547160000 114.1065540000,22.3546890000 114.1063530000,22.3546590000 114.1062030000,22.3545690000 114.1061230000,22.3544640000 114.1061010000,22.3543900000 114.1060940000,22.3543320000 114.1060890000,22.3538630000 114.1060770000,22.3537680000 114.1060540000,22.3536770000 114.1060260000,22.3535980000 114.1059900000,22.3535220000 114.1059460000,22.3534530000 114.1058930000,22.3533850000 114.1058210000,22.3533160000 114.1057590000,22.3532640000 114.1056830000,22.3532160000 114.1056030000,22.3531720000 114.1055280000,22.3531450000 114.1054520000,22.3531250000 114.1053690000,22.3531090000 114.1052910000,22.3531010000 114.1051560000,22.3530920000 114.1050520000,22.3530860000 114.1049920000,22.3530820000 114.1049090000,22.3530770000 114.1048140000,22.3530730000 114.1047330000,22.3530730000 114.1046560000,22.3530780000 114.1045810000,22.3530910000 114.1045040000,22.3531130000 114.1044330000,22.3531410000 114.1043630000,22.3531750000 114.1043000000,22.3532130000 114.1042230000,22.3532690000 114.1041610000,22.3533250000 114.1040950000,22.3533950000 114.1040850000,22.3534060000 114.1039990000,22.3535250000 114.1039460000,22.3536710000 114.1039260000,22.3537840000 114.1039180000,22.3538460000 114.1039090000,22.3540540000 114.1039070000,22.3541100000 114.1039000000,22.3542830000 114.1038980000,22.3543320000 114.1038940000,22.3544720000 114.1038850000,22.3547680000 114.1038780000,22.3549020000 114.1038410000,22.3549120000 114.1038090000,22.3549320000 114.1037860000,22.3549600000 114.1037720000,22.3549930000 114.1037710000,22.3550290000 114.1033340000,22.3550970000 114.1030720000,22.3551380000 114.1029450000,22.3551580000 114.1025340000,22.3552130000 114.1024410000,22.3552110000 114.1023180000,22.3552060000 114.1022270000,22.3552040000 114.1022060000,22.3553610000 114.1021790000,22.3555540000 114.1021460000,22.3557970000 114.1021250000,22.3559520000 114.1020170000,22.3563490000 114.1019090000,22.3567460000 114.1017860000,22.3571230000 114.1017290000,22.3572970000 114.1016600000,22.3573670000 114.1015760000,22.3574220000 114.1014810000,22.3574570000 114.1013370000,22.3574720000 114.1011950000,22.3574430000 114.1010790000,22.3573680000 114.1008750000,22.3571940000 114.1006980000,22.3570020000 114.1005860000,22.3568670000 114.1003010000,22.3564980000 114.1001590000,22.3562880000 114.1000350000,22.3561020000 114.0999330000,22.3558980000 114.0996560000,22.3552490000 114.0993300000,22.3545270000 114.0991150000,22.3540220000 114.0991000000,22.3539860000 114.0990780000,22.3539350000 114.0988620000,22.3534230000 114.0988100000,22.3533010000 114.0988030000,22.3532850000 114.0987810000,22.3532350000 114.0987560000,22.3531780000 114.0987490000,22.3531620000 114.0986010000,22.3528250000 114.0985300000,22.3526650000 114.0984130000,22.3523980000 114.0982560000,22.3524770000 114.0980570000,22.3526060000 114.0978910000,22.3527790000 114.0978240000,22.3529210000 114.0977980000,22.3529760000 114.0977760000,22.3530210000 114.0977600000,22.3530680000 114.0976190000,22.3535270000 114.0975880000,22.3536430000 114.0975630000,22.3537360000 114.0974980000,22.3540380000 114.0974770000,22.3541390000 114.0974590000,22.3542490000 114.0974430000,22.3543450000 114.0973490000,22.3548630000 114.0973420000,22.3550340000 114.0973570000,22.3551930000 114.0974010000,22.3554680000 114.0974050000,22.3555070000 114.0974100000,22.3555380000 114.0974250000,22.3556160000 114.0974350000,22.3556850000 114.0974520000,22.3558110000 114.0974640000,22.3558960000 114.0974830000,22.3561640000 114.0974710000,22.3564270000 114.0974410000,22.3566670000 114.0973570000,22.3568790000 114.0972900000,22.3570030000 114.0972170000,22.3571050000 114.0970810000,22.3572460000 114.0969620000,22.3573220000 114.0969470000,22.3573030000 114.0969260000,22.3572890000 114.0969020000,22.3572810000 114.0968770000,22.3572800000 114.0968520000,22.3572850000 114.0968290000,22.3572960000 114.0968100000,22.3573150000 114.0967980000,22.3573380000 114.0967940000,22.3573630000 114.0968020000,22.3573950000 114.0968210000,22.3574210000 114.0967550000,22.3574400000 114.0965790000,22.3574780000 114.0963260000,22.3575240000 114.0961000000,22.3575660000 114.0960770000,22.3575700000 114.0960130000,22.3575810000 114.0955000000,22.3576720000 114.0950600000,22.3577450000 114.0949850000,22.3577510000 114.0948430000,22.3577610000 114.0945790000,22.3577350000 114.0943570000,22.3576600000 114.0943220000,22.3576380000 114.0941240000,22.3575140000 114.0940490000,22.3574420000 114.0939620000,22.3573170000 114.0938820000,22.3571260000 114.0938640000,22.3569370000 114.0938800000,22.3567750000 114.0939330000,22.3566600000 114.0940140000,22.3564940000</coordinates>
                </LineString>
                <ExtendedData>
                    <Data name="length">
                        <value>51845.47924638238</value>
                    </Data>
                    <Data name="duration">
                        <value>01:06:24</value>
                    </Data>
                </ExtendedData>
            </Placemark>
        </Document>
    </Document>
</kml>