<?xml version="1.0" encoding="UTF-8"?>
<kml xmlns="http://www.opengis.net/kml/2.2" xmlns:gx="http://www.google.com/kml/ext/2.2">
    <Document>
        <name>Route</name>
        <Folder>
            <name>Route Request</name>
            <Placemark>
                <address>和喜樓, Hing Kwai Street, Leung Tin, Po Tong Ha, Kei Lun Wai, Tuen Mun District, New Territories, Hong Kong, China</address>
                <Point>
                    <coordinates>113.9737653535,22.3946273113</coordinates>
                </Point>
                <ExtendedData>
                    <Data name="building">
                        <value>和喜樓</value>
                    </Data>
                    <Data name="region">
                        <value>New Territories</value>
                    </Data>
                    <Data name="county">
                        <value>Tuen Mun District</value>
                    </Data>
                    <Data name="quarter">
                        <value>Leung Tin</value>
                    </Data>
                    <Data name="country">
                        <value>China</value>
                    </Data>
                    <Data name="country_code">
                        <value>cn</value>
                    </Data>
                    <Data name="village">
                        <value>Kei Lun Wai</value>
                    </Data>
                    <Data name="hamlet">
                        <value>Po Tong Ha</value>
                    </Data>
                    <Data name="ISO3166-2-lvl3">
                        <value>CN-HK</value>
                    </Data>
                    <Data name="routingVisited">
                        <value>false</value>
                    </Data>
                    <Data name="road">
                        <value>Hing Kwai Street</value>
                    </Data>
                    <Data name="state">
                        <value>Hong Kong</value>
                    </Data>
                </ExtendedData>
            </Placemark>
            <Placemark>
                <Point>
                    <coordinates>113.9792903762,22.4044630915</coordinates>
                </Point>
            </Placemark>
            <Placemark>
                <address>Hung Hei House, Hung Shui Kiu Tin Sam Road, Tin Sum, Hung Shui Kiu, Shek Po Village, Yuen Long District, New Territories, Hong Kong, China</address>
                <Point>
                    <coordinates>113.9984061629,22.4367419813</coordinates>
                </Point>
                <ExtendedData>
                    <Data name="building">
                        <value>Hung Hei House</value>
                    </Data>
                    <Data name="region">
                        <value>New Territories</value>
                    </Data>
                    <Data name="county">
                        <value>Yuen Long District</value>
                    </Data>
                    <Data name="quarter">
                        <value>Tin Sum</value>
                    </Data>
                    <Data name="country">
                        <value>China</value>
                    </Data>
                    <Data name="country_code">
                        <value>cn</value>
                    </Data>
                    <Data name="village">
                        <value>Shek Po Village</value>
                    </Data>
                    <Data name="ISO3166-2-lvl3">
                        <value>CN-HK</value>
                    </Data>
                    <Data name="suburb">
                        <value>Hung Shui Kiu</value>
                    </Data>
                    <Data name="road">
                        <value>Hung Shui Kiu Tin Sam Road</value>
                    </Data>
                    <Data name="state">
                        <value>Hong Kong</value>
                    </Data>
                </ExtendedData>
            </Placemark>
            <Placemark>
                <address>Tin Shui Wai West Interchange, Hung Shui Kiu, Shek Po Village, Yuen Long District, New Territories, Hong Kong, China</address>
                <Point>
                    <coordinates>114.0032389998,22.4343925719</coordinates>
                </Point>
                <ExtendedData>
                    <Data name="region">
                        <value>New Territories</value>
                    </Data>
                    <Data name="county">
                        <value>Yuen Long District</value>
                    </Data>
                    <Data name="country">
                        <value>China</value>
                    </Data>
                    <Data name="country_code">
                        <value>cn</value>
                    </Data>
                    <Data name="village">
                        <value>Shek Po Village</value>
                    </Data>
                    <Data name="ISO3166-2-lvl3">
                        <value>CN-HK</value>
                    </Data>
                    <Data name="suburb">
                        <value>Hung Shui Kiu</value>
                    </Data>
                    <Data name="road">
                        <value>Tin Shui Wai West Interchange</value>
                    </Data>
                    <Data name="state">
                        <value>Hong Kong</value>
                    </Data>
                </ExtendedData>
            </Placemark>
            <Placemark>
                <Point>
                    <coordinates>114.1059729639,22.3605812239</coordinates>
                </Point>
            </Placemark>
            <Placemark>
                <Point>
                    <coordinates>114.1007433652,22.3498718424</coordinates>
                </Point>
            </Placemark>
            <Placemark>
                <address>Tsing Kwai Highway, Tsing Yi Industrial Area, Ha Kwai Chung, Kwai Chung, Kwai Tsing District, New Territories, Hong Kong, China</address>
                <Point>
                    <coordinates>114.1055275282,22.3394875657</coordinates>
                </Point>
                <ExtendedData>
                    <Data name="region">
                        <value>New Territories</value>
                    </Data>
                    <Data name="neighbourhood">
                        <value>Tsing Yi Industrial Area</value>
                    </Data>
                    <Data name="county">
                        <value>Kwai Tsing District</value>
                    </Data>
                    <Data name="country">
                        <value>China</value>
                    </Data>
                    <Data name="country_code">
                        <value>cn</value>
                    </Data>
                    <Data name="ISO3166-2-lvl3">
                        <value>CN-HK</value>
                    </Data>
                    <Data name="town">
                        <value>Kwai Chung</value>
                    </Data>
                    <Data name="suburb">
                        <value>Ha Kwai Chung</value>
                    </Data>
                    <Data name="routingVisited">
                        <value>false</value>
                    </Data>
                    <Data name="road">
                        <value>Tsing Kwai Highway</value>
                    </Data>
                    <Data name="state">
                        <value>Hong Kong</value>
                    </Data>
                </ExtendedData>
            </Placemark>
            <Placemark>
                <Point>
                    <coordinates>114.1083646848,22.3502810801</coordinates>
                </Point>
            </Placemark>
            <Placemark>
                <Point>
                    <coordinates>114.1036982210,22.3605540783</coordinates>
                </Point>
            </Placemark>
            <Placemark>
                <address>Tin Shui Wai West Interchange, Hung Uk Tsuen, Tong Yan San Tsuen, Yuen Long District, New Territories, Hong Kong, China</address>
                <Point>
                    <coordinates>114.0029286503,22.4341330178</coordinates>
                </Point>
                <ExtendedData>
                    <Data name="region">
                        <value>New Territories</value>
                    </Data>
                    <Data name="county">
                        <value>Yuen Long District</value>
                    </Data>
                    <Data name="country">
                        <value>China</value>
                    </Data>
                    <Data name="country_code">
                        <value>cn</value>
                    </Data>
                    <Data name="village">
                        <value>Tong Yan San Tsuen</value>
                    </Data>
                    <Data name="hamlet">
                        <value>Hung Uk Tsuen</value>
                    </Data>
                    <Data name="ISO3166-2-lvl3">
                        <value>CN-HK</value>
                    </Data>
                    <Data name="road">
                        <value>Tin Shui Wai West Interchange</value>
                    </Data>
                    <Data name="state">
                        <value>Hong Kong</value>
                    </Data>
                </ExtendedData>
            </Placemark>
            <Placemark>
                <address>Hung Hei House, Hung Shui Kiu Tin Sam Road, Tin Sum, Hung Shui Kiu, Shek Po Village, Yuen Long District, New Territories, Hong Kong, China</address>
                <Point>
                    <coordinates>113.9984357228,22.4367146621</coordinates>
                </Point>
                <ExtendedData>
                    <Data name="building">
                        <value>Hung Hei House</value>
                    </Data>
                    <Data name="region">
                        <value>New Territories</value>
                    </Data>
                    <Data name="county">
                        <value>Yuen Long District</value>
                    </Data>
                    <Data name="quarter">
                        <value>Tin Sum</value>
                    </Data>
                    <Data name="country">
                        <value>China</value>
                    </Data>
                    <Data name="country_code">
                        <value>cn</value>
                    </Data>
                    <Data name="village">
                        <value>Shek Po Village</value>
                    </Data>
                    <Data name="ISO3166-2-lvl3">
                        <value>CN-HK</value>
                    </Data>
                    <Data name="suburb">
                        <value>Hung Shui Kiu</value>
                    </Data>
                    <Data name="road">
                        <value>Hung Shui Kiu Tin Sam Road</value>
                    </Data>
                    <Data name="state">
                        <value>Hong Kong</value>
                    </Data>
                </ExtendedData>
            </Placemark>
            <Placemark>
                <Point>
                    <coordinates>113.9747698604,22.3963759263</coordinates>
                </Point>
            </Placemark>
            <Placemark>
                <Point>
                    <coordinates>113.9750808700,22.3920183520</coordinates>
                </Point>
            </Placemark>
            <Placemark>
                <address>和喜樓, Hing Kwai Street, Leung Tin, Po Tong Ha, Kei Lun Wai, Tuen Mun District, New Territories, Hong Kong, China</address>
                <Point>
                    <coordinates>113.9737657838,22.3946547394</coordinates>
                </Point>
                <ExtendedData>
                    <Data name="building">
                        <value>和喜樓</value>
                    </Data>
                    <Data name="region">
                        <value>New Territories</value>
                    </Data>
                    <Data name="county">
                        <value>Tuen Mun District</value>
                    </Data>
                    <Data name="quarter">
                        <value>Leung Tin</value>
                    </Data>
                    <Data name="country">
                        <value>China</value>
                    </Data>
                    <Data name="country_code">
                        <value>cn</value>
                    </Data>
                    <Data name="village">
                        <value>Kei Lun Wai</value>
                    </Data>
                    <Data name="hamlet">
                        <value>Po Tong Ha</value>
                    </Data>
                    <Data name="ISO3166-2-lvl3">
                        <value>CN-HK</value>
                    </Data>
                    <Data name="routingVisited">
                        <value>false</value>
                    </Data>
                    <Data name="road">
                        <value>Hing Kwai Street</value>
                    </Data>
                    <Data name="state">
                        <value>Hong Kong</value>
                    </Data>
                </ExtendedData>
            </Placemark>
        </Folder>
        <Document>
            <name>70.6 km; 01:22 h (OSRM)</name>
            <Placemark>
                <name>Route</name>
                <LineString>
                    <coordinates>113.9733540000,22.3947160000 113.9734660000,22.3951600000 113.9735170000,22.3953530000 113.9735650000,22.3955250000 113.9736820000,22.3959800000 113.9737000000,22.3960520000 113.9737580000,22.3960400000 113.9740370000,22.3959800000 113.9741130000,22.3959640000 113.9743570000,22.3959110000 113.9743900000,22.3959030000 113.9744390000,22.3958940000 113.9745070000,22.3958810000 113.9745350000,22.3959880000 113.9745420000,22.3960120000 113.9746620000,22.3964230000 113.9747560000,22.3967560000 113.9747710000,22.3968150000 113.9747890000,22.3968790000 113.9750080000,22.3976950000 113.9750540000,22.3978520000 113.9750740000,22.3979370000 113.9750830000,22.3979760000 113.9751170000,22.3980200000 113.9751450000,22.3981150000 113.9751980000,22.3983320000 113.9753430000,22.3989060000 113.9753750000,22.3990870000 113.9753890000,22.3992410000 113.9753890000,22.3992490000 113.9753950000,22.3994710000 113.9754110000,22.3995960000 113.9754520000,22.3997640000 113.9755890000,22.3999810000 113.9758720000,22.4003880000 113.9759820000,22.4005310000 113.9761580000,22.4007540000 113.9763010000,22.4008640000 113.9763850000,22.4009270000 113.9764820000,22.4009570000 113.9765800000,22.4009740000 113.9767510000,22.4009810000 113.9769170000,22.4009650000 113.9778920000,22.4007730000 113.9780020000,22.4007550000 113.9783100000,22.4013650000 113.9783500000,22.4014390000 113.9786970000,22.4020840000 113.9790750000,22.4028580000 113.9791140000,22.4029330000 113.9791150000,22.4029360000 113.9792800000,22.4032670000 113.9793180000,22.4033570000 113.9793500000,22.4034390000 113.9793830000,22.4035320000 113.9794110000,22.4036170000 113.9794290000,22.4036780000 113.9794410000,22.4037340000 113.9794560000,22.4038220000 113.9794630000,22.4038760000 113.9794660000,22.4039320000 113.9794630000,22.4040000000 113.9794550000,22.4040700000 113.9794390000,22.4041600000 113.9794220000,22.4042270000 113.9794000000,22.4042940000 113.9793650000,22.4043740000 113.9793250000,22.4044530000 113.9793130000,22.4044740000 113.9792810000,22.4045290000 113.9792340000,22.4046030000 113.9791730000,22.4046870000 113.9790430000,22.4048570000 113.9787890000,22.4052410000 113.9786740000,22.4054430000 113.9785770000,22.4056570000 113.9785420000,22.4057770000 113.9785220000,22.4059080000 113.9785180000,22.4061310000 113.9785280000,22.4063250000 113.9785510000,22.4064820000 113.9786860000,22.4072140000 113.9787370000,22.4074620000 113.9787600000,22.4075820000 113.9787640000,22.4076100000 113.9788300000,22.4078330000 113.9788470000,22.4078880000 113.9788760000,22.4079480000 113.9789090000,22.4080310000 113.9789380000,22.4080880000 113.9790150000,22.4081940000 113.9790620000,22.4082440000 113.9790900000,22.4082720000 113.9791990000,22.4083650000 113.9792480000,22.4084050000 113.9792820000,22.4084340000 113.9793520000,22.4084750000 113.9793990000,22.4085030000 113.9796100000,22.4086070000 113.9796350000,22.4086170000 113.9796680000,22.4086280000 113.9797740000,22.4086530000 113.9798810000,22.4086800000 113.9800050000,22.4086990000 113.9801150000,22.4087170000 113.9802110000,22.4087190000 113.9803900000,22.4087230000 113.9807070000,22.4087310000 113.9808670000,22.4087400000 113.9810040000,22.4087550000 113.9811260000,22.4087770000 113.9812730000,22.4088220000 113.9814150000,22.4088730000 113.9815620000,22.4089480000 113.9816910000,22.4090320000 113.9818620000,22.4091850000 113.9819990000,22.4093470000 113.9820910000,22.4094800000 113.9821470000,22.4096040000 113.9822010000,22.4097230000 113.9822300000,22.4098290000 113.9822500000,22.4099350000 113.9822730000,22.4101510000 113.9822800000,22.4103970000 113.9822810000,22.4106250000 113.9822830000,22.4109750000 113.9822850000,22.4110280000 113.9822840000,22.4117210000 113.9822800000,22.4119080000 113.9822800000,22.4129600000 113.9822860000,22.4133440000 113.9822940000,22.4134320000 113.9823220000,22.4137360000 113.9823480000,22.4139900000 113.9823930000,22.4144030000 113.9823960000,22.4144450000 113.9824020000,22.4145420000 113.9823990000,22.4146050000 113.9823710000,22.4148610000 113.9823290000,22.4150070000 113.9822800000,22.4151120000 113.9822270000,22.4152010000 113.9821550000,22.4152940000 113.9821100000,22.4153440000 113.9818890000,22.4155540000 113.9816560000,22.4158000000 113.9816030000,22.4158580000 113.9815100000,22.4159380000 113.9814940000,22.4159580000 113.9814810000,22.4159730000 113.9814400000,22.4160210000 113.9813770000,22.4161090000 113.9813410000,22.4161910000 113.9813210000,22.4162680000 113.9813040000,22.4163380000 113.9812990000,22.4164110000 113.9812990000,22.4164890000 113.9813030000,22.4166680000 113.9813310000,22.4167150000 113.9817070000,22.4174190000 113.9817890000,22.4175730000 113.9818980000,22.4177700000 113.9821380000,22.4182070000 113.9822570000,22.4184220000 113.9822880000,22.4184750000 113.9823680000,22.4186270000 113.9826190000,22.4191010000 113.9827310000,22.4193020000 113.9827500000,22.4193370000 113.9829060000,22.4196030000 113.9829480000,22.4196680000 113.9831160000,22.4199070000 113.9833130000,22.4201480000 113.9834170000,22.4202680000 113.9835000000,22.4203780000 113.9835960000,22.4204830000 113.9837760000,22.4206810000 113.9840050000,22.4209230000 113.9840770000,22.4209890000 113.9841410000,22.4210540000 113.9841990000,22.4211080000 113.9842360000,22.4211480000 113.9842750000,22.4212040000 113.9844100000,22.4213380000 113.9845750000,22.4215040000 113.9847020000,22.4216310000 113.9847510000,22.4216890000 113.9847630000,22.4217010000 113.9848460000,22.4217930000 113.9848730000,22.4218230000 113.9850750000,22.4220450000 113.9851630000,22.4221420000 113.9854630000,22.4224590000 113.9856010000,22.4226110000 113.9865740000,22.4236520000 113.9870070000,22.4241050000 113.9872560000,22.4243650000 113.9872780000,22.4243880000 113.9873350000,22.4244270000 113.9873660000,22.4244600000 113.9873790000,22.4244960000 113.9874130000,22.4245330000 113.9876860000,22.4248210000 113.9878370000,22.4249610000 113.9886720000,22.4258590000 113.9887220000,22.4259120000 113.9888610000,22.4260620000 113.9890960000,22.4263130000 113.9891110000,22.4263530000 113.9891540000,22.4263860000 113.9891870000,22.4264250000 113.9892180000,22.4264730000 113.9892970000,22.4265550000 113.9895090000,22.4267660000 113.9896870000,22.4269510000 113.9898780000,22.4271560000 113.9899140000,22.4271940000 113.9900010000,22.4272920000 113.9900380000,22.4273290000 113.9900830000,22.4273790000 113.9901830000,22.4274890000 113.9902430000,22.4275590000 113.9903680000,22.4276640000 113.9904030000,22.4277000000 113.9904580000,22.4277760000 113.9906450000,22.4279810000 113.9909700000,22.4283250000 113.9911290000,22.4284900000 113.9912660000,22.4286330000 113.9913280000,22.4286980000 113.9913590000,22.4287300000 113.9913800000,22.4287570000 113.9914930000,22.4288380000 113.9915100000,22.4288550000 113.9915340000,22.4288770000 113.9915700000,22.4289370000 113.9916600000,22.4290220000 113.9918020000,22.4291590000 113.9918840000,22.4292410000 113.9922720000,22.4295580000 113.9924920000,22.4297380000 113.9925920000,22.4298100000 113.9931310000,22.4302460000 113.9932410000,22.4303450000 113.9949260000,22.4317030000 113.9951820000,22.4318890000 113.9954720000,22.4321020000 113.9955810000,22.4321810000 113.9962050000,22.4326080000 113.9962540000,22.4326440000 113.9963160000,22.4326880000 113.9962530000,22.4327700000 113.9962210000,22.4328100000 113.9962070000,22.4328300000 113.9961930000,22.4328450000 113.9961580000,22.4328910000 113.9960430000,22.4330260000 113.9958550000,22.4333340000 113.9958430000,22.4334700000 113.9956910000,22.4339310000 113.9956280000,22.4341240000 113.9955670000,22.4343430000 113.9955170000,22.4344590000 113.9954360000,22.4345990000 113.9953250000,22.4347820000 113.9953110000,22.4348120000 113.9952880000,22.4348750000 113.9954160000,22.4349140000 113.9957670000,22.4350040000 113.9958320000,22.4350250000 113.9965110000,22.4352510000 113.9967960000,22.4353620000 113.9970260000,22.4354600000 113.9973500000,22.4356420000 113.9973680000,22.4356520000 113.9975320000,22.4357650000 113.9977090000,22.4358810000 113.9977260000,22.4358920000 113.9982570000,22.4362260000 113.9983360000,22.4362770000 113.9983740000,22.4363010000 113.9986190000,22.4364590000 113.9986460000,22.4364760000 113.9988330000,22.4365970000 113.9989500000,22.4366720000 113.9989730000,22.4366860000 113.9992160000,22.4368400000 113.9993240000,22.4369080000 113.9993440000,22.4369250000 113.9991080000,22.4373400000 113.9990440000,22.4374840000 113.9990160000,22.4375460000 113.9988350000,22.4379450000 113.9986030000,22.4384590000 113.9985220000,22.4387100000 113.9984420000,22.4389980000 113.9983940000,22.4391700000 113.9983860000,22.4392080000 113.9983700000,22.4392830000 113.9983510000,22.4393740000 113.9985720000,22.4394040000 113.9989170000,22.4394450000 113.9990630000,22.4394620000 113.9990770000,22.4393680000 113.9990890000,22.4392860000 113.9991230000,22.4389360000 113.9991070000,22.4386110000 113.9991360000,22.4384560000 113.9992170000,22.4380320000 113.9993710000,22.4375440000 113.9994210000,22.4373660000 113.9994470000,22.4371950000 113.9997030000,22.4368030000 113.9998970000,22.4365120000 114.0001360000,22.4362010000 114.0003600000,22.4359290000 114.0004500000,22.4358330000 114.0009420000,22.4353370000 114.0012670000,22.4350820000 114.0014780000,22.4349390000 114.0016560000,22.4348220000 114.0018530000,22.4347060000 114.0020680000,22.4346110000 114.0022200000,22.4345490000 114.0023170000,22.4345130000 114.0025030000,22.4344470000 114.0026010000,22.4344160000 114.0026940000,22.4343940000 114.0027850000,22.4343790000 114.0028610000,22.4343710000 114.0029400000,22.4343670000 114.0030300000,22.4343690000 114.0031440000,22.4343820000 114.0032370000,22.4344010000 114.0033000000,22.4344140000 114.0033680000,22.4344390000 114.0034440000,22.4344710000 114.0035290000,22.4345140000 114.0036100000,22.4345680000 114.0037210000,22.4346540000 114.0038090000,22.4347310000 114.0039460000,22.4348690000 114.0040290000,22.4349530000 114.0041350000,22.4350540000 114.0042890000,22.4351940000 114.0046090000,22.4354510000 114.0047130000,22.4355240000 114.0048170000,22.4355860000 114.0049020000,22.4356310000 114.0053800000,22.4358650000 114.0056540000,22.4359990000 114.0059080000,22.4361210000 114.0061480000,22.4362270000 114.0065100000,22.4363710000 114.0068130000,22.4364940000 114.0072180000,22.4366470000 114.0074660000,22.4367340000 114.0077950000,22.4368540000 114.0081200000,22.4369610000 114.0085380000,22.4370830000 114.0088760000,22.4371860000 114.0092970000,22.4373030000 114.0100560000,22.4374960000 114.0111950000,22.4377320000 114.0116250000,22.4378110000 114.0121570000,22.4379040000 114.0124040000,22.4379410000 114.0125340000,22.4379570000 114.0126570000,22.4379680000 114.0128380000,22.4379820000 114.0131330000,22.4380000000 114.0132580000,22.4380050000 114.0136380000,22.4379980000 114.0138930000,22.4379850000 114.0140050000,22.4379790000 114.0141920000,22.4379630000 114.0144960000,22.4379240000 114.0147590000,22.4378800000 114.0149400000,22.4378440000 114.0151910000,22.4377850000 114.0153620000,22.4377390000 114.0155670000,22.4376820000 114.0157370000,22.4376280000 114.0158770000,22.4375790000 114.0160750000,22.4375070000 114.0162810000,22.4374220000 114.0164930000,22.4373330000 114.0166630000,22.4372550000 114.0172760000,22.4369520000 114.0178780000,22.4366500000 114.0181980000,22.4364950000 114.0185110000,22.4363550000 114.0188240000,22.4362200000 114.0190380000,22.4361410000 114.0193620000,22.4360330000 114.0197360000,22.4359250000 114.0200340000,22.4358610000 114.0208130000,22.4356920000 114.0211510000,22.4356160000 114.0216320000,22.4355150000 114.0222080000,22.4354000000 114.0229570000,22.4352660000 114.0239130000,22.4351010000 114.0246560000,22.4349680000 114.0250720000,22.4348960000 114.0259200000,22.4347440000 114.0264410000,22.4346530000 114.0283270000,22.4343380000 114.0293680000,22.4341510000 114.0297040000,22.4341020000 114.0299430000,22.4340770000 114.0301360000,22.4340600000 114.0303070000,22.4340490000 114.0305310000,22.4340420000 114.0307070000,22.4340430000 114.0308390000,22.4340460000 114.0310150000,22.4340570000 114.0311970000,22.4340680000 114.0313580000,22.4340840000 114.0315300000,22.4341080000 114.0317040000,22.4341360000 114.0318700000,22.4341660000 114.0320440000,22.4342020000 114.0322150000,22.4342420000 114.0323840000,22.4342840000 114.0325490000,22.4343330000 114.0328150000,22.4344240000 114.0329950000,22.4344910000 114.0331500000,22.4345530000 114.0332960000,22.4346190000 114.0334990000,22.4347170000 114.0336480000,22.4347910000 114.0338110000,22.4348770000 114.0339600000,22.4349620000 114.0340970000,22.4350490000 114.0342480000,22.4351470000 114.0343800000,22.4352370000 114.0345200000,22.4353410000 114.0346460000,22.4354360000 114.0348200000,22.4355760000 114.0350030000,22.4357270000 114.0377890000,22.4381000000 114.0379620000,22.4382610000 114.0381740000,22.4384820000 114.0383500000,22.4386890000 114.0384850000,22.4388620000 114.0386170000,22.4390550000 114.0388620000,22.4394730000 114.0390870000,22.4399930000 114.0391790000,22.4402710000 114.0392510000,22.4405540000 114.0393110000,22.4409030000 114.0393360000,22.4411430000 114.0393470000,22.4413790000 114.0393540000,22.4418680000 114.0393640000,22.4431860000 114.0393820000,22.4445210000 114.0394090000,22.4448890000 114.0394430000,22.4451450000 114.0394940000,22.4454010000 114.0395410000,22.4455810000 114.0396060000,22.4457940000 114.0396800000,22.4459960000 114.0398340000,22.4463180000 114.0399970000,22.4466170000 114.0402970000,22.4471380000 114.0404570000,22.4473430000 114.0406150000,22.4475120000 114.0407840000,22.4476730000 114.0409370000,22.4478070000 114.0411900000,22.4480140000 114.0414820000,22.4482210000 114.0417720000,22.4484040000 114.0420700000,22.4485560000 114.0423790000,22.4487250000 114.0426740000,22.4488440000 114.0431190000,22.4489980000 114.0436760000,22.4491300000 114.0439290000,22.4491900000 114.0445460000,22.4493100000 114.0450170000,22.4493850000 114.0451870000,22.4494050000 114.0454280000,22.4494160000 114.0456660000,22.4494150000 114.0459200000,22.4493970000 114.0461390000,22.4493670000 114.0463190000,22.4493290000 114.0465150000,22.4492800000 114.0468650000,22.4491630000 114.0472510000,22.4490090000 114.0476220000,22.4488420000 114.0479130000,22.4486930000 114.0481580000,22.4485590000 114.0485370000,22.4483270000 114.0487380000,22.4481910000 114.0489770000,22.4480110000 114.0492460000,22.4477790000 114.0495220000,22.4475150000 114.0497300000,22.4472910000 114.0498060000,22.4472000000 114.0499180000,22.4470490000 114.0500100000,22.4469070000 114.0501100000,22.4467360000 114.0501950000,22.4465650000 114.0502760000,22.4463770000 114.0503430000,22.4461870000 114.0503940000,22.4460100000 114.0504620000,22.4457210000 114.0506000000,22.4449900000 114.0506640000,22.4446850000 114.0507310000,22.4444470000 114.0507810000,22.4442940000 114.0508480000,22.4441090000 114.0509310000,22.4439180000 114.0510550000,22.4436670000 114.0511570000,22.4434860000 114.0512970000,22.4432670000 114.0515650000,22.4429060000 114.0518320000,22.4425660000 114.0523300000,22.4420110000 114.0525380000,22.4417980000 114.0529800000,22.4414190000 114.0552440000,22.4397030000 114.0566270000,22.4387340000 114.0574420000,22.4381680000 114.0580760000,22.4376940000 114.0582660000,22.4375380000 114.0583270000,22.4374890000 114.0586750000,22.4372040000 114.0591920000,22.4367400000 114.0596270000,22.4363460000 114.0597900000,22.4361900000 114.0601230000,22.4358700000 114.0607360000,22.4352330000 114.0611550000,22.4347070000 114.0614400000,22.4343080000 114.0617550000,22.4338640000 114.0619680000,22.4335740000 114.0622730000,22.4331580000 114.0624830000,22.4328010000 114.0626900000,22.4324490000 114.0628410000,22.4321190000 114.0630580000,22.4316410000 114.0631590000,22.4313610000 114.0633420000,22.4308540000 114.0634380000,22.4305540000 114.0635560000,22.4301880000 114.0636940000,22.4296680000 114.0638320000,22.4291520000 114.0639430000,22.4286230000 114.0640530000,22.4281040000 114.0641090000,22.4277120000 114.0641500000,22.4274210000 114.0642000000,22.4268370000 114.0642720000,22.4259930000 114.0643150000,22.4243600000 114.0643190000,22.4232760000 114.0643020000,22.4220230000 114.0642770000,22.4215790000 114.0642570000,22.4213660000 114.0641580000,22.4204600000 114.0640030000,22.4189740000 114.0639950000,22.4189290000 114.0638760000,22.4183200000 114.0635200000,22.4166570000 114.0634500000,22.4161790000 114.0633480000,22.4155790000 114.0632220000,22.4150740000 114.0630650000,22.4145840000 114.0628950000,22.4141420000 114.0626700000,22.4136450000 114.0623410000,22.4130610000 114.0610200000,22.4108000000 114.0609240000,22.4106400000 114.0608370000,22.4104800000 114.0607560000,22.4103200000 114.0606700000,22.4101500000 114.0605900000,22.4099800000 114.0605150000,22.4098100000 114.0604420000,22.4096400000 114.0603740000,22.4094700000 114.0603150000,22.4093000000 114.0602650000,22.4091500000 114.0602190000,22.4090000000 114.0601790000,22.4088600000 114.0601310000,22.4086900000 114.0600910000,22.4085300000 114.0600550000,22.4083790000 114.0600430000,22.4083300000 114.0600010000,22.4081530000 114.0599670000,22.4080000000 114.0599510000,22.4079190000 114.0599350000,22.4078400000 114.0599080000,22.4076800000 114.0598880000,22.4075200000 114.0598690000,22.4073600000 114.0598510000,22.4072000000 114.0598350000,22.4070400000 114.0598260000,22.4068800000 114.0598220000,22.4067200000 114.0598200000,22.4065600000 114.0598200000,22.4064000000 114.0598220000,22.4062400000 114.0598260000,22.4060800000 114.0598320000,22.4059200000 114.0598410000,22.4057600000 114.0598540000,22.4056000000 114.0598690000,22.4054400000 114.0598910000,22.4052500000 114.0623570000,22.3893650000 114.0626980000,22.3871780000 114.0637180000,22.3811750000 114.0637550000,22.3810000000 114.0637950000,22.3808300000 114.0638400000,22.3806600000 114.0638870000,22.3804900000 114.0639380000,22.3803100000 114.0639920000,22.3801310000 114.0640500000,22.3799600000 114.0641120000,22.3797900000 114.0641800000,22.3796200000 114.0642480000,22.3794600000 114.0643150000,22.3793030000 114.0643830000,22.3791500000 114.0644610000,22.3789900000 114.0645400000,22.3788400000 114.0646200000,22.3786900000 114.0647230000,22.3785000000 114.0648310000,22.3783200000 114.0649400000,22.3781500000 114.0650520000,22.3779800000 114.0651700000,22.3778100000 114.0652900000,22.3776450000 114.0654130000,22.3774800000 114.0655400000,22.3773200000 114.0656660000,22.3771710000 114.0658010000,22.3770150000 114.0659500000,22.3768540000 114.0661020000,22.3766950000 114.0662500000,22.3765450000 114.0664000000,22.3764000000 114.0665500000,22.3762610000 114.0667140000,22.3761200000 114.0668830000,22.3759780000 114.0670380000,22.3758630000 114.0672200000,22.3757280000 114.0673400000,22.3756430000 114.0673840000,22.3756120000 114.0674310000,22.3755850000 114.0676090000,22.3754820000 114.0682370000,22.3750400000 114.0688590000,22.3745820000 114.0690860000,22.3744300000 114.0692620000,22.3743040000 114.0701770000,22.3737060000 114.0713690000,22.3729280000 114.0734910000,22.3716070000 114.0753200000,22.3704760000 114.0755740000,22.3703150000 114.0758210000,22.3701600000 114.0760750000,22.3699840000 114.0762980000,22.3698280000 114.0765050000,22.3696610000 114.0766770000,22.3695060000 114.0768530000,22.3693330000 114.0770350000,22.3691380000 114.0772200000,22.3689270000 114.0773820000,22.3687170000 114.0775600000,22.3684230000 114.0779680000,22.3677150000 114.0783000000,22.3670880000 114.0785960000,22.3665690000 114.0819460000,22.3602400000 114.0825040000,22.3591140000 114.0825780000,22.3589550000 114.0827290000,22.3586440000 114.0830530000,22.3580330000 114.0838930000,22.3564690000 114.0842340000,22.3558540000 114.0845770000,22.3553400000 114.0848100000,22.3550170000 114.0849950000,22.3547760000 114.0850380000,22.3547210000 114.0852940000,22.3543780000 114.0853390000,22.3543180000 114.0853880000,22.3542500000 114.0856200000,22.3538980000 114.0859400000,22.3533550000 114.0860880000,22.3530600000 114.0861420000,22.3529420000 114.0861880000,22.3528400000 114.0863450000,22.3524750000 114.0864690000,22.3521870000 114.0865310000,22.3520200000 114.0865960000,22.3518460000 114.0868600000,22.3510520000 114.0869210000,22.3508770000 114.0869360000,22.3508280000 114.0869950000,22.3506510000 114.0870280000,22.3505540000 114.0871700000,22.3501460000 114.0871840000,22.3501050000 114.0873720000,22.3493900000 114.0873850000,22.3493210000 114.0874730000,22.3488690000 114.0874870000,22.3487930000 114.0875280000,22.3486700000 114.0876060000,22.3484580000 114.0876470000,22.3483500000 114.0877000000,22.3482120000 114.0878300000,22.3479380000 114.0879940000,22.3476390000 114.0881250000,22.3474620000 114.0882400000,22.3473590000 114.0883470000,22.3472640000 114.0885020000,22.3471250000 114.0885890000,22.3470470000 114.0892060000,22.3467050000 114.0892550000,22.3466780000 114.0893010000,22.3466570000 114.0893650000,22.3466240000 114.0895140000,22.3465460000 114.0896180000,22.3465000000 114.0897400000,22.3464450000 114.0908880000,22.3459310000 114.0912820000,22.3457610000 114.0917970000,22.3455630000 114.0921260000,22.3454860000 114.0924680000,22.3454310000 114.0929030000,22.3454150000 114.0931830000,22.3454310000 114.0939360000,22.3454840000 114.0948170000,22.3455390000 114.0963520000,22.3456300000 114.0963920000,22.3456310000 114.0964200000,22.3456330000 114.0966270000,22.3456490000 114.0966310000,22.3456970000 114.0966390000,22.3457880000 114.0966520000,22.3459360000 114.0966740000,22.3462760000 114.0966830000,22.3463770000 114.0966980000,22.3465510000 114.0967540000,22.3469060000 114.0967990000,22.3472300000 114.0968430000,22.3475410000 114.0969030000,22.3480090000 114.0969680000,22.3484000000 114.0970090000,22.3486390000 114.0970450000,22.3488700000 114.0972080000,22.3496170000 114.0972710000,22.3498320000 114.0973610000,22.3500570000 114.0974680000,22.3502830000 114.0975680000,22.3504950000 114.0976550000,22.3506830000 114.0976890000,22.3507560000 114.0977250000,22.3508350000 114.0980540000,22.3515810000 114.0982840000,22.3521060000 114.0983480000,22.3522520000 114.0984130000,22.3523980000 114.0985300000,22.3526650000 114.0986010000,22.3528250000 114.0987560000,22.3531780000 114.0987810000,22.3532350000 114.0988030000,22.3532850000 114.0988620000,22.3534230000 114.0991000000,22.3539860000 114.0993300000,22.3545270000 114.0996560000,22.3552490000 114.0999330000,22.3558980000 114.1000350000,22.3561020000 114.1001590000,22.3562880000 114.1003010000,22.3564980000 114.1005860000,22.3568670000 114.1006980000,22.3570020000 114.1008750000,22.3571940000 114.1010790000,22.3573680000 114.1011950000,22.3574430000 114.1012680000,22.3575540000 114.1013570000,22.3576470000 114.1014570000,22.3577290000 114.1015110000,22.3578080000 114.1015520000,22.3578870000 114.1016170000,22.3580820000 114.1016240000,22.3581200000 114.1016430000,22.3582140000 114.1016640000,22.3583100000 114.1016990000,22.3584060000 114.1017400000,22.3584980000 114.1017840000,22.3585840000 114.1018350000,22.3586710000 114.1019050000,22.3587650000 114.1019760000,22.3588460000 114.1020620000,22.3589320000 114.1021630000,22.3590190000 114.1022360000,22.3590900000 114.1023280000,22.3592350000 114.1023640000,22.3593460000 114.1023720000,22.3593910000 114.1023760000,22.3594950000 114.1023420000,22.3595650000 114.1023110000,22.3596350000 114.1023050000,22.3597050000 114.1023170000,22.3597980000 114.1023700000,22.3599290000 114.1024280000,22.3600010000 114.1025030000,22.3600650000 114.1026000000,22.3601010000 114.1027270000,22.3601280000 114.1028540000,22.3601340000 114.1029390000,22.3601230000 114.1029970000,22.3601040000 114.1030500000,22.3600900000 114.1031470000,22.3601460000 114.1032190000,22.3602050000 114.1032760000,22.3602660000 114.1033520000,22.3603980000 114.1033760000,22.3604480000 114.1034170000,22.3605300000 114.1034540000,22.3605930000 114.1034850000,22.3606410000 114.1036200000,22.3608220000 114.1037260000,22.3609590000 114.1037710000,22.3610170000 114.1038670000,22.3610940000 114.1039700000,22.3611590000 114.1040300000,22.3611900000 114.1041370000,22.3612820000 114.1041920000,22.3612980000 114.1042480000,22.3613160000 114.1044230000,22.3613270000 114.1044730000,22.3613270000 114.1045860000,22.3613260000 114.1047350000,22.3613240000 114.1048580000,22.3613220000 114.1050660000,22.3612970000 114.1051820000,22.3612530000 114.1053440000,22.3612230000 114.1054450000,22.3611820000 114.1054870000,22.3611670000 114.1055850000,22.3611150000 114.1056900000,22.3610320000 114.1057840000,22.3609160000 114.1058310000,22.3608450000 114.1058560000,22.3607940000 114.1058970000,22.3607150000 114.1059410000,22.3605730000 114.1059520000,22.3605360000 114.1059650000,22.3604020000 114.1059650000,22.3602500000 114.1059650000,22.3601500000 114.1059480000,22.3601010000 114.1059050000,22.3600050000 114.1058550000,22.3599230000 114.1058290000,22.3598730000 114.1057940000,22.3598300000 114.1057110000,22.3597750000 114.1055480000,22.3595220000 114.1055120000,22.3594120000 114.1054510000,22.3592100000 114.1054250000,22.3590590000 114.1054110000,22.3589740000 114.1054130000,22.3588080000 114.1054430000,22.3587160000 114.1055270000,22.3585700000 114.1056220000,22.3584270000 114.1056670000,22.3583470000 114.1057010000,22.3583000000 114.1057270000,22.3582650000 114.1057740000,22.3581980000 114.1057990000,22.3581630000 114.1058400000,22.3581000000 114.1058600000,22.3580700000 114.1058750000,22.3580500000 114.1058900000,22.3580290000 114.1062520000,22.3575220000 114.1062920000,22.3574670000 114.1063290000,22.3574220000 114.1064620000,22.3572540000 114.1065210000,22.3571700000 114.1066460000,22.3569690000 114.1067270000,22.3568380000 114.1068450000,22.3565700000 114.1069040000,22.3563830000 114.1069270000,22.3562570000 114.1069320000,22.3561800000 114.1069490000,22.3559190000 114.1069540000,22.3558350000 114.1069570000,22.3557840000 114.1069850000,22.3553430000 114.1070190000,22.3548820000 114.1070380000,22.3547170000 114.1070510000,22.3545770000 114.1070580000,22.3543800000 114.1070610000,22.3542880000 114.1070760000,22.3538280000 114.1070790000,22.3537630000 114.1070890000,22.3535680000 114.1071030000,22.3535040000 114.1071240000,22.3534420000 114.1071480000,22.3533950000 114.1071620000,22.3533800000 114.1072110000,22.3533090000 114.1072810000,22.3532310000 114.1073630000,22.3531990000 114.1074370000,22.3531520000 114.1075010000,22.3530940000 114.1075700000,22.3529930000 114.1076080000,22.3528790000 114.1076110000,22.3527600000 114.1075890000,22.3526660000 114.1075450000,22.3525780000 114.1074820000,22.3525010000 114.1074720000,22.3524210000 114.1074600000,22.3523290000 114.1074530000,22.3522290000 114.1074580000,22.3521380000 114.1074750000,22.3520720000 114.1074970000,22.3520170000 114.1078530000,22.3515790000 114.1079920000,22.3514120000 114.1081390000,22.3512590000 114.1081640000,22.3512260000 114.1082890000,22.3510770000 114.1086570000,22.3506430000 114.1086980000,22.3505850000 114.1087860000,22.3504670000 114.1086870000,22.3504050000 114.1086120000,22.3503560000 114.1084280000,22.3502380000 114.1083530000,22.3501890000 114.1083180000,22.3501750000 114.1080680000,22.3500980000 114.1079250000,22.3500580000 114.1076710000,22.3500420000 114.1073530000,22.3500690000 114.1069090000,22.3501970000 114.1065940000,22.3502760000 114.1062620000,22.3503790000 114.1061380000,22.3504120000 114.1060580000,22.3504320000 114.1057060000,22.3505330000 114.1055890000,22.3505710000 114.1053540000,22.3506230000 114.1048240000,22.3507750000 114.1044370000,22.3508200000 114.1038410000,22.3508350000 114.1033310000,22.3508640000 114.1030720000,22.3508750000 114.1025530000,22.3509180000 114.1023930000,22.3509290000 114.1022150000,22.3509430000 114.1020390000,22.3509550000 114.1017890000,22.3509530000 114.1016940000,22.3509420000 114.1016100000,22.3509260000 114.1015110000,22.3508970000 114.1014020000,22.3508570000 114.1012890000,22.3508060000 114.1012130000,22.3507640000 114.1011430000,22.3507200000 114.1010710000,22.3506640000 114.1009990000,22.3506020000 114.1009400000,22.3505450000 114.1008970000,22.3504870000 114.1008700000,22.3504410000 114.1007960000,22.3502940000 114.1007900000,22.3502600000 114.1007900000,22.3502290000 114.1007930000,22.3502010000 114.1008020000,22.3501580000 114.1008040000,22.3501290000 114.1008040000,22.3500960000 114.1007970000,22.3500570000 114.1007590000,22.3499040000 114.1007500000,22.3498700000 114.1007500000,22.3498690000 114.1007450000,22.3498550000 114.1007360000,22.3498390000 114.1007220000,22.3498220000 114.1006690000,22.3497660000 114.1006590000,22.3497550000 114.1006530000,22.3497440000 114.1006490000,22.3497300000 114.1006480000,22.3496520000 114.1006480000,22.3495150000 114.1009610000,22.3495120000 114.1010850000,22.3495130000 114.1014860000,22.3494970000 114.1019600000,22.3494270000 114.1020830000,22.3494030000 114.1024700000,22.3493030000 114.1029410000,22.3491570000 114.1030870000,22.3491130000 114.1031590000,22.3490930000 114.1034310000,22.3490040000 114.1037910000,22.3488860000 114.1040150000,22.3488160000 114.1043280000,22.3487100000 114.1062200000,22.3482260000 114.1063640000,22.3481910000 114.1064930000,22.3481720000 114.1066320000,22.3481440000 114.1068480000,22.3480890000 114.1069920000,22.3480400000 114.1071390000,22.3479880000 114.1072690000,22.3479300000 114.1074950000,22.3477800000 114.1075990000,22.3476940000 114.1077370000,22.3475330000 114.1078210000,22.3474030000 114.1079170000,22.3472020000 114.1079650000,22.3469640000 114.1079560000,22.3466380000 114.1079380000,22.3464670000 114.1079090000,22.3462830000 114.1078150000,22.3456830000 114.1078020000,22.3455740000 114.1077970000,22.3454810000 114.1077980000,22.3454020000 114.1078050000,22.3453050000 114.1078150000,22.3452150000 114.1078300000,22.3451430000 114.1078500000,22.3450690000 114.1078780000,22.3449970000 114.1079080000,22.3449300000 114.1079570000,22.3448360000 114.1080030000,22.3447630000 114.1081180000,22.3446130000 114.1082340000,22.3444800000 114.1083240000,22.3443740000 114.1084340000,22.3442650000 114.1084800000,22.3442220000 114.1085340000,22.3441740000 114.1085670000,22.3441740000 114.1085990000,22.3441640000 114.1086240000,22.3441440000 114.1086370000,22.3441260000 114.1086450000,22.3441070000 114.1086470000,22.3440860000 114.1086440000,22.3440650000 114.1086360000,22.3440450000 114.1086230000,22.3440270000 114.1086120000,22.3440170000 114.1085980000,22.3440080000 114.1085830000,22.3440020000 114.1085670000,22.3439980000 114.1085510000,22.3439970000 114.1085420000,22.3439510000 114.1085280000,22.3439060000 114.1085080000,22.3438640000 114.1084830000,22.3438230000 114.1084530000,22.3437860000 114.1084190000,22.3437520000 114.1083810000,22.3437220000 114.1081720000,22.3435220000 114.1077540000,22.3431020000 114.1076170000,22.3429650000 114.1074430000,22.3427710000 114.1073740000,22.3428310000 114.1073310000,22.3428680000 114.1071280000,22.3430450000 114.1069110000,22.3432200000 114.1069010000,22.3432290000 114.1068600000,22.3432660000 114.1066990000,22.3434170000 114.1064600000,22.3436240000 114.1064060000,22.3436640000 114.1063890000,22.3436770000 114.1063710000,22.3436910000 114.1063520000,22.3437070000 114.1063400000,22.3437150000 114.1063130000,22.3437320000 114.1062270000,22.3437540000 114.1062170000,22.3437330000 114.1062000000,22.3437160000 114.1061790000,22.3437030000 114.1061550000,22.3436970000 114.1061310000,22.3436970000 114.1061040000,22.3437040000 114.1060810000,22.3437180000 114.1060650000,22.3437380000 114.1060550000,22.3437610000 114.1060530000,22.3437860000 114.1060600000,22.3438100000 114.1060270000,22.3438080000 114.1059980000,22.3438060000 114.1059090000,22.3437930000 114.1058220000,22.3437730000 114.1057380000,22.3437450000 114.1056570000,22.3437100000 114.1055800000,22.3436690000 114.1055070000,22.3436200000 114.1054390000,22.3435660000 114.1053770000,22.3435070000 114.1053210000,22.3434420000 114.1052710000,22.3433730000 114.1052290000,22.3433000000 114.1051860000,22.3432140000 114.1051610000,22.3431360000 114.1051460000,22.3430570000 114.1051420000,22.3429760000 114.1051480000,22.3428950000 114.1051650000,22.3428150000 114.1051900000,22.3427430000 114.1052240000,22.3426740000 114.1052660000,22.3426090000 114.1053090000,22.3425490000 114.1053380000,22.3425040000 114.1053610000,22.3424600000 114.1053790000,22.3424140000 114.1053940000,22.3423460000 114.1054130000,22.3422790000 114.1054430000,22.3422150000 114.1054830000,22.3421560000 114.1055540000,22.3420590000 114.1056350000,22.3419600000 114.1057050000,22.3418550000 114.1057640000,22.3417440000 114.1059010000,22.3414120000 114.1061370000,22.3408230000 114.1061850000,22.3407030000 114.1062180000,22.3406110000 114.1062400000,22.3405220000 114.1062580000,22.3404320000 114.1062680000,22.3403410000 114.1062700000,22.3402490000 114.1062650000,22.3401580000 114.1062510000,22.3400670000 114.1062300000,22.3399770000 114.1062190000,22.3399380000 114.1062020000,22.3398890000 114.1061660000,22.3398040000 114.1059800000,22.3393880000 114.1059800000,22.3393880000 114.1061660000,22.3398040000 114.1062020000,22.3398890000 114.1062190000,22.3399380000 114.1062300000,22.3399770000 114.1062510000,22.3400670000 114.1062650000,22.3401580000 114.1062700000,22.3402490000 114.1062680000,22.3403410000 114.1062580000,22.3404320000 114.1062400000,22.3405220000 114.1062180000,22.3406110000 114.1061850000,22.3407030000 114.1061370000,22.3408230000 114.1059010000,22.3414120000 114.1057640000,22.3417440000 114.1057050000,22.3418550000 114.1056350000,22.3419600000 114.1055540000,22.3420590000 114.1054830000,22.3421560000 114.1054430000,22.3422150000 114.1054130000,22.3422790000 114.1053940000,22.3423460000 114.1053790000,22.3424140000 114.1053610000,22.3424600000 114.1053380000,22.3425040000 114.1053090000,22.3425490000 114.1052660000,22.3426090000 114.1052240000,22.3426740000 114.1051900000,22.3427430000 114.1051650000,22.3428150000 114.1051480000,22.3428950000 114.1051420000,22.3429760000 114.1051460000,22.3430570000 114.1051610000,22.3431360000 114.1051860000,22.3432140000 114.1052290000,22.3433000000 114.1052710000,22.3433730000 114.1053210000,22.3434420000 114.1053770000,22.3435070000 114.1054390000,22.3435660000 114.1055070000,22.3436200000 114.1055800000,22.3436690000 114.1056570000,22.3437100000 114.1057380000,22.3437450000 114.1058220000,22.3437730000 114.1059090000,22.3437930000 114.1059980000,22.3438060000 114.1060270000,22.3438080000 114.1060600000,22.3438100000 114.1060710000,22.3438280000 114.1060860000,22.3438430000 114.1061040000,22.3438530000 114.1061250000,22.3438600000 114.1061460000,22.3438610000 114.1061660000,22.3438580000 114.1061850000,22.3438510000 114.1062020000,22.3438400000 114.1062150000,22.3438260000 114.1062250000,22.3438090000 114.1062300000,22.3437910000 114.1062310000,22.3437720000 114.1062270000,22.3437540000 114.1063130000,22.3437320000 114.1063400000,22.3437150000 114.1063520000,22.3437070000 114.1063710000,22.3436910000 114.1063890000,22.3436770000 114.1064060000,22.3436640000 114.1064600000,22.3436240000 114.1066990000,22.3434170000 114.1068600000,22.3432660000 114.1069010000,22.3432290000 114.1069110000,22.3432200000 114.1071280000,22.3430450000 114.1073310000,22.3428680000 114.1073740000,22.3428310000 114.1076830000,22.3431500000 114.1080680000,22.3435460000 114.1083250000,22.3437870000 114.1083580000,22.3438160000 114.1083880000,22.3438480000 114.1084130000,22.3438830000 114.1084330000,22.3439210000 114.1084490000,22.3439610000 114.1084600000,22.3440020000 114.1084650000,22.3440440000 114.1084570000,22.3440670000 114.1084530000,22.3440890000 114.1083990000,22.3441650000 114.1083450000,22.3442200000 114.1082220000,22.3443590000 114.1080940000,22.3444980000 114.1079800000,22.3446280000 114.1078310000,22.3448670000 114.1077480000,22.3451020000 114.1077050000,22.3453660000 114.1077120000,22.3456510000 114.1077690000,22.3460950000 114.1078270000,22.3464940000 114.1078520000,22.3466520000 114.1078630000,22.3468610000 114.1078300000,22.3471300000 114.1077300000,22.3473610000 114.1076470000,22.3474850000 114.1075210000,22.3476310000 114.1074190000,22.3477260000 114.1073360000,22.3477790000 114.1071870000,22.3478540000 114.1070170000,22.3479340000 114.1069190000,22.3479720000 114.1068150000,22.3480060000 114.1066570000,22.3480470000 114.1064140000,22.3480870000 114.1063400000,22.3481010000 114.1061980000,22.3481310000 114.1060620000,22.3481590000 114.1056590000,22.3482430000 114.1051750000,22.3483610000 114.1043020000,22.3486330000 114.1039910000,22.3487420000 114.1037720000,22.3488110000 114.1034040000,22.3489240000 114.1030930000,22.3490180000 114.1029210000,22.3490660000 114.1024390000,22.3491970000 114.1022060000,22.3492630000 114.1019610000,22.3493230000 114.1016630000,22.3493830000 114.1014520000,22.3494200000 114.1011360000,22.3494270000 114.1006500000,22.3494170000 114.1005680000,22.3494220000 114.1005700000,22.3495150000 114.1005710000,22.3496040000 114.1005740000,22.3497020000 114.1005750000,22.3498240000 114.1005810000,22.3498710000 114.1006090000,22.3500010000 114.1006180000,22.3500320000 114.1006590000,22.3501520000 114.1007010000,22.3502500000 114.1007550000,22.3503660000 114.1007980000,22.3504190000 114.1008510000,22.3504700000 114.1009400000,22.3505450000 114.1009990000,22.3506020000 114.1010710000,22.3506640000 114.1011430000,22.3507200000 114.1012130000,22.3507640000 114.1012890000,22.3508060000 114.1014020000,22.3508570000 114.1015110000,22.3508970000 114.1016100000,22.3509260000 114.1016940000,22.3509420000 114.1017890000,22.3509530000 114.1020390000,22.3509550000 114.1022150000,22.3509430000 114.1023930000,22.3509290000 114.1025530000,22.3509180000 114.1030720000,22.3508750000 114.1033310000,22.3508640000 114.1038410000,22.3508350000 114.1044370000,22.3508200000 114.1048240000,22.3507750000 114.1053540000,22.3506230000 114.1055890000,22.3505710000 114.1057060000,22.3505330000 114.1060580000,22.3504320000 114.1061380000,22.3504120000 114.1062620000,22.3503790000 114.1065940000,22.3502760000 114.1069090000,22.3501970000 114.1073530000,22.3500690000 114.1076710000,22.3500420000 114.1079250000,22.3500580000 114.1080680000,22.3500980000 114.1083180000,22.3501750000 114.1083530000,22.3501890000 114.1084080000,22.3502250000 114.1084280000,22.3502380000 114.1086120000,22.3503560000 114.1086870000,22.3504050000 114.1085630000,22.3505650000 114.1085440000,22.3505900000 114.1083550000,22.3508510000 114.1083020000,22.3509250000 114.1082150000,22.3510230000 114.1081640000,22.3510820000 114.1080310000,22.3512400000 114.1079780000,22.3513020000 114.1076130000,22.3517290000 114.1075780000,22.3517700000 114.1074560000,22.3519280000 114.1073470000,22.3520590000 114.1072350000,22.3521910000 114.1071330000,22.3522830000 114.1070510000,22.3523670000 114.1069660000,22.3523880000 114.1068870000,22.3524220000 114.1068160000,22.3524700000 114.1067380000,22.3525490000 114.1066820000,22.3526430000 114.1066530000,22.3527470000 114.1066520000,22.3528550000 114.1066780000,22.3529590000 114.1067240000,22.3530470000 114.1067900000,22.3531220000 114.1068410000,22.3532140000 114.1068950000,22.3533000000 114.1069180000,22.3533950000 114.1069330000,22.3534970000 114.1069320000,22.3535900000 114.1069260000,22.3536670000 114.1069180000,22.3537510000 114.1069150000,22.3538300000 114.1069080000,22.3540680000 114.1069010000,22.3542920000 114.1068980000,22.3543680000 114.1068720000,22.3547160000 114.1068600000,22.3548760000 114.1068340000,22.3552030000 114.1068280000,22.3556340000 114.1068170000,22.3557660000 114.1068120000,22.3558140000 114.1068090000,22.3558660000 114.1068060000,22.3559050000 114.1067930000,22.3560950000 114.1067920000,22.3561630000 114.1067850000,22.3562050000 114.1067780000,22.3562480000 114.1067560000,22.3563100000 114.1067020000,22.3565330000 114.1065980000,22.3567790000 114.1065380000,22.3569190000 114.1065060000,22.3569800000 114.1064650000,22.3570410000 114.1063120000,22.3572270000 114.1062150000,22.3573480000 114.1061620000,22.3574210000 114.1061320000,22.3574630000 114.1059500000,22.3577600000 114.1058040000,22.3579800000 114.1057900000,22.3580010000 114.1057770000,22.3580210000 114.1057500000,22.3580640000 114.1057140000,22.3581190000 114.1056940000,22.3581510000 114.1056430000,22.3582230000 114.1056110000,22.3582620000 114.1055780000,22.3583040000 114.1055270000,22.3583970000 114.1054220000,22.3585330000 114.1053450000,22.3586970000 114.1053300000,22.3587510000 114.1053290000,22.3588040000 114.1053330000,22.3588870000 114.1053330000,22.3589830000 114.1053470000,22.3590610000 114.1053770000,22.3592190000 114.1054540000,22.3594320000 114.1055480000,22.3595220000 114.1057110000,22.3597750000 114.1057210000,22.3598620000 114.1057530000,22.3599150000 114.1057810000,22.3599660000 114.1058300000,22.3600390000 114.1058820000,22.3601260000 114.1059050000,22.3601670000 114.1059650000,22.3604020000 114.1059520000,22.3605360000 114.1058970000,22.3607150000 114.1058560000,22.3607940000 114.1058310000,22.3608450000 114.1057840000,22.3609160000 114.1056900000,22.3610320000 114.1055850000,22.3611150000 114.1054870000,22.3611670000 114.1054450000,22.3611820000 114.1053440000,22.3612230000 114.1051820000,22.3612530000 114.1050770000,22.3612160000 114.1048590000,22.3612220000 114.1047360000,22.3612240000 114.1045830000,22.3612270000 114.1044730000,22.3612290000 114.1044370000,22.3612300000 114.1042760000,22.3612210000 114.1042190000,22.3612130000 114.1041600000,22.3611920000 114.1040300000,22.3611900000 114.1039700000,22.3611590000 114.1038670000,22.3610940000 114.1037710000,22.3610170000 114.1037260000,22.3609590000 114.1036200000,22.3608220000 114.1035810000,22.3606920000 114.1035570000,22.3606090000 114.1035570000,22.3606090000 114.1035310000,22.3605610000 114.1034920000,22.3604930000 114.1034500000,22.3604100000 114.1034250000,22.3603610000 114.1033640000,22.3602150000 114.1033300000,22.3601350000 114.1032780000,22.3600130000 114.1032580000,22.3599350000 114.1032890000,22.3598220000 114.1033060000,22.3597250000 114.1032790000,22.3596360000 114.1032630000,22.3595870000 114.1032060000,22.3594840000 114.1031600000,22.3594250000 114.1031230000,22.3593980000 114.1030200000,22.3593340000 114.1029420000,22.3593050000 114.1029010000,22.3592920000 114.1028510000,22.3592840000 114.1028030000,22.3592830000 114.1026940000,22.3592330000 114.1025790000,22.3591770000 114.1024060000,22.3590600000 114.1022270000,22.3589320000 114.1021380000,22.3588610000 114.1020580000,22.3587820000 114.1019910000,22.3587040000 114.1019270000,22.3586180000 114.1018790000,22.3585370000 114.1018370000,22.3584590000 114.1018000000,22.3583700000 114.1017690000,22.3582830000 114.1017460000,22.3581940000 114.1017310000,22.3581060000 114.1017170000,22.3580250000 114.1016480000,22.3578080000 114.1016340000,22.3577930000 114.1015880000,22.3577230000 114.1015300000,22.3576560000 114.1014310000,22.3575700000 114.1013160000,22.3575010000 114.1011950000,22.3574430000 114.1010790000,22.3573680000 114.1008750000,22.3571940000 114.1006980000,22.3570020000 114.1005860000,22.3568670000 114.1003010000,22.3564980000 114.1001590000,22.3562880000 114.1000350000,22.3561020000 114.0999330000,22.3558980000 114.0996560000,22.3552490000 114.0993300000,22.3545270000 114.0991000000,22.3539860000 114.0988620000,22.3534230000 114.0988030000,22.3532850000 114.0987810000,22.3532350000 114.0987560000,22.3531780000 114.0986010000,22.3528250000 114.0985300000,22.3526650000 114.0984130000,22.3523980000 114.0983480000,22.3522520000 114.0982840000,22.3521060000 114.0980540000,22.3515810000 114.0977250000,22.3508350000 114.0976890000,22.3507560000 114.0976550000,22.3506830000 114.0975680000,22.3504950000 114.0974680000,22.3502830000 114.0973610000,22.3500570000 114.0972710000,22.3498320000 114.0972080000,22.3496170000 114.0970450000,22.3488700000 114.0970090000,22.3486390000 114.0969680000,22.3484000000 114.0969030000,22.3480090000 114.0968430000,22.3475410000 114.0967990000,22.3472300000 114.0967540000,22.3469060000 114.0966980000,22.3465510000 114.0966830000,22.3463770000 114.0966740000,22.3462760000 114.0966520000,22.3459360000 114.0966390000,22.3457880000 114.0966310000,22.3456970000 114.0966270000,22.3456490000 114.0966320000,22.3455450000 114.0964680000,22.3455370000 114.0963550000,22.3455310000 114.0948240000,22.3454420000 114.0940530000,22.3454140000 114.0927150000,22.3453350000 114.0917610000,22.3452750000 114.0912220000,22.3452470000 114.0906980000,22.3452230000 114.0905560000,22.3452260000 114.0903710000,22.3452490000 114.0901360000,22.3452840000 114.0900130000,22.3453100000 114.0898280000,22.3453660000 114.0896260000,22.3454520000 114.0894320000,22.3455550000 114.0892850000,22.3456670000 114.0889970000,22.3459000000 114.0887710000,22.3461040000 114.0885610000,22.3462910000 114.0884950000,22.3463510000 114.0882250000,22.3466080000 114.0880880000,22.3467410000 114.0880430000,22.3468080000 114.0880230000,22.3468520000 114.0879860000,22.3469680000 114.0878280000,22.3471710000 114.0875680000,22.3475740000 114.0873750000,22.3479670000 114.0872760000,22.3482430000 114.0872380000,22.3483480000 114.0871240000,22.3487340000 114.0871080000,22.3487870000 114.0868960000,22.3496110000 114.0868320000,22.3498440000 114.0866600000,22.3504700000 114.0866270000,22.3505780000 114.0865800000,22.3507360000 114.0865590000,22.3508010000 114.0865030000,22.3509750000 114.0863930000,22.3512790000 114.0863000000,22.3514870000 114.0861080000,22.3518650000 114.0858040000,22.3524010000 114.0854560000,22.3530980000 114.0852300000,22.3536390000 114.0850680000,22.3539900000 114.0847740000,22.3545430000 114.0845460000,22.3549570000 114.0841510000,22.3556970000 114.0837010000,22.3565310000 114.0827420000,22.3583450000 114.0823640000,22.3590440000 114.0817620000,22.3601520000 114.0784010000,22.3664850000 114.0777670000,22.3675880000 114.0777150000,22.3677360000 114.0774160000,22.3683250000 114.0773160000,22.3685090000 114.0770880000,22.3688390000 114.0769220000,22.3690450000 114.0767460000,22.3692410000 114.0765460000,22.3694370000 114.0763740000,22.3695900000 114.0761860000,22.3697380000 114.0760190000,22.3698570000 114.0757620000,22.3700390000 114.0755040000,22.3702000000 114.0752340000,22.3703670000 114.0743130000,22.3709420000 114.0734160000,22.3715060000 114.0714360000,22.3727580000 114.0700810000,22.3735450000 114.0691450000,22.3740380000 114.0686290000,22.3743360000 114.0680660000,22.3746380000 114.0674240000,22.3750220000 114.0671140000,22.3752200000 114.0670650000,22.3752560000 114.0670390000,22.3752760000 114.0669000000,22.3753850000 114.0667150000,22.3755200000 114.0665630000,22.3756400000 114.0664200000,22.3757600000 114.0662790000,22.3758800000 114.0661410000,22.3760010000 114.0660170000,22.3761210000 114.0658870000,22.3762500000 114.0657670000,22.3763700000 114.0656400000,22.3765000000 114.0655140000,22.3766300000 114.0653940000,22.3767600000 114.0652830000,22.3768900000 114.0651700000,22.3770250000 114.0650620000,22.3771600000 114.0649600000,22.3772950000 114.0648600000,22.3774300000 114.0647660000,22.3775610000 114.0646670000,22.3777000000 114.0645780000,22.3778300000 114.0644870000,22.3779700000 114.0643920000,22.3781210000 114.0643070000,22.3782700000 114.0642190000,22.3784300000 114.0641320000,22.3785900000 114.0640530000,22.3787400000 114.0639750000,22.3789000000 114.0639000000,22.3790600000 114.0638300000,22.3792200000 114.0637600000,22.3793850000 114.0636900000,22.3795600000 114.0636290000,22.3797200000 114.0635680000,22.3799000000 114.0635100000,22.3800800000 114.0634500000,22.3802800000 114.0633950000,22.3804800000 114.0633400000,22.3807000000 114.0632940000,22.3809100000 114.0632710000,22.3810420000 114.0593990000,22.4053980000 114.0593770000,22.4055790000 114.0593560000,22.4058000000 114.0593450000,22.4060000000 114.0593400000,22.4062000000 114.0593380000,22.4063500000 114.0593370000,22.4065000000 114.0593370000,22.4066500000 114.0593410000,22.4068000000 114.0593500000,22.4069800000 114.0593600000,22.4071500000 114.0593800000,22.4073700000 114.0594000000,22.4075600000 114.0594200000,22.4077300000 114.0594450000,22.4079000000 114.0594600000,22.4079910000 114.0594710000,22.4080600000 114.0595100000,22.4082430000 114.0595450000,22.4084000000 114.0595590000,22.4084620000 114.0595900000,22.4086000000 114.0596400000,22.4088000000 114.0596880000,22.4089500000 114.0597400000,22.4091000000 114.0597940000,22.4092500000 114.0598500000,22.4094000000 114.0599200000,22.4095600000 114.0599900000,22.4097100000 114.0600640000,22.4098600000 114.0601400000,22.4100100000 114.0602250000,22.4101600000 114.0603170000,22.4103100000 114.0603800000,22.4104100000 114.0604160000,22.4104600000 114.0605880000,22.4107290000 114.0621750000,22.4131710000 114.0623450000,22.4134530000 114.0624790000,22.4137160000 114.0626320000,22.4140050000 114.0627740000,22.4143430000 114.0629310000,22.4147790000 114.0630260000,22.4150800000 114.0631030000,22.4153860000 114.0631600000,22.4156780000 114.0632030000,22.4159050000 114.0632440000,22.4161640000 114.0633070000,22.4166640000 114.0633480000,22.4172350000 114.0633840000,22.4182370000 114.0634030000,22.4184270000 114.0634250000,22.4186380000 114.0634610000,22.4189950000 114.0634650000,22.4190400000 114.0636610000,22.4200300000 114.0638150000,22.4206580000 114.0639010000,22.4209710000 114.0639970000,22.4213920000 114.0640350000,22.4215920000 114.0640500000,22.4216920000 114.0640990000,22.4220490000 114.0641190000,22.4232790000 114.0641060000,22.4243760000 114.0640870000,22.4259440000 114.0640220000,22.4268200000 114.0639550000,22.4274180000 114.0639200000,22.4277240000 114.0638610000,22.4280820000 114.0637770000,22.4285930000 114.0635410000,22.4296160000 114.0633680000,22.4301560000 114.0632550000,22.4305100000 114.0631540000,22.4307870000 114.0629540000,22.4313360000 114.0628510000,22.4315610000 114.0626350000,22.4320300000 114.0624600000,22.4323730000 114.0622710000,22.4326910000 114.0620810000,22.4330120000 114.0617960000,22.4334660000 114.0615980000,22.4337540000 114.0612660000,22.4342080000 114.0609870000,22.4345600000 114.0606900000,22.4349130000 114.0605510000,22.4350720000 114.0599700000,22.4357050000 114.0596510000,22.4360360000 114.0594850000,22.4362000000 114.0590270000,22.4366140000 114.0587840000,22.4368280000 114.0582000000,22.4373180000 114.0581420000,22.4373660000 114.0573450000,22.4379820000 114.0565380000,22.4385440000 114.0551350000,22.4395660000 114.0528590000,22.4413090000 114.0525830000,22.4415180000 114.0521860000,22.4418550000 114.0517580000,22.4422580000 114.0512860000,22.4427720000 114.0509410000,22.4431830000 114.0506780000,22.4435630000 114.0503510000,22.4440780000 114.0500900000,22.4445150000 114.0499770000,22.4446820000 114.0495570000,22.4453350000 114.0493430000,22.4457020000 114.0492100000,22.4459480000 114.0491070000,22.4461390000 114.0489680000,22.4464660000 114.0488980000,22.4466070000 114.0488070000,22.4467930000 114.0486350000,22.4470910000 114.0484420000,22.4473390000 114.0482060000,22.4475670000 114.0479910000,22.4477450000 114.0476800000,22.4479530000 114.0473470000,22.4481620000 114.0469830000,22.4483400000 114.0466070000,22.4485090000 114.0462420000,22.4486530000 114.0458790000,22.4487470000 114.0454360000,22.4488420000 114.0447490000,22.4489710000 114.0443780000,22.4489780000 114.0439690000,22.4489680000 114.0437270000,22.4489350000 114.0434590000,22.4488890000 114.0431640000,22.4488250000 114.0429890000,22.4487850000 114.0426850000,22.4486910000 114.0422390000,22.4484970000 114.0418980000,22.4483110000 114.0415410000,22.4480890000 114.0412110000,22.4478540000 114.0409350000,22.4476020000 114.0407150000,22.4473650000 114.0405780000,22.4472030000 114.0404890000,22.4470790000 114.0402380000,22.4468060000 114.0400800000,22.4465500000 114.0399430000,22.4463000000 114.0397760000,22.4459130000 114.0396400000,22.4455000000 114.0395850000,22.4452430000 114.0395260000,22.4448490000 114.0395020000,22.4445300000 114.0394890000,22.4432020000 114.0394880000,22.4427990000 114.0394770000,22.4415700000 114.0394620000,22.4412790000 114.0394500000,22.4410340000 114.0394140000,22.4407930000 114.0393740000,22.4405640000 114.0393190000,22.4402820000 114.0391440000,22.4397690000 114.0390540000,22.4395620000 114.0387740000,22.4390690000 114.0384790000,22.4386760000 114.0381830000,22.4383230000 114.0378910000,22.4380200000 114.0348760000,22.4354580000 114.0346760000,22.4353000000 114.0342940000,22.4350340000 114.0341400000,22.4349370000 114.0340060000,22.4348550000 114.0338560000,22.4347670000 114.0337340000,22.4347010000 114.0335840000,22.4346200000 114.0334210000,22.4345380000 114.0332700000,22.4344660000 114.0331010000,22.4343920000 114.0328840000,22.4343090000 114.0327080000,22.4342450000 114.0325390000,22.4341930000 114.0322720000,22.4341230000 114.0320530000,22.4340720000 114.0318280000,22.4340240000 114.0316460000,22.4339960000 114.0314640000,22.4339710000 114.0312930000,22.4339480000 114.0311220000,22.4339350000 114.0309250000,22.4339210000 114.0308320000,22.4339170000 114.0306000000,22.4339160000 114.0303970000,22.4339210000 114.0301940000,22.4339280000 114.0299510000,22.4339430000 114.0296770000,22.4339780000 114.0294210000,22.4340150000 114.0290780000,22.4340720000 114.0280730000,22.4342590000 114.0262680000,22.4345510000 114.0257210000,22.4346490000 114.0253750000,22.4347070000 114.0250460000,22.4347710000 114.0246280000,22.4348450000 114.0240040000,22.4349520000 114.0229390000,22.4351390000 114.0224110000,22.4352280000 114.0215820000,22.4354010000 114.0201070000,22.4357090000 114.0199360000,22.4357490000 114.0196810000,22.4358100000 114.0194490000,22.4358730000 114.0192630000,22.4359310000 114.0189400000,22.4360410000 114.0186990000,22.4361380000 114.0184560000,22.4362410000 114.0179270000,22.4364820000 114.0176730000,22.4366040000 114.0175020000,22.4366940000 114.0173470000,22.4367760000 114.0169250000,22.4369860000 114.0165600000,22.4371580000 114.0162780000,22.4372850000 114.0161110000,22.4373560000 114.0158410000,22.4374550000 114.0157000000,22.4375040000 114.0155230000,22.4375580000 114.0153260000,22.4376140000 114.0152660000,22.4376300000 114.0150050000,22.4376970000 114.0147500000,22.4377490000 114.0145790000,22.4377780000 114.0143180000,22.4378180000 114.0141250000,22.4378390000 114.0139310000,22.4378550000 114.0137990000,22.4378640000 114.0136260000,22.4378730000 114.0134380000,22.4378760000 114.0131820000,22.4378730000 114.0129320000,22.4378590000 114.0126620000,22.4378380000 114.0124080000,22.4378110000 114.0120650000,22.4377610000 114.0116560000,22.4376840000 114.0112260000,22.4376050000 114.0107100000,22.4375030000 114.0103410000,22.4374240000 114.0098750000,22.4373160000 114.0090270000,22.4371010000 114.0081280000,22.4368270000 114.0073600000,22.4365630000 114.0065620000,22.4361810000 114.0063620000,22.4360950000 114.0062650000,22.4360510000 114.0061690000,22.4360040000 114.0060680000,22.4359450000 114.0059450000,22.4358640000 114.0058910000,22.4358230000 114.0058440000,22.4357750000 114.0058020000,22.4357240000 114.0057620000,22.4356640000 114.0057320000,22.4356050000 114.0056940000,22.4355190000 114.0056690000,22.4354530000 114.0056500000,22.4353720000 114.0056350000,22.4352330000 114.0056310000,22.4351210000 114.0056350000,22.4349530000 114.0056460000,22.4347140000 114.0056480000,22.4344530000 114.0056390000,22.4343550000 114.0056210000,22.4342530000 114.0055790000,22.4341310000 114.0055340000,22.4340460000 114.0054800000,22.4339510000 114.0054180000,22.4338590000 114.0053620000,22.4337970000 114.0052890000,22.4337350000 114.0051980000,22.4336770000 114.0051110000,22.4336300000 114.0050220000,22.4336000000 114.0049030000,22.4335800000 114.0047570000,22.4335700000 114.0045950000,22.4335780000 114.0044530000,22.4335990000 114.0043200000,22.4336320000 114.0040780000,22.4337110000 114.0037610000,22.4338170000 114.0029890000,22.4340860000 114.0029200000,22.4341130000 114.0026760000,22.4342070000 114.0024610000,22.4343020000 114.0022430000,22.4344110000 114.0020190000,22.4345280000 114.0017120000,22.4347000000 114.0014320000,22.4348640000 114.0013790000,22.4349000000 114.0013150000,22.4349430000 114.0012300000,22.4350040000 114.0011320000,22.4350770000 114.0008480000,22.4352920000 114.0005800000,22.4355630000 114.0003680000,22.4357760000 114.0002830000,22.4358760000 114.0001740000,22.4360040000 114.0000640000,22.4361480000 113.9998150000,22.4364520000 113.9995920000,22.4367510000 113.9993510000,22.4371560000 113.9991280000,22.4375380000 113.9987110000,22.4383710000 113.9985220000,22.4387100000 113.9984420000,22.4389980000 113.9983940000,22.4391700000 113.9983860000,22.4392080000 113.9983700000,22.4392830000 113.9981560000,22.4392680000 113.9980210000,22.4392590000 113.9978830000,22.4392470000 113.9977940000,22.4392700000 113.9976930000,22.4392530000 113.9964210000,22.4390080000 113.9963160000,22.4390010000 113.9963170000,22.4388960000 113.9963150000,22.4388150000 113.9963160000,22.4386920000 113.9963330000,22.4383840000 113.9963490000,22.4382800000 113.9963770000,22.4381180000 113.9964140000,22.4379120000 113.9964460000,22.4377790000 113.9964990000,22.4376000000 113.9965480000,22.4374380000 113.9966120000,22.4372710000 113.9967700000,22.4369350000 113.9969210000,22.4366400000 113.9970790000,22.4363740000 113.9971910000,22.4362110000 113.9974280000,22.4358990000 113.9974380000,22.4358860000 113.9974520000,22.4358670000 113.9975320000,22.4357650000 113.9977090000,22.4358810000 113.9977260000,22.4358920000 113.9982570000,22.4362260000 113.9983360000,22.4362770000 113.9983740000,22.4363010000 113.9986260000,22.4364630000 113.9986460000,22.4364760000 113.9988330000,22.4365970000 113.9989500000,22.4366720000 113.9989730000,22.4366860000 113.9992160000,22.4368400000 113.9993240000,22.4369080000 113.9993440000,22.4369250000 113.9991080000,22.4373400000 113.9990440000,22.4374840000 113.9990160000,22.4375460000 113.9988350000,22.4379450000 113.9986030000,22.4384590000 113.9985220000,22.4387100000 113.9984420000,22.4389980000 113.9983940000,22.4391700000 113.9983860000,22.4392080000 113.9983700000,22.4392830000 113.9983510000,22.4393740000 113.9985720000,22.4394040000 113.9989170000,22.4394450000 113.9990630000,22.4394620000 113.9990770000,22.4393680000 113.9990890000,22.4392860000 113.9991230000,22.4389360000 113.9991910000,22.4386130000 113.9992690000,22.4381350000 113.9993820000,22.4377560000 113.9995100000,22.4374040000 113.9997120000,22.4370380000 113.9998520000,22.4368030000 113.9999770000,22.4366200000 114.0001880000,22.4363040000 114.0004790000,22.4359490000 114.0004910000,22.4359340000 114.0005050000,22.4359190000 114.0005390000,22.4358820000 114.0005650000,22.4358540000 114.0006230000,22.4357900000 114.0006780000,22.4357310000 114.0007290000,22.4356690000 114.0004980000,22.4355400000 114.0004490000,22.4355090000 114.0003760000,22.4354630000 114.0003030000,22.4354110000 114.0002490000,22.4353720000 114.0001780000,22.4353200000 113.9999680000,22.4351660000 113.9999050000,22.4351240000 113.9996930000,22.4349810000 113.9996040000,22.4349230000 113.9984450000,22.4340570000 113.9983700000,22.4340040000 113.9983090000,22.4339610000 113.9981710000,22.4338630000 113.9978890000,22.4336660000 113.9969960000,22.4330310000 113.9968710000,22.4329370000 113.9965890000,22.4327450000 113.9964780000,22.4326700000 113.9964510000,22.4326520000 113.9958070000,22.4322080000 113.9951540000,22.4317280000 113.9949680000,22.4315820000 113.9948520000,22.4314930000 113.9947670000,22.4314230000 113.9946360000,22.4313130000 113.9943230000,22.4310610000 113.9940350000,22.4308300000 113.9938210000,22.4306590000 113.9934130000,22.4303170000 113.9933200000,22.4302440000 113.9930270000,22.4299970000 113.9927330000,22.4297690000 113.9926060000,22.4296610000 113.9922690000,22.4293870000 113.9918980000,22.4290950000 113.9915770000,22.4288170000 113.9914030000,22.4286520000 113.9904480000,22.4276230000 113.9902750000,22.4274380000 113.9901090000,22.4272630000 113.9900800000,22.4272320000 113.9899880000,22.4271340000 113.9899550000,22.4270990000 113.9897590000,22.4268910000 113.9894090000,22.4264960000 113.9893360000,22.4264140000 113.9892700000,22.4263390000 113.9892150000,22.4262830000 113.9891910000,22.4262580000 113.9884400000,22.4254940000 113.9879010000,22.4249210000 113.9873260000,22.4242960000 113.9870910000,22.4240380000 113.9858000000,22.4226400000 113.9856130000,22.4224390000 113.9853210000,22.4221580000 113.9849580000,22.4217740000 113.9849230000,22.4217360000 113.9848440000,22.4216430000 113.9847810000,22.4215680000 113.9846690000,22.4214530000 113.9845070000,22.4212850000 113.9841520000,22.4209180000 113.9835380000,22.4202500000 113.9834750000,22.4201690000 113.9834060000,22.4200910000 113.9832070000,22.4198720000 113.9830090000,22.4195990000 113.9828300000,22.4193000000 113.9828110000,22.4192670000 113.9827720000,22.4191930000 113.9825550000,22.4187800000 113.9824600000,22.4186090000 113.9822990000,22.4183020000 113.9820870000,22.4179240000 113.9818740000,22.4175200000 113.9818020000,22.4173830000 113.9817350000,22.4171470000 113.9816920000,22.4170600000 113.9816640000,22.4169980000 113.9816250000,22.4168670000 113.9816020000,22.4166830000 113.9816000000,22.4165360000 113.9816070000,22.4164060000 113.9816360000,22.4162850000 113.9817380000,22.4160790000 113.9817470000,22.4160610000 113.9817600000,22.4160350000 113.9817950000,22.4159850000 113.9818900000,22.4158670000 113.9819570000,22.4158020000 113.9823410000,22.4152420000 113.9823820000,22.4151780000 113.9824090000,22.4151170000 113.9824480000,22.4149600000 113.9824760000,22.4146950000 113.9824850000,22.4145500000 113.9824810000,22.4144420000 113.9824800000,22.4143960000 113.9824730000,22.4143260000 113.9824480000,22.4140320000 113.9824280000,22.4137950000 113.9824150000,22.4136450000 113.9824010000,22.4134280000 113.9823960000,22.4133470000 113.9823860000,22.4130400000 113.9823890000,22.4126660000 113.9823880000,22.4125560000 113.9823900000,22.4124500000 113.9823870000,22.4119100000 113.9823820000,22.4112330000 113.9823740000,22.4110250000 113.9823720000,22.4109680000 113.9823560000,22.4103110000 113.9823490000,22.4101810000 113.9823410000,22.4100870000 113.9823290000,22.4099920000 113.9823050000,22.4098500000 113.9822610000,22.4096990000 113.9822100000,22.4095750000 113.9821360000,22.4094280000 113.9820460000,22.4092970000 113.9819140000,22.4091370000 113.9817450000,22.4089820000 113.9816150000,22.4088910000 113.9814410000,22.4087970000 113.9812850000,22.4087420000 113.9811310000,22.4086980000 113.9808780000,22.4086470000 113.9807230000,22.4086420000 113.9803390000,22.4086350000 113.9802250000,22.4086310000 113.9801300000,22.4086270000 113.9800280000,22.4086030000 113.9799220000,22.4085760000 113.9797960000,22.4085560000 113.9797060000,22.4085260000 113.9796670000,22.4085110000 113.9796350000,22.4084980000 113.9795390000,22.4084540000 113.9795110000,22.4084300000 113.9794540000,22.4083820000 113.9794210000,22.4083610000 113.9793740000,22.4083320000 113.9793420000,22.4083120000 113.9792850000,22.4082670000 113.9791870000,22.4081900000 113.9791560000,22.4081540000 113.9791280000,22.4081190000 113.9790520000,22.4080280000 113.9790140000,22.4079620000 113.9789760000,22.4078990000 113.9789550000,22.4078580000 113.9789250000,22.4078010000 113.9788650000,22.4075970000 113.9788310000,22.4074470000 113.9787240000,22.4069420000 113.9786200000,22.4064380000 113.9785990000,22.4062850000 113.9785870000,22.4061400000 113.9785910000,22.4060150000 113.9786010000,22.4058920000 113.9786380000,22.4057490000 113.9786610000,22.4056840000 113.9786930000,22.4056010000 113.9787230000,22.4055330000 113.9787640000,22.4054550000 113.9788040000,22.4053860000 113.9788480000,22.4053170000 113.9789040000,22.4052320000 113.9789690000,22.4051400000 113.9791340000,22.4049170000 113.9792840000,22.4047160000 113.9793890000,22.4045550000 113.9794360000,22.4044700000 113.9794780000,22.4043800000 113.9795080000,22.4043040000 113.9795310000,22.4042270000 113.9795520000,22.4041360000 113.9795630000,22.4040510000 113.9795680000,22.4039530000 113.9795600000,22.4038270000 113.9795340000,22.4036680000 113.9794890000,22.4035030000 113.9794370000,22.4033610000 113.9793870000,22.4032350000 113.9792470000,22.4029170000 113.9791940000,22.4028050000 113.9787970000,22.4020560000 113.9784100000,22.4013330000 113.9781160000,22.4007350000 113.9780020000,22.4007550000 113.9778920000,22.4007730000 113.9769170000,22.4009650000 113.9767510000,22.4009810000 113.9765800000,22.4009740000 113.9764820000,22.4009570000 113.9763850000,22.4009270000 113.9763010000,22.4008640000 113.9761580000,22.4007540000 113.9759820000,22.4005310000 113.9758720000,22.4003880000 113.9755890000,22.3999810000 113.9754520000,22.3997640000 113.9754110000,22.3995960000 113.9753950000,22.3994710000 113.9753890000,22.3992490000 113.9753890000,22.3992410000 113.9753750000,22.3990870000 113.9753430000,22.3989060000 113.9751980000,22.3983320000 113.9751450000,22.3981150000 113.9751170000,22.3980200000 113.9751280000,22.3979650000 113.9751250000,22.3979330000 113.9751170000,22.3978370000 113.9750680000,22.3976820000 113.9750050000,22.3974240000 113.9748540000,22.3968600000 113.9747970000,22.3966550000 113.9747270000,22.3963850000 113.9746260000,22.3959950000 113.9746200000,22.3959730000 113.9745870000,22.3958660000 113.9745670000,22.3957910000 113.9745380000,22.3956910000 113.9745340000,22.3956660000 113.9745270000,22.3956200000 113.9744950000,22.3954350000 113.9745060000,22.3952620000 113.9745210000,22.3951800000 113.9745510000,22.3950840000 113.9745890000,22.3949630000 113.9746140000,22.3948900000 113.9746380000,22.3948350000 113.9746570000,22.3947910000 113.9746990000,22.3946740000 113.9747520000,22.3945320000 113.9747600000,22.3945100000 113.9747830000,22.3944550000 113.9748240000,22.3943340000 113.9749760000,22.3943610000 113.9754230000,22.3944940000 113.9760520000,22.3946960000 113.9763250000,22.3947750000 113.9768400000,22.3949430000 113.9771190000,22.3950500000 113.9775300000,22.3951670000 113.9776340000,22.3951960000 113.9777210000,22.3952150000 113.9777410000,22.3951110000 113.9777700000,22.3949610000 113.9777910000,22.3948530000 113.9779270000,22.3943880000 113.9780760000,22.3940200000 113.9782540000,22.3936630000 113.9784970000,22.3932350000 113.9788450000,22.3927500000 113.9792110000,22.3922530000 113.9793860000,22.3919700000 113.9794100000,22.3919300000 113.9796460000,22.3914680000 113.9798720000,22.3909150000 113.9798880000,22.3908720000 113.9799130000,22.3908040000 113.9799490000,22.3907010000 113.9798280000,22.3906730000 113.9796740000,22.3906410000 113.9788610000,22.3904620000 113.9785420000,22.3903810000 113.9782470000,22.3903090000 113.9781610000,22.3902900000 113.9777060000,22.3901910000 113.9776120000,22.3901690000 113.9772660000,22.3900810000 113.9769350000,22.3899940000 113.9765900000,22.3899230000 113.9760860000,22.3898810000 113.9753400000,22.3898760000 113.9752090000,22.3898760000 113.9752050000,22.3899770000 113.9751590000,22.3910020000 113.9751860000,22.3920090000 113.9751860000,22.3920160000 113.9751920000,22.3923300000 113.9751880000,22.3925770000 113.9751640000,22.3929480000 113.9750660000,22.3933790000 113.9750120000,22.3935010000 113.9748740000,22.3938170000 113.9748440000,22.3938340000 113.9747720000,22.3938800000 113.9746580000,22.3939760000 113.9746320000,22.3939940000 113.9745910000,22.3940250000 113.9745380000,22.3940650000 113.9743960000,22.3941680000 113.9741100000,22.3940840000 113.9740540000,22.3940650000 113.9740170000,22.3940570000 113.9739230000,22.3940470000 113.9738570000,22.3940460000 113.9737700000,22.3940490000 113.9736470000,22.3940650000 113.9735590000,22.3940770000 113.9735080000,22.3940850000 113.9734840000,22.3940780000 113.9734280000,22.3940630000 113.9734040000,22.3940680000 113.9733090000,22.3940890000 113.9731910000,22.3941140000 113.9732050000,22.3941760000 113.9732330000,22.3942780000 113.9733320000,22.3946290000 113.9733610000,22.3947420000</coordinates>
                </LineString>
                <ExtendedData>
                    <Data name="length">
                        <value>70578.87687995227</value>
                    </Data>
                    <Data name="duration">
                        <value>01:22:00</value>
                    </Data>
                </ExtendedData>
            </Placemark>
        </Document>
    </Document>
</kml>