<?xml version="1.0" encoding="UTF-8"?>
<kml xmlns="http://www.opengis.net/kml/2.2" xmlns:gx="http://www.google.com/kml/ext/2.2">
    <Document>
        <name>Route</name>
        <Folder>
            <name>Route Request</name>
            <Placemark>
                <address>Sai Ning Street, Huncliff Court, Kennedy Town, Central and Western District, Hong Kong Island, Hong Kong, China</address>
                <Point>
                    <coordinates>114.1205850967,22.2815251115</coordinates>
                </Point>
                <ExtendedData>
                    <Data name="city">
                        <value>Hong Kong Island</value>
                    </Data>
                    <Data name="country">
                        <value>China</value>
                    </Data>
                    <Data name="road">
                        <value>Sai Ning Street</value>
                    </Data>
                    <Data name="state">
                        <value>Hong Kong</value>
                    </Data>
                    <Data name="suburb">
                        <value>Kennedy Town</value>
                    </Data>
                    <Data name="city_district">
                        <value>Central and Western District</value>
                    </Data>
                    <Data name="country_code">
                        <value>cn</value>
                    </Data>
                    <Data name="residential">
                        <value>Huncliff Court</value>
                    </Data>
                    <Data name="ISO3166-2-lvl3">
                        <value>CN-HK</value>
                    </Data>
                </ExtendedData>
            </Placemark>
            <Placemark>
                <address>Sutherland Street, Des Voeux Road West, Tai Ping Shan, Sheung Wan, Central and Western District, Hong Kong Island, Hong Kong, China</address>
                <Point>
                    <coordinates>114.1456220214,22.2878217437</coordinates>
                </Point>
                <ExtendedData>
                    <Data name="city">
                        <value>Hong Kong Island</value>
                    </Data>
                    <Data name="country">
                        <value>China</value>
                    </Data>
                    <Data name="neighbourhood">
                        <value>Tai Ping Shan</value>
                    </Data>
                    <Data name="road">
                        <value>Des Voeux Road West</value>
                    </Data>
                    <Data name="state">
                        <value>Hong Kong</value>
                    </Data>
                    <Data name="suburb">
                        <value>Sheung Wan</value>
                    </Data>
                    <Data name="city_district">
                        <value>Central and Western District</value>
                    </Data>
                    <Data name="highway">
                        <value>Sutherland Street</value>
                    </Data>
                    <Data name="country_code">
                        <value>cn</value>
                    </Data>
                    <Data name="ISO3166-2-lvl3">
                        <value>CN-HK</value>
                    </Data>
                </ExtendedData>
            </Placemark>
            <Placemark>
                <address>Central Preliminary Sewage Treatrment Works, 8, Western Fire Services Street, Tai Ping Shan, Sheung Wan, Central and Western District, Hong Kong Island, Hong Kong, China</address>
                <Point>
                    <coordinates>114.1480289840,22.2897137673</coordinates>
                </Point>
                <ExtendedData>
                    <Data name="city">
                        <value>Hong Kong Island</value>
                    </Data>
                    <Data name="country">
                        <value>China</value>
                    </Data>
                    <Data name="neighbourhood">
                        <value>Tai Ping Shan</value>
                    </Data>
                    <Data name="road">
                        <value>Western Fire Services Street</value>
                    </Data>
                    <Data name="state">
                        <value>Hong Kong</value>
                    </Data>
                    <Data name="suburb">
                        <value>Sheung Wan</value>
                    </Data>
                    <Data name="house_number">
                        <value>8</value>
                    </Data>
                    <Data name="city_district">
                        <value>Central and Western District</value>
                    </Data>
                    <Data name="country_code">
                        <value>cn</value>
                    </Data>
                    <Data name="man_made">
                        <value>Central Preliminary Sewage Treatrment Works</value>
                    </Data>
                    <Data name="ISO3166-2-lvl3">
                        <value>CN-HK</value>
                    </Data>
                </ExtendedData>
            </Placemark>
            <Placemark>
                <address>Sky City, Lin Tak Road, Lam Tin, Kwun Tong District, Kowloon, Hong Kong, China</address>
                <Point>
                    <coordinates>114.2380106856,22.3121425110</coordinates>
                </Point>
                <ExtendedData>
                    <Data name="amenity">
                        <value>Sky City</value>
                    </Data>
                    <Data name="routingVisited">
                        <value>false</value>
                    </Data>
                    <Data name="city">
                        <value>Kowloon</value>
                    </Data>
                    <Data name="country">
                        <value>China</value>
                    </Data>
                    <Data name="road">
                        <value>Lin Tak Road</value>
                    </Data>
                    <Data name="state">
                        <value>Hong Kong</value>
                    </Data>
                    <Data name="suburb">
                        <value>Lam Tin</value>
                    </Data>
                    <Data name="city_district">
                        <value>Kwun Tong District</value>
                    </Data>
                    <Data name="country_code">
                        <value>cn</value>
                    </Data>
                    <Data name="ISO3166-2-lvl3">
                        <value>CN-HK</value>
                    </Data>
                </ExtendedData>
            </Placemark>
            <Placemark>
                <address>Sau Lok House, Sau Ming Road, Kwun Tong Mid-Levels, Sau Mau Ping, Kwun Tong District, Kowloon, Hong Kong, China</address>
                <Point>
                    <coordinates>114.2301300944,22.3222479455</coordinates>
                </Point>
                <ExtendedData>
                    <Data name="city">
                        <value>Kowloon</value>
                    </Data>
                    <Data name="country">
                        <value>China</value>
                    </Data>
                    <Data name="road">
                        <value>Sau Ming Road</value>
                    </Data>
                    <Data name="state">
                        <value>Hong Kong</value>
                    </Data>
                    <Data name="suburb">
                        <value>Sau Mau Ping</value>
                    </Data>
                    <Data name="city_district">
                        <value>Kwun Tong District</value>
                    </Data>
                    <Data name="highway">
                        <value>Sau Lok House</value>
                    </Data>
                    <Data name="quarter">
                        <value>Kwun Tong Mid-Levels</value>
                    </Data>
                    <Data name="country_code">
                        <value>cn</value>
                    </Data>
                    <Data name="ISO3166-2-lvl3">
                        <value>CN-HK</value>
                    </Data>
                </ExtendedData>
            </Placemark>
            <Placemark>
                <Point>
                    <coordinates>114.2218222830,22.3307920080</coordinates>
                </Point>
            </Placemark>
            <Placemark>
                <address>New Clear Water Bay Road, Cha Liu Au, Kwun Tong District, Kowloon, Hong Kong, China</address>
                <Point>
                    <coordinates>114.2211497422,22.3322673620</coordinates>
                </Point>
                <ExtendedData>
                    <Data name="city">
                        <value>Kowloon</value>
                    </Data>
                    <Data name="country">
                        <value>China</value>
                    </Data>
                    <Data name="road">
                        <value>New Clear Water Bay Road</value>
                    </Data>
                    <Data name="state">
                        <value>Hong Kong</value>
                    </Data>
                    <Data name="suburb">
                        <value>Cha Liu Au</value>
                    </Data>
                    <Data name="city_district">
                        <value>Kwun Tong District</value>
                    </Data>
                    <Data name="country_code">
                        <value>cn</value>
                    </Data>
                    <Data name="ISO3166-2-lvl3">
                        <value>CN-HK</value>
                    </Data>
                </ExtendedData>
            </Placemark>
            <Placemark>
                <address>Kui Tai House, On Yan Street, Cha Liu Au, Kwun Tong District, Kowloon, Hong Kong, China</address>
                <Point>
                    <coordinates>114.2338239625,22.3257863124</coordinates>
                </Point>
                <ExtendedData>
                    <Data name="routingVisited">
                        <value>false</value>
                    </Data>
                    <Data name="city">
                        <value>Kowloon</value>
                    </Data>
                    <Data name="country">
                        <value>China</value>
                    </Data>
                    <Data name="road">
                        <value>On Yan Street</value>
                    </Data>
                    <Data name="state">
                        <value>Hong Kong</value>
                    </Data>
                    <Data name="suburb">
                        <value>Cha Liu Au</value>
                    </Data>
                    <Data name="city_district">
                        <value>Kwun Tong District</value>
                    </Data>
                    <Data name="building">
                        <value>Kui Tai House</value>
                    </Data>
                    <Data name="country_code">
                        <value>cn</value>
                    </Data>
                    <Data name="ISO3166-2-lvl3">
                        <value>CN-HK</value>
                    </Data>
                </ExtendedData>
            </Placemark>
            <Placemark>
                <address>協和街變電站, Shun Lee Tsuen Road, Kwun Tong Mid-Levels, Jordan Valley, Kwun Tong District, Kowloon, Hong Kong, China</address>
                <Point>
                    <coordinates>114.2241863758,22.3331619587</coordinates>
                </Point>
                <ExtendedData>
                    <Data name="routingVisited">
                        <value>false</value>
                    </Data>
                    <Data name="city">
                        <value>Kowloon</value>
                    </Data>
                    <Data name="country">
                        <value>China</value>
                    </Data>
                    <Data name="road">
                        <value>Shun Lee Tsuen Road</value>
                    </Data>
                    <Data name="state">
                        <value>Hong Kong</value>
                    </Data>
                    <Data name="suburb">
                        <value>Jordan Valley</value>
                    </Data>
                    <Data name="city_district">
                        <value>Kwun Tong District</value>
                    </Data>
                    <Data name="building">
                        <value>協和街變電站</value>
                    </Data>
                    <Data name="quarter">
                        <value>Kwun Tong Mid-Levels</value>
                    </Data>
                    <Data name="country_code">
                        <value>cn</value>
                    </Data>
                    <Data name="ISO3166-2-lvl3">
                        <value>CN-HK</value>
                    </Data>
                </ExtendedData>
            </Placemark>
            <Placemark>
                <Point>
                    <coordinates>114.2267525270,22.3270651096</coordinates>
                </Point>
            </Placemark>
            <Placemark>
                <address>Sau Wong House, Sau Ming Road, Sau Mau Ping Estate, Sau Mau Ping, Kwun Tong District, Kowloon, Hong Kong, China</address>
                <Point>
                    <coordinates>114.2342357097,22.3159887832</coordinates>
                </Point>
                <ExtendedData>
                    <Data name="city">
                        <value>Kowloon</value>
                    </Data>
                    <Data name="country">
                        <value>China</value>
                    </Data>
                    <Data name="road">
                        <value>Sau Ming Road</value>
                    </Data>
                    <Data name="state">
                        <value>Hong Kong</value>
                    </Data>
                    <Data name="suburb">
                        <value>Sau Mau Ping</value>
                    </Data>
                    <Data name="city_district">
                        <value>Kwun Tong District</value>
                    </Data>
                    <Data name="building">
                        <value>Sau Wong House</value>
                    </Data>
                    <Data name="country_code">
                        <value>cn</value>
                    </Data>
                    <Data name="residential">
                        <value>Sau Mau Ping Estate</value>
                    </Data>
                    <Data name="ISO3166-2-lvl3">
                        <value>CN-HK</value>
                    </Data>
                </ExtendedData>
            </Placemark>
            <Placemark>
                <address>Ping Wong House, Ping Tin Trail, Yau Tong Bay, Lam Tin, Kwun Tong District, Kowloon, Hong Kong, China</address>
                <Point>
                    <coordinates>114.2339606329,22.3099408523</coordinates>
                </Point>
                <ExtendedData>
                    <Data name="routingVisited">
                        <value>false</value>
                    </Data>
                    <Data name="city">
                        <value>Kowloon</value>
                    </Data>
                    <Data name="country">
                        <value>China</value>
                    </Data>
                    <Data name="road">
                        <value>Ping Tin Trail</value>
                    </Data>
                    <Data name="state">
                        <value>Hong Kong</value>
                    </Data>
                    <Data name="suburb">
                        <value>Lam Tin</value>
                    </Data>
                    <Data name="city_district">
                        <value>Kwun Tong District</value>
                    </Data>
                    <Data name="building">
                        <value>Ping Wong House</value>
                    </Data>
                    <Data name="quarter">
                        <value>Yau Tong Bay</value>
                    </Data>
                    <Data name="country_code">
                        <value>cn</value>
                    </Data>
                    <Data name="ISO3166-2-lvl3">
                        <value>CN-HK</value>
                    </Data>
                </ExtendedData>
            </Placemark>
            <Placemark>
                <address>Kong Chung Lane, SoHo, Sheung Wan, Central and Western District, Hong Kong Island, Hong Kong, China</address>
                <Point>
                    <coordinates>114.1559924646,22.2867393289</coordinates>
                </Point>
                <ExtendedData>
                    <Data name="city">
                        <value>Hong Kong Island</value>
                    </Data>
                    <Data name="country">
                        <value>China</value>
                    </Data>
                    <Data name="neighbourhood">
                        <value>SoHo</value>
                    </Data>
                    <Data name="road">
                        <value>Kong Chung Lane</value>
                    </Data>
                    <Data name="state">
                        <value>Hong Kong</value>
                    </Data>
                    <Data name="suburb">
                        <value>Sheung Wan</value>
                    </Data>
                    <Data name="city_district">
                        <value>Central and Western District</value>
                    </Data>
                    <Data name="country_code">
                        <value>cn</value>
                    </Data>
                    <Data name="ISO3166-2-lvl3">
                        <value>CN-HK</value>
                    </Data>
                </ExtendedData>
            </Placemark>
            <Placemark>
                <address>Kamcourt Building, 60-62, Bonham Strand, Tai Ping Shan, Sheung Wan, Central and Western District, Hong Kong Island, Hong Kong, China</address>
                <Point>
                    <coordinates>114.1497083393,22.2858170846</coordinates>
                </Point>
                <ExtendedData>
                    <Data name="routingVisited">
                        <value>false</value>
                    </Data>
                    <Data name="city">
                        <value>Hong Kong Island</value>
                    </Data>
                    <Data name="country">
                        <value>China</value>
                    </Data>
                    <Data name="neighbourhood">
                        <value>Tai Ping Shan</value>
                    </Data>
                    <Data name="road">
                        <value>Bonham Strand</value>
                    </Data>
                    <Data name="state">
                        <value>Hong Kong</value>
                    </Data>
                    <Data name="suburb">
                        <value>Sheung Wan</value>
                    </Data>
                    <Data name="house_number">
                        <value>60-62</value>
                    </Data>
                    <Data name="city_district">
                        <value>Central and Western District</value>
                    </Data>
                    <Data name="building">
                        <value>Kamcourt Building</value>
                    </Data>
                    <Data name="country_code">
                        <value>cn</value>
                    </Data>
                    <Data name="ISO3166-2-lvl3">
                        <value>CN-HK</value>
                    </Data>
                </ExtendedData>
            </Placemark>
            <Placemark>
                <address>Sai Woo Lane, Mid-Levels West, Sai Ying Pun, Central and Western District, Hong Kong Island, Hong Kong, China</address>
                <Point>
                    <coordinates>114.1443526737,22.2869630430</coordinates>
                </Point>
                <ExtendedData>
                    <Data name="city">
                        <value>Hong Kong Island</value>
                    </Data>
                    <Data name="country">
                        <value>China</value>
                    </Data>
                    <Data name="road">
                        <value>Sai Woo Lane</value>
                    </Data>
                    <Data name="state">
                        <value>Hong Kong</value>
                    </Data>
                    <Data name="suburb">
                        <value>Sai Ying Pun</value>
                    </Data>
                    <Data name="city_district">
                        <value>Central and Western District</value>
                    </Data>
                    <Data name="quarter">
                        <value>Mid-Levels West</value>
                    </Data>
                    <Data name="country_code">
                        <value>cn</value>
                    </Data>
                    <Data name="ISO3166-2-lvl3">
                        <value>CN-HK</value>
                    </Data>
                </ExtendedData>
            </Placemark>
            <Placemark>
                <address>Sai Ning Street, Huncliff Court, Kennedy Town, Central and Western District, Hong Kong Island, Hong Kong, China</address>
                <Point>
                    <coordinates>114.1205838438,22.2814704823</coordinates>
                </Point>
                <ExtendedData>
                    <Data name="city">
                        <value>Hong Kong Island</value>
                    </Data>
                    <Data name="country">
                        <value>China</value>
                    </Data>
                    <Data name="road">
                        <value>Sai Ning Street</value>
                    </Data>
                    <Data name="state">
                        <value>Hong Kong</value>
                    </Data>
                    <Data name="suburb">
                        <value>Kennedy Town</value>
                    </Data>
                    <Data name="city_district">
                        <value>Central and Western District</value>
                    </Data>
                    <Data name="country_code">
                        <value>cn</value>
                    </Data>
                    <Data name="residential">
                        <value>Huncliff Court</value>
                    </Data>
                    <Data name="ISO3166-2-lvl3">
                        <value>CN-HK</value>
                    </Data>
                </ExtendedData>
            </Placemark>
        </Folder>
        <Document>
            <name>48.4 km; 01:04 h (OSRM)</name>
            <Placemark>
                <name>Route</name>
                <LineString>
                    <coordinates>114.1205920000,22.2814890000 114.1206210000,22.2814940000 114.1207050000,22.2815320000 114.1207400000,22.2815480000 114.1207740000,22.2815590000 114.1221920000,22.2820230000 114.1223260000,22.2820670000 114.1229070000,22.2822570000 114.1230000000,22.2822880000 114.1230430000,22.2822970000 114.1230940000,22.2822990000 114.1231340000,22.2822910000 114.1231660000,22.2822710000 114.1231910000,22.2822440000 114.1232120000,22.2822090000 114.1232200000,22.2821800000 114.1232570000,22.2820590000 114.1232940000,22.2819380000 114.1233130000,22.2818740000 114.1233260000,22.2818340000 114.1235150000,22.2818670000 114.1244040000,22.2820220000 114.1246630000,22.2820690000 114.1247550000,22.2820850000 114.1252720000,22.2821650000 114.1254140000,22.2821880000 114.1256030000,22.2822180000 114.1259310000,22.2822710000 114.1260040000,22.2823340000 114.1260410000,22.2823870000 114.1260500000,22.2824220000 114.1260450000,22.2824670000 114.1259710000,22.2828030000 114.1259470000,22.2829080000 114.1260270000,22.2829220000 114.1265380000,22.2830030000 114.1266020000,22.2830130000 114.1267500000,22.2830530000 114.1268260000,22.2830770000 114.1279170000,22.2832710000 114.1279450000,22.2832760000 114.1280620000,22.2832960000 114.1281420000,22.2833110000 114.1284830000,22.2833700000 114.1286130000,22.2833930000 114.1288280000,22.2834330000 114.1288470000,22.2834360000 114.1289220000,22.2834510000 114.1290370000,22.2834740000 114.1291660000,22.2834970000 114.1292560000,22.2835260000 114.1292990000,22.2835450000 114.1293240000,22.2835610000 114.1294720000,22.2836870000 114.1294970000,22.2837080000 114.1295940000,22.2838020000 114.1296550000,22.2838570000 114.1299210000,22.2841000000 114.1301010000,22.2842480000 114.1305780000,22.2846300000 114.1306400000,22.2846810000 114.1309020000,22.2848870000 114.1312600000,22.2851680000 114.1313460000,22.2852370000 114.1313680000,22.2852550000 114.1314290000,22.2853070000 114.1315330000,22.2853990000 114.1316110000,22.2854880000 114.1316670000,22.2855770000 114.1318710000,22.2859360000 114.1322340000,22.2866270000 114.1322960000,22.2867370000 114.1324090000,22.2869350000 114.1324240000,22.2869650000 114.1324770000,22.2870480000 114.1325300000,22.2871190000 114.1325890000,22.2871820000 114.1326490000,22.2872340000 114.1327140000,22.2872790000 114.1327860000,22.2873190000 114.1328580000,22.2873490000 114.1329470000,22.2873760000 114.1330370000,22.2873910000 114.1331150000,22.2873960000 114.1331820000,22.2873980000 114.1332480000,22.2873930000 114.1333270000,22.2873830000 114.1336790000,22.2873160000 114.1337030000,22.2873120000 114.1337840000,22.2872940000 114.1338000000,22.2872910000 114.1338780000,22.2872750000 114.1345940000,22.2871300000 114.1347110000,22.2871030000 114.1347410000,22.2870950000 114.1349660000,22.2870170000 114.1349890000,22.2870090000 114.1350970000,22.2869690000 114.1353030000,22.2869060000 114.1354480000,22.2868700000 114.1355090000,22.2868550000 114.1357450000,22.2868100000 114.1357790000,22.2868020000 114.1359970000,22.2867550000 114.1360770000,22.2867370000 114.1361140000,22.2867360000 114.1361580000,22.2867440000 114.1364240000,22.2868240000 114.1365090000,22.2868490000 114.1365380000,22.2868580000 114.1365510000,22.2868620000 114.1367810000,22.2869260000 114.1369960000,22.2869850000 114.1374180000,22.2871050000 114.1375140000,22.2871310000 114.1376110000,22.2871570000 114.1382790000,22.2873430000 114.1384740000,22.2873970000 114.1386770000,22.2874510000 114.1386980000,22.2874560000 114.1388050000,22.2874850000 114.1389140000,22.2875110000 114.1389410000,22.2875180000 114.1390400000,22.2875420000 114.1393260000,22.2876120000 114.1394070000,22.2876330000 114.1394490000,22.2876430000 114.1400520000,22.2878080000 114.1402960000,22.2878840000 114.1404120000,22.2879170000 114.1405540000,22.2879550000 114.1405850000,22.2879630000 114.1406440000,22.2879780000 114.1407040000,22.2879890000 114.1407350000,22.2879940000 114.1407810000,22.2880000000 114.1408280000,22.2880040000 114.1409090000,22.2880040000 114.1412500000,22.2879930000 114.1418750000,22.2879730000 114.1422510000,22.2879610000 114.1423360000,22.2879590000 114.1430030000,22.2879370000 114.1436650000,22.2879170000 114.1436840000,22.2879160000 114.1437740000,22.2879130000 114.1438640000,22.2879100000 114.1447620000,22.2878820000 114.1448540000,22.2878790000 114.1453350000,22.2878580000 114.1456230000,22.2878360000 114.1458390000,22.2878190000 114.1458840000,22.2878150000 114.1459200000,22.2878120000 114.1466000000,22.2877530000 114.1470370000,22.2877160000 114.1470760000,22.2877130000 114.1471310000,22.2877090000 114.1471890000,22.2877060000 114.1472370000,22.2877030000 114.1472720000,22.2877040000 114.1473050000,22.2877140000 114.1473420000,22.2877360000 114.1474780000,22.2878350000 114.1478030000,22.2880740000 114.1478900000,22.2881380000 114.1479530000,22.2881840000 114.1479880000,22.2882100000 114.1480340000,22.2882460000 114.1480890000,22.2883430000 114.1481370000,22.2884650000 114.1480300000,22.2886200000 114.1479910000,22.2886570000 114.1479350000,22.2887030000 114.1473700000,22.2888540000 114.1473350000,22.2888740000 114.1473100000,22.2889100000 114.1473000000,22.2889500000 114.1473060000,22.2890010000 114.1473580000,22.2891190000 114.1475630000,22.2898100000 114.1475980000,22.2898640000 114.1476500000,22.2898900000 114.1477040000,22.2898870000 114.1480540000,22.2898010000 114.1483570000,22.2897260000 114.1484080000,22.2897050000 114.1484510000,22.2896650000 114.1484620000,22.2896170000 114.1484620000,22.2895890000 114.1483570000,22.2892250000 114.1482060000,22.2887020000 114.1481850000,22.2886290000 114.1481370000,22.2884650000 114.1483350000,22.2884430000 114.1485520000,22.2884030000 114.1488350000,22.2883360000 114.1494260000,22.2881900000 114.1495090000,22.2881700000 114.1500860000,22.2880280000 114.1503900000,22.2879490000 114.1506340000,22.2878810000 114.1510970000,22.2877390000 114.1515710000,22.2875940000 114.1516850000,22.2875580000 114.1519040000,22.2874890000 114.1519860000,22.2874630000 114.1522920000,22.2873700000 114.1523810000,22.2873410000 114.1525100000,22.2873010000 114.1527610000,22.2872270000 114.1532200000,22.2870900000 114.1533330000,22.2870650000 114.1535320000,22.2870610000 114.1536150000,22.2870510000 114.1537680000,22.2870820000 114.1538410000,22.2870840000 114.1539320000,22.2870880000 114.1540140000,22.2871000000 114.1541290000,22.2871130000 114.1544220000,22.2871500000 114.1545340000,22.2871770000 114.1547650000,22.2872270000 114.1549070000,22.2872460000 114.1549900000,22.2872600000 114.1551200000,22.2872910000 114.1553000000,22.2873290000 114.1553900000,22.2873420000 114.1555200000,22.2873550000 114.1556700000,22.2873600000 114.1557810000,22.2873570000 114.1558900000,22.2873500000 114.1562100000,22.2873300000 114.1565690000,22.2872810000 114.1567350000,22.2872500000 114.1568880000,22.2872190000 114.1570280000,22.2871870000 114.1571740000,22.2871500000 114.1573070000,22.2871110000 114.1574320000,22.2870640000 114.1575710000,22.2869980000 114.1577710000,22.2868920000 114.1582190000,22.2867120000 114.1585550000,22.2865150000 114.1586590000,22.2864510000 114.1590830000,22.2861850000 114.1601100000,22.2855380000 114.1603830000,22.2853670000 114.1613200000,22.2848360000 114.1631300000,22.2838110000 114.1638350000,22.2834740000 114.1641470000,22.2833390000 114.1644930000,22.2832060000 114.1651340000,22.2829870000 114.1656200000,22.2828430000 114.1661460000,22.2827110000 114.1665970000,22.2826160000 114.1670640000,22.2825310000 114.1677350000,22.2824530000 114.1680670000,22.2824220000 114.1684300000,22.2823990000 114.1690810000,22.2823640000 114.1704260000,22.2822970000 114.1711440000,22.2822770000 114.1723810000,22.2822790000 114.1733180000,22.2823150000 114.1742830000,22.2823780000 114.1747660000,22.2824220000 114.1751810000,22.2824690000 114.1755770000,22.2825230000 114.1768630000,22.2827100000 114.1813760000,22.2833180000 114.1816070000,22.2833520000 114.1818280000,22.2833890000 114.1820370000,22.2834280000 114.1822470000,22.2834710000 114.1825050000,22.2835300000 114.1827620000,22.2835940000 114.1830000000,22.2836590000 114.1832380000,22.2837290000 114.1835330000,22.2838240000 114.1838260000,22.2839270000 114.1841160000,22.2840370000 114.1844020000,22.2841550000 114.1846240000,22.2842530000 114.1848440000,22.2843550000 114.1849800000,22.2844210000 114.1851160000,22.2844890000 114.1853840000,22.2846310000 114.1856420000,22.2847750000 114.1858940000,22.2849260000 114.1860860000,22.2850460000 114.1862750000,22.2851710000 114.1864460000,22.2852870000 114.1866220000,22.2854130000 114.1868280000,22.2855680000 114.1870320000,22.2857260000 114.1872380000,22.2858950000 114.1874430000,22.2860710000 114.1879160000,22.2865160000 114.1885910000,22.2872130000 114.1888910000,22.2875400000 114.1906150000,22.2893660000 114.1907590000,22.2894960000 114.1915190000,22.2901840000 114.1917040000,22.2903580000 114.1918520000,22.2904860000 114.1921150000,22.2907240000 114.1922280000,22.2908250000 114.1925380000,22.2910950000 114.1926650000,22.2912100000 114.1927370000,22.2912730000 114.1927890000,22.2913210000 114.1928900000,22.2914230000 114.1930690000,22.2916020000 114.1931400000,22.2916730000 114.1931560000,22.2916890000 114.1931780000,22.2917110000 114.1932700000,22.2918030000 114.1933530000,22.2918870000 114.1934530000,22.2919710000 114.1935380000,22.2920420000 114.1935600000,22.2920570000 114.1935890000,22.2920770000 114.1936150000,22.2920950000 114.1937360000,22.2921760000 114.1938530000,22.2922540000 114.1939710000,22.2923350000 114.1942000000,22.2924760000 114.1942290000,22.2924940000 114.1943770000,22.2925660000 114.1944670000,22.2926100000 114.1946230000,22.2926870000 114.1946890000,22.2927190000 114.1947490000,22.2927490000 114.1949190000,22.2928180000 114.1950130000,22.2928550000 114.1951890000,22.2929160000 114.1952860000,22.2929460000 114.1954310000,22.2929870000 114.1955320000,22.2930090000 114.1956910000,22.2930430000 114.1958170000,22.2930670000 114.1960670000,22.2931130000 114.1961620000,22.2931270000 114.1963610000,22.2931600000 114.1964840000,22.2931820000 114.1966050000,22.2932070000 114.1967740000,22.2932440000 114.1968570000,22.2932610000 114.1971240000,22.2933140000 114.1979380000,22.2934830000 114.1980630000,22.2935070000 114.1981920000,22.2935260000 114.1984040000,22.2935500000 114.1985630000,22.2935620000 114.1987190000,22.2935680000 114.1989060000,22.2935720000 114.1992000000,22.2935690000 114.1994040000,22.2935740000 114.1995900000,22.2935850000 114.1997700000,22.2936020000 114.1999500000,22.2936270000 114.2001000000,22.2936520000 114.2004940000,22.2937360000 114.2005620000,22.2937500000 114.2013180000,22.2939100000 114.2015380000,22.2939610000 114.2018510000,22.2940330000 114.2020960000,22.2940870000 114.2021880000,22.2941020000 114.2025300000,22.2941540000 114.2026050000,22.2941710000 114.2028680000,22.2942240000 114.2031620000,22.2942590000 114.2034130000,22.2942700000 114.2035000000,22.2942730000 114.2037630000,22.2942770000 114.2039330000,22.2942720000 114.2040330000,22.2942680000 114.2042530000,22.2942480000 114.2045700000,22.2942130000 114.2047400000,22.2941890000 114.2049620000,22.2940980000 114.2050390000,22.2940670000 114.2051840000,22.2940170000 114.2052500000,22.2939940000 114.2054060000,22.2939330000 114.2057000000,22.2938320000 114.2062130000,22.2936730000 114.2066920000,22.2935400000 114.2071880000,22.2934050000 114.2072470000,22.2933900000 114.2074590000,22.2933300000 114.2077610000,22.2932760000 114.2081980000,22.2931480000 114.2084650000,22.2930590000 114.2087620000,22.2929640000 114.2088920000,22.2929160000 114.2090400000,22.2928580000 114.2092310000,22.2927830000 114.2094910000,22.2926640000 114.2097870000,22.2924670000 114.2103300000,22.2920690000 114.2107360000,22.2917730000 114.2110800000,22.2915210000 114.2112770000,22.2913910000 114.2114890000,22.2912520000 114.2115750000,22.2911980000 114.2117400000,22.2910950000 114.2120130000,22.2909330000 114.2121350000,22.2908620000 114.2122140000,22.2908150000 114.2122920000,22.2907670000 114.2124160000,22.2906960000 114.2125630000,22.2906120000 114.2128380000,22.2904560000 114.2130210000,22.2903450000 114.2131250000,22.2902810000 114.2131960000,22.2902380000 114.2132610000,22.2902130000 114.2133660000,22.2901710000 114.2135280000,22.2901000000 114.2136590000,22.2900410000 114.2137560000,22.2899900000 114.2138680000,22.2899210000 114.2139440000,22.2898650000 114.2140250000,22.2897950000 114.2141100000,22.2896970000 114.2141750000,22.2896120000 114.2142180000,22.2895390000 114.2142570000,22.2894470000 114.2142840000,22.2893540000 114.2143000000,22.2892680000 114.2143050000,22.2891830000 114.2143020000,22.2891020000 114.2142900000,22.2890200000 114.2142760000,22.2889600000 114.2142520000,22.2888850000 114.2142160000,22.2887940000 114.2141720000,22.2887080000 114.2141170000,22.2886220000 114.2140560000,22.2885410000 114.2139790000,22.2884580000 114.2139080000,22.2883930000 114.2138320000,22.2883340000 114.2137610000,22.2882860000 114.2136750000,22.2882370000 114.2136030000,22.2882020000 114.2135370000,22.2881750000 114.2134660000,22.2881490000 114.2133820000,22.2881230000 114.2132940000,22.2881050000 114.2131950000,22.2880920000 114.2130990000,22.2880840000 114.2130170000,22.2880830000 114.2129340000,22.2880870000 114.2128530000,22.2880970000 114.2127660000,22.2881130000 114.2126830000,22.2881350000 114.2126010000,22.2881630000 114.2125260000,22.2881950000 114.2124590000,22.2882310000 114.2123840000,22.2882800000 114.2123150000,22.2883320000 114.2122030000,22.2884390000 114.2121350000,22.2885230000 114.2120840000,22.2886010000 114.2120370000,22.2886930000 114.2120010000,22.2887840000 114.2119720000,22.2888790000 114.2119580000,22.2889660000 114.2119550000,22.2890450000 114.2119580000,22.2891450000 114.2119690000,22.2892500000 114.2119970000,22.2893500000 114.2120420000,22.2894630000 114.2121120000,22.2895840000 114.2122180000,22.2897150000 114.2123300000,22.2898230000 114.2124640000,22.2899170000 114.2126450000,22.2900160000 114.2133860000,22.2903240000 114.2136110000,22.2904260000 114.2297660000,22.2988660000 114.2301500000,22.2990810000 114.2305860000,22.2993080000 114.2310270000,22.2995370000 114.2312510000,22.2996750000 114.2313630000,22.2997440000 114.2314970000,22.2998390000 114.2315650000,22.2998840000 114.2316890000,22.2999690000 114.2318000000,22.3000360000 114.2323930000,22.3005240000 114.2325490000,22.3006640000 114.2326190000,22.3007050000 114.2326880000,22.3007430000 114.2334740000,22.3009780000 114.2335600000,22.3010210000 114.2339000000,22.3012080000 114.2342370000,22.3014240000 114.2343910000,22.3015270000 114.2344790000,22.3016320000 114.2346180000,22.3018070000 114.2346620000,22.3018600000 114.2348040000,22.3020470000 114.2348560000,22.3021250000 114.2349150000,22.3022180000 114.2349610000,22.3022960000 114.2350180000,22.3024020000 114.2350670000,22.3025060000 114.2351140000,22.3026240000 114.2351560000,22.3027520000 114.2351900000,22.3028800000 114.2352190000,22.3030080000 114.2352360000,22.3031280000 114.2352450000,22.3032480000 114.2352470000,22.3033810000 114.2352410000,22.3035110000 114.2352300000,22.3036260000 114.2352100000,22.3037390000 114.2351880000,22.3038270000 114.2351530000,22.3039340000 114.2351220000,22.3040030000 114.2350810000,22.3040670000 114.2350340000,22.3041390000 114.2349870000,22.3041710000 114.2349470000,22.3042090000 114.2349140000,22.3042540000 114.2348900000,22.3043020000 114.2348760000,22.3043540000 114.2348710000,22.3044070000 114.2348760000,22.3044610000 114.2348900000,22.3045130000 114.2349140000,22.3045620000 114.2349460000,22.3046060000 114.2349860000,22.3046450000 114.2350290000,22.3046740000 114.2350770000,22.3046980000 114.2351280000,22.3047140000 114.2351810000,22.3047220000 114.2352380000,22.3047220000 114.2352930000,22.3047140000 114.2353470000,22.3046970000 114.2353970000,22.3046730000 114.2354300000,22.3046620000 114.2354650000,22.3046560000 114.2355010000,22.3046560000 114.2355360000,22.3046610000 114.2355790000,22.3046760000 114.2356170000,22.3046990000 114.2356490000,22.3047300000 114.2356550000,22.3048030000 114.2356550000,22.3048750000 114.2356470000,22.3049470000 114.2355980000,22.3049930000 114.2355670000,22.3051500000 114.2355100000,22.3054090000 114.2355290000,22.3054490000 114.2355110000,22.3055250000 114.2354760000,22.3055540000 114.2354670000,22.3055890000 114.2354590000,22.3056240000 114.2354780000,22.3056650000 114.2354280000,22.3058760000 114.2354110000,22.3059470000 114.2353760000,22.3061130000 114.2353500000,22.3062420000 114.2353400000,22.3062860000 114.2352420000,22.3067570000 114.2351920000,22.3069990000 114.2351410000,22.3072420000 114.2350970000,22.3074540000 114.2350530000,22.3076130000 114.2349920000,22.3077460000 114.2348550000,22.3080030000 114.2348150000,22.3080500000 114.2347880000,22.3080820000 114.2346460000,22.3082380000 114.2346180000,22.3082690000 114.2345500000,22.3083440000 114.2345350000,22.3083620000 114.2342320000,22.3086970000 114.2340790000,22.3088710000 114.2339620000,22.3090040000 114.2339240000,22.3090600000 114.2338920000,22.3091080000 114.2338570000,22.3091660000 114.2338140000,22.3092450000 114.2338050000,22.3092630000 114.2337620000,22.3093630000 114.2337580000,22.3093910000 114.2337300000,22.3094660000 114.2337090000,22.3095720000 114.2336970000,22.3096790000 114.2336810000,22.3098770000 114.2336630000,22.3099010000 114.2336530000,22.3099280000 114.2336520000,22.3099560000 114.2336590000,22.3099840000 114.2336760000,22.3100090000 114.2336990000,22.3100280000 114.2337280000,22.3100400000 114.2337630000,22.3100440000 114.2337980000,22.3100360000 114.2338280000,22.3100190000 114.2338500000,22.3099930000 114.2340970000,22.3099780000 114.2342270000,22.3099700000 114.2345110000,22.3099530000 114.2347530000,22.3099380000 114.2348430000,22.3099330000 114.2348910000,22.3099300000 114.2349280000,22.3099280000 114.2351070000,22.3099170000 114.2352790000,22.3099070000 114.2352820000,22.3100550000 114.2353170000,22.3103740000 114.2353320000,22.3105090000 114.2353530000,22.3107070000 114.2353670000,22.3107930000 114.2353580000,22.3108560000 114.2354540000,22.3111320000 114.2356150000,22.3114620000 114.2357940000,22.3117610000 114.2359330000,22.3119700000 114.2360530000,22.3121050000 114.2361750000,22.3122020000 114.2363210000,22.3122670000 114.2364700000,22.3123070000 114.2365910000,22.3123150000 114.2367430000,22.3123060000 114.2370740000,22.3122180000 114.2371290000,22.3121710000 114.2373350000,22.3121180000 114.2374330000,22.3120960000 114.2375010000,22.3120800000 114.2377280000,22.3120280000 114.2377980000,22.3120130000 114.2378430000,22.3119950000 114.2378890000,22.3119780000 114.2379400000,22.3119990000 114.2379890000,22.3120180000 114.2380610000,22.3120530000 114.2380610000,22.3120530000 114.2382650000,22.3121480000 114.2384350000,22.3122510000 114.2385460000,22.3123090000 114.2386040000,22.3123400000 114.2387230000,22.3124030000 114.2389910000,22.3126020000 114.2390810000,22.3126700000 114.2392430000,22.3127900000 114.2393930000,22.3128850000 114.2394480000,22.3129120000 114.2395070000,22.3129400000 114.2397950000,22.3130800000 114.2400710000,22.3132000000 114.2402170000,22.3132630000 114.2402880000,22.3133060000 114.2403540000,22.3133560000 114.2404150000,22.3134120000 114.2404690000,22.3134730000 114.2405110000,22.3135300000 114.2405480000,22.3135910000 114.2405780000,22.3136540000 114.2406030000,22.3137200000 114.2406290000,22.3137920000 114.2406470000,22.3138660000 114.2406580000,22.3139420000 114.2406600000,22.3140180000 114.2406550000,22.3140930000 114.2406420000,22.3141680000 114.2406210000,22.3142420000 114.2405920000,22.3143130000 114.2405560000,22.3143810000 114.2405140000,22.3144460000 114.2404860000,22.3145210000 114.2404530000,22.3145930000 114.2404150000,22.3146640000 114.2403570000,22.3147510000 114.2402920000,22.3148330000 114.2402190000,22.3149100000 114.2400170000,22.3150730000 114.2398040000,22.3153140000 114.2396730000,22.3154350000 114.2395620000,22.3155320000 114.2394440000,22.3156180000 114.2393190000,22.3156900000 114.2391740000,22.3157540000 114.2390520000,22.3157930000 114.2388840000,22.3158250000 114.2387120000,22.3158350000 114.2385410000,22.3158230000 114.2383730000,22.3157900000 114.2382120000,22.3157350000 114.2380810000,22.3156830000 114.2379530000,22.3156250000 114.2378270000,22.3155640000 114.2377470000,22.3155280000 114.2376630000,22.3155020000 114.2375750000,22.3154860000 114.2374830000,22.3154830000 114.2373900000,22.3154860000 114.2373440000,22.3154900000 114.2372980000,22.3154950000 114.2372370000,22.3154760000 114.2371890000,22.3154860000 114.2371540000,22.3154940000 114.2371070000,22.3155350000 114.2370270000,22.3155610000 114.2370180000,22.3155640000 114.2369380000,22.3155940000 114.2368360000,22.3155830000 114.2367390000,22.3156190000 114.2366390000,22.3156770000 114.2366330000,22.3156100000 114.2366000000,22.3155830000 114.2364800000,22.3154830000 114.2364490000,22.3154240000 114.2364150000,22.3153680000 114.2363200000,22.3152740000 114.2362650000,22.3152320000 114.2362130000,22.3152060000 114.2361940000,22.3151570000 114.2361590000,22.3151390000 114.2361310000,22.3151230000 114.2360690000,22.3151300000 114.2358500000,22.3150300000 114.2355840000,22.3149080000 114.2349560000,22.3146210000 114.2348260000,22.3145620000 114.2347550000,22.3146840000 114.2347420000,22.3147080000 114.2345460000,22.3150490000 114.2344850000,22.3151570000 114.2344370000,22.3152410000 114.2342680000,22.3155050000 114.2339900000,22.3159420000 114.2338290000,22.3161950000 114.2337240000,22.3163610000 114.2336490000,22.3164450000 114.2335620000,22.3165160000 114.2334970000,22.3165550000 114.2334630000,22.3165750000 114.2333520000,22.3166190000 114.2329110000,22.3167970000 114.2327770000,22.3168510000 114.2326360000,22.3169080000 114.2324350000,22.3169890000 114.2323680000,22.3170260000 114.2323400000,22.3170460000 114.2323210000,22.3170600000 114.2323000000,22.3170740000 114.2322390000,22.3171300000 114.2321440000,22.3172420000 114.2320580000,22.3173620000 114.2319990000,22.3174760000 114.2319690000,22.3175490000 114.2319260000,22.3176880000 114.2318900000,22.3178590000 114.2318190000,22.3181880000 114.2317650000,22.3184390000 114.2317320000,22.3184990000 114.2317100000,22.3185630000 114.2316950000,22.3186280000 114.2316870000,22.3186490000 114.2316530000,22.3188200000 114.2316480000,22.3188440000 114.2316390000,22.3189000000 114.2316190000,22.3189520000 114.2315950000,22.3189920000 114.2315650000,22.3190270000 114.2315290000,22.3190590000 114.2314090000,22.3191250000 114.2312950000,22.3192000000 114.2312380000,22.3192500000 114.2311990000,22.3192960000 114.2311660000,22.3193470000 114.2311500000,22.3193910000 114.2311310000,22.3194610000 114.2311250000,22.3195340000 114.2311320000,22.3196060000 114.2311520000,22.3196760000 114.2311850000,22.3197420000 114.2312290000,22.3198020000 114.2313660000,22.3200400000 114.2313950000,22.3200910000 114.2313620000,22.3202100000 114.2313500000,22.3202350000 114.2313460000,22.3202580000 114.2313470000,22.3202810000 114.2313240000,22.3204750000 114.2313160000,22.3205400000 114.2312520000,22.3208300000 114.2311940000,22.3209430000 114.2311330000,22.3210170000 114.2310190000,22.3211480000 114.2309930000,22.3211820000 114.2309690000,22.3212110000 114.2309190000,22.3212700000 114.2308590000,22.3213390000 114.2307390000,22.3214810000 114.2307220000,22.3215010000 114.2306790000,22.3215510000 114.2305980000,22.3216460000 114.2305430000,22.3217110000 114.2304810000,22.3217890000 114.2302160000,22.3221190000 114.2301160000,22.3222380000 114.2300300000,22.3223410000 114.2296020000,22.3228570000 114.2295700000,22.3229470000 114.2295720000,22.3230330000 114.2296050000,22.3231170000 114.2296940000,22.3231880000 114.2297300000,22.3232170000 114.2301350000,22.3235210000 114.2302030000,22.3235770000 114.2301240000,22.3236690000 114.2300690000,22.3237330000 114.2299680000,22.3238140000 114.2298680000,22.3238890000 114.2297880000,22.3239350000 114.2297030000,22.3239710000 114.2295850000,22.3240070000 114.2294680000,22.3240280000 114.2293110000,22.3240440000 114.2291720000,22.3240510000 114.2291360000,22.3240530000 114.2288910000,22.3240420000 114.2289130000,22.3241870000 114.2289210000,22.3242340000 114.2289850000,22.3246230000 114.2290220000,22.3248420000 114.2290580000,22.3250570000 114.2290800000,22.3252280000 114.2290830000,22.3253760000 114.2290530000,22.3255120000 114.2289710000,22.3256560000 114.2288680000,22.3257610000 114.2287520000,22.3258350000 114.2285970000,22.3259100000 114.2285240000,22.3259420000 114.2281040000,22.3261220000 114.2280280000,22.3261540000 114.2278490000,22.3262270000 114.2275790000,22.3263340000 114.2272760000,22.3264600000 114.2267550000,22.3266810000 114.2265940000,22.3267490000 114.2266350000,22.3269000000 114.2267290000,22.3272140000 114.2267850000,22.3274550000 114.2268530000,22.3277360000 114.2268950000,22.3279280000 114.2270010000,22.3284050000 114.2270370000,22.3285810000 114.2270930000,22.3288410000 114.2271060000,22.3289060000 114.2271140000,22.3289460000 114.2272380000,22.3295410000 114.2272610000,22.3296510000 114.2273260000,22.3299500000 114.2273900000,22.3302750000 114.2274040000,22.3304060000 114.2273980000,22.3305050000 114.2273780000,22.3306080000 114.2273460000,22.3307050000 114.2272930000,22.3307970000 114.2272270000,22.3308850000 114.2271690000,22.3309440000 114.2268890000,22.3311520000 114.2265610000,22.3313890000 114.2264860000,22.3314450000 114.2264190000,22.3314930000 114.2262560000,22.3316100000 114.2261920000,22.3316550000 114.2260960000,22.3317290000 114.2259610000,22.3318280000 114.2258640000,22.3319010000 114.2257540000,22.3319840000 114.2257430000,22.3319920000 114.2254410000,22.3322200000 114.2248480000,22.3326720000 114.2246050000,22.3328570000 114.2243670000,22.3330350000 114.2243340000,22.3330600000 114.2242750000,22.3331040000 114.2241930000,22.3331660000 114.2240930000,22.3332240000 114.2239450000,22.3332720000 114.2238190000,22.3332910000 114.2237000000,22.3332930000 114.2236050000,22.3332850000 114.2234980000,22.3332600000 114.2233760000,22.3332130000 114.2232820000,22.3331600000 114.2232030000,22.3330950000 114.2231160000,22.3330090000 114.2230630000,22.3329150000 114.2227720000,22.3323450000 114.2227100000,22.3322220000 114.2226280000,22.3320600000 114.2226090000,22.3320220000 114.2225740000,22.3319520000 114.2225170000,22.3318390000 114.2224730000,22.3317530000 114.2223860000,22.3315890000 114.2222970000,22.3314160000 114.2221930000,22.3312450000 114.2220950000,22.3311100000 114.2219550000,22.3309410000 114.2218680000,22.3308350000 114.2218360000,22.3308100000 114.2218190000,22.3307960000 114.2217310000,22.3307230000 114.2217050000,22.3307040000 114.2216840000,22.3306900000 114.2216550000,22.3306670000 114.2216130000,22.3307030000 114.2215590000,22.3307500000 114.2214740000,22.3308330000 114.2214170000,22.3309070000 114.2213220000,22.3310240000 114.2212000000,22.3311570000 114.2211360000,22.3312280000 114.2210830000,22.3312950000 114.2210220000,22.3313830000 114.2209770000,22.3314570000 114.2209350000,22.3315300000 114.2209000000,22.3316010000 114.2208700000,22.3316800000 114.2208530000,22.3317540000 114.2208370000,22.3318350000 114.2208300000,22.3319040000 114.2208310000,22.3319800000 114.2208370000,22.3320660000 114.2208470000,22.3321390000 114.2208700000,22.3322160000 114.2209020000,22.3322920000 114.2209370000,22.3323600000 114.2209710000,22.3324270000 114.2210410000,22.3325660000 114.2211650000,22.3327360000 114.2212040000,22.3327910000 114.2213320000,22.3329440000 114.2215280000,22.3331800000 114.2215910000,22.3332530000 114.2217200000,22.3334030000 114.2218490000,22.3335300000 114.2219520000,22.3336160000 114.2220750000,22.3336920000 114.2221540000,22.3337300000 114.2222010000,22.3337520000 114.2222530000,22.3337740000 114.2223120000,22.3337980000 114.2223790000,22.3338220000 114.2224570000,22.3338480000 114.2225230000,22.3338640000 114.2226670000,22.3339020000 114.2228530000,22.3339430000 114.2229600000,22.3339640000 114.2230560000,22.3339850000 114.2231370000,22.3340010000 114.2232160000,22.3340170000 114.2233070000,22.3340310000 114.2233910000,22.3340430000 114.2234770000,22.3340540000 114.2235500000,22.3340600000 114.2236140000,22.3340640000 114.2236980000,22.3340670000 114.2237840000,22.3340650000 114.2238720000,22.3340640000 114.2239520000,22.3340580000 114.2240370000,22.3340490000 114.2241890000,22.3340310000 114.2246000000,22.3339830000 114.2247870000,22.3339530000 114.2248930000,22.3339390000 114.2250140000,22.3339260000 114.2251630000,22.3339140000 114.2252540000,22.3339080000 114.2253530000,22.3339030000 114.2254270000,22.3339030000 114.2255270000,22.3339090000 114.2256970000,22.3339270000 114.2258110000,22.3339450000 114.2259170000,22.3339620000 114.2260570000,22.3339940000 114.2261950000,22.3340300000 114.2264990000,22.3340940000 114.2267370000,22.3341840000 114.2269290000,22.3342540000 114.2269880000,22.3342750000 114.2270260000,22.3342860000 114.2271550000,22.3343140000 114.2272140000,22.3343300000 114.2272680000,22.3343370000 114.2275750000,22.3343730000 114.2276950000,22.3343720000 114.2278070000,22.3343710000 114.2279480000,22.3343690000 114.2280470000,22.3343690000 114.2281550000,22.3343380000 114.2282410000,22.3343160000 114.2283290000,22.3343160000 114.2283750000,22.3343100000 114.2284040000,22.3342940000 114.2284340000,22.3342630000 114.2284380000,22.3342300000 114.2284400000,22.3341210000 114.2284420000,22.3340670000 114.2284460000,22.3337100000 114.2284800000,22.3332480000 114.2284830000,22.3331840000 114.2284950000,22.3330350000 114.2285000000,22.3329620000 114.2285120000,22.3328830000 114.2285340000,22.3328050000 114.2286050000,22.3326160000 114.2286520000,22.3325140000 114.2287110000,22.3324010000 114.2287750000,22.3322700000 114.2287930000,22.3321850000 114.2288120000,22.3321010000 114.2288170000,22.3320400000 114.2288200000,22.3319940000 114.2288200000,22.3319460000 114.2288190000,22.3319030000 114.2288170000,22.3318570000 114.2288120000,22.3318140000 114.2288050000,22.3317660000 114.2287940000,22.3317110000 114.2287770000,22.3316500000 114.2287510000,22.3315810000 114.2287090000,22.3314850000 114.2286640000,22.3314040000 114.2284420000,22.3310470000 114.2283980000,22.3309650000 114.2283730000,22.3309090000 114.2283490000,22.3308490000 114.2283320000,22.3308000000 114.2283080000,22.3307030000 114.2282960000,22.3306420000 114.2282890000,22.3305830000 114.2282860000,22.3305250000 114.2282860000,22.3304660000 114.2282890000,22.3304100000 114.2282940000,22.3303560000 114.2283050000,22.3302970000 114.2283160000,22.3302430000 114.2283320000,22.3301880000 114.2283520000,22.3301270000 114.2283780000,22.3300620000 114.2284090000,22.3299990000 114.2284560000,22.3299150000 114.2285060000,22.3298450000 114.2285630000,22.3297730000 114.2286330000,22.3297020000 114.2287100000,22.3296360000 114.2287810000,22.3295820000 114.2288500000,22.3295340000 114.2290220000,22.3294170000 114.2291430000,22.3293330000 114.2292880000,22.3292220000 114.2293930000,22.3291340000 114.2296130000,22.3289310000 114.2296930000,22.3288480000 114.2297620000,22.3287730000 114.2299520000,22.3285490000 114.2300480000,22.3284210000 114.2301300000,22.3283000000 114.2302070000,22.3281780000 114.2302750000,22.3280620000 114.2303250000,22.3279840000 114.2303670000,22.3279260000 114.2303840000,22.3279080000 114.2304040000,22.3278880000 114.2304570000,22.3278350000 114.2304920000,22.3278190000 114.2305210000,22.3277970000 114.2305440000,22.3277680000 114.2305580000,22.3277350000 114.2305630000,22.3277000000 114.2305590000,22.3276640000 114.2305460000,22.3276310000 114.2305500000,22.3275390000 114.2305540000,22.3274900000 114.2305590000,22.3274290000 114.2305700000,22.3273780000 114.2306150000,22.3272230000 114.2306690000,22.3270190000 114.2306950000,22.3268400000 114.2307050000,22.3266980000 114.2307090000,22.3265730000 114.2307110000,22.3264690000 114.2307120000,22.3264240000 114.2307130000,22.3263560000 114.2307160000,22.3262060000 114.2308350000,22.3262040000 114.2308600000,22.3262020000 114.2310850000,22.3262040000 114.2311440000,22.3261950000 114.2312020000,22.3261780000 114.2312570000,22.3261550000 114.2313080000,22.3261250000 114.2313570000,22.3260860000 114.2314000000,22.3260410000 114.2314350000,22.3259900000 114.2315100000,22.3257970000 114.2318840000,22.3249260000 114.2321940000,22.3240970000 114.2324800000,22.3235990000 114.2325270000,22.3235180000 114.2325810000,22.3234420000 114.2326410000,22.3233710000 114.2327260000,22.3232790000 114.2333410000,22.3228730000 114.2335240000,22.3227460000 114.2336290000,22.3227340000 114.2336730000,22.3227280000 114.2336990000,22.3227240000 114.2337470000,22.3227180000 114.2337900000,22.3227360000 114.2338370000,22.3227410000 114.2338840000,22.3227310000 114.2339350000,22.3227540000 114.2339630000,22.3227660000 114.2339960000,22.3227800000 114.2340720000,22.3227970000 114.2344040000,22.3230140000 114.2345730000,22.3231250000 114.2347420000,22.3232380000 114.2347930000,22.3232710000 114.2348370000,22.3233000000 114.2348690000,22.3233210000 114.2349160000,22.3233510000 114.2351940000,22.3235330000 114.2356470000,22.3238220000 114.2358840000,22.3239740000 114.2359320000,22.3240470000 114.2359630000,22.3240690000 114.2359950000,22.3240900000 114.2360590000,22.3241330000 114.2360260000,22.3241850000 114.2359950000,22.3242380000 114.2359780000,22.3242700000 114.2359620000,22.3243110000 114.2359690000,22.3243850000 114.2359320000,22.3244870000 114.2359050000,22.3245920000 114.2358870000,22.3246950000 114.2357570000,22.3256510000 114.2357230000,22.3259910000 114.2357040000,22.3260910000 114.2356590000,22.3263280000 114.2355640000,22.3266580000 114.2354400000,22.3269800000 114.2352710000,22.3273250000 114.2351060000,22.3275890000 114.2348990000,22.3278720000 114.2346670000,22.3281380000 114.2343450000,22.3284620000 114.2342500000,22.3285570000 114.2341350000,22.3284670000 114.2334380000,22.3279170000 114.2341350000,22.3284670000 114.2342500000,22.3285570000 114.2343450000,22.3284620000 114.2346670000,22.3281380000 114.2348990000,22.3278720000 114.2351060000,22.3275890000 114.2352710000,22.3273250000 114.2354400000,22.3269800000 114.2355640000,22.3266580000 114.2356590000,22.3263280000 114.2357230000,22.3259910000 114.2357570000,22.3256510000 114.2358870000,22.3246950000 114.2359050000,22.3245920000 114.2359320000,22.3244870000 114.2359690000,22.3243850000 114.2360310000,22.3243360000 114.2360530000,22.3243030000 114.2360700000,22.3242710000 114.2360970000,22.3242240000 114.2361260000,22.3241780000 114.2361690000,22.3241180000 114.2361360000,22.3240960000 114.2361020000,22.3240730000 114.2360400000,22.3240310000 114.2360090000,22.3240100000 114.2359770000,22.3239890000 114.2358840000,22.3239740000 114.2356470000,22.3238220000 114.2351940000,22.3235330000 114.2349160000,22.3233510000 114.2348690000,22.3233210000 114.2348370000,22.3233000000 114.2347930000,22.3232710000 114.2347420000,22.3232380000 114.2345730000,22.3231250000 114.2344040000,22.3230140000 114.2340720000,22.3227970000 114.2340460000,22.3227290000 114.2340250000,22.3227000000 114.2340060000,22.3226730000 114.2339720000,22.3226300000 114.2339720000,22.3225850000 114.2339560000,22.3225440000 114.2339270000,22.3225090000 114.2338880000,22.3224850000 114.2338420000,22.3224740000 114.2337950000,22.3224770000 114.2337510000,22.3224950000 114.2337160000,22.3225240000 114.2336930000,22.3225620000 114.2336440000,22.3226170000 114.2336160000,22.3226480000 114.2335950000,22.3226720000 114.2335240000,22.3227460000 114.2333410000,22.3228730000 114.2327260000,22.3232790000 114.2326410000,22.3233710000 114.2325810000,22.3234420000 114.2325270000,22.3235180000 114.2324800000,22.3235990000 114.2321940000,22.3240970000 114.2318840000,22.3249260000 114.2315100000,22.3257970000 114.2314350000,22.3259900000 114.2314000000,22.3260410000 114.2313570000,22.3260860000 114.2313080000,22.3261250000 114.2312570000,22.3261550000 114.2312020000,22.3261780000 114.2311440000,22.3261950000 114.2310850000,22.3262040000 114.2308600000,22.3262020000 114.2308350000,22.3262040000 114.2307160000,22.3262060000 114.2306270000,22.3262110000 114.2306220000,22.3263620000 114.2306240000,22.3264270000 114.2306250000,22.3264660000 114.2306260000,22.3264970000 114.2306240000,22.3265780000 114.2306160000,22.3266940000 114.2306030000,22.3268420000 114.2305790000,22.3270050000 114.2305320000,22.3272120000 114.2304890000,22.3273540000 114.2304610000,22.3274100000 114.2304430000,22.3274460000 114.2304140000,22.3275020000 114.2303740000,22.3275560000 114.2303400000,22.3275670000 114.2303090000,22.3275850000 114.2302830000,22.3276090000 114.2302650000,22.3276380000 114.2302540000,22.3276670000 114.2302510000,22.3276980000 114.2302540000,22.3277290000 114.2302650000,22.3277590000 114.2302590000,22.3278240000 114.2302540000,22.3278590000 114.2302440000,22.3278990000 114.2302250000,22.3279600000 114.2301970000,22.3280220000 114.2301640000,22.3280860000 114.2301280000,22.3281460000 114.2300540000,22.3282610000 114.2299290000,22.3284380000 114.2297020000,22.3287150000 114.2295860000,22.3288430000 114.2294800000,22.3289460000 114.2293640000,22.3290510000 114.2292640000,22.3291350000 114.2290920000,22.3292730000 114.2289180000,22.3293940000 114.2288030000,22.3294720000 114.2286880000,22.3295560000 114.2286090000,22.3296190000 114.2285710000,22.3296540000 114.2285340000,22.3296930000 114.2284960000,22.3297400000 114.2284560000,22.3297920000 114.2284170000,22.3298460000 114.2283880000,22.3298910000 114.2283510000,22.3299580000 114.2283170000,22.3300370000 114.2282900000,22.3301060000 114.2282640000,22.3301830000 114.2282440000,22.3302670000 114.2282330000,22.3303380000 114.2282270000,22.3303910000 114.2282220000,22.3304630000 114.2282230000,22.3305640000 114.2282310000,22.3306600000 114.2282420000,22.3307420000 114.2282590000,22.3308240000 114.2282880000,22.3309110000 114.2283070000,22.3309590000 114.2283290000,22.3310090000 114.2283510000,22.3310560000 114.2283750000,22.3310990000 114.2284060000,22.3311500000 114.2284350000,22.3311970000 114.2284630000,22.3312440000 114.2284900000,22.3312890000 114.2285180000,22.3313390000 114.2285440000,22.3313830000 114.2285710000,22.3314320000 114.2285970000,22.3314790000 114.2286240000,22.3315260000 114.2286500000,22.3315770000 114.2286710000,22.3316240000 114.2286880000,22.3316760000 114.2287000000,22.3317260000 114.2287100000,22.3317800000 114.2287190000,22.3318350000 114.2287240000,22.3318850000 114.2287250000,22.3319320000 114.2287240000,22.3319780000 114.2287200000,22.3320340000 114.2287100000,22.3320890000 114.2286950000,22.3321700000 114.2286820000,22.3322400000 114.2286240000,22.3323670000 114.2285640000,22.3324750000 114.2284990000,22.3325850000 114.2284280000,22.3327850000 114.2284030000,22.3328660000 114.2283900000,22.3329500000 114.2283820000,22.3330320000 114.2283710000,22.3331780000 114.2283670000,22.3332510000 114.2283480000,22.3337090000 114.2283370000,22.3339070000 114.2283320000,22.3339710000 114.2282490000,22.3340920000 114.2282230000,22.3341220000 114.2282060000,22.3341420000 114.2281310000,22.3341940000 114.2280750000,22.3342400000 114.2277940000,22.3342420000 114.2276810000,22.3342430000 114.2275880000,22.3342410000 114.2274470000,22.3342370000 114.2273170000,22.3342010000 114.2271140000,22.3341630000 114.2270910000,22.3341570000 114.2270640000,22.3341520000 114.2269830000,22.3341430000 114.2267530000,22.3341140000 114.2264990000,22.3340940000 114.2261950000,22.3340300000 114.2260570000,22.3339940000 114.2259170000,22.3339620000 114.2258110000,22.3339450000 114.2256970000,22.3339270000 114.2255270000,22.3339090000 114.2254270000,22.3339030000 114.2253530000,22.3339030000 114.2252540000,22.3339080000 114.2251630000,22.3339140000 114.2250140000,22.3339260000 114.2248930000,22.3339390000 114.2247870000,22.3339530000 114.2246000000,22.3339830000 114.2241890000,22.3340310000 114.2240370000,22.3340490000 114.2239520000,22.3340580000 114.2238720000,22.3340640000 114.2237840000,22.3340650000 114.2236980000,22.3340670000 114.2236140000,22.3340640000 114.2235500000,22.3340600000 114.2234770000,22.3340540000 114.2233910000,22.3340430000 114.2233070000,22.3340310000 114.2232160000,22.3340170000 114.2231370000,22.3340010000 114.2230560000,22.3339850000 114.2229600000,22.3339640000 114.2228530000,22.3339430000 114.2226670000,22.3339020000 114.2225230000,22.3338640000 114.2224570000,22.3338480000 114.2223790000,22.3338220000 114.2223120000,22.3337980000 114.2222530000,22.3337740000 114.2222010000,22.3337520000 114.2221540000,22.3337300000 114.2220750000,22.3336920000 114.2219520000,22.3336160000 114.2218490000,22.3335300000 114.2217200000,22.3334030000 114.2215910000,22.3332530000 114.2215280000,22.3331800000 114.2213320000,22.3329440000 114.2212040000,22.3327910000 114.2211650000,22.3327360000 114.2210410000,22.3325660000 114.2209710000,22.3324270000 114.2209020000,22.3322920000 114.2208700000,22.3322160000 114.2208470000,22.3321390000 114.2208370000,22.3320660000 114.2208310000,22.3319800000 114.2208300000,22.3319040000 114.2208370000,22.3318350000 114.2208530000,22.3317540000 114.2208700000,22.3316800000 114.2209000000,22.3316010000 114.2209350000,22.3315300000 114.2209770000,22.3314570000 114.2210220000,22.3313830000 114.2210830000,22.3312950000 114.2211360000,22.3312280000 114.2212000000,22.3311570000 114.2213220000,22.3310240000 114.2214570000,22.3309630000 114.2215470000,22.3309170000 114.2216190000,22.3308670000 114.2216780000,22.3308420000 114.2217430000,22.3308370000 114.2217850000,22.3308570000 114.2219550000,22.3309410000 114.2220950000,22.3311100000 114.2221930000,22.3312450000 114.2222970000,22.3314160000 114.2223860000,22.3315890000 114.2224730000,22.3317530000 114.2225170000,22.3318390000 114.2225740000,22.3319520000 114.2226090000,22.3320220000 114.2226280000,22.3320600000 114.2227100000,22.3322220000 114.2227720000,22.3323450000 114.2230630000,22.3329150000 114.2231160000,22.3330090000 114.2232030000,22.3330950000 114.2232820000,22.3331600000 114.2233760000,22.3332130000 114.2234980000,22.3332600000 114.2236050000,22.3332850000 114.2237000000,22.3332930000 114.2238190000,22.3332910000 114.2239450000,22.3332720000 114.2240930000,22.3332240000 114.2241900000,22.3331680000 114.2241930000,22.3331660000 114.2242750000,22.3331040000 114.2243340000,22.3330600000 114.2243670000,22.3330350000 114.2246050000,22.3328570000 114.2248480000,22.3326720000 114.2254410000,22.3322200000 114.2257430000,22.3319920000 114.2257540000,22.3319840000 114.2258640000,22.3319010000 114.2259610000,22.3318280000 114.2260960000,22.3317290000 114.2261920000,22.3316550000 114.2262560000,22.3316100000 114.2264190000,22.3314930000 114.2264860000,22.3314450000 114.2265610000,22.3313890000 114.2268890000,22.3311520000 114.2271690000,22.3309440000 114.2272270000,22.3308850000 114.2272930000,22.3307970000 114.2273460000,22.3307050000 114.2273780000,22.3306080000 114.2273980000,22.3305050000 114.2274040000,22.3304060000 114.2273900000,22.3302750000 114.2273260000,22.3299500000 114.2272610000,22.3296510000 114.2272380000,22.3295410000 114.2271140000,22.3289460000 114.2271060000,22.3289060000 114.2270930000,22.3288410000 114.2270370000,22.3285810000 114.2270010000,22.3284050000 114.2268950000,22.3279280000 114.2268530000,22.3277360000 114.2267850000,22.3274550000 114.2267290000,22.3272140000 114.2266890000,22.3270810000 114.2266350000,22.3269000000 114.2265940000,22.3267490000 114.2267550000,22.3266810000 114.2272760000,22.3264600000 114.2275790000,22.3263340000 114.2278490000,22.3262270000 114.2280280000,22.3261540000 114.2281040000,22.3261220000 114.2285240000,22.3259420000 114.2285970000,22.3259100000 114.2287520000,22.3258350000 114.2288680000,22.3257610000 114.2289710000,22.3256560000 114.2290530000,22.3255120000 114.2290830000,22.3253760000 114.2290800000,22.3252280000 114.2290580000,22.3250570000 114.2290220000,22.3248420000 114.2289850000,22.3246230000 114.2289210000,22.3242340000 114.2289130000,22.3241870000 114.2288910000,22.3240420000 114.2291360000,22.3240530000 114.2291720000,22.3240510000 114.2293110000,22.3240440000 114.2294680000,22.3240280000 114.2295850000,22.3240070000 114.2297030000,22.3239710000 114.2297880000,22.3239350000 114.2298680000,22.3238890000 114.2299680000,22.3238140000 114.2300690000,22.3237330000 114.2301240000,22.3236690000 114.2302030000,22.3235770000 114.2301350000,22.3235210000 114.2297300000,22.3232170000 114.2296940000,22.3231880000 114.2296050000,22.3231170000 114.2295720000,22.3230330000 114.2295700000,22.3229470000 114.2296020000,22.3228570000 114.2300300000,22.3223410000 114.2302160000,22.3221190000 114.2304810000,22.3217890000 114.2305430000,22.3217110000 114.2305980000,22.3216460000 114.2306790000,22.3215510000 114.2307220000,22.3215010000 114.2307390000,22.3214810000 114.2308590000,22.3213390000 114.2309190000,22.3212700000 114.2309690000,22.3212110000 114.2309930000,22.3211820000 114.2310190000,22.3211480000 114.2311330000,22.3210170000 114.2311940000,22.3209430000 114.2312520000,22.3208300000 114.2313160000,22.3205400000 114.2313840000,22.3204620000 114.2313920000,22.3204540000 114.2314160000,22.3204290000 114.2314840000,22.3203610000 114.2315080000,22.3203510000 114.2315160000,22.3203460000 114.2315290000,22.3203360000 114.2315460000,22.3203170000 114.2315570000,22.3202950000 114.2315600000,22.3202820000 114.2315620000,22.3202710000 114.2315610000,22.3202460000 114.2315530000,22.3202230000 114.2315390000,22.3202020000 114.2314970000,22.3201720000 114.2313950000,22.3200910000 114.2313660000,22.3200400000 114.2312290000,22.3198020000 114.2311850000,22.3197420000 114.2311520000,22.3196760000 114.2311320000,22.3196060000 114.2311250000,22.3195340000 114.2311310000,22.3194610000 114.2311500000,22.3193910000 114.2311660000,22.3193470000 114.2311990000,22.3192960000 114.2312380000,22.3192500000 114.2312950000,22.3192000000 114.2314090000,22.3191250000 114.2315290000,22.3190590000 114.2316500000,22.3190060000 114.2316810000,22.3189900000 114.2317010000,22.3189790000 114.2317450000,22.3189430000 114.2317790000,22.3188980000 114.2318000000,22.3188800000 114.2318110000,22.3188600000 114.2318470000,22.3186530000 114.2318380000,22.3186240000 114.2317650000,22.3184390000 114.2318190000,22.3181880000 114.2318900000,22.3178590000 114.2319260000,22.3176880000 114.2319690000,22.3175490000 114.2319990000,22.3174760000 114.2320580000,22.3173620000 114.2321440000,22.3172420000 114.2322390000,22.3171300000 114.2323000000,22.3170740000 114.2323210000,22.3170600000 114.2323400000,22.3170460000 114.2323680000,22.3170260000 114.2324350000,22.3169890000 114.2326360000,22.3169080000 114.2327770000,22.3168510000 114.2329110000,22.3167970000 114.2333520000,22.3166190000 114.2334630000,22.3165750000 114.2334970000,22.3165550000 114.2335620000,22.3165160000 114.2336490000,22.3164450000 114.2337240000,22.3163610000 114.2338290000,22.3161950000 114.2339900000,22.3159420000 114.2340310000,22.3158770000 114.2342680000,22.3155050000 114.2344370000,22.3152410000 114.2344850000,22.3151570000 114.2345460000,22.3150490000 114.2347420000,22.3147080000 114.2347550000,22.3146840000 114.2348260000,22.3145620000 114.2349560000,22.3146210000 114.2355840000,22.3149080000 114.2358500000,22.3150300000 114.2360690000,22.3151300000 114.2360990000,22.3151720000 114.2361290000,22.3151910000 114.2361580000,22.3152080000 114.2362130000,22.3152060000 114.2362650000,22.3152320000 114.2363200000,22.3152740000 114.2364150000,22.3153680000 114.2364490000,22.3154240000 114.2364800000,22.3154830000 114.2365430000,22.3156170000 114.2365620000,22.3156610000 114.2366390000,22.3156770000 114.2366910000,22.3157340000 114.2367270000,22.3157730000 114.2367460000,22.3157610000 114.2367660000,22.3157460000 114.2368870000,22.3156660000 114.2369380000,22.3155940000 114.2370180000,22.3155640000 114.2370270000,22.3155610000 114.2371070000,22.3155350000 114.2371700000,22.3155420000 114.2372040000,22.3155350000 114.2372520000,22.3155230000 114.2372980000,22.3154950000 114.2373440000,22.3154900000 114.2373900000,22.3154860000 114.2374830000,22.3154830000 114.2375750000,22.3154860000 114.2376630000,22.3155020000 114.2377470000,22.3155280000 114.2378270000,22.3155640000 114.2379530000,22.3156250000 114.2380810000,22.3156830000 114.2382120000,22.3157350000 114.2383730000,22.3157900000 114.2385410000,22.3158230000 114.2387120000,22.3158350000 114.2388840000,22.3158250000 114.2390520000,22.3157930000 114.2391740000,22.3157540000 114.2393190000,22.3156900000 114.2394440000,22.3156180000 114.2395620000,22.3155320000 114.2396730000,22.3154350000 114.2398040000,22.3153140000 114.2400170000,22.3150730000 114.2402190000,22.3149100000 114.2402920000,22.3148330000 114.2403570000,22.3147510000 114.2404150000,22.3146640000 114.2404530000,22.3145930000 114.2404860000,22.3145210000 114.2405140000,22.3144460000 114.2405560000,22.3143810000 114.2405920000,22.3143130000 114.2406210000,22.3142420000 114.2406420000,22.3141680000 114.2406550000,22.3140930000 114.2406600000,22.3140180000 114.2406580000,22.3139420000 114.2406470000,22.3138660000 114.2406290000,22.3137920000 114.2406030000,22.3137200000 114.2405780000,22.3136540000 114.2405480000,22.3135910000 114.2405110000,22.3135300000 114.2404690000,22.3134730000 114.2404150000,22.3134120000 114.2403540000,22.3133560000 114.2402880000,22.3133060000 114.2402170000,22.3132630000 114.2400710000,22.3132000000 114.2397950000,22.3130800000 114.2395070000,22.3129400000 114.2394480000,22.3129120000 114.2393930000,22.3128850000 114.2392430000,22.3127900000 114.2390810000,22.3126700000 114.2389910000,22.3126020000 114.2387230000,22.3124030000 114.2386040000,22.3123400000 114.2385460000,22.3123090000 114.2384350000,22.3122510000 114.2382650000,22.3121480000 114.2380610000,22.3120530000 114.2379890000,22.3120180000 114.2379400000,22.3119990000 114.2378890000,22.3119780000 114.2378430000,22.3119950000 114.2377980000,22.3120130000 114.2377280000,22.3120280000 114.2375010000,22.3120800000 114.2374330000,22.3120960000 114.2373350000,22.3121180000 114.2371290000,22.3121710000 114.2370530000,22.3121740000 114.2367260000,22.3122550000 114.2365920000,22.3122650000 114.2364760000,22.3122560000 114.2363350000,22.3122170000 114.2361990000,22.3121580000 114.2360950000,22.3120710000 114.2359760000,22.3119420000 114.2358380000,22.3117410000 114.2356600000,22.3114380000 114.2354960000,22.3111170000 114.2354030000,22.3108550000 114.2353670000,22.3107930000 114.2353530000,22.3107070000 114.2353320000,22.3105090000 114.2353170000,22.3103740000 114.2352820000,22.3100550000 114.2352790000,22.3099070000 114.2351070000,22.3099170000 114.2349280000,22.3099280000 114.2348910000,22.3099300000 114.2348430000,22.3099330000 114.2347530000,22.3099380000 114.2345110000,22.3099530000 114.2342270000,22.3099700000 114.2340970000,22.3099780000 114.2339580000,22.3099550000 114.2338630000,22.3099390000 114.2338560000,22.3099130000 114.2338430000,22.3098880000 114.2338220000,22.3098690000 114.2337960000,22.3098550000 114.2336970000,22.3096790000 114.2337090000,22.3095720000 114.2337300000,22.3094660000 114.2337580000,22.3093910000 114.2337620000,22.3093630000 114.2338050000,22.3092630000 114.2338140000,22.3092450000 114.2338570000,22.3091660000 114.2338920000,22.3091080000 114.2339240000,22.3090600000 114.2339620000,22.3090040000 114.2340790000,22.3088710000 114.2342320000,22.3086970000 114.2345350000,22.3083620000 114.2345500000,22.3083440000 114.2346180000,22.3082690000 114.2346460000,22.3082380000 114.2347880000,22.3080820000 114.2348150000,22.3080500000 114.2348550000,22.3080030000 114.2349920000,22.3077460000 114.2350530000,22.3076130000 114.2350970000,22.3074540000 114.2351410000,22.3072420000 114.2351920000,22.3069990000 114.2352420000,22.3067570000 114.2353400000,22.3062860000 114.2353500000,22.3062420000 114.2353760000,22.3061130000 114.2354110000,22.3059470000 114.2354280000,22.3058760000 114.2354780000,22.3056650000 114.2355140000,22.3056360000 114.2355220000,22.3056010000 114.2355300000,22.3055650000 114.2355110000,22.3055250000 114.2355290000,22.3054490000 114.2355650000,22.3054200000 114.2356360000,22.3051620000 114.2356350000,22.3051180000 114.2356660000,22.3050080000 114.2356470000,22.3049470000 114.2356550000,22.3048750000 114.2356550000,22.3048030000 114.2356490000,22.3047300000 114.2356330000,22.3046610000 114.2356120000,22.3045920000 114.2355830000,22.3045250000 114.2355480000,22.3044610000 114.2355530000,22.3044090000 114.2356290000,22.3043270000 114.2357710000,22.3041650000 114.2359520000,22.3039580000 114.2361220000,22.3037530000 114.2362390000,22.3036180000 114.2364220000,22.3033890000 114.2364380000,22.3033270000 114.2364460000,22.3032900000 114.2364400000,22.3032490000 114.2364240000,22.3032110000 114.2364060000,22.3031730000 114.2363810000,22.3031320000 114.2363460000,22.3030930000 114.2362980000,22.3030460000 114.2360340000,22.3028290000 114.2358650000,22.3026730000 114.2357850000,22.3025890000 114.2356820000,22.3024760000 114.2350880000,22.3017780000 114.2350250000,22.3017080000 114.2349380000,22.3016200000 114.2348510000,22.3015410000 114.2347520000,22.3014770000 114.2345520000,22.3013830000 114.2343180000,22.3012460000 114.2341660000,22.3011500000 114.2340250000,22.3010750000 114.2339420000,22.3010210000 114.2336720000,22.3008600000 114.2335880000,22.3008100000 114.2333650000,22.3006800000 114.2332200000,22.3004080000 114.2329980000,22.3002730000 114.2329560000,22.3002480000 114.2328710000,22.3001990000 114.2327510000,22.3001320000 114.2325430000,22.3000570000 114.2320890000,22.2999830000 114.2318680000,22.2998750000 114.2317430000,22.2998160000 114.2316660000,22.2997790000 114.2315800000,22.2997260000 114.2314320000,22.2996350000 114.2313190000,22.2995710000 114.2310720000,22.2994350000 114.2306520000,22.2992110000 114.2302200000,22.2989800000 114.2298200000,22.2987710000 114.2130560000,22.2900030000 114.2128440000,22.2899070000 114.2127060000,22.2898440000 114.2125860000,22.2897730000 114.2124740000,22.2897070000 114.2123600000,22.2896000000 114.2122670000,22.2894860000 114.2122090000,22.2893950000 114.2121680000,22.2892920000 114.2121400000,22.2891850000 114.2121200000,22.2890270000 114.2121470000,22.2888410000 114.2122100000,22.2886710000 114.2122970000,22.2885530000 114.2123720000,22.2884540000 114.2125140000,22.2883720000 114.2125620000,22.2883450000 114.2126130000,22.2883210000 114.2126640000,22.2883030000 114.2127070000,22.2882900000 114.2127630000,22.2882800000 114.2128140000,22.2882710000 114.2128650000,22.2882660000 114.2129350000,22.2882650000 114.2130390000,22.2882650000 114.2131260000,22.2882710000 114.2132330000,22.2882970000 114.2133040000,22.2883230000 114.2133720000,22.2883500000 114.2134540000,22.2883920000 114.2135280000,22.2884390000 114.2135770000,22.2884740000 114.2136250000,22.2885150000 114.2136680000,22.2885550000 114.2137090000,22.2886030000 114.2137680000,22.2886870000 114.2138070000,22.2887510000 114.2138390000,22.2888150000 114.2138650000,22.2888760000 114.2138790000,22.2889200000 114.2138910000,22.2889800000 114.2138970000,22.2890600000 114.2138950000,22.2891510000 114.2138780000,22.2892930000 114.2138430000,22.2893960000 114.2137990000,22.2894820000 114.2137390000,22.2895790000 114.2136370000,22.2896870000 114.2135430000,22.2897790000 114.2134820000,22.2898300000 114.2133850000,22.2898990000 114.2132830000,22.2899810000 114.2131690000,22.2900720000 114.2127380000,22.2903170000 114.2124830000,22.2904610000 114.2123200000,22.2905530000 114.2122130000,22.2906180000 114.2121310000,22.2906670000 114.2120320000,22.2907270000 114.2119230000,22.2907940000 114.2116530000,22.2909590000 114.2114960000,22.2910550000 114.2114030000,22.2911130000 114.2111810000,22.2912530000 114.2110560000,22.2913310000 114.2109730000,22.2913830000 114.2106220000,22.2916380000 114.2102020000,22.2919430000 114.2096790000,22.2923280000 114.2094250000,22.2924890000 114.2091620000,22.2926270000 114.2088160000,22.2927860000 114.2086880000,22.2928400000 114.2084250000,22.2929190000 114.2081530000,22.2930010000 114.2077170000,22.2931270000 114.2072230000,22.2932690000 114.2071640000,22.2932870000 114.2066740000,22.2934340000 114.2061700000,22.2935940000 114.2056640000,22.2937480000 114.2053700000,22.2938370000 114.2050060000,22.2939470000 114.2049120000,22.2939730000 114.2046900000,22.2940290000 114.2045330000,22.2940650000 114.2042430000,22.2941180000 114.2040330000,22.2941470000 114.2039120000,22.2941540000 114.2037320000,22.2941650000 114.2035270000,22.2941680000 114.2034090000,22.2941650000 114.2032010000,22.2941380000 114.2031730000,22.2941340000 114.2030020000,22.2941110000 114.2029330000,22.2941020000 114.2028290000,22.2940850000 114.2026460000,22.2940560000 114.2025500000,22.2940360000 114.2022170000,22.2939690000 114.2021190000,22.2939490000 114.2018350000,22.2938920000 114.2015540000,22.2938360000 114.2013450000,22.2937940000 114.2005900000,22.2936420000 114.2005170000,22.2936260000 114.2000710000,22.2935390000 114.1999040000,22.2935110000 114.1997390000,22.2934890000 114.1995910000,22.2934740000 114.1994500000,22.2934640000 114.1992990000,22.2934600000 114.1989250000,22.2934630000 114.1987990000,22.2934610000 114.1986680000,22.2934560000 114.1984820000,22.2934470000 114.1983720000,22.2934380000 114.1982150000,22.2934210000 114.1980750000,22.2933990000 114.1971540000,22.2932100000 114.1968890000,22.2931570000 114.1966340000,22.2931040000 114.1963890000,22.2930500000 114.1963650000,22.2930450000 114.1962830000,22.2930270000 114.1961050000,22.2929900000 114.1958550000,22.2929350000 114.1956370000,22.2928790000 114.1955750000,22.2928640000 114.1955000000,22.2928430000 114.1953420000,22.2928020000 114.1950760000,22.2927130000 114.1949500000,22.2926590000 114.1948340000,22.2926050000 114.1947770000,22.2925780000 114.1947230000,22.2925510000 114.1945570000,22.2924640000 114.1944720000,22.2924140000 114.1943380000,22.2923400000 114.1943010000,22.2923180000 114.1940990000,22.2921780000 114.1939740000,22.2920840000 114.1938490000,22.2919940000 114.1937010000,22.2918840000 114.1936750000,22.2918610000 114.1936060000,22.2918030000 114.1935350000,22.2917410000 114.1934410000,22.2916610000 114.1933890000,22.2916150000 114.1933500000,22.2915810000 114.1933240000,22.2915550000 114.1933070000,22.2915380000 114.1932510000,22.2914830000 114.1931350000,22.2913490000 114.1930370000,22.2912980000 114.1930000000,22.2912790000 114.1929650000,22.2912600000 114.1928810000,22.2911910000 114.1927960000,22.2911220000 114.1926510000,22.2909900000 114.1923350000,22.2907120000 114.1922120000,22.2906020000 114.1918270000,22.2902610000 114.1916300000,22.2900770000 114.1908750000,22.2893900000 114.1907350000,22.2892620000 114.1890040000,22.2874280000 114.1877620000,22.2861010000 114.1876340000,22.2859670000 114.1875060000,22.2858380000 114.1873510000,22.2856890000 114.1871940000,22.2855440000 114.1869480000,22.2853310000 114.1868230000,22.2852280000 114.1866980000,22.2851280000 114.1864830000,22.2849650000 114.1862650000,22.2848080000 114.1860420000,22.2846580000 114.1858230000,22.2845190000 114.1856130000,22.2843930000 114.1854010000,22.2842730000 114.1851740000,22.2841520000 114.1849430000,22.2840370000 114.1847330000,22.2839390000 114.1845230000,22.2838460000 114.1841940000,22.2837120000 114.1838710000,22.2835940000 114.1835380000,22.2834860000 114.1832060000,22.2833900000 114.1830230000,22.2833420000 114.1828410000,22.2832980000 114.1826170000,22.2832480000 114.1823210000,22.2831920000 114.1820230000,22.2831430000 114.1814740000,22.2830780000 114.1805170000,22.2830320000 114.1768450000,22.2825330000 114.1755490000,22.2823780000 114.1749950000,22.2823150000 114.1743800000,22.2822580000 114.1728910000,22.2821650000 114.1715990000,22.2821360000 114.1711640000,22.2821470000 114.1704020000,22.2821530000 114.1698050000,22.2821850000 114.1683210000,22.2822580000 114.1678140000,22.2822960000 114.1672620000,22.2823610000 114.1666010000,22.2824650000 114.1661110000,22.2825700000 114.1655820000,22.2826990000 114.1650590000,22.2828520000 114.1644680000,22.2830590000 114.1640640000,22.2832160000 114.1636710000,22.2833830000 114.1630590000,22.2836830000 114.1612520000,22.2847050000 114.1603510000,22.2852150000 114.1600340000,22.2854100000 114.1590010000,22.2860480000 114.1585600000,22.2863200000 114.1584600000,22.2863770000 114.1581200000,22.2865700000 114.1578800000,22.2866590000 114.1576800000,22.2867200000 114.1573960000,22.2867970000 114.1572770000,22.2868290000 114.1570470000,22.2868920000 114.1569390000,22.2869180000 114.1568240000,22.2869400000 114.1567420000,22.2869520000 114.1566620000,22.2869610000 114.1565800000,22.2869670000 114.1565000000,22.2869690000 114.1564070000,22.2869670000 114.1563410000,22.2869620000 114.1562780000,22.2869510000 114.1562220000,22.2869360000 114.1561770000,22.2869170000 114.1561330000,22.2868960000 114.1560940000,22.2868730000 114.1560590000,22.2868470000 114.1560240000,22.2868150000 114.1559990000,22.2867890000 114.1559790000,22.2867640000 114.1559710000,22.2867520000 114.1559610000,22.2867380000 114.1559420000,22.2867010000 114.1559190000,22.2866350000 114.1559130000,22.2866000000 114.1559090000,22.2865660000 114.1559170000,22.2864630000 114.1559200000,22.2864100000 114.1559230000,22.2863520000 114.1560740000,22.2860920000 114.1561180000,22.2860070000 114.1561670000,22.2858930000 114.1562170000,22.2857520000 114.1563870000,22.2853920000 114.1564650000,22.2851570000 114.1565090000,22.2850730000 114.1565550000,22.2849860000 114.1566090000,22.2848960000 114.1566750000,22.2848040000 114.1568160000,22.2846210000 114.1568500000,22.2845860000 114.1569110000,22.2845240000 114.1571480000,22.2842210000 114.1572600000,22.2840860000 114.1573120000,22.2840240000 114.1573660000,22.2839730000 114.1574380000,22.2839050000 114.1575340000,22.2838130000 114.1575870000,22.2837540000 114.1577890000,22.2835370000 114.1578300000,22.2834980000 114.1578870000,22.2834500000 114.1580380000,22.2833340000 114.1581980000,22.2832100000 114.1582420000,22.2831260000 114.1582660000,22.2830530000 114.1582580000,22.2829870000 114.1582430000,22.2829540000 114.1582000000,22.2829200000 114.1581250000,22.2828960000 114.1580750000,22.2829040000 114.1580250000,22.2829190000 114.1579630000,22.2829380000 114.1578770000,22.2830200000 114.1576910000,22.2832140000 114.1576060000,22.2833080000 114.1575210000,22.2834020000 114.1574460000,22.2834930000 114.1573810000,22.2835710000 114.1573200000,22.2836930000 114.1572720000,22.2837890000 114.1572170000,22.2838640000 114.1571750000,22.2839280000 114.1571260000,22.2839930000 114.1570630000,22.2840670000 114.1570030000,22.2841210000 114.1569650000,22.2841690000 114.1569080000,22.2842420000 114.1567160000,22.2844880000 114.1566630000,22.2845700000 114.1565970000,22.2846560000 114.1565100000,22.2847670000 114.1564190000,22.2848940000 114.1563730000,22.2849340000 114.1563020000,22.2849370000 114.1562580000,22.2849330000 114.1558990000,22.2846850000 114.1558620000,22.2846580000 114.1558280000,22.2846340000 114.1557800000,22.2846000000 114.1557430000,22.2845710000 114.1557210000,22.2845560000 114.1556850000,22.2845290000 114.1556260000,22.2844830000 114.1554200000,22.2843310000 114.1554160000,22.2843280000 114.1551510000,22.2841240000 114.1549650000,22.2839870000 114.1548360000,22.2838930000 114.1548120000,22.2838750000 114.1547900000,22.2838590000 114.1547300000,22.2838090000 114.1545130000,22.2839720000 114.1541970000,22.2841820000 114.1540630000,22.2842790000 114.1540250000,22.2843050000 114.1538510000,22.2844390000 114.1536410000,22.2846170000 114.1533510000,22.2848580000 114.1531100000,22.2850720000 114.1530510000,22.2850730000 114.1529960000,22.2850750000 114.1529140000,22.2850730000 114.1527870000,22.2850470000 114.1527040000,22.2850250000 114.1526600000,22.2850090000 114.1526190000,22.2849870000 114.1525810000,22.2849650000 114.1524440000,22.2848730000 114.1523950000,22.2848430000 114.1523430000,22.2848180000 114.1522780000,22.2847940000 114.1522100000,22.2847750000 114.1521360000,22.2847620000 114.1520310000,22.2847530000 114.1517390000,22.2847300000 114.1516890000,22.2847230000 114.1516340000,22.2847110000 114.1515810000,22.2846930000 114.1515310000,22.2846730000 114.1512270000,22.2845330000 114.1511820000,22.2845160000 114.1511430000,22.2845070000 114.1511030000,22.2845080000 114.1510640000,22.2845160000 114.1510250000,22.2845290000 114.1509760000,22.2845530000 114.1505740000,22.2847960000 114.1505370000,22.2848220000 114.1504490000,22.2849160000 114.1503700000,22.2850230000 114.1502960000,22.2851260000 114.1500900000,22.2854010000 114.1499130000,22.2856390000 114.1498690000,22.2856980000 114.1498280000,22.2857400000 114.1497470000,22.2858030000 114.1497140000,22.2858250000 114.1495920000,22.2859030000 114.1495370000,22.2859270000 114.1495010000,22.2859390000 114.1494290000,22.2859600000 114.1491150000,22.2860620000 114.1488870000,22.2861370000 114.1488480000,22.2861500000 114.1487550000,22.2861800000 114.1485820000,22.2863080000 114.1479590000,22.2867980000 114.1479330000,22.2868190000 114.1479010000,22.2868330000 114.1478550000,22.2868470000 114.1478060000,22.2868510000 114.1477560000,22.2868450000 114.1477010000,22.2868240000 114.1476290000,22.2867850000 114.1475670000,22.2867440000 114.1473150000,22.2865570000 114.1471410000,22.2864260000 114.1470240000,22.2863510000 114.1469750000,22.2863190000 114.1468850000,22.2862610000 114.1468380000,22.2862400000 114.1468140000,22.2862340000 114.1467880000,22.2862270000 114.1467460000,22.2862230000 114.1467050000,22.2862240000 114.1465110000,22.2862400000 114.1464420000,22.2862450000 114.1464080000,22.2862480000 114.1463730000,22.2862510000 114.1462740000,22.2862590000 114.1462220000,22.2862630000 114.1460260000,22.2862790000 114.1459570000,22.2862880000 114.1458900000,22.2863050000 114.1458260000,22.2863300000 114.1457660000,22.2863610000 114.1457100000,22.2863980000 114.1456590000,22.2864420000 114.1452830000,22.2867500000 114.1449540000,22.2870220000 114.1449030000,22.2870620000 114.1448000000,22.2871100000 114.1447520000,22.2871070000 114.1446730000,22.2870820000 114.1445480000,22.2870360000 114.1443720000,22.2869420000 114.1443660000,22.2869390000 114.1442390000,22.2868780000 114.1440840000,22.2868570000 114.1438650000,22.2868620000 114.1438230000,22.2868630000 114.1437220000,22.2868660000 114.1436260000,22.2868690000 114.1433180000,22.2868800000 114.1429640000,22.2868930000 114.1426580000,22.2869030000 114.1424090000,22.2869130000 114.1423900000,22.2869140000 114.1422890000,22.2869170000 114.1422010000,22.2869200000 114.1411730000,22.2869560000 114.1409080000,22.2869650000 114.1408480000,22.2869680000 114.1407740000,22.2869710000 114.1406830000,22.2869730000 114.1404780000,22.2869820000 114.1396850000,22.2867810000 114.1391470000,22.2866450000 114.1390610000,22.2866230000 114.1389580000,22.2865980000 114.1387240000,22.2865390000 114.1384650000,22.2864720000 114.1384030000,22.2864560000 114.1383560000,22.2864440000 114.1381110000,22.2863820000 114.1378720000,22.2863180000 114.1377360000,22.2862700000 114.1376100000,22.2862100000 114.1374100000,22.2860940000 114.1371440000,22.2859220000 114.1369220000,22.2857780000 114.1368740000,22.2857510000 114.1368430000,22.2857350000 114.1368240000,22.2857270000 114.1367990000,22.2857250000 114.1367460000,22.2857250000 114.1366740000,22.2857400000 114.1362030000,22.2858430000 114.1361650000,22.2858510000 114.1357890000,22.2859360000 114.1353680000,22.2860360000 114.1353390000,22.2860430000 114.1352590000,22.2860610000 114.1351760000,22.2860790000 114.1351300000,22.2860890000 114.1343440000,22.2862660000 114.1339130000,22.2863670000 114.1328860000,22.2865950000 114.1328050000,22.2866140000 114.1327660000,22.2865030000 114.1325610000,22.2859170000 114.1324960000,22.2857390000 114.1324690000,22.2856680000 114.1322580000,22.2851140000 114.1321200000,22.2849070000 114.1320310000,22.2848010000 114.1319760000,22.2847460000 114.1314610000,22.2843270000 114.1312440000,22.2841480000 114.1312170000,22.2841280000 114.1311790000,22.2840990000 114.1310980000,22.2840330000 114.1308910000,22.2838650000 114.1302350000,22.2833310000 114.1301860000,22.2832910000 114.1301260000,22.2832420000 114.1300610000,22.2831930000 114.1297400000,22.2829520000 114.1295960000,22.2828700000 114.1294460000,22.2828230000 114.1292150000,22.2827640000 114.1291570000,22.2827540000 114.1290620000,22.2827380000 114.1289860000,22.2827260000 114.1283200000,22.2826080000 114.1282770000,22.2826010000 114.1281970000,22.2825890000 114.1280980000,22.2825870000 114.1272020000,22.2824320000 114.1269850000,22.2823940000 114.1269510000,22.2823880000 114.1268870000,22.2823770000 114.1267600000,22.2823550000 114.1265810000,22.2823230000 114.1262970000,22.2822740000 114.1262160000,22.2822580000 114.1262030000,22.2822570000 114.1261870000,22.2822570000 114.1261200000,22.2822680000 114.1260700000,22.2822730000 114.1260240000,22.2822740000 114.1259310000,22.2822710000 114.1256030000,22.2822180000 114.1254140000,22.2821880000 114.1252720000,22.2821650000 114.1247550000,22.2820850000 114.1246630000,22.2820690000 114.1244040000,22.2820220000 114.1235150000,22.2818670000 114.1233260000,22.2818340000 114.1233130000,22.2818740000 114.1232940000,22.2819380000 114.1232570000,22.2820590000 114.1232200000,22.2821800000 114.1232120000,22.2822090000 114.1231910000,22.2822440000 114.1231660000,22.2822710000 114.1231340000,22.2822910000 114.1230940000,22.2822990000 114.1230430000,22.2822970000 114.1230000000,22.2822880000 114.1229070000,22.2822570000 114.1223260000,22.2820670000 114.1221920000,22.2820230000 114.1207740000,22.2815590000 114.1207400000,22.2815480000 114.1207050000,22.2815320000 114.1206210000,22.2814940000 114.1205810000,22.2814870000</coordinates>
                </LineString>
                <ExtendedData>
                    <Data name="duration">
                        <value>01:04:16</value>
                    </Data>
                    <Data name="length">
                        <value>48419.13944125198</value>
                    </Data>
                </ExtendedData>
            </Placemark>
        </Document>
    </Document>
</kml>