<?xml version="1.0" encoding="UTF-8"?>
<kml xmlns="http://www.opengis.net/kml/2.2" xmlns:gx="http://www.google.com/kml/ext/2.2">
    <Document>
        <name>Route</name>
        <Folder>
            <name>Route Request</name>
            <Placemark>
                <address>Sai Ning Street, Huncliff Court, Kennedy Town, Central and Western District, Hong Kong Island, Hong Kong, China</address>
                <Point>
                    <coordinates>114.1205850967,22.2815251115</coordinates>
                </Point>
                <ExtendedData>
                    <Data name="country_code">
                        <value>cn</value>
                    </Data>
                    <Data name="city">
                        <value>Hong Kong Island</value>
                    </Data>
                    <Data name="road">
                        <value>Sai Ning Street</value>
                    </Data>
                    <Data name="city_district">
                        <value>Central and Western District</value>
                    </Data>
                    <Data name="state">
                        <value>Hong Kong</value>
                    </Data>
                    <Data name="suburb">
                        <value>Kennedy Town</value>
                    </Data>
                    <Data name="residential">
                        <value>Huncliff Court</value>
                    </Data>
                    <Data name="country">
                        <value>China</value>
                    </Data>
                    <Data name="ISO3166-2-lvl3">
                        <value>CN-HK</value>
                    </Data>
                </ExtendedData>
            </Placemark>
            <Placemark>
                <address>Sutherland Street, Des Voeux Road West, Tai Ping Shan, Sheung Wan, Central and Western District, Hong Kong Island, Hong Kong, China</address>
                <Point>
                    <coordinates>114.1456220214,22.2878217437</coordinates>
                </Point>
                <ExtendedData>
                    <Data name="neighbourhood">
                        <value>Tai Ping Shan</value>
                    </Data>
                    <Data name="country_code">
                        <value>cn</value>
                    </Data>
                    <Data name="city">
                        <value>Hong Kong Island</value>
                    </Data>
                    <Data name="road">
                        <value>Des Voeux Road West</value>
                    </Data>
                    <Data name="highway">
                        <value>Sutherland Street</value>
                    </Data>
                    <Data name="city_district">
                        <value>Central and Western District</value>
                    </Data>
                    <Data name="state">
                        <value>Hong Kong</value>
                    </Data>
                    <Data name="suburb">
                        <value>Sheung Wan</value>
                    </Data>
                    <Data name="country">
                        <value>China</value>
                    </Data>
                    <Data name="ISO3166-2-lvl3">
                        <value>CN-HK</value>
                    </Data>
                </ExtendedData>
            </Placemark>
            <Placemark>
                <address>Central Preliminary Sewage Treatrment Works, 8, Western Fire Services Street, Tai Ping Shan, Sheung Wan, Central and Western District, Hong Kong Island, Hong Kong, China</address>
                <Point>
                    <coordinates>114.1480289840,22.2897137673</coordinates>
                </Point>
                <ExtendedData>
                    <Data name="neighbourhood">
                        <value>Tai Ping Shan</value>
                    </Data>
                    <Data name="country_code">
                        <value>cn</value>
                    </Data>
                    <Data name="city">
                        <value>Hong Kong Island</value>
                    </Data>
                    <Data name="road">
                        <value>Western Fire Services Street</value>
                    </Data>
                    <Data name="city_district">
                        <value>Central and Western District</value>
                    </Data>
                    <Data name="house_number">
                        <value>8</value>
                    </Data>
                    <Data name="state">
                        <value>Hong Kong</value>
                    </Data>
                    <Data name="suburb">
                        <value>Sheung Wan</value>
                    </Data>
                    <Data name="man_made">
                        <value>Central Preliminary Sewage Treatrment Works</value>
                    </Data>
                    <Data name="country">
                        <value>China</value>
                    </Data>
                    <Data name="ISO3166-2-lvl3">
                        <value>CN-HK</value>
                    </Data>
                </ExtendedData>
            </Placemark>
            <Placemark>
                <Point>
                    <coordinates>114.2399255708,22.3131827111</coordinates>
                </Point>
            </Placemark>
            <Placemark>
                <address>Mau Wu Tsai, Po Lam Road, Mau Wu Tsai, Tseung Kwan O Village, Sai Kung District, New Territories, Hong Kong, China</address>
                <Point>
                    <coordinates>114.2517503943,22.3175980346</coordinates>
                </Point>
                <ExtendedData>
                    <Data name="country_code">
                        <value>cn</value>
                    </Data>
                    <Data name="city">
                        <value>Sai Kung District</value>
                    </Data>
                    <Data name="road">
                        <value>Po Lam Road</value>
                    </Data>
                    <Data name="highway">
                        <value>Mau Wu Tsai</value>
                    </Data>
                    <Data name="state">
                        <value>Hong Kong</value>
                    </Data>
                    <Data name="village">
                        <value>Tseung Kwan O Village</value>
                    </Data>
                    <Data name="country">
                        <value>China</value>
                    </Data>
                    <Data name="hamlet">
                        <value>Mau Wu Tsai</value>
                    </Data>
                    <Data name="municipality">
                        <value>New Territories</value>
                    </Data>
                    <Data name="ISO3166-2-lvl3">
                        <value>CN-HK</value>
                    </Data>
                </ExtendedData>
            </Placemark>
            <Placemark>
                <address>Metro City Plaza II, Mau Yip Road, Po Lam, Tseung Kwan O, Sai Kung District, New Territories, Hong Kong, China</address>
                <Point>
                    <coordinates>114.2583142474,22.3233148271</coordinates>
                </Point>
                <ExtendedData>
                    <Data name="country_code">
                        <value>cn</value>
                    </Data>
                    <Data name="city">
                        <value>Sai Kung District</value>
                    </Data>
                    <Data name="road">
                        <value>Mau Yip Road</value>
                    </Data>
                    <Data name="state">
                        <value>Hong Kong</value>
                    </Data>
                    <Data name="suburb">
                        <value>Po Lam</value>
                    </Data>
                    <Data name="shop">
                        <value>Metro City Plaza II</value>
                    </Data>
                    <Data name="country">
                        <value>China</value>
                    </Data>
                    <Data name="town">
                        <value>Tseung Kwan O</value>
                    </Data>
                    <Data name="municipality">
                        <value>New Territories</value>
                    </Data>
                    <Data name="ISO3166-2-lvl3">
                        <value>CN-HK</value>
                    </Data>
                </ExtendedData>
            </Placemark>
            <Placemark>
                <Point>
                    <coordinates>114.2370960522,22.3156644128</coordinates>
                </Point>
            </Placemark>
            <Placemark>
                <address>Ping Wong House, Ping Tin Trail, Yau Tong Bay, Lam Tin, Kwun Tong District, Kowloon, Hong Kong, China</address>
                <Point>
                    <coordinates>114.2340135334,22.3099260302</coordinates>
                </Point>
                <ExtendedData>
                    <Data name="quarter">
                        <value>Yau Tong Bay</value>
                    </Data>
                    <Data name="country_code">
                        <value>cn</value>
                    </Data>
                    <Data name="city">
                        <value>Kowloon</value>
                    </Data>
                    <Data name="road">
                        <value>Ping Tin Trail</value>
                    </Data>
                    <Data name="city_district">
                        <value>Kwun Tong District</value>
                    </Data>
                    <Data name="routingVisited">
                        <value>false</value>
                    </Data>
                    <Data name="state">
                        <value>Hong Kong</value>
                    </Data>
                    <Data name="suburb">
                        <value>Lam Tin</value>
                    </Data>
                    <Data name="country">
                        <value>China</value>
                    </Data>
                    <Data name="building">
                        <value>Ping Wong House</value>
                    </Data>
                    <Data name="ISO3166-2-lvl3">
                        <value>CN-HK</value>
                    </Data>
                </ExtendedData>
            </Placemark>
            <Placemark>
                <address>Kong Chung Lane, SoHo, Sheung Wan, Central and Western District, Hong Kong Island, Hong Kong, China</address>
                <Point>
                    <coordinates>114.1559924646,22.2867393289</coordinates>
                </Point>
                <ExtendedData>
                    <Data name="neighbourhood">
                        <value>SoHo</value>
                    </Data>
                    <Data name="country_code">
                        <value>cn</value>
                    </Data>
                    <Data name="city">
                        <value>Hong Kong Island</value>
                    </Data>
                    <Data name="road">
                        <value>Kong Chung Lane</value>
                    </Data>
                    <Data name="city_district">
                        <value>Central and Western District</value>
                    </Data>
                    <Data name="state">
                        <value>Hong Kong</value>
                    </Data>
                    <Data name="suburb">
                        <value>Sheung Wan</value>
                    </Data>
                    <Data name="country">
                        <value>China</value>
                    </Data>
                    <Data name="ISO3166-2-lvl3">
                        <value>CN-HK</value>
                    </Data>
                </ExtendedData>
            </Placemark>
            <Placemark>
                <address>Kamcourt Building, 60-62, Bonham Strand, Tai Ping Shan, Sheung Wan, Central and Western District, Hong Kong Island, Hong Kong, China</address>
                <Point>
                    <coordinates>114.1498234937,22.2857050748</coordinates>
                </Point>
                <ExtendedData>
                    <Data name="neighbourhood">
                        <value>Tai Ping Shan</value>
                    </Data>
                    <Data name="country_code">
                        <value>cn</value>
                    </Data>
                    <Data name="city">
                        <value>Hong Kong Island</value>
                    </Data>
                    <Data name="road">
                        <value>Bonham Strand</value>
                    </Data>
                    <Data name="routingVisited">
                        <value>false</value>
                    </Data>
                    <Data name="city_district">
                        <value>Central and Western District</value>
                    </Data>
                    <Data name="house_number">
                        <value>60-62</value>
                    </Data>
                    <Data name="state">
                        <value>Hong Kong</value>
                    </Data>
                    <Data name="suburb">
                        <value>Sheung Wan</value>
                    </Data>
                    <Data name="country">
                        <value>China</value>
                    </Data>
                    <Data name="building">
                        <value>Kamcourt Building</value>
                    </Data>
                    <Data name="ISO3166-2-lvl3">
                        <value>CN-HK</value>
                    </Data>
                </ExtendedData>
            </Placemark>
            <Placemark>
                <address>Sai Woo Lane, Mid-Levels West, Sai Ying Pun, Central and Western District, Hong Kong Island, Hong Kong, China</address>
                <Point>
                    <coordinates>114.1443526737,22.2869630430</coordinates>
                </Point>
                <ExtendedData>
                    <Data name="quarter">
                        <value>Mid-Levels West</value>
                    </Data>
                    <Data name="country_code">
                        <value>cn</value>
                    </Data>
                    <Data name="city">
                        <value>Hong Kong Island</value>
                    </Data>
                    <Data name="road">
                        <value>Sai Woo Lane</value>
                    </Data>
                    <Data name="city_district">
                        <value>Central and Western District</value>
                    </Data>
                    <Data name="state">
                        <value>Hong Kong</value>
                    </Data>
                    <Data name="suburb">
                        <value>Sai Ying Pun</value>
                    </Data>
                    <Data name="country">
                        <value>China</value>
                    </Data>
                    <Data name="ISO3166-2-lvl3">
                        <value>CN-HK</value>
                    </Data>
                </ExtendedData>
            </Placemark>
            <Placemark>
                <address>Sai Ning Street, Huncliff Court, Kennedy Town, Central and Western District, Hong Kong Island, Hong Kong, China</address>
                <Point>
                    <coordinates>114.1205838438,22.2814704823</coordinates>
                </Point>
                <ExtendedData>
                    <Data name="country_code">
                        <value>cn</value>
                    </Data>
                    <Data name="city">
                        <value>Hong Kong Island</value>
                    </Data>
                    <Data name="road">
                        <value>Sai Ning Street</value>
                    </Data>
                    <Data name="city_district">
                        <value>Central and Western District</value>
                    </Data>
                    <Data name="state">
                        <value>Hong Kong</value>
                    </Data>
                    <Data name="suburb">
                        <value>Kennedy Town</value>
                    </Data>
                    <Data name="residential">
                        <value>Huncliff Court</value>
                    </Data>
                    <Data name="country">
                        <value>China</value>
                    </Data>
                    <Data name="ISO3166-2-lvl3">
                        <value>CN-HK</value>
                    </Data>
                </ExtendedData>
            </Placemark>
        </Folder>
        <Document>
            <name>45.3 km; 00:55 h (OSRM)</name>
            <Placemark>
                <name>Route</name>
                <LineString>
                    <coordinates>114.1205970000,22.2814940000 114.1207170000,22.2815330000 114.1221950000,22.2820160000 114.1223280000,22.2820600000 114.1229080000,22.2822540000 114.1230000000,22.2822880000 114.1230430000,22.2822970000 114.1230940000,22.2822990000 114.1231340000,22.2822910000 114.1231660000,22.2822710000 114.1231910000,22.2822440000 114.1232120000,22.2822090000 114.1232200000,22.2821800000 114.1232570000,22.2820590000 114.1232940000,22.2819380000 114.1233130000,22.2818740000 114.1233260000,22.2818340000 114.1235150000,22.2818670000 114.1244040000,22.2820220000 114.1246630000,22.2820690000 114.1247550000,22.2820850000 114.1252720000,22.2821650000 114.1254140000,22.2821880000 114.1259310000,22.2822710000 114.1260040000,22.2823340000 114.1260410000,22.2823870000 114.1260500000,22.2824220000 114.1260450000,22.2824670000 114.1259710000,22.2828030000 114.1259470000,22.2829080000 114.1260530000,22.2829260000 114.1265380000,22.2830030000 114.1266020000,22.2830130000 114.1267550000,22.2830360000 114.1268320000,22.2830490000 114.1279520000,22.2832420000 114.1279580000,22.2832430000 114.1280680000,22.2832620000 114.1281490000,22.2832780000 114.1284930000,22.2833390000 114.1286180000,22.2833820000 114.1288500000,22.2834200000 114.1289490000,22.2834280000 114.1290470000,22.2834340000 114.1291620000,22.2834570000 114.1292700000,22.2834960000 114.1293440000,22.2835380000 114.1295210000,22.2836750000 114.1296260000,22.2837670000 114.1296960000,22.2838220000 114.1298770000,22.2840020000 114.1301390000,22.2842060000 114.1302700000,22.2843090000 114.1305640000,22.2845420000 114.1306840000,22.2846360000 114.1309380000,22.2848510000 114.1313160000,22.2851690000 114.1313840000,22.2852390000 114.1314380000,22.2853000000 114.1315330000,22.2853990000 114.1316110000,22.2854880000 114.1316670000,22.2855770000 114.1318710000,22.2859360000 114.1322340000,22.2866270000 114.1322960000,22.2867370000 114.1323670000,22.2868660000 114.1324240000,22.2869650000 114.1324770000,22.2870480000 114.1325300000,22.2871190000 114.1325890000,22.2871820000 114.1326490000,22.2872340000 114.1327140000,22.2872790000 114.1327860000,22.2873190000 114.1328580000,22.2873490000 114.1329470000,22.2873760000 114.1330370000,22.2873910000 114.1331150000,22.2873960000 114.1331820000,22.2873980000 114.1332480000,22.2873930000 114.1333270000,22.2873830000 114.1336790000,22.2873160000 114.1337030000,22.2873120000 114.1337840000,22.2872940000 114.1338000000,22.2872910000 114.1338780000,22.2872750000 114.1345940000,22.2871300000 114.1347110000,22.2871030000 114.1347410000,22.2870950000 114.1349660000,22.2870170000 114.1349890000,22.2870090000 114.1350970000,22.2869690000 114.1353030000,22.2869060000 114.1354480000,22.2868700000 114.1355090000,22.2868550000 114.1357450000,22.2868100000 114.1357790000,22.2868020000 114.1359970000,22.2867550000 114.1360770000,22.2867370000 114.1361140000,22.2867360000 114.1361580000,22.2867440000 114.1364240000,22.2868240000 114.1365090000,22.2868490000 114.1365380000,22.2868580000 114.1365510000,22.2868620000 114.1367810000,22.2869260000 114.1369960000,22.2869850000 114.1374180000,22.2871050000 114.1375140000,22.2871310000 114.1376110000,22.2871570000 114.1382790000,22.2873430000 114.1384740000,22.2873970000 114.1386770000,22.2874510000 114.1386980000,22.2874560000 114.1388050000,22.2874850000 114.1389140000,22.2875110000 114.1389410000,22.2875180000 114.1390400000,22.2875420000 114.1393260000,22.2876120000 114.1394070000,22.2876330000 114.1394490000,22.2876430000 114.1400520000,22.2878080000 114.1402960000,22.2878840000 114.1404120000,22.2879170000 114.1405540000,22.2879550000 114.1405850000,22.2879630000 114.1406440000,22.2879780000 114.1407040000,22.2879890000 114.1407350000,22.2879940000 114.1407810000,22.2880000000 114.1408280000,22.2880040000 114.1409090000,22.2880040000 114.1412500000,22.2879930000 114.1418750000,22.2879730000 114.1422510000,22.2879610000 114.1423360000,22.2879590000 114.1430030000,22.2879370000 114.1436650000,22.2879170000 114.1436840000,22.2879160000 114.1437740000,22.2879130000 114.1438640000,22.2879100000 114.1447620000,22.2878820000 114.1448540000,22.2878790000 114.1453350000,22.2878580000 114.1456230000,22.2878360000 114.1458390000,22.2878190000 114.1459200000,22.2878120000 114.1466000000,22.2877530000 114.1470370000,22.2877160000 114.1470760000,22.2877130000 114.1471310000,22.2877090000 114.1471510000,22.2877080000 114.1472420000,22.2877020000 114.1472720000,22.2877040000 114.1473050000,22.2877140000 114.1473420000,22.2877360000 114.1478030000,22.2880740000 114.1478900000,22.2881380000 114.1479530000,22.2881840000 114.1479960000,22.2882180000 114.1480730000,22.2883040000 114.1480890000,22.2883430000 114.1481230000,22.2884710000 114.1480300000,22.2886200000 114.1480000000,22.2886800000 114.1479400000,22.2887200000 114.1473500000,22.2888700000 114.1473100000,22.2889100000 114.1473000000,22.2889500000 114.1473100000,22.2890000000 114.1473830000,22.2890970000 114.1475630000,22.2897410000 114.1476010000,22.2898750000 114.1477030000,22.2898970000 114.1480560000,22.2898130000 114.1483560000,22.2897420000 114.1484040000,22.2897270000 114.1484530000,22.2896870000 114.1484630000,22.2896580000 114.1484620000,22.2895890000 114.1483790000,22.2892270000 114.1482090000,22.2886840000 114.1481920000,22.2886290000 114.1481230000,22.2884710000 114.1483350000,22.2884430000 114.1485520000,22.2884030000 114.1488350000,22.2883360000 114.1494260000,22.2881900000 114.1495090000,22.2881700000 114.1500860000,22.2880280000 114.1503900000,22.2879490000 114.1505430000,22.2879040000 114.1512830000,22.2876770000 114.1515710000,22.2875940000 114.1516850000,22.2875580000 114.1519040000,22.2874890000 114.1519860000,22.2874630000 114.1522920000,22.2873700000 114.1523810000,22.2873410000 114.1525100000,22.2873010000 114.1527610000,22.2872270000 114.1532200000,22.2870900000 114.1533330000,22.2870650000 114.1535500000,22.2870330000 114.1536500000,22.2870210000 114.1536980000,22.2870310000 114.1537890000,22.2870490000 114.1538370000,22.2870560000 114.1539830000,22.2871010000 114.1541570000,22.2871260000 114.1545250000,22.2871720000 114.1549900000,22.2872600000 114.1551200000,22.2872910000 114.1552600000,22.2873190000 114.1553900000,22.2873420000 114.1555200000,22.2873550000 114.1556700000,22.2873600000 114.1557810000,22.2873570000 114.1558900000,22.2873500000 114.1562100000,22.2873300000 114.1565690000,22.2872810000 114.1567350000,22.2872500000 114.1568880000,22.2872190000 114.1570280000,22.2871870000 114.1571740000,22.2871500000 114.1573070000,22.2871110000 114.1574320000,22.2870640000 114.1575710000,22.2869980000 114.1577710000,22.2868920000 114.1582190000,22.2867120000 114.1585550000,22.2865150000 114.1586590000,22.2864510000 114.1590830000,22.2861850000 114.1601100000,22.2855380000 114.1603830000,22.2853670000 114.1613200000,22.2848360000 114.1631300000,22.2838110000 114.1638350000,22.2834740000 114.1641470000,22.2833390000 114.1644930000,22.2832060000 114.1651340000,22.2829870000 114.1656200000,22.2828430000 114.1661460000,22.2827110000 114.1665970000,22.2826160000 114.1670640000,22.2825310000 114.1677350000,22.2824530000 114.1680670000,22.2824220000 114.1684300000,22.2823990000 114.1690810000,22.2823640000 114.1704260000,22.2822970000 114.1711440000,22.2822770000 114.1723810000,22.2822790000 114.1733180000,22.2823150000 114.1742830000,22.2823780000 114.1747660000,22.2824220000 114.1751810000,22.2824690000 114.1755770000,22.2825230000 114.1768630000,22.2827100000 114.1809240000,22.2832540000 114.1818280000,22.2833910000 114.1822460000,22.2834740000 114.1827630000,22.2835930000 114.1832380000,22.2837310000 114.1844020000,22.2841550000 114.1848440000,22.2843550000 114.1853820000,22.2846360000 114.1858920000,22.2849320000 114.1862730000,22.2851750000 114.1866220000,22.2854130000 114.1870320000,22.2857280000 114.1874410000,22.2860740000 114.1879160000,22.2865160000 114.1885910000,22.2872130000 114.1888910000,22.2875400000 114.1906150000,22.2893660000 114.1907590000,22.2894960000 114.1915190000,22.2901840000 114.1917040000,22.2903580000 114.1918520000,22.2904860000 114.1921150000,22.2907240000 114.1922280000,22.2908250000 114.1925380000,22.2910950000 114.1926650000,22.2912100000 114.1927370000,22.2912730000 114.1927890000,22.2913210000 114.1928900000,22.2914230000 114.1930690000,22.2916020000 114.1931400000,22.2916730000 114.1931560000,22.2916890000 114.1931780000,22.2917110000 114.1932700000,22.2918030000 114.1933530000,22.2918870000 114.1934530000,22.2919710000 114.1935380000,22.2920420000 114.1935600000,22.2920570000 114.1935890000,22.2920770000 114.1936150000,22.2920950000 114.1937360000,22.2921760000 114.1938530000,22.2922540000 114.1939710000,22.2923350000 114.1942000000,22.2924760000 114.1942280000,22.2924930000 114.1943770000,22.2925660000 114.1944880000,22.2926190000 114.1946230000,22.2926870000 114.1946890000,22.2927190000 114.1947490000,22.2927490000 114.1949190000,22.2928180000 114.1950130000,22.2928550000 114.1951890000,22.2929160000 114.1952860000,22.2929460000 114.1954310000,22.2929870000 114.1955320000,22.2930090000 114.1956910000,22.2930430000 114.1958170000,22.2930670000 114.1960670000,22.2931130000 114.1961620000,22.2931270000 114.1963610000,22.2931600000 114.1964840000,22.2931820000 114.1966050000,22.2932070000 114.1967740000,22.2932440000 114.1968570000,22.2932610000 114.1971240000,22.2933140000 114.1979380000,22.2934830000 114.1980630000,22.2935070000 114.1981920000,22.2935260000 114.1984040000,22.2935500000 114.1985630000,22.2935620000 114.1987190000,22.2935680000 114.1989060000,22.2935720000 114.1992000000,22.2935690000 114.1994040000,22.2935740000 114.1995900000,22.2935850000 114.1997700000,22.2936020000 114.1999500000,22.2936270000 114.2001000000,22.2936520000 114.2004940000,22.2937360000 114.2005620000,22.2937500000 114.2020820000,22.2940720000 114.2025270000,22.2941570000 114.2026050000,22.2941710000 114.2028680000,22.2942240000 114.2031620000,22.2942590000 114.2034020000,22.2942690000 114.2035000000,22.2942730000 114.2037270000,22.2942740000 114.2040490000,22.2942660000 114.2044770000,22.2942460000 114.2047360000,22.2942070000 114.2049660000,22.2941120000 114.2050490000,22.2940770000 114.2051820000,22.2940220000 114.2052480000,22.2940030000 114.2054110000,22.2939470000 114.2057050000,22.2938510000 114.2062170000,22.2936940000 114.2066940000,22.2935550000 114.2071890000,22.2934110000 114.2072460000,22.2933950000 114.2074610000,22.2933450000 114.2077610000,22.2932760000 114.2081980000,22.2931480000 114.2084650000,22.2930590000 114.2087620000,22.2929640000 114.2088920000,22.2929160000 114.2090400000,22.2928580000 114.2092310000,22.2927830000 114.2094910000,22.2926640000 114.2097870000,22.2924670000 114.2103300000,22.2920690000 114.2107360000,22.2917730000 114.2110800000,22.2915210000 114.2112770000,22.2913910000 114.2114890000,22.2912520000 114.2115750000,22.2911980000 114.2117400000,22.2910950000 114.2120130000,22.2909330000 114.2121350000,22.2908620000 114.2122140000,22.2908150000 114.2122920000,22.2907670000 114.2124160000,22.2906960000 114.2125630000,22.2906120000 114.2128380000,22.2904560000 114.2130210000,22.2903450000 114.2131250000,22.2902810000 114.2131960000,22.2902380000 114.2132610000,22.2902130000 114.2133660000,22.2901710000 114.2135280000,22.2901000000 114.2136590000,22.2900410000 114.2137560000,22.2899900000 114.2138680000,22.2899210000 114.2139440000,22.2898650000 114.2140250000,22.2897950000 114.2141100000,22.2896970000 114.2142180000,22.2895530000 114.2142640000,22.2894590000 114.2143080000,22.2893090000 114.2143250000,22.2891400000 114.2143050000,22.2889980000 114.2142910000,22.2889580000 114.2142440000,22.2888240000 114.2141930000,22.2887170000 114.2141540000,22.2886430000 114.2139910000,22.2883850000 114.2138230000,22.2882610000 114.2136650000,22.2881800000 114.2135960000,22.2881500000 114.2135440000,22.2881290000 114.2134920000,22.2881080000 114.2134200000,22.2880850000 114.2133610000,22.2880660000 114.2133180000,22.2880590000 114.2132630000,22.2880490000 114.2131630000,22.2880410000 114.2131000000,22.2880380000 114.2130400000,22.2880370000 114.2129840000,22.2880360000 114.2129240000,22.2880400000 114.2128470000,22.2880460000 114.2127080000,22.2880810000 114.2126420000,22.2881090000 114.2125670000,22.2881410000 114.2125200000,22.2881620000 114.2124560000,22.2882010000 114.2124200000,22.2882260000 114.2123010000,22.2883200000 114.2122220000,22.2883870000 114.2121390000,22.2884860000 114.2120780000,22.2885770000 114.2120140000,22.2887040000 114.2119800000,22.2888350000 114.2119630000,22.2890450000 114.2119940000,22.2892140000 114.2120370000,22.2893590000 114.2121060000,22.2895190000 114.2122160000,22.2896630000 114.2123560000,22.2897930000 114.2124630000,22.2898660000 114.2126220000,22.2899550000 114.2127730000,22.2900300000 114.2129420000,22.2901140000 114.2297660000,22.2988660000 114.2301500000,22.2990810000 114.2305860000,22.2993080000 114.2310270000,22.2995370000 114.2312510000,22.2996750000 114.2313630000,22.2997440000 114.2314970000,22.2998390000 114.2315650000,22.2998840000 114.2316890000,22.2999690000 114.2318000000,22.3000360000 114.2323930000,22.3005240000 114.2325490000,22.3006640000 114.2326190000,22.3007050000 114.2326880000,22.3007430000 114.2334740000,22.3009780000 114.2335600000,22.3010210000 114.2339000000,22.3012080000 114.2342370000,22.3014240000 114.2343910000,22.3015270000 114.2344790000,22.3016320000 114.2346180000,22.3018070000 114.2346620000,22.3018600000 114.2348140000,22.3020500000 114.2348590000,22.3021230000 114.2349160000,22.3022160000 114.2349630000,22.3022950000 114.2350200000,22.3024020000 114.2350690000,22.3025060000 114.2351160000,22.3026240000 114.2351580000,22.3027530000 114.2351930000,22.3028790000 114.2352190000,22.3030080000 114.2352360000,22.3031280000 114.2352450000,22.3032480000 114.2352470000,22.3033810000 114.2352410000,22.3035110000 114.2352300000,22.3036260000 114.2352100000,22.3037390000 114.2351880000,22.3038270000 114.2351530000,22.3039340000 114.2351220000,22.3040030000 114.2350810000,22.3040670000 114.2350340000,22.3041390000 114.2349870000,22.3041710000 114.2349470000,22.3042090000 114.2349140000,22.3042540000 114.2348900000,22.3043020000 114.2348760000,22.3043540000 114.2348710000,22.3044070000 114.2348760000,22.3044610000 114.2348900000,22.3045130000 114.2349140000,22.3045620000 114.2349460000,22.3046060000 114.2349860000,22.3046450000 114.2350290000,22.3046740000 114.2350770000,22.3046980000 114.2351280000,22.3047140000 114.2351810000,22.3047220000 114.2352380000,22.3047220000 114.2352930000,22.3047140000 114.2353470000,22.3046970000 114.2353970000,22.3046730000 114.2354300000,22.3046620000 114.2354650000,22.3046560000 114.2355010000,22.3046560000 114.2355360000,22.3046610000 114.2355790000,22.3046760000 114.2356170000,22.3046990000 114.2356490000,22.3047300000 114.2356550000,22.3048030000 114.2356550000,22.3048750000 114.2356470000,22.3049470000 114.2355980000,22.3049930000 114.2355670000,22.3051500000 114.2355100000,22.3054090000 114.2355290000,22.3054490000 114.2355110000,22.3055250000 114.2354760000,22.3055540000 114.2354670000,22.3055890000 114.2354590000,22.3056240000 114.2354780000,22.3056650000 114.2354280000,22.3058760000 114.2354110000,22.3059470000 114.2353760000,22.3061130000 114.2353500000,22.3062420000 114.2353400000,22.3062860000 114.2352420000,22.3067570000 114.2351920000,22.3069990000 114.2351410000,22.3072420000 114.2350970000,22.3074540000 114.2350530000,22.3076130000 114.2349920000,22.3077460000 114.2348550000,22.3080030000 114.2348150000,22.3080500000 114.2347880000,22.3080820000 114.2346460000,22.3082380000 114.2346180000,22.3082690000 114.2345500000,22.3083440000 114.2345350000,22.3083620000 114.2342320000,22.3086970000 114.2340790000,22.3088710000 114.2339620000,22.3090040000 114.2339220000,22.3090580000 114.2338570000,22.3091660000 114.2338140000,22.3092450000 114.2338050000,22.3092630000 114.2337620000,22.3093630000 114.2337540000,22.3093910000 114.2337300000,22.3094660000 114.2337090000,22.3095720000 114.2336970000,22.3096790000 114.2336810000,22.3098770000 114.2336630000,22.3099010000 114.2336530000,22.3099280000 114.2336520000,22.3099560000 114.2336590000,22.3099840000 114.2336760000,22.3100090000 114.2336990000,22.3100280000 114.2337280000,22.3100400000 114.2337630000,22.3100440000 114.2337980000,22.3100360000 114.2338280000,22.3100190000 114.2338500000,22.3099930000 114.2340970000,22.3099780000 114.2342270000,22.3099700000 114.2345110000,22.3099530000 114.2347530000,22.3099380000 114.2348430000,22.3099330000 114.2348910000,22.3099300000 114.2349280000,22.3099280000 114.2351070000,22.3099170000 114.2352790000,22.3099070000 114.2352820000,22.3100550000 114.2353170000,22.3103740000 114.2353320000,22.3105090000 114.2353530000,22.3107070000 114.2353670000,22.3107930000 114.2353580000,22.3108560000 114.2354400000,22.3111360000 114.2356150000,22.3114620000 114.2358050000,22.3117580000 114.2359470000,22.3119630000 114.2360630000,22.3121000000 114.2361890000,22.3121980000 114.2363210000,22.3122670000 114.2364700000,22.3123070000 114.2365910000,22.3123150000 114.2367430000,22.3123060000 114.2370740000,22.3122180000 114.2371290000,22.3121710000 114.2373350000,22.3121180000 114.2375010000,22.3120800000 114.2377280000,22.3120280000 114.2377980000,22.3120130000 114.2378430000,22.3119950000 114.2378890000,22.3119780000 114.2379400000,22.3119990000 114.2379890000,22.3120180000 114.2380610000,22.3120530000 114.2382650000,22.3121480000 114.2384350000,22.3122510000 114.2385460000,22.3123090000 114.2386040000,22.3123400000 114.2387230000,22.3124030000 114.2389910000,22.3126020000 114.2390810000,22.3126700000 114.2392430000,22.3127900000 114.2393930000,22.3128850000 114.2394480000,22.3129120000 114.2395070000,22.3129400000 114.2397950000,22.3130800000 114.2399440000,22.3131520000 114.2400630000,22.3132100000 114.2403700000,22.3133800000 114.2404840000,22.3134940000 114.2405410000,22.3136120000 114.2405840000,22.3136950000 114.2405940000,22.3137230000 114.2406200000,22.3138770000 114.2406410000,22.3140640000 114.2406300000,22.3142220000 114.2405910000,22.3143680000 114.2405630000,22.3144140000 114.2404900000,22.3145320000 114.2402790000,22.3147830000 114.2401910000,22.3148860000 114.2401440000,22.3149340000 114.2400870000,22.3149930000 114.2398040000,22.3153140000 114.2396730000,22.3154350000 114.2395620000,22.3155320000 114.2394440000,22.3156180000 114.2393190000,22.3156900000 114.2391740000,22.3157540000 114.2390520000,22.3157940000 114.2389300000,22.3158190000 114.2387870000,22.3158350000 114.2386520000,22.3158300000 114.2385170000,22.3158090000 114.2383960000,22.3157780000 114.2382640000,22.3157320000 114.2381400000,22.3156770000 114.2378720000,22.3155720000 114.2376690000,22.3155190000 114.2374670000,22.3154900000 114.2373700000,22.3154890000 114.2372980000,22.3154950000 114.2372370000,22.3154760000 114.2371890000,22.3154860000 114.2371540000,22.3154940000 114.2371070000,22.3155350000 114.2370270000,22.3155610000 114.2370180000,22.3155640000 114.2369380000,22.3155940000 114.2368360000,22.3155830000 114.2367390000,22.3156190000 114.2366390000,22.3156770000 114.2365540000,22.3157450000 114.2364880000,22.3158380000 114.2364430000,22.3159590000 114.2363290000,22.3161430000 114.2362760000,22.3162250000 114.2361490000,22.3164570000 114.2361290000,22.3164940000 114.2361010000,22.3165430000 114.2360260000,22.3166720000 114.2360120000,22.3166960000 114.2359620000,22.3167840000 114.2358880000,22.3169150000 114.2357370000,22.3172080000 114.2356150000,22.3174730000 114.2355860000,22.3175310000 114.2354990000,22.3175880000 114.2353230000,22.3178770000 114.2352760000,22.3179260000 114.2352260000,22.3180000000 114.2353120000,22.3180530000 114.2354040000,22.3181130000 114.2354710000,22.3181560000 114.2355100000,22.3181800000 114.2356470000,22.3182580000 114.2357620000,22.3183330000 114.2360340000,22.3184680000 114.2361500000,22.3185090000 114.2363410000,22.3185390000 114.2363860000,22.3185460000 114.2364280000,22.3185490000 114.2365490000,22.3185580000 114.2366780000,22.3185620000 114.2367880000,22.3185620000 114.2368530000,22.3185480000 114.2371530000,22.3184720000 114.2372180000,22.3183800000 114.2373020000,22.3183600000 114.2373450000,22.3183500000 114.2374750000,22.3183330000 114.2375980000,22.3183190000 114.2377150000,22.3183140000 114.2377890000,22.3183140000 114.2378320000,22.3183170000 114.2379670000,22.3183240000 114.2381480000,22.3183540000 114.2383060000,22.3183900000 114.2385070000,22.3184460000 114.2386360000,22.3185090000 114.2388460000,22.3186060000 114.2389820000,22.3186610000 114.2390870000,22.3186910000 114.2391320000,22.3187050000 114.2391680000,22.3187190000 114.2392890000,22.3187640000 114.2395070000,22.3188330000 114.2395910000,22.3188080000 114.2399020000,22.3188820000 114.2399970000,22.3189010000 114.2402180000,22.3189420000 114.2404620000,22.3189880000 114.2405600000,22.3190130000 114.2406740000,22.3190460000 114.2407510000,22.3190780000 114.2408820000,22.3191380000 114.2410130000,22.3192050000 114.2410970000,22.3192690000 114.2411860000,22.3193360000 114.2412560000,22.3193950000 114.2413570000,22.3194960000 114.2415300000,22.3197200000 114.2417680000,22.3200290000 114.2421510000,22.3205600000 114.2422150000,22.3206500000 114.2423060000,22.3207460000 114.2424090000,22.3208340000 114.2425050000,22.3208920000 114.2425840000,22.3209300000 114.2427310000,22.3209890000 114.2428740000,22.3210280000 114.2428850000,22.3210310000 114.2429210000,22.3210360000 114.2430730000,22.3210550000 114.2432030000,22.3210620000 114.2433460000,22.3210450000 114.2434830000,22.3210170000 114.2436100000,22.3209720000 114.2437350000,22.3209170000 114.2438410000,22.3208620000 114.2439890000,22.3207670000 114.2441370000,22.3206650000 114.2444530000,22.3204440000 114.2446390000,22.3203020000 114.2450080000,22.3200210000 114.2450920000,22.3199590000 114.2451860000,22.3198830000 114.2452300000,22.3198480000 114.2452720000,22.3198130000 114.2453660000,22.3197240000 114.2455170000,22.3195770000 114.2455830000,22.3195080000 114.2457620000,22.3192920000 114.2458410000,22.3191920000 114.2459660000,22.3190520000 114.2460730000,22.3189620000 114.2461980000,22.3188960000 114.2464050000,22.3188470000 114.2466020000,22.3188220000 114.2468240000,22.3188560000 114.2471070000,22.3189290000 114.2475410000,22.3190400000 114.2477130000,22.3190620000 114.2478670000,22.3190670000 114.2480150000,22.3190510000 114.2481580000,22.3190240000 114.2483600000,22.3189800000 114.2487040000,22.3189060000 114.2489540000,22.3188520000 114.2491110000,22.3188030000 114.2492200000,22.3187600000 114.2493620000,22.3186900000 114.2494870000,22.3186050000 114.2496310000,22.3184940000 114.2497480000,22.3183820000 114.2498480000,22.3182600000 114.2502040000,22.3177640000 114.2503290000,22.3175930000 114.2504340000,22.3174730000 114.2504800000,22.3174200000 114.2505200000,22.3173860000 114.2506060000,22.3173330000 114.2507140000,22.3172750000 114.2508520000,22.3172220000 114.2509930000,22.3171800000 114.2511870000,22.3171620000 114.2514440000,22.3171960000 114.2516600000,22.3172620000 114.2518630000,22.3173380000 114.2519640000,22.3173750000 114.2521430000,22.3174450000 114.2523280000,22.3174950000 114.2525440000,22.3175230000 114.2527680000,22.3175170000 114.2529250000,22.3175200000 114.2532200000,22.3175270000 114.2533840000,22.3175370000 114.2535450000,22.3175670000 114.2537000000,22.3176170000 114.2538460000,22.3176870000 114.2539800000,22.3177740000 114.2541000000,22.3178770000 114.2542040000,22.3179950000 114.2542980000,22.3181590000 114.2543720000,22.3183470000 114.2543930000,22.3184840000 114.2543940000,22.3186720000 114.2543800000,22.3188100000 114.2543570000,22.3190380000 114.2543490000,22.3192270000 114.2543370000,22.3193660000 114.2543130000,22.3194860000 114.2542770000,22.3196600000 114.2542150000,22.3198450000 114.2541180000,22.3200340000 114.2539620000,22.3202120000 114.2537810000,22.3203500000 114.2535880000,22.3204310000 114.2533400000,22.3204740000 114.2530760000,22.3204690000 114.2528210000,22.3203920000 114.2526840000,22.3203100000 114.2525480000,22.3202050000 114.2524080000,22.3200380000 114.2521310000,22.3197330000 114.2519910000,22.3196110000 114.2519380000,22.3195740000 114.2517050000,22.3194800000 114.2514670000,22.3194650000 114.2513920000,22.3194680000 114.2513220000,22.3194760000 114.2512610000,22.3194890000 114.2512030000,22.3195070000 114.2511470000,22.3195270000 114.2510940000,22.3195530000 114.2509940000,22.3196120000 114.2509110000,22.3196710000 114.2508550000,22.3197230000 114.2507820000,22.3198250000 114.2507340000,22.3199150000 114.2506830000,22.3200460000 114.2506330000,22.3201860000 114.2505420000,22.3204540000 114.2503310000,22.3210450000 114.2502100000,22.3213570000 114.2501730000,22.3214350000 114.2501170000,22.3215530000 114.2500820000,22.3216360000 114.2500440000,22.3217250000 114.2500120000,22.3218070000 114.2499920000,22.3218910000 114.2499830000,22.3219780000 114.2499750000,22.3221160000 114.2499740000,22.3222490000 114.2499810000,22.3222930000 114.2500020000,22.3223360000 114.2500320000,22.3224030000 114.2500810000,22.3225190000 114.2501730000,22.3226450000 114.2503440000,22.3229150000 114.2503900000,22.3230130000 114.2504220000,22.3231000000 114.2504420000,22.3231800000 114.2504540000,22.3232530000 114.2504570000,22.3233360000 114.2504530000,22.3234160000 114.2504420000,22.3234980000 114.2504270000,22.3235760000 114.2504050000,22.3236450000 114.2503780000,22.3237100000 114.2503460000,22.3237670000 114.2503010000,22.3238360000 114.2502520000,22.3239000000 114.2502010000,22.3239580000 114.2501280000,22.3240340000 114.2499610000,22.3241910000 114.2499020000,22.3242510000 114.2498430000,22.3243200000 114.2497910000,22.3243880000 114.2497280000,22.3244910000 114.2496800000,22.3245830000 114.2496470000,22.3246750000 114.2496300000,22.3247580000 114.2496210000,22.3248420000 114.2496180000,22.3249360000 114.2496200000,22.3250220000 114.2496340000,22.3251160000 114.2496720000,22.3252550000 114.2497200000,22.3253600000 114.2497940000,22.3254720000 114.2498940000,22.3255960000 114.2499740000,22.3256820000 114.2500850000,22.3257760000 114.2502140000,22.3258600000 114.2503720000,22.3259350000 114.2504340000,22.3259640000 114.2506060000,22.3260150000 114.2507050000,22.3260500000 114.2508550000,22.3261320000 114.2510410000,22.3261840000 114.2511770000,22.3262210000 114.2512620000,22.3262440000 114.2515340000,22.3263200000 114.2517800000,22.3263880000 114.2520340000,22.3264530000 114.2521280000,22.3264780000 114.2532680000,22.3267830000 114.2534100000,22.3268200000 114.2539900000,22.3269670000 114.2542550000,22.3270210000 114.2543330000,22.3270380000 114.2546940000,22.3271170000 114.2548930000,22.3271450000 114.2549780000,22.3271570000 114.2550120000,22.3271650000 114.2550510000,22.3271750000 114.2554330000,22.3271900000 114.2557020000,22.3271860000 114.2559360000,22.3271800000 114.2561770000,22.3271500000 114.2563090000,22.3271330000 114.2565290000,22.3270910000 114.2565590000,22.3270820000 114.2566650000,22.3270430000 114.2569250000,22.3269690000 114.2570520000,22.3269550000 114.2572620000,22.3269090000 114.2574560000,22.3268300000 114.2577760000,22.3266490000 114.2580430000,22.3264740000 114.2584390000,22.3261230000 114.2586600000,22.3258920000 114.2587070000,22.3258360000 114.2587690000,22.3257370000 114.2587730000,22.3257310000 114.2587850000,22.3257110000 114.2593870000,22.3247720000 114.2600950000,22.3236680000 114.2602330000,22.3234640000 114.2603650000,22.3232840000 114.2605550000,22.3230510000 114.2606250000,22.3229650000 114.2605180000,22.3228920000 114.2599350000,22.3225000000 114.2599300000,22.3224970000 114.2597910000,22.3224270000 114.2597860000,22.3224030000 114.2597750000,22.3223800000 114.2597560000,22.3223570000 114.2597300000,22.3223390000 114.2596990000,22.3223290000 114.2596670000,22.3223260000 114.2596380000,22.3223310000 114.2596120000,22.3223430000 114.2595900000,22.3223600000 114.2595740000,22.3223800000 114.2595630000,22.3224030000 114.2595580000,22.3224280000 114.2595600000,22.3224530000 114.2595680000,22.3224770000 114.2594590000,22.3226070000 114.2593560000,22.3227290000 114.2592410000,22.3228690000 114.2591100000,22.3230240000 114.2589620000,22.3230070000 114.2587510000,22.3228410000 114.2586350000,22.3229840000 114.2584560000,22.3232210000 114.2582980000,22.3232680000 114.2582790000,22.3232740000 114.2581980000,22.3233790000 114.2578850000,22.3237850000 114.2577420000,22.3239960000 114.2579350000,22.3241480000 114.2580280000,22.3242220000 114.2576950000,22.3246010000 114.2575970000,22.3246880000 114.2575820000,22.3247020000 114.2575650000,22.3247190000 114.2574810000,22.3248000000 114.2574220000,22.3248500000 114.2575870000,22.3250090000 114.2578540000,22.3252630000 114.2580730000,22.3254610000 114.2583550000,22.3256740000 114.2583620000,22.3256790000 114.2583810000,22.3256930000 114.2585610000,22.3258280000 114.2583730000,22.3260570000 114.2580010000,22.3263810000 114.2575160000,22.3266710000 114.2573220000,22.3267790000 114.2568990000,22.3269000000 114.2566270000,22.3269570000 114.2565810000,22.3269680000 114.2563330000,22.3270170000 114.2562290000,22.3270380000 114.2561120000,22.3270550000 114.2558780000,22.3270810000 114.2556920000,22.3270900000 114.2554270000,22.3271010000 114.2550610000,22.3270790000 114.2550240000,22.3270770000 114.2549810000,22.3270750000 114.2549030000,22.3270580000 114.2548520000,22.3270460000 114.2546930000,22.3270180000 114.2543530000,22.3269410000 114.2542730000,22.3269260000 114.2540010000,22.3268780000 114.2534400000,22.3267240000 114.2533460000,22.3266980000 114.2533010000,22.3266850000 114.2522430000,22.3264070000 114.2521130000,22.3263720000 114.2518710000,22.3263100000 114.2515810000,22.3262300000 114.2513760000,22.3261750000 114.2512910000,22.3261500000 114.2512070000,22.3261280000 114.2510030000,22.3260770000 114.2508820000,22.3260500000 114.2507050000,22.3260500000 114.2506060000,22.3260150000 114.2504340000,22.3259640000 114.2503720000,22.3259350000 114.2502140000,22.3258600000 114.2500850000,22.3257760000 114.2499740000,22.3256820000 114.2498940000,22.3255960000 114.2497940000,22.3254720000 114.2497200000,22.3253600000 114.2496720000,22.3252550000 114.2496340000,22.3251160000 114.2496200000,22.3250220000 114.2496180000,22.3249360000 114.2496210000,22.3248420000 114.2496300000,22.3247580000 114.2496470000,22.3246750000 114.2496800000,22.3245830000 114.2497280000,22.3244910000 114.2497910000,22.3243880000 114.2498430000,22.3243200000 114.2499020000,22.3242510000 114.2499610000,22.3241910000 114.2501280000,22.3240340000 114.2502010000,22.3239580000 114.2502520000,22.3239000000 114.2503010000,22.3238360000 114.2503460000,22.3237670000 114.2503780000,22.3237100000 114.2504050000,22.3236450000 114.2504270000,22.3235760000 114.2504420000,22.3234980000 114.2504530000,22.3234160000 114.2504570000,22.3233360000 114.2504540000,22.3232530000 114.2504420000,22.3231800000 114.2504220000,22.3231000000 114.2503900000,22.3230130000 114.2503440000,22.3229150000 114.2501730000,22.3226450000 114.2500810000,22.3225190000 114.2500320000,22.3224030000 114.2500020000,22.3223360000 114.2499810000,22.3222930000 114.2499740000,22.3222490000 114.2499750000,22.3221160000 114.2499830000,22.3219780000 114.2499920000,22.3218910000 114.2500120000,22.3218070000 114.2500440000,22.3217250000 114.2500820000,22.3216360000 114.2501170000,22.3215530000 114.2501730000,22.3214350000 114.2502100000,22.3213570000 114.2503310000,22.3210450000 114.2505420000,22.3204540000 114.2506330000,22.3201860000 114.2506830000,22.3200460000 114.2507340000,22.3199150000 114.2507820000,22.3198250000 114.2508550000,22.3197230000 114.2509110000,22.3196710000 114.2509940000,22.3196120000 114.2510940000,22.3195530000 114.2511470000,22.3195270000 114.2512030000,22.3195070000 114.2512610000,22.3194890000 114.2513220000,22.3194760000 114.2513920000,22.3194680000 114.2514670000,22.3194650000 114.2517050000,22.3194800000 114.2519380000,22.3195740000 114.2519910000,22.3196110000 114.2521310000,22.3197330000 114.2524080000,22.3200380000 114.2525480000,22.3202050000 114.2526840000,22.3203100000 114.2528210000,22.3203920000 114.2530760000,22.3204690000 114.2533400000,22.3204740000 114.2535880000,22.3204310000 114.2537810000,22.3203500000 114.2539620000,22.3202120000 114.2541180000,22.3200340000 114.2542150000,22.3198450000 114.2542770000,22.3196600000 114.2543130000,22.3194860000 114.2543370000,22.3193660000 114.2543490000,22.3192270000 114.2543570000,22.3190380000 114.2543800000,22.3188100000 114.2543940000,22.3186720000 114.2543930000,22.3184840000 114.2543720000,22.3183470000 114.2542980000,22.3181590000 114.2542040000,22.3179950000 114.2541000000,22.3178770000 114.2539800000,22.3177740000 114.2538460000,22.3176870000 114.2537000000,22.3176170000 114.2535450000,22.3175670000 114.2533840000,22.3175370000 114.2532200000,22.3175270000 114.2529250000,22.3175200000 114.2527680000,22.3175170000 114.2525440000,22.3175230000 114.2523280000,22.3174950000 114.2521430000,22.3174450000 114.2519640000,22.3173750000 114.2516600000,22.3172620000 114.2514440000,22.3171960000 114.2511870000,22.3171620000 114.2509930000,22.3171800000 114.2508520000,22.3172220000 114.2507140000,22.3172750000 114.2506060000,22.3173330000 114.2505200000,22.3173860000 114.2504800000,22.3174200000 114.2504340000,22.3174730000 114.2503290000,22.3175930000 114.2502040000,22.3177640000 114.2498480000,22.3182600000 114.2497480000,22.3183820000 114.2496310000,22.3184940000 114.2494870000,22.3186050000 114.2493620000,22.3186900000 114.2492200000,22.3187600000 114.2491110000,22.3188030000 114.2489540000,22.3188520000 114.2487040000,22.3189060000 114.2483600000,22.3189800000 114.2481580000,22.3190240000 114.2480150000,22.3190510000 114.2478670000,22.3190670000 114.2477130000,22.3190620000 114.2475410000,22.3190400000 114.2471070000,22.3189290000 114.2468240000,22.3188560000 114.2466020000,22.3188220000 114.2464050000,22.3188470000 114.2461980000,22.3188960000 114.2460730000,22.3189620000 114.2459660000,22.3190520000 114.2458410000,22.3191920000 114.2457620000,22.3192920000 114.2455830000,22.3195080000 114.2455170000,22.3195770000 114.2453660000,22.3197240000 114.2452720000,22.3198130000 114.2452300000,22.3198480000 114.2451860000,22.3198830000 114.2450920000,22.3199590000 114.2450080000,22.3200210000 114.2446390000,22.3203020000 114.2444530000,22.3204440000 114.2441370000,22.3206650000 114.2439890000,22.3207670000 114.2438410000,22.3208620000 114.2437350000,22.3209170000 114.2436100000,22.3209720000 114.2434830000,22.3210170000 114.2433460000,22.3210450000 114.2432030000,22.3210620000 114.2430730000,22.3210550000 114.2429210000,22.3210360000 114.2428850000,22.3210310000 114.2428740000,22.3210280000 114.2427310000,22.3209890000 114.2425840000,22.3209300000 114.2425050000,22.3208920000 114.2424090000,22.3208340000 114.2423060000,22.3207460000 114.2422150000,22.3206500000 114.2421510000,22.3205600000 114.2417680000,22.3200290000 114.2415300000,22.3197200000 114.2413570000,22.3194960000 114.2412560000,22.3193950000 114.2411860000,22.3193360000 114.2410970000,22.3192690000 114.2410130000,22.3192050000 114.2408820000,22.3191380000 114.2407510000,22.3190780000 114.2406740000,22.3190460000 114.2405600000,22.3190130000 114.2404620000,22.3189880000 114.2402180000,22.3189420000 114.2399970000,22.3189010000 114.2399020000,22.3188820000 114.2395910000,22.3188080000 114.2395450000,22.3187550000 114.2394890000,22.3187400000 114.2394580000,22.3187070000 114.2394100000,22.3186920000 114.2393270000,22.3186660000 114.2391980000,22.3186260000 114.2389870000,22.3185530000 114.2388800000,22.3185130000 114.2386480000,22.3184710000 114.2385070000,22.3184460000 114.2383060000,22.3183900000 114.2381480000,22.3183540000 114.2379670000,22.3183240000 114.2378320000,22.3183170000 114.2377890000,22.3183140000 114.2377150000,22.3183140000 114.2375980000,22.3183190000 114.2374750000,22.3183330000 114.2373450000,22.3183500000 114.2373020000,22.3183600000 114.2372180000,22.3183800000 114.2371310000,22.3183480000 114.2368700000,22.3183980000 114.2368420000,22.3184020000 114.2367760000,22.3184110000 114.2366740000,22.3184190000 114.2365500000,22.3184180000 114.2364350000,22.3184150000 114.2363950000,22.3184110000 114.2363610000,22.3184070000 114.2361640000,22.3183770000 114.2359490000,22.3182510000 114.2358640000,22.3181750000 114.2358040000,22.3181060000 114.2357220000,22.3179900000 114.2356630000,22.3178400000 114.2356150000,22.3174730000 114.2357370000,22.3172080000 114.2358880000,22.3169150000 114.2359620000,22.3167840000 114.2360120000,22.3166960000 114.2360260000,22.3166720000 114.2361010000,22.3165430000 114.2361290000,22.3164940000 114.2361490000,22.3164570000 114.2362760000,22.3162250000 114.2363290000,22.3161430000 114.2364430000,22.3159590000 114.2365590000,22.3158890000 114.2366370000,22.3158220000 114.2366860000,22.3157980000 114.2367080000,22.3157840000 114.2367270000,22.3157730000 114.2367460000,22.3157610000 114.2367660000,22.3157460000 114.2368870000,22.3156660000 114.2369380000,22.3155940000 114.2370180000,22.3155640000 114.2370270000,22.3155610000 114.2370540000,22.3155520000 114.2371070000,22.3155350000 114.2371700000,22.3155420000 114.2372040000,22.3155350000 114.2372520000,22.3155230000 114.2372980000,22.3154950000 114.2373700000,22.3154890000 114.2374670000,22.3154900000 114.2376690000,22.3155190000 114.2378720000,22.3155720000 114.2381400000,22.3156770000 114.2382640000,22.3157320000 114.2383960000,22.3157780000 114.2385170000,22.3158090000 114.2386520000,22.3158300000 114.2387870000,22.3158350000 114.2389300000,22.3158190000 114.2390520000,22.3157940000 114.2391740000,22.3157540000 114.2393190000,22.3156900000 114.2394440000,22.3156180000 114.2395620000,22.3155320000 114.2396730000,22.3154350000 114.2398040000,22.3153140000 114.2400870000,22.3149930000 114.2401440000,22.3149340000 114.2401910000,22.3148860000 114.2402790000,22.3147830000 114.2404900000,22.3145320000 114.2405630000,22.3144140000 114.2405910000,22.3143680000 114.2406300000,22.3142220000 114.2406410000,22.3140640000 114.2406200000,22.3138770000 114.2405940000,22.3137230000 114.2405840000,22.3136950000 114.2405410000,22.3136120000 114.2404840000,22.3134940000 114.2403700000,22.3133800000 114.2400630000,22.3132100000 114.2397950000,22.3130800000 114.2395070000,22.3129400000 114.2394480000,22.3129120000 114.2393930000,22.3128850000 114.2392430000,22.3127900000 114.2390810000,22.3126700000 114.2389910000,22.3126020000 114.2387230000,22.3124030000 114.2386040000,22.3123400000 114.2385460000,22.3123090000 114.2384350000,22.3122510000 114.2382650000,22.3121480000 114.2380610000,22.3120530000 114.2379890000,22.3120180000 114.2379400000,22.3119990000 114.2378890000,22.3119780000 114.2378430000,22.3119950000 114.2377980000,22.3120130000 114.2377280000,22.3120280000 114.2375010000,22.3120800000 114.2373350000,22.3121180000 114.2371290000,22.3121710000 114.2370530000,22.3121740000 114.2367260000,22.3122550000 114.2365920000,22.3122650000 114.2364760000,22.3122560000 114.2363350000,22.3122170000 114.2361990000,22.3121420000 114.2361010000,22.3120640000 114.2359830000,22.3119350000 114.2358460000,22.3117380000 114.2356600000,22.3114380000 114.2354850000,22.3111310000 114.2354030000,22.3108550000 114.2353670000,22.3107930000 114.2353530000,22.3107070000 114.2353320000,22.3105090000 114.2353170000,22.3103740000 114.2352820000,22.3100550000 114.2352790000,22.3099070000 114.2351070000,22.3099170000 114.2349280000,22.3099280000 114.2348910000,22.3099300000 114.2348430000,22.3099330000 114.2347530000,22.3099380000 114.2345110000,22.3099530000 114.2342270000,22.3099700000 114.2340970000,22.3099780000 114.2340070000,22.3099630000 114.2338630000,22.3099390000 114.2338560000,22.3099130000 114.2338430000,22.3098880000 114.2338220000,22.3098690000 114.2337960000,22.3098550000 114.2336970000,22.3096790000 114.2337090000,22.3095720000 114.2337300000,22.3094660000 114.2337540000,22.3093910000 114.2337620000,22.3093630000 114.2338050000,22.3092630000 114.2338140000,22.3092450000 114.2338570000,22.3091660000 114.2339220000,22.3090580000 114.2339620000,22.3090040000 114.2340790000,22.3088710000 114.2342320000,22.3086970000 114.2345350000,22.3083620000 114.2345500000,22.3083440000 114.2346180000,22.3082690000 114.2346460000,22.3082380000 114.2347880000,22.3080820000 114.2348150000,22.3080500000 114.2348550000,22.3080030000 114.2349920000,22.3077460000 114.2350530000,22.3076130000 114.2350970000,22.3074540000 114.2351410000,22.3072420000 114.2351920000,22.3069990000 114.2352420000,22.3067570000 114.2353400000,22.3062860000 114.2353500000,22.3062420000 114.2353760000,22.3061130000 114.2354110000,22.3059470000 114.2354280000,22.3058760000 114.2354780000,22.3056650000 114.2355140000,22.3056360000 114.2355220000,22.3056010000 114.2355300000,22.3055650000 114.2355110000,22.3055250000 114.2355290000,22.3054490000 114.2355650000,22.3054200000 114.2356360000,22.3051620000 114.2356350000,22.3051180000 114.2356660000,22.3050080000 114.2356470000,22.3049470000 114.2356550000,22.3048750000 114.2356550000,22.3048030000 114.2356490000,22.3047300000 114.2356330000,22.3046610000 114.2356120000,22.3045920000 114.2355830000,22.3045250000 114.2355480000,22.3044610000 114.2355530000,22.3044090000 114.2356290000,22.3043270000 114.2357710000,22.3041650000 114.2359520000,22.3039580000 114.2361220000,22.3037530000 114.2362390000,22.3036180000 114.2364220000,22.3033890000 114.2364380000,22.3033270000 114.2364460000,22.3032900000 114.2364400000,22.3032490000 114.2364240000,22.3032110000 114.2364080000,22.3031790000 114.2363810000,22.3031490000 114.2363280000,22.3031170000 114.2362710000,22.3030830000 114.2360030000,22.3028530000 114.2358400000,22.3026900000 114.2356370000,22.3024630000 114.2353620000,22.3021070000 114.2352560000,22.3019890000 114.2351290000,22.3018410000 114.2350510000,22.3017570000 114.2348730000,22.3015760000 114.2347380000,22.3014890000 114.2345520000,22.3013830000 114.2343180000,22.3012460000 114.2341300000,22.3011450000 114.2340250000,22.3010750000 114.2339420000,22.3010210000 114.2336720000,22.3008600000 114.2335880000,22.3008100000 114.2333650000,22.3006800000 114.2332200000,22.3004080000 114.2329980000,22.3002730000 114.2329560000,22.3002480000 114.2328710000,22.3001990000 114.2327510000,22.3001320000 114.2325430000,22.3000570000 114.2320890000,22.2999830000 114.2318680000,22.2998750000 114.2317430000,22.2998160000 114.2316660000,22.2997790000 114.2315800000,22.2997260000 114.2314320000,22.2996350000 114.2313190000,22.2995710000 114.2310720000,22.2994350000 114.2306520000,22.2992110000 114.2302200000,22.2989800000 114.2298200000,22.2987710000 114.2130560000,22.2900030000 114.2128440000,22.2899070000 114.2127060000,22.2898440000 114.2125860000,22.2897730000 114.2124740000,22.2897070000 114.2123600000,22.2896000000 114.2122670000,22.2894860000 114.2122090000,22.2893950000 114.2121680000,22.2892920000 114.2121400000,22.2891850000 114.2121200000,22.2890270000 114.2121470000,22.2888410000 114.2122100000,22.2886710000 114.2122970000,22.2885530000 114.2123720000,22.2884540000 114.2125140000,22.2883720000 114.2125620000,22.2883450000 114.2126130000,22.2883210000 114.2126640000,22.2883030000 114.2127070000,22.2882900000 114.2127630000,22.2882800000 114.2128140000,22.2882710000 114.2128650000,22.2882660000 114.2129350000,22.2882650000 114.2130390000,22.2882650000 114.2131260000,22.2882710000 114.2132330000,22.2882970000 114.2133040000,22.2883230000 114.2133720000,22.2883500000 114.2134540000,22.2883920000 114.2135280000,22.2884390000 114.2135770000,22.2884740000 114.2136250000,22.2885150000 114.2136680000,22.2885550000 114.2137090000,22.2886030000 114.2137680000,22.2886870000 114.2138070000,22.2887510000 114.2138390000,22.2888150000 114.2138650000,22.2888760000 114.2138790000,22.2889200000 114.2138910000,22.2889800000 114.2138970000,22.2890600000 114.2138950000,22.2891510000 114.2138780000,22.2892930000 114.2138430000,22.2893960000 114.2137990000,22.2894820000 114.2137390000,22.2895790000 114.2136370000,22.2896870000 114.2135430000,22.2897790000 114.2134820000,22.2898300000 114.2133850000,22.2898990000 114.2132830000,22.2899810000 114.2131690000,22.2900720000 114.2127380000,22.2903170000 114.2124830000,22.2904610000 114.2123200000,22.2905530000 114.2122130000,22.2906180000 114.2121310000,22.2906670000 114.2120320000,22.2907270000 114.2119230000,22.2907940000 114.2116530000,22.2909590000 114.2114960000,22.2910550000 114.2114030000,22.2911130000 114.2111810000,22.2912530000 114.2110560000,22.2913310000 114.2109730000,22.2913830000 114.2106220000,22.2916380000 114.2102020000,22.2919430000 114.2096790000,22.2923280000 114.2094250000,22.2924890000 114.2091620000,22.2926270000 114.2088160000,22.2927860000 114.2086880000,22.2928400000 114.2084250000,22.2929190000 114.2081530000,22.2930010000 114.2077170000,22.2931270000 114.2072230000,22.2932690000 114.2071640000,22.2932870000 114.2066740000,22.2934340000 114.2061700000,22.2935940000 114.2056640000,22.2937480000 114.2053700000,22.2938370000 114.2052090000,22.2938850000 114.2051510000,22.2939030000 114.2050060000,22.2939470000 114.2049120000,22.2939730000 114.2046900000,22.2940340000 114.2044740000,22.2940870000 114.2040710000,22.2941440000 114.2037310000,22.2941630000 114.2035240000,22.2941730000 114.2034060000,22.2941670000 114.2031830000,22.2941550000 114.2029010000,22.2941180000 114.2026250000,22.2940640000 114.2025480000,22.2940480000 114.2021120000,22.2939650000 114.2005900000,22.2936420000 114.2005170000,22.2936260000 114.2000710000,22.2935390000 114.1999040000,22.2935110000 114.1997390000,22.2934890000 114.1995910000,22.2934740000 114.1994500000,22.2934640000 114.1992990000,22.2934600000 114.1989250000,22.2934630000 114.1987990000,22.2934610000 114.1986680000,22.2934560000 114.1984820000,22.2934470000 114.1983720000,22.2934380000 114.1982150000,22.2934210000 114.1980750000,22.2933990000 114.1971540000,22.2932100000 114.1968890000,22.2931570000 114.1966340000,22.2931040000 114.1963890000,22.2930500000 114.1963650000,22.2930450000 114.1962830000,22.2930270000 114.1961050000,22.2929900000 114.1958550000,22.2929350000 114.1956370000,22.2928790000 114.1955750000,22.2928640000 114.1955000000,22.2928430000 114.1953420000,22.2928020000 114.1950760000,22.2927130000 114.1949910000,22.2926820000 114.1948340000,22.2926050000 114.1947770000,22.2925780000 114.1947230000,22.2925510000 114.1945800000,22.2924720000 114.1944720000,22.2924140000 114.1943350000,22.2923380000 114.1943010000,22.2923180000 114.1940990000,22.2921780000 114.1939740000,22.2920840000 114.1938490000,22.2919940000 114.1937010000,22.2918840000 114.1936750000,22.2918610000 114.1936060000,22.2918030000 114.1935350000,22.2917410000 114.1934410000,22.2916610000 114.1933890000,22.2916150000 114.1933500000,22.2915810000 114.1933240000,22.2915550000 114.1933070000,22.2915380000 114.1932510000,22.2914830000 114.1931350000,22.2913490000 114.1930370000,22.2912980000 114.1930000000,22.2912790000 114.1929650000,22.2912600000 114.1928810000,22.2911910000 114.1927960000,22.2911220000 114.1926510000,22.2909900000 114.1923350000,22.2907120000 114.1922120000,22.2906020000 114.1918270000,22.2902610000 114.1916300000,22.2900770000 114.1908750000,22.2893900000 114.1907350000,22.2892620000 114.1890040000,22.2874280000 114.1887130000,22.2871150000 114.1877600000,22.2861030000 114.1875000000,22.2858440000 114.1871900000,22.2855490000 114.1866920000,22.2851350000 114.1862560000,22.2848200000 114.1858130000,22.2845320000 114.1853940000,22.2842860000 114.1849350000,22.2840530000 114.1845170000,22.2838640000 114.1838630000,22.2836200000 114.1835310000,22.2835070000 114.1832050000,22.2834080000 114.1828380000,22.2833140000 114.1826180000,22.2832650000 114.1820210000,22.2831600000 114.1814710000,22.2830920000 114.1805170000,22.2830320000 114.1768450000,22.2825330000 114.1755490000,22.2823780000 114.1749950000,22.2823150000 114.1743800000,22.2822580000 114.1728910000,22.2821650000 114.1715990000,22.2821360000 114.1711640000,22.2821470000 114.1704020000,22.2821530000 114.1698050000,22.2821850000 114.1683210000,22.2822580000 114.1678140000,22.2822960000 114.1672620000,22.2823610000 114.1666010000,22.2824650000 114.1661110000,22.2825700000 114.1655820000,22.2826990000 114.1650590000,22.2828520000 114.1644680000,22.2830590000 114.1640640000,22.2832160000 114.1636710000,22.2833830000 114.1630590000,22.2836830000 114.1612520000,22.2847050000 114.1603510000,22.2852150000 114.1600340000,22.2854100000 114.1590010000,22.2860480000 114.1585600000,22.2863200000 114.1584600000,22.2863770000 114.1581200000,22.2865700000 114.1578800000,22.2866590000 114.1576800000,22.2867200000 114.1573960000,22.2867970000 114.1572770000,22.2868290000 114.1570470000,22.2868920000 114.1569390000,22.2869180000 114.1568240000,22.2869400000 114.1567420000,22.2869520000 114.1566620000,22.2869610000 114.1565800000,22.2869670000 114.1565000000,22.2869690000 114.1564000000,22.2869620000 114.1563500000,22.2869530000 114.1563000000,22.2869400000 114.1562000000,22.2869100000 114.1561000000,22.2868570000 114.1560320000,22.2867960000 114.1559910000,22.2867400000 114.1559820000,22.2867280000 114.1559520000,22.2866770000 114.1559360000,22.2866340000 114.1559240000,22.2865860000 114.1559190000,22.2865290000 114.1559170000,22.2864630000 114.1559200000,22.2864100000 114.1559230000,22.2863520000 114.1560740000,22.2860920000 114.1561180000,22.2860070000 114.1561670000,22.2858930000 114.1562170000,22.2857520000 114.1563870000,22.2853920000 114.1564650000,22.2851570000 114.1565090000,22.2850730000 114.1565550000,22.2849860000 114.1566090000,22.2848960000 114.1566750000,22.2848040000 114.1568160000,22.2846210000 114.1568500000,22.2845860000 114.1569110000,22.2845240000 114.1571480000,22.2842210000 114.1572600000,22.2840860000 114.1573120000,22.2840240000 114.1573660000,22.2839730000 114.1574380000,22.2839050000 114.1575340000,22.2838130000 114.1575870000,22.2837540000 114.1578730000,22.2834650000 114.1579060000,22.2834470000 114.1579260000,22.2834370000 114.1580420000,22.2833380000 114.1581980000,22.2832100000 114.1582310000,22.2831340000 114.1582660000,22.2830530000 114.1582580000,22.2829870000 114.1582430000,22.2829540000 114.1582000000,22.2829200000 114.1581250000,22.2828960000 114.1580750000,22.2829040000 114.1580250000,22.2829190000 114.1579630000,22.2829380000 114.1578770000,22.2830200000 114.1576910000,22.2832140000 114.1576060000,22.2833080000 114.1575210000,22.2834020000 114.1574460000,22.2834930000 114.1573810000,22.2835710000 114.1573200000,22.2836930000 114.1572720000,22.2837890000 114.1572170000,22.2838640000 114.1571750000,22.2839280000 114.1571260000,22.2839930000 114.1570630000,22.2840670000 114.1570030000,22.2841210000 114.1569650000,22.2841690000 114.1569080000,22.2842420000 114.1567160000,22.2844880000 114.1566630000,22.2845700000 114.1565970000,22.2846560000 114.1565100000,22.2847670000 114.1564190000,22.2848940000 114.1563730000,22.2849340000 114.1563020000,22.2849370000 114.1562570000,22.2849330000 114.1558990000,22.2846850000 114.1558620000,22.2846580000 114.1558280000,22.2846340000 114.1557800000,22.2846000000 114.1557430000,22.2845710000 114.1557210000,22.2845560000 114.1556850000,22.2845290000 114.1556260000,22.2844830000 114.1554200000,22.2843310000 114.1554160000,22.2843280000 114.1551510000,22.2841240000 114.1549650000,22.2839870000 114.1548360000,22.2838930000 114.1548120000,22.2838750000 114.1547900000,22.2838590000 114.1547300000,22.2838090000 114.1546650000,22.2838550000 114.1545130000,22.2839720000 114.1541970000,22.2841820000 114.1540630000,22.2842790000 114.1540250000,22.2843050000 114.1538510000,22.2844390000 114.1536380000,22.2846230000 114.1533510000,22.2848580000 114.1531100000,22.2850720000 114.1530510000,22.2850730000 114.1529960000,22.2850750000 114.1529140000,22.2850730000 114.1527870000,22.2850470000 114.1526710000,22.2849940000 114.1524770000,22.2848650000 114.1523390000,22.2847970000 114.1522720000,22.2847740000 114.1522100000,22.2847650000 114.1520270000,22.2847580000 114.1517120000,22.2847300000 114.1516280000,22.2847100000 114.1515360000,22.2846730000 114.1513160000,22.2845430000 114.1512130000,22.2845040000 114.1511390000,22.2844920000 114.1510750000,22.2845050000 114.1509760000,22.2845530000 114.1505740000,22.2847960000 114.1505370000,22.2848220000 114.1504490000,22.2849160000 114.1503700000,22.2850230000 114.1502960000,22.2851260000 114.1500900000,22.2854010000 114.1499130000,22.2856390000 114.1498680000,22.2856980000 114.1498450000,22.2857230000 114.1498280000,22.2857400000 114.1497470000,22.2858030000 114.1495920000,22.2859030000 114.1495370000,22.2859270000 114.1495010000,22.2859390000 114.1494290000,22.2859600000 114.1491150000,22.2860620000 114.1488870000,22.2861370000 114.1488330000,22.2861550000 114.1487550000,22.2861800000 114.1485840000,22.2863060000 114.1479590000,22.2867980000 114.1479330000,22.2868190000 114.1479010000,22.2868330000 114.1478550000,22.2868470000 114.1478080000,22.2868510000 114.1477560000,22.2868450000 114.1477010000,22.2868240000 114.1476290000,22.2867850000 114.1475670000,22.2867440000 114.1471410000,22.2864260000 114.1470240000,22.2863510000 114.1469750000,22.2863190000 114.1468850000,22.2862610000 114.1468380000,22.2862400000 114.1467880000,22.2862270000 114.1467460000,22.2862230000 114.1467050000,22.2862240000 114.1465110000,22.2862400000 114.1464420000,22.2862450000 114.1464080000,22.2862480000 114.1463730000,22.2862510000 114.1462740000,22.2862590000 114.1462220000,22.2862630000 114.1460260000,22.2862790000 114.1459570000,22.2862880000 114.1458900000,22.2863050000 114.1458260000,22.2863300000 114.1457660000,22.2863610000 114.1457100000,22.2863980000 114.1456590000,22.2864420000 114.1452830000,22.2867500000 114.1449810000,22.2869980000 114.1449030000,22.2870620000 114.1448000000,22.2871100000 114.1447520000,22.2871070000 114.1446730000,22.2870820000 114.1445480000,22.2870360000 114.1443720000,22.2869420000 114.1443660000,22.2869390000 114.1442390000,22.2868780000 114.1440840000,22.2868570000 114.1438650000,22.2868620000 114.1438230000,22.2868630000 114.1437220000,22.2868660000 114.1436260000,22.2868690000 114.1433180000,22.2868800000 114.1430760000,22.2868890000 114.1429640000,22.2868930000 114.1426580000,22.2869030000 114.1424090000,22.2869130000 114.1423900000,22.2869140000 114.1422950000,22.2869170000 114.1422010000,22.2869200000 114.1413270000,22.2869510000 114.1411730000,22.2869560000 114.1409080000,22.2869650000 114.1408480000,22.2869680000 114.1407740000,22.2869710000 114.1406830000,22.2869730000 114.1404500000,22.2870130000 114.1396850000,22.2867810000 114.1391330000,22.2866410000 114.1390610000,22.2866230000 114.1390180000,22.2866120000 114.1387370000,22.2865410000 114.1384650000,22.2864720000 114.1384030000,22.2864560000 114.1383560000,22.2864440000 114.1381110000,22.2863820000 114.1378720000,22.2863180000 114.1377360000,22.2862700000 114.1376100000,22.2862100000 114.1374150000,22.2860980000 114.1371610000,22.2859330000 114.1369220000,22.2857780000 114.1368790000,22.2857470000 114.1368260000,22.2857250000 114.1367460000,22.2857250000 114.1366740000,22.2857400000 114.1362030000,22.2858430000 114.1358610000,22.2859190000 114.1357890000,22.2859360000 114.1353680000,22.2860360000 114.1353400000,22.2860430000 114.1352590000,22.2860610000 114.1351760000,22.2860790000 114.1351310000,22.2860890000 114.1343440000,22.2862660000 114.1339130000,22.2863670000 114.1328860000,22.2865950000 114.1328050000,22.2866140000 114.1327430000,22.2864350000 114.1325720000,22.2859130000 114.1324860000,22.2856570000 114.1322580000,22.2851140000 114.1321200000,22.2849070000 114.1320310000,22.2848010000 114.1319760000,22.2847460000 114.1314610000,22.2843270000 114.1312440000,22.2841480000 114.1311790000,22.2840990000 114.1308910000,22.2838650000 114.1302350000,22.2833310000 114.1301260000,22.2832420000 114.1300100000,22.2831550000 114.1297400000,22.2829520000 114.1295960000,22.2828700000 114.1294460000,22.2828230000 114.1292150000,22.2827640000 114.1290990000,22.2827440000 114.1290100000,22.2827280000 114.1283010000,22.2826040000 114.1282140000,22.2825900000 114.1281260000,22.2825760000 114.1280280000,22.2825600000 114.1272510000,22.2824370000 114.1270280000,22.2824010000 114.1269850000,22.2823940000 114.1268850000,22.2823800000 114.1268520000,22.2823750000 114.1268220000,22.2823700000 114.1266380000,22.2823420000 114.1262940000,22.2822910000 114.1262640000,22.2822860000 114.1262420000,22.2822830000 114.1262160000,22.2822790000 114.1261840000,22.2822740000 114.1260980000,22.2822720000 114.1260710000,22.2822750000 114.1260240000,22.2822740000 114.1259310000,22.2822710000 114.1254140000,22.2821880000 114.1252720000,22.2821650000 114.1247550000,22.2820850000 114.1246630000,22.2820690000 114.1244040000,22.2820220000 114.1235150000,22.2818670000 114.1233260000,22.2818340000 114.1233130000,22.2818740000 114.1232940000,22.2819380000 114.1232570000,22.2820590000 114.1232200000,22.2821800000 114.1232120000,22.2822090000 114.1231910000,22.2822440000 114.1231660000,22.2822710000 114.1231340000,22.2822910000 114.1230940000,22.2822990000 114.1230430000,22.2822970000 114.1230000000,22.2822880000 114.1229080000,22.2822540000 114.1223280000,22.2820600000 114.1221950000,22.2820160000 114.1207170000,22.2815330000 114.1205770000,22.2814870000</coordinates>
                </LineString>
                <ExtendedData>
                    <Data name="length">
                        <value>45330.938424849715</value>
                    </Data>
                    <Data name="duration">
                        <value>00:55:32</value>
                    </Data>
                </ExtendedData>
            </Placemark>
        </Document>
    </Document>
</kml>