<?xml version="1.0" encoding="UTF-8"?>
<kml xmlns="http://www.opengis.net/kml/2.2" xmlns:gx="http://www.google.com/kml/ext/2.2">
    <Document>
        <name>Route</name>
        <Folder>
            <name>Route Request</name>
            <Placemark>
                <address>Sai Ning Street, Huncliff Court, Kennedy Town, Central and Western District, Hong Kong Island, Hong Kong, China</address>
                <Point>
                    <coordinates>114.1205850967,22.2815251115</coordinates>
                </Point>
                <ExtendedData>
                    <Data name="country_code">
                        <value>cn</value>
                    </Data>
                    <Data name="residential">
                        <value>Huncliff Court</value>
                    </Data>
                    <Data name="country">
                        <value>China</value>
                    </Data>
                    <Data name="city_district">
                        <value>Central and Western District</value>
                    </Data>
                    <Data name="city">
                        <value>Hong Kong Island</value>
                    </Data>
                    <Data name="state">
                        <value>Hong Kong</value>
                    </Data>
                    <Data name="suburb">
                        <value>Kennedy Town</value>
                    </Data>
                    <Data name="road">
                        <value>Sai Ning Street</value>
                    </Data>
                    <Data name="ISO3166-2-lvl3">
                        <value>CN-HK</value>
                    </Data>
                </ExtendedData>
            </Placemark>
            <Placemark>
                <address>142, Des Voeux Road West, Tai Ping Shan, Sai Ying Pun, Central and Western District, Hong Kong Island, Hong Kong, China</address>
                <Point>
                    <coordinates>114.1445971776,22.2879419036</coordinates>
                </Point>
                <ExtendedData>
                    <Data name="neighbourhood">
                        <value>Tai Ping Shan</value>
                    </Data>
                    <Data name="amenity">
                        <value>142</value>
                    </Data>
                    <Data name="country_code">
                        <value>cn</value>
                    </Data>
                    <Data name="country">
                        <value>China</value>
                    </Data>
                    <Data name="city_district">
                        <value>Central and Western District</value>
                    </Data>
                    <Data name="city">
                        <value>Hong Kong Island</value>
                    </Data>
                    <Data name="state">
                        <value>Hong Kong</value>
                    </Data>
                    <Data name="suburb">
                        <value>Sai Ying Pun</value>
                    </Data>
                    <Data name="road">
                        <value>Des Voeux Road West</value>
                    </Data>
                    <Data name="ISO3166-2-lvl3">
                        <value>CN-HK</value>
                    </Data>
                </ExtendedData>
            </Placemark>
            <Placemark>
                <address>241-243, Hennessy Road, Morrison Hill, Wan Chai, Wan Chai District, Hong Kong Island, Hong Kong, China</address>
                <Point>
                    <coordinates>114.1762117453,22.2780686515</coordinates>
                </Point>
                <ExtendedData>
                    <Data name="house_number">
                        <value>241-243</value>
                    </Data>
                    <Data name="country_code">
                        <value>cn</value>
                    </Data>
                    <Data name="country">
                        <value>China</value>
                    </Data>
                    <Data name="city_district">
                        <value>Wan Chai District</value>
                    </Data>
                    <Data name="city">
                        <value>Hong Kong Island</value>
                    </Data>
                    <Data name="state">
                        <value>Hong Kong</value>
                    </Data>
                    <Data name="suburb">
                        <value>Wan Chai</value>
                    </Data>
                    <Data name="quarter">
                        <value>Morrison Hill</value>
                    </Data>
                    <Data name="road">
                        <value>Hennessy Road</value>
                    </Data>
                    <Data name="ISO3166-2-lvl3">
                        <value>CN-HK</value>
                    </Data>
                </ExtendedData>
            </Placemark>
            <Placemark>
                <address>Le Point, Choi Ming Street, Tiu Keng Leng, Tseung Kwan O, Sai Kung District, New Territories, Hong Kong, China</address>
                <Point>
                    <coordinates>114.2522628133,22.3046085877</coordinates>
                </Point>
                <ExtendedData>
                    <Data name="municipality">
                        <value>New Territories</value>
                    </Data>
                    <Data name="country_code">
                        <value>cn</value>
                    </Data>
                    <Data name="country">
                        <value>China</value>
                    </Data>
                    <Data name="building">
                        <value>Le Point</value>
                    </Data>
                    <Data name="city">
                        <value>Sai Kung District</value>
                    </Data>
                    <Data name="state">
                        <value>Hong Kong</value>
                    </Data>
                    <Data name="suburb">
                        <value>Tiu Keng Leng</value>
                    </Data>
                    <Data name="town">
                        <value>Tseung Kwan O</value>
                    </Data>
                    <Data name="road">
                        <value>Choi Ming Street</value>
                    </Data>
                    <Data name="ISO3166-2-lvl3">
                        <value>CN-HK</value>
                    </Data>
                </ExtendedData>
            </Placemark>
            <Placemark>
                <address>Residence Oasis, Pui Shing Road, Hang Hau, Tseung Kwan O, Sai Kung District, New Territories, Hong Kong, 999077, China</address>
                <Point>
                    <coordinates>114.2646636475,22.3159134750</coordinates>
                </Point>
                <ExtendedData>
                    <Data name="municipality">
                        <value>New Territories</value>
                    </Data>
                    <Data name="country_code">
                        <value>cn</value>
                    </Data>
                    <Data name="postcode">
                        <value>999077</value>
                    </Data>
                    <Data name="building">
                        <value>Residence Oasis</value>
                    </Data>
                    <Data name="country">
                        <value>China</value>
                    </Data>
                    <Data name="city">
                        <value>Sai Kung District</value>
                    </Data>
                    <Data name="state">
                        <value>Hong Kong</value>
                    </Data>
                    <Data name="suburb">
                        <value>Hang Hau</value>
                    </Data>
                    <Data name="road">
                        <value>Pui Shing Road</value>
                    </Data>
                    <Data name="town">
                        <value>Tseung Kwan O</value>
                    </Data>
                    <Data name="ISO3166-2-lvl3">
                        <value>CN-HK</value>
                    </Data>
                </ExtendedData>
            </Placemark>
            <Placemark>
                <address>Wan Po Road, Hang Hau, Tseung Kwan O, Sai Kung District, New Territories, Hong Kong, 999077, China</address>
                <Point>
                    <coordinates>114.2600622806,22.3155103972</coordinates>
                </Point>
                <ExtendedData>
                    <Data name="municipality">
                        <value>New Territories</value>
                    </Data>
                    <Data name="country_code">
                        <value>cn</value>
                    </Data>
                    <Data name="postcode">
                        <value>999077</value>
                    </Data>
                    <Data name="country">
                        <value>China</value>
                    </Data>
                    <Data name="city">
                        <value>Sai Kung District</value>
                    </Data>
                    <Data name="state">
                        <value>Hong Kong</value>
                    </Data>
                    <Data name="suburb">
                        <value>Hang Hau</value>
                    </Data>
                    <Data name="road">
                        <value>Wan Po Road</value>
                    </Data>
                    <Data name="town">
                        <value>Tseung Kwan O</value>
                    </Data>
                    <Data name="ISO3166-2-lvl3">
                        <value>CN-HK</value>
                    </Data>
                </ExtendedData>
            </Placemark>
            <Placemark>
                <address>Le Point, Choi Ming Street, Tiu Keng Leng, Tseung Kwan O, Sai Kung District, New Territories, Hong Kong, China</address>
                <Point>
                    <coordinates>114.2522365183,22.3047457562</coordinates>
                </Point>
                <ExtendedData>
                    <Data name="municipality">
                        <value>New Territories</value>
                    </Data>
                    <Data name="country_code">
                        <value>cn</value>
                    </Data>
                    <Data name="country">
                        <value>China</value>
                    </Data>
                    <Data name="building">
                        <value>Le Point</value>
                    </Data>
                    <Data name="city">
                        <value>Sai Kung District</value>
                    </Data>
                    <Data name="state">
                        <value>Hong Kong</value>
                    </Data>
                    <Data name="suburb">
                        <value>Tiu Keng Leng</value>
                    </Data>
                    <Data name="town">
                        <value>Tseung Kwan O</value>
                    </Data>
                    <Data name="road">
                        <value>Choi Ming Street</value>
                    </Data>
                    <Data name="ISO3166-2-lvl3">
                        <value>CN-HK</value>
                    </Data>
                </ExtendedData>
            </Placemark>
            <Placemark>
                <address>Wing Hing Street Refuse Collection Point &amp; Public Toilet, 15, Wing Hing Street, Tin Hau, Causeway Bay, Wan Chai District, Hong Kong Island, Hong Kong, 999077, China</address>
                <Point>
                    <coordinates>114.1922737348,22.2854230979</coordinates>
                </Point>
                <ExtendedData>
                    <Data name="amenity">
                        <value>Wing Hing Street Refuse Collection Point &amp; Public Toilet</value>
                    </Data>
                    <Data name="house_number">
                        <value>15</value>
                    </Data>
                    <Data name="country_code">
                        <value>cn</value>
                    </Data>
                    <Data name="postcode">
                        <value>999077</value>
                    </Data>
                    <Data name="city_district">
                        <value>Wan Chai District</value>
                    </Data>
                    <Data name="country">
                        <value>China</value>
                    </Data>
                    <Data name="city">
                        <value>Hong Kong Island</value>
                    </Data>
                    <Data name="state">
                        <value>Hong Kong</value>
                    </Data>
                    <Data name="quarter">
                        <value>Tin Hau</value>
                    </Data>
                    <Data name="suburb">
                        <value>Causeway Bay</value>
                    </Data>
                    <Data name="road">
                        <value>Wing Hing Street</value>
                    </Data>
                    <Data name="ISO3166-2-lvl3">
                        <value>CN-HK</value>
                    </Data>
                </ExtendedData>
            </Placemark>
            <Placemark>
                <address>Hong Kong Central Library, Causeway Road, Leighton Hill, Tin Hau, Causeway Bay, Wan Chai District, Hong Kong Island, Hong Kong, China</address>
                <Point>
                    <coordinates>114.1901290870,22.2809028609</coordinates>
                </Point>
                <ExtendedData>
                    <Data name="highway">
                        <value>Hong Kong Central Library</value>
                    </Data>
                    <Data name="neighbourhood">
                        <value>Leighton Hill</value>
                    </Data>
                    <Data name="country_code">
                        <value>cn</value>
                    </Data>
                    <Data name="country">
                        <value>China</value>
                    </Data>
                    <Data name="city_district">
                        <value>Wan Chai District</value>
                    </Data>
                    <Data name="city">
                        <value>Hong Kong Island</value>
                    </Data>
                    <Data name="state">
                        <value>Hong Kong</value>
                    </Data>
                    <Data name="suburb">
                        <value>Causeway Bay</value>
                    </Data>
                    <Data name="quarter">
                        <value>Tin Hau</value>
                    </Data>
                    <Data name="road">
                        <value>Causeway Road</value>
                    </Data>
                    <Data name="ISO3166-2-lvl3">
                        <value>CN-HK</value>
                    </Data>
                </ExtendedData>
            </Placemark>
            <Placemark>
                <address>The Charterhouse Causeway Bay, 209-219, Wan Chai Road, Leighton Hill, Morrison Hill, Wan Chai, Wan Chai District, Hong Kong Island, Hong Kong, China</address>
                <Point>
                    <coordinates>114.1785660772,22.2777205825</coordinates>
                </Point>
                <ExtendedData>
                    <Data name="neighbourhood">
                        <value>Leighton Hill</value>
                    </Data>
                    <Data name="house_number">
                        <value>209-219</value>
                    </Data>
                    <Data name="country_code">
                        <value>cn</value>
                    </Data>
                    <Data name="country">
                        <value>China</value>
                    </Data>
                    <Data name="city_district">
                        <value>Wan Chai District</value>
                    </Data>
                    <Data name="tourism">
                        <value>The Charterhouse Causeway Bay</value>
                    </Data>
                    <Data name="city">
                        <value>Hong Kong Island</value>
                    </Data>
                    <Data name="state">
                        <value>Hong Kong</value>
                    </Data>
                    <Data name="suburb">
                        <value>Wan Chai</value>
                    </Data>
                    <Data name="quarter">
                        <value>Morrison Hill</value>
                    </Data>
                    <Data name="road">
                        <value>Wan Chai Road</value>
                    </Data>
                    <Data name="ISO3166-2-lvl3">
                        <value>CN-HK</value>
                    </Data>
                </ExtendedData>
            </Placemark>
            <Placemark>
                <address>Super Sample, Johnston Road, Wan Chai South, Wan Chai, Wan Chai District, Hong Kong Island, Hong Kong, China</address>
                <Point>
                    <coordinates>114.1708048723,22.2767018693</coordinates>
                </Point>
                <ExtendedData>
                    <Data name="country_code">
                        <value>cn</value>
                    </Data>
                    <Data name="country">
                        <value>China</value>
                    </Data>
                    <Data name="city_district">
                        <value>Wan Chai District</value>
                    </Data>
                    <Data name="city">
                        <value>Hong Kong Island</value>
                    </Data>
                    <Data name="shop">
                        <value>Super Sample</value>
                    </Data>
                    <Data name="state">
                        <value>Hong Kong</value>
                    </Data>
                    <Data name="suburb">
                        <value>Wan Chai</value>
                    </Data>
                    <Data name="quarter">
                        <value>Wan Chai South</value>
                    </Data>
                    <Data name="road">
                        <value>Johnston Road</value>
                    </Data>
                    <Data name="ISO3166-2-lvl3">
                        <value>CN-HK</value>
                    </Data>
                </ExtendedData>
            </Placemark>
            <Placemark>
                <address>Kamcourt Building, 60-62, Bonham Strand, Tai Ping Shan, Sheung Wan, Central and Western District, Hong Kong Island, Hong Kong, China</address>
                <Point>
                    <coordinates>114.1492502459,22.2858989994</coordinates>
                </Point>
                <ExtendedData>
                    <Data name="neighbourhood">
                        <value>Tai Ping Shan</value>
                    </Data>
                    <Data name="routingVisited">
                        <value>false</value>
                    </Data>
                    <Data name="house_number">
                        <value>60-62</value>
                    </Data>
                    <Data name="country_code">
                        <value>cn</value>
                    </Data>
                    <Data name="country">
                        <value>China</value>
                    </Data>
                    <Data name="building">
                        <value>Kamcourt Building</value>
                    </Data>
                    <Data name="city_district">
                        <value>Central and Western District</value>
                    </Data>
                    <Data name="city">
                        <value>Hong Kong Island</value>
                    </Data>
                    <Data name="state">
                        <value>Hong Kong</value>
                    </Data>
                    <Data name="suburb">
                        <value>Sheung Wan</value>
                    </Data>
                    <Data name="road">
                        <value>Bonham Strand</value>
                    </Data>
                    <Data name="ISO3166-2-lvl3">
                        <value>CN-HK</value>
                    </Data>
                </ExtendedData>
            </Placemark>
            <Placemark>
                <address>Sai Woo Lane, Mid-Levels West, Sai Ying Pun, Central and Western District, Hong Kong Island, Hong Kong, China</address>
                <Point>
                    <coordinates>114.1443526737,22.2869630430</coordinates>
                </Point>
                <ExtendedData>
                    <Data name="country_code">
                        <value>cn</value>
                    </Data>
                    <Data name="country">
                        <value>China</value>
                    </Data>
                    <Data name="city_district">
                        <value>Central and Western District</value>
                    </Data>
                    <Data name="city">
                        <value>Hong Kong Island</value>
                    </Data>
                    <Data name="state">
                        <value>Hong Kong</value>
                    </Data>
                    <Data name="suburb">
                        <value>Sai Ying Pun</value>
                    </Data>
                    <Data name="quarter">
                        <value>Mid-Levels West</value>
                    </Data>
                    <Data name="road">
                        <value>Sai Woo Lane</value>
                    </Data>
                    <Data name="ISO3166-2-lvl3">
                        <value>CN-HK</value>
                    </Data>
                </ExtendedData>
            </Placemark>
            <Placemark>
                <address>Sai Ning Street, Huncliff Court, Kennedy Town, Central and Western District, Hong Kong Island, Hong Kong, China</address>
                <Point>
                    <coordinates>114.1205838438,22.2814704823</coordinates>
                </Point>
                <ExtendedData>
                    <Data name="country_code">
                        <value>cn</value>
                    </Data>
                    <Data name="residential">
                        <value>Huncliff Court</value>
                    </Data>
                    <Data name="country">
                        <value>China</value>
                    </Data>
                    <Data name="city_district">
                        <value>Central and Western District</value>
                    </Data>
                    <Data name="city">
                        <value>Hong Kong Island</value>
                    </Data>
                    <Data name="state">
                        <value>Hong Kong</value>
                    </Data>
                    <Data name="suburb">
                        <value>Kennedy Town</value>
                    </Data>
                    <Data name="road">
                        <value>Sai Ning Street</value>
                    </Data>
                    <Data name="ISO3166-2-lvl3">
                        <value>CN-HK</value>
                    </Data>
                </ExtendedData>
            </Placemark>
        </Folder>
        <Document>
            <name>47.3 km; 00:59 h (OSRM)</name>
            <Placemark>
                <name>Route</name>
                <LineString>
                    <coordinates>114.1205970000,22.2814940000 114.1207170000,22.2815330000 114.1221950000,22.2820160000 114.1223280000,22.2820600000 114.1229080000,22.2822540000 114.1230000000,22.2822880000 114.1230430000,22.2822970000 114.1230940000,22.2822990000 114.1231340000,22.2822910000 114.1231660000,22.2822710000 114.1231910000,22.2822440000 114.1232120000,22.2822090000 114.1232200000,22.2821800000 114.1232570000,22.2820590000 114.1232940000,22.2819380000 114.1233130000,22.2818740000 114.1233260000,22.2818340000 114.1235150000,22.2818670000 114.1244040000,22.2820220000 114.1246630000,22.2820690000 114.1247550000,22.2820850000 114.1252720000,22.2821650000 114.1254140000,22.2821880000 114.1259310000,22.2822710000 114.1260040000,22.2823340000 114.1260410000,22.2823870000 114.1260500000,22.2824220000 114.1260450000,22.2824670000 114.1259710000,22.2828030000 114.1259470000,22.2829080000 114.1260530000,22.2829260000 114.1265380000,22.2830030000 114.1266020000,22.2830130000 114.1267550000,22.2830360000 114.1268320000,22.2830490000 114.1279520000,22.2832420000 114.1279580000,22.2832430000 114.1280680000,22.2832620000 114.1281490000,22.2832780000 114.1284930000,22.2833390000 114.1286180000,22.2833820000 114.1288500000,22.2834200000 114.1289490000,22.2834280000 114.1290470000,22.2834340000 114.1291620000,22.2834570000 114.1292700000,22.2834960000 114.1293440000,22.2835380000 114.1295210000,22.2836750000 114.1296260000,22.2837670000 114.1296960000,22.2838220000 114.1298770000,22.2840020000 114.1301390000,22.2842060000 114.1302700000,22.2843090000 114.1305640000,22.2845420000 114.1306840000,22.2846360000 114.1309380000,22.2848510000 114.1313160000,22.2851690000 114.1313840000,22.2852390000 114.1314380000,22.2853000000 114.1315330000,22.2853990000 114.1316110000,22.2854880000 114.1316670000,22.2855770000 114.1318710000,22.2859360000 114.1321210000,22.2863660000 114.1322530000,22.2865950000 114.1323250000,22.2867290000 114.1323940000,22.2868440000 114.1324620000,22.2869550000 114.1325370000,22.2870630000 114.1326120000,22.2871700000 114.1326910000,22.2872350000 114.1327570000,22.2872770000 114.1328550000,22.2873220000 114.1329290000,22.2873470000 114.1330150000,22.2873640000 114.1330930000,22.2873720000 114.1331940000,22.2873750000 114.1333400000,22.2873700000 114.1335000000,22.2873430000 114.1336320000,22.2873130000 114.1336760000,22.2873040000 114.1337240000,22.2872940000 114.1337840000,22.2872810000 114.1338190000,22.2872730000 114.1338680000,22.2872630000 114.1340010000,22.2872520000 114.1341900000,22.2872140000 114.1347130000,22.2871000000 114.1347660000,22.2870880000 114.1349660000,22.2870170000 114.1349890000,22.2870090000 114.1351720000,22.2869440000 114.1352490000,22.2869220000 114.1352760000,22.2869170000 114.1354500000,22.2868780000 114.1354950000,22.2868670000 114.1357450000,22.2868100000 114.1357790000,22.2868020000 114.1359970000,22.2867550000 114.1360770000,22.2867370000 114.1361140000,22.2867360000 114.1361580000,22.2867440000 114.1364240000,22.2868240000 114.1365090000,22.2868490000 114.1365380000,22.2868580000 114.1365510000,22.2868620000 114.1367810000,22.2869260000 114.1369960000,22.2869850000 114.1374180000,22.2871050000 114.1375140000,22.2871310000 114.1376110000,22.2871570000 114.1382790000,22.2873430000 114.1384740000,22.2873970000 114.1386770000,22.2874510000 114.1386980000,22.2874560000 114.1388050000,22.2874850000 114.1389140000,22.2875110000 114.1389410000,22.2875180000 114.1390400000,22.2875420000 114.1393260000,22.2876120000 114.1394070000,22.2876330000 114.1394490000,22.2876430000 114.1400520000,22.2878080000 114.1402960000,22.2878840000 114.1404120000,22.2879170000 114.1407560000,22.2880090000 114.1408030000,22.2880140000 114.1408370000,22.2880140000 114.1409080000,22.2880100000 114.1412570000,22.2879970000 114.1414950000,22.2879840000 114.1419160000,22.2879680000 114.1422490000,22.2879540000 114.1423630000,22.2879470000 114.1427060000,22.2879360000 114.1430590000,22.2879290000 114.1434110000,22.2879260000 114.1437190000,22.2879130000 114.1437970000,22.2879110000 114.1439070000,22.2879080000 114.1441330000,22.2879000000 114.1444160000,22.2878900000 114.1445960000,22.2878880000 114.1447580000,22.2878860000 114.1448540000,22.2878830000 114.1453350000,22.2878580000 114.1458390000,22.2878190000 114.1459200000,22.2878120000 114.1466000000,22.2877530000 114.1470370000,22.2877160000 114.1471310000,22.2877090000 114.1472090000,22.2877060000 114.1472380000,22.2877060000 114.1472730000,22.2877180000 114.1475040000,22.2878610000 114.1477960000,22.2880760000 114.1478880000,22.2881430000 114.1479510000,22.2881880000 114.1479890000,22.2882190000 114.1480730000,22.2883040000 114.1480920000,22.2883550000 114.1481230000,22.2884710000 114.1483350000,22.2884430000 114.1485520000,22.2884030000 114.1488350000,22.2883360000 114.1494260000,22.2881900000 114.1495090000,22.2881700000 114.1500860000,22.2880280000 114.1503900000,22.2879490000 114.1505430000,22.2879040000 114.1512830000,22.2876770000 114.1515710000,22.2875940000 114.1516850000,22.2875580000 114.1519040000,22.2874890000 114.1519860000,22.2874630000 114.1522920000,22.2873700000 114.1523810000,22.2873410000 114.1525100000,22.2873010000 114.1527610000,22.2872270000 114.1532200000,22.2870900000 114.1533330000,22.2870650000 114.1534050000,22.2870010000 114.1534330000,22.2869540000 114.1534400000,22.2868150000 114.1534140000,22.2867260000 114.1534100000,22.2867100000 114.1533970000,22.2866670000 114.1533460000,22.2864880000 114.1533370000,22.2864570000 114.1533300000,22.2864320000 114.1533190000,22.2863950000 114.1533070000,22.2863470000 114.1532980000,22.2862950000 114.1533470000,22.2862720000 114.1533950000,22.2862460000 114.1536090000,22.2861220000 114.1538310000,22.2859930000 114.1540740000,22.2858520000 114.1547170000,22.2854780000 114.1548210000,22.2854180000 114.1551100000,22.2852490000 114.1552520000,22.2851670000 114.1553130000,22.2851290000 114.1553650000,22.2850890000 114.1554490000,22.2850040000 114.1557010000,22.2846970000 114.1557210000,22.2846710000 114.1557800000,22.2846000000 114.1558320000,22.2845360000 114.1558520000,22.2845130000 114.1558890000,22.2844680000 114.1559300000,22.2844190000 114.1559920000,22.2843430000 114.1560220000,22.2843060000 114.1560450000,22.2842770000 114.1561130000,22.2841940000 114.1561510000,22.2841470000 114.1562840000,22.2839810000 114.1564810000,22.2837360000 114.1565030000,22.2837100000 114.1565300000,22.2836750000 114.1565550000,22.2836430000 114.1565820000,22.2836080000 114.1567600000,22.2833830000 114.1568590000,22.2832570000 114.1570290000,22.2830420000 114.1571430000,22.2828960000 114.1574510000,22.2825030000 114.1574890000,22.2824530000 114.1575660000,22.2823580000 114.1576590000,22.2822430000 114.1576780000,22.2822190000 114.1576940000,22.2822000000 114.1578280000,22.2820330000 114.1579440000,22.2819950000 114.1580810000,22.2819560000 114.1581520000,22.2819350000 114.1583830000,22.2818690000 114.1584100000,22.2818610000 114.1584940000,22.2818370000 114.1585230000,22.2818290000 114.1585450000,22.2818220000 114.1586800000,22.2817840000 114.1588020000,22.2817490000 114.1588690000,22.2817320000 114.1588900000,22.2817260000 114.1589800000,22.2817010000 114.1590740000,22.2816910000 114.1591530000,22.2816700000 114.1595070000,22.2815690000 114.1595440000,22.2815590000 114.1595940000,22.2815460000 114.1596500000,22.2815310000 114.1597490000,22.2815060000 114.1598080000,22.2815050000 114.1599740000,22.2814610000 114.1601270000,22.2814200000 114.1602600000,22.2813880000 114.1602980000,22.2813790000 114.1603590000,22.2813630000 114.1604530000,22.2813530000 114.1605890000,22.2813180000 114.1606310000,22.2813040000 114.1606770000,22.2812900000 114.1607050000,22.2812830000 114.1607420000,22.2812730000 114.1607960000,22.2812350000 114.1608520000,22.2812180000 114.1609520000,22.2811900000 114.1610490000,22.2811630000 114.1612430000,22.2811110000 114.1613660000,22.2810790000 114.1615170000,22.2810390000 114.1619060000,22.2809410000 114.1619460000,22.2809280000 114.1620010000,22.2808790000 114.1620420000,22.2807810000 114.1619800000,22.2806150000 114.1617730000,22.2800710000 114.1617540000,22.2799960000 114.1617510000,22.2799460000 114.1617670000,22.2798980000 114.1618210000,22.2798220000 114.1619180000,22.2797670000 114.1622910000,22.2796350000 114.1625660000,22.2795200000 114.1627940000,22.2794240000 114.1630800000,22.2792270000 114.1632720000,22.2790910000 114.1634860000,22.2789320000 114.1636320000,22.2788350000 114.1637480000,22.2787750000 114.1637880000,22.2787560000 114.1639140000,22.2786900000 114.1640790000,22.2786140000 114.1641980000,22.2785630000 114.1643650000,22.2784940000 114.1644550000,22.2784640000 114.1646060000,22.2784170000 114.1647480000,22.2783810000 114.1650100000,22.2783170000 114.1650660000,22.2783010000 114.1651810000,22.2782750000 114.1654120000,22.2782340000 114.1656290000,22.2782060000 114.1659150000,22.2781710000 114.1663180000,22.2781070000 114.1669630000,22.2780500000 114.1671340000,22.2780250000 114.1672900000,22.2779990000 114.1676740000,22.2779630000 114.1679990000,22.2779280000 114.1684570000,22.2778830000 114.1685890000,22.2778690000 114.1687860000,22.2778500000 114.1689320000,22.2778360000 114.1691810000,22.2778110000 114.1693720000,22.2777930000 114.1701110000,22.2777190000 114.1701790000,22.2777130000 114.1702710000,22.2777040000 114.1703510000,22.2777000000 114.1712650000,22.2776200000 114.1714230000,22.2776060000 114.1714640000,22.2776030000 114.1716220000,22.2775890000 114.1717380000,22.2775810000 114.1717910000,22.2775770000 114.1718320000,22.2775740000 114.1721200000,22.2775530000 114.1721550000,22.2775530000 114.1729740000,22.2776400000 114.1731990000,22.2776650000 114.1733680000,22.2776830000 114.1737500000,22.2777240000 114.1741630000,22.2777680000 114.1746240000,22.2778180000 114.1747140000,22.2778260000 114.1747610000,22.2778310000 114.1749650000,22.2778510000 114.1753690000,22.2778920000 114.1760850000,22.2779650000 114.1762230000,22.2779790000 114.1766260000,22.2780200000 114.1768130000,22.2780390000 114.1770770000,22.2781010000 114.1779220000,22.2783530000 114.1780270000,22.2783840000 114.1787880000,22.2785990000 114.1789170000,22.2786380000 114.1794800000,22.2788040000 114.1795100000,22.2788140000 114.1796990000,22.2788750000 114.1798290000,22.2789260000 114.1804030000,22.2791380000 114.1806000000,22.2792100000 114.1810590000,22.2793860000 114.1811240000,22.2794100000 114.1811380000,22.2794150000 114.1813180000,22.2794790000 114.1814110000,22.2795130000 114.1819580000,22.2797130000 114.1824900000,22.2799070000 114.1826760000,22.2799770000 114.1827180000,22.2799930000 114.1830170000,22.2801060000 114.1830290000,22.2801110000 114.1830550000,22.2801200000 114.1831080000,22.2801390000 114.1831670000,22.2801490000 114.1832310000,22.2801550000 114.1832730000,22.2801560000 114.1833330000,22.2801580000 114.1842570000,22.2801810000 114.1843190000,22.2801820000 114.1843560000,22.2801830000 114.1844280000,22.2801840000 114.1845770000,22.2801860000 114.1845980000,22.2801860000 114.1846230000,22.2801840000 114.1846840000,22.2801740000 114.1847820000,22.2801540000 114.1848040000,22.2801520000 114.1848330000,22.2801460000 114.1849070000,22.2801240000 114.1849770000,22.2801000000 114.1850730000,22.2800710000 114.1855430000,22.2799270000 114.1856270000,22.2799110000 114.1856990000,22.2798870000 114.1857230000,22.2798790000 114.1858170000,22.2798480000 114.1858820000,22.2798270000 114.1858960000,22.2798220000 114.1860330000,22.2797770000 114.1861760000,22.2797330000 114.1861930000,22.2797280000 114.1863660000,22.2796810000 114.1869210000,22.2795140000 114.1869570000,22.2795040000 114.1871390000,22.2794510000 114.1872990000,22.2794630000 114.1874440000,22.2794810000 114.1876100000,22.2795380000 114.1878280000,22.2796260000 114.1880330000,22.2797400000 114.1883320000,22.2799260000 114.1886080000,22.2801090000 114.1888300000,22.2802620000 114.1894050000,22.2806560000 114.1896180000,22.2808030000 114.1907300000,22.2815450000 114.1908350000,22.2816170000 114.1909610000,22.2817060000 114.1912010000,22.2818720000 114.1912280000,22.2818910000 114.1912890000,22.2819310000 114.1912600000,22.2819980000 114.1912580000,22.2820770000 114.1912390000,22.2824800000 114.1912380000,22.2825130000 114.1912340000,22.2826040000 114.1912320000,22.2826720000 114.1912310000,22.2826750000 114.1912210000,22.2829090000 114.1912180000,22.2829940000 114.1911980000,22.2833720000 114.1911780000,22.2837530000 114.1911770000,22.2838100000 114.1911730000,22.2839760000 114.1911610000,22.2841510000 114.1911100000,22.2844320000 114.1910580000,22.2846940000 114.1910490000,22.2847270000 114.1910130000,22.2848320000 114.1909610000,22.2849540000 114.1908720000,22.2851040000 114.1908460000,22.2851400000 114.1907870000,22.2852170000 114.1907490000,22.2852400000 114.1907230000,22.2852640000 114.1906930000,22.2853060000 114.1906770000,22.2853300000 114.1906360000,22.2853920000 114.1905760000,22.2854760000 114.1905250000,22.2855430000 114.1904140000,22.2856760000 114.1903550000,22.2857320000 114.1902950000,22.2857790000 114.1902350000,22.2858200000 114.1901740000,22.2858580000 114.1895060000,22.2862750000 114.1893040000,22.2864000000 114.1892220000,22.2864660000 114.1891900000,22.2864980000 114.1891470000,22.2865490000 114.1891210000,22.2865840000 114.1890980000,22.2866190000 114.1890760000,22.2866580000 114.1890540000,22.2867040000 114.1890360000,22.2867560000 114.1890220000,22.2868030000 114.1890120000,22.2868610000 114.1890060000,22.2869170000 114.1890060000,22.2869710000 114.1890170000,22.2870760000 114.1890490000,22.2871820000 114.1890910000,22.2872660000 114.1891410000,22.2873420000 114.1892240000,22.2874490000 114.1893630000,22.2876290000 114.1894240000,22.2877120000 114.1894640000,22.2877670000 114.1895360000,22.2878630000 114.1896090000,22.2879590000 114.1896640000,22.2880280000 114.1896980000,22.2880650000 114.1899050000,22.2882920000 114.1900860000,22.2886490000 114.1902500000,22.2889500000 114.1903820000,22.2891680000 114.1904500000,22.2892800000 114.1905550000,22.2894300000 114.1905900000,22.2894800000 114.1907500000,22.2896800000 114.1910500000,22.2900000000 114.1913660000,22.2902870000 114.1921570000,22.2909910000 114.1923870000,22.2911680000 114.1924300000,22.2912020000 114.1925570000,22.2913050000 114.1926230000,22.2913590000 114.1926890000,22.2914090000 114.1928130000,22.2914980000 114.1930120000,22.2916410000 114.1930980000,22.2917060000 114.1931220000,22.2917220000 114.1931500000,22.2917410000 114.1931790000,22.2917610000 114.1933530000,22.2918870000 114.1934530000,22.2919710000 114.1935380000,22.2920420000 114.1935600000,22.2920570000 114.1935890000,22.2920770000 114.1936150000,22.2920950000 114.1937360000,22.2921760000 114.1938530000,22.2922540000 114.1939710000,22.2923350000 114.1942000000,22.2924760000 114.1942280000,22.2924930000 114.1943770000,22.2925660000 114.1944880000,22.2926190000 114.1946230000,22.2926870000 114.1946890000,22.2927190000 114.1947490000,22.2927490000 114.1949190000,22.2928180000 114.1950130000,22.2928550000 114.1951890000,22.2929160000 114.1952860000,22.2929460000 114.1954310000,22.2929870000 114.1955320000,22.2930090000 114.1956910000,22.2930430000 114.1958170000,22.2930670000 114.1960670000,22.2931130000 114.1961620000,22.2931270000 114.1963610000,22.2931600000 114.1964840000,22.2931820000 114.1966050000,22.2932070000 114.1967740000,22.2932440000 114.1968570000,22.2932610000 114.1971240000,22.2933140000 114.1979380000,22.2934830000 114.1980630000,22.2935070000 114.1981920000,22.2935260000 114.1984040000,22.2935500000 114.1985630000,22.2935620000 114.1987190000,22.2935680000 114.1989060000,22.2935720000 114.1992000000,22.2935690000 114.1994040000,22.2935740000 114.1995900000,22.2935850000 114.1997700000,22.2936020000 114.1999500000,22.2936270000 114.2001000000,22.2936520000 114.2004940000,22.2937360000 114.2005620000,22.2937500000 114.2020820000,22.2940720000 114.2025270000,22.2941570000 114.2026050000,22.2941710000 114.2028680000,22.2942240000 114.2031620000,22.2942590000 114.2034020000,22.2942690000 114.2035000000,22.2942730000 114.2037270000,22.2942740000 114.2040490000,22.2942660000 114.2044770000,22.2942460000 114.2047360000,22.2942070000 114.2049660000,22.2941120000 114.2050490000,22.2940770000 114.2051820000,22.2940220000 114.2052480000,22.2940030000 114.2054110000,22.2939470000 114.2057050000,22.2938510000 114.2062170000,22.2936940000 114.2066940000,22.2935550000 114.2071890000,22.2934110000 114.2072460000,22.2933950000 114.2074610000,22.2933450000 114.2077610000,22.2932760000 114.2081980000,22.2931480000 114.2084650000,22.2930590000 114.2087620000,22.2929640000 114.2088920000,22.2929160000 114.2090400000,22.2928580000 114.2092310000,22.2927830000 114.2094910000,22.2926640000 114.2097870000,22.2924670000 114.2103300000,22.2920690000 114.2107360000,22.2917730000 114.2110800000,22.2915210000 114.2112770000,22.2913910000 114.2114890000,22.2912520000 114.2115750000,22.2911980000 114.2117400000,22.2910950000 114.2120130000,22.2909330000 114.2121350000,22.2908620000 114.2122140000,22.2908150000 114.2122920000,22.2907670000 114.2124160000,22.2906960000 114.2125630000,22.2906120000 114.2128380000,22.2904560000 114.2130210000,22.2903450000 114.2131250000,22.2902810000 114.2131960000,22.2902380000 114.2132610000,22.2902130000 114.2133660000,22.2901710000 114.2135280000,22.2901000000 114.2136590000,22.2900410000 114.2137560000,22.2899900000 114.2138680000,22.2899210000 114.2139440000,22.2898650000 114.2140250000,22.2897950000 114.2141100000,22.2896970000 114.2142180000,22.2895530000 114.2142640000,22.2894590000 114.2143080000,22.2893090000 114.2143250000,22.2891400000 114.2143050000,22.2889980000 114.2142910000,22.2889580000 114.2142440000,22.2888240000 114.2141930000,22.2887170000 114.2141540000,22.2886430000 114.2139910000,22.2883850000 114.2138230000,22.2882610000 114.2136650000,22.2881800000 114.2135960000,22.2881500000 114.2135440000,22.2881290000 114.2134920000,22.2881080000 114.2134200000,22.2880850000 114.2133610000,22.2880660000 114.2133180000,22.2880590000 114.2132630000,22.2880490000 114.2131630000,22.2880410000 114.2131000000,22.2880380000 114.2130400000,22.2880370000 114.2129840000,22.2880360000 114.2129240000,22.2880400000 114.2128470000,22.2880460000 114.2127080000,22.2880810000 114.2126420000,22.2881090000 114.2125670000,22.2881410000 114.2125200000,22.2881620000 114.2124560000,22.2882010000 114.2124200000,22.2882260000 114.2123010000,22.2883200000 114.2122220000,22.2883870000 114.2121390000,22.2884860000 114.2120780000,22.2885770000 114.2120140000,22.2887040000 114.2119800000,22.2888350000 114.2119630000,22.2890450000 114.2119940000,22.2892140000 114.2120370000,22.2893590000 114.2121060000,22.2895190000 114.2122160000,22.2896630000 114.2123560000,22.2897930000 114.2124630000,22.2898660000 114.2126220000,22.2899550000 114.2127730000,22.2900300000 114.2129420000,22.2901140000 114.2297660000,22.2988660000 114.2301500000,22.2990810000 114.2305860000,22.2993080000 114.2310270000,22.2995370000 114.2312510000,22.2996750000 114.2313630000,22.2997440000 114.2314970000,22.2998390000 114.2315650000,22.2998840000 114.2316890000,22.2999690000 114.2318000000,22.3000360000 114.2323930000,22.3005240000 114.2325490000,22.3006640000 114.2326190000,22.3007050000 114.2326880000,22.3007430000 114.2335540000,22.3010200000 114.2335880000,22.3010390000 114.2339000000,22.3012080000 114.2342370000,22.3014240000 114.2343910000,22.3015270000 114.2344790000,22.3016320000 114.2346180000,22.3018070000 114.2346620000,22.3018600000 114.2348140000,22.3020500000 114.2348390000,22.3021340000 114.2348640000,22.3022290000 114.2348680000,22.3022890000 114.2348660000,22.3023540000 114.2348590000,22.3024300000 114.2348450000,22.3025020000 114.2348250000,22.3025870000 114.2347670000,22.3026800000 114.2347070000,22.3027530000 114.2346210000,22.3028060000 114.2345140000,22.3028510000 114.2344390000,22.3028640000 114.2343610000,22.3028700000 114.2342820000,22.3028650000 114.2342010000,22.3028560000 114.2341250000,22.3028420000 114.2336610000,22.3027170000 114.2333320000,22.3026240000 114.2332010000,22.3025960000 114.2329700000,22.3025640000 114.2327370000,22.3025450000 114.2325170000,22.3025440000 114.2323280000,22.3025440000 114.2319010000,22.3025450000 114.2316380000,22.3025460000 114.2311970000,22.3025000000 114.2310310000,22.3024540000 114.2309070000,22.3024060000 114.2308130000,22.3023470000 114.2307340000,22.3022840000 114.2306730000,22.3021920000 114.2306270000,22.3021000000 114.2306260000,22.3019770000 114.2306510000,22.3018730000 114.2306960000,22.3017660000 114.2307610000,22.3016930000 114.2308200000,22.3016410000 114.2309250000,22.3015910000 114.2310430000,22.3015550000 114.2312140000,22.3015460000 114.2313660000,22.3015630000 114.2315760000,22.3016140000 114.2318180000,22.3016950000 114.2319610000,22.3017500000 114.2321120000,22.3017970000 114.2323520000,22.3018620000 114.2327970000,22.3021250000 114.2329030000,22.3021980000 114.2332570000,22.3024120000 114.2334350000,22.3025210000 114.2336050000,22.3026330000 114.2337230000,22.3027040000 114.2338530000,22.3027700000 114.2339480000,22.3028360000 114.2350390000,22.3035570000 114.2355600000,22.3038460000 114.2361150000,22.3041060000 114.2365270000,22.3042620000 114.2369690000,22.3044030000 114.2378330000,22.3045890000 114.2384770000,22.3046690000 114.2389000000,22.3046890000 114.2393090000,22.3046920000 114.2398120000,22.3046420000 114.2402990000,22.3045780000 114.2409200000,22.3044530000 114.2415050000,22.3042620000 114.2420710000,22.3040460000 114.2426220000,22.3037960000 114.2430420000,22.3035640000 114.2435100000,22.3033130000 114.2441200000,22.3029960000 114.2447780000,22.3026500000 114.2450770000,22.3024930000 114.2454880000,22.3022770000 114.2460480000,22.3019840000 114.2493190000,22.3002670000 114.2495190000,22.3001510000 114.2497220000,22.3000320000 114.2500460000,22.2998260000 114.2503440000,22.2996220000 114.2506000000,22.2994330000 114.2507840000,22.2992910000 114.2509620000,22.2991440000 114.2511500000,22.2989840000 114.2514050000,22.2987510000 114.2527120000,22.2975060000 114.2528250000,22.2974010000 114.2528650000,22.2973630000 114.2529660000,22.2972660000 114.2530620000,22.2971880000 114.2532670000,22.2970100000 114.2534430000,22.2968570000 114.2536090000,22.2967330000 114.2537990000,22.2965920000 114.2538430000,22.2965620000 114.2540740000,22.2964550000 114.2541970000,22.2963940000 114.2542990000,22.2963480000 114.2543720000,22.2963220000 114.2544490000,22.2963040000 114.2545110000,22.2962960000 114.2545740000,22.2962930000 114.2546340000,22.2962960000 114.2546970000,22.2963060000 114.2547600000,22.2963220000 114.2548170000,22.2963420000 114.2548700000,22.2963660000 114.2549220000,22.2963960000 114.2549780000,22.2964370000 114.2550280000,22.2964830000 114.2550700000,22.2965280000 114.2551060000,22.2965730000 114.2551410000,22.2966260000 114.2551700000,22.2966740000 114.2551980000,22.2967240000 114.2552290000,22.2967890000 114.2552610000,22.2968690000 114.2553440000,22.2970930000 114.2553780000,22.2971840000 114.2553990000,22.2972510000 114.2554220000,22.2973200000 114.2554670000,22.2974490000 114.2555010000,22.2975630000 114.2555390000,22.2976980000 114.2555600000,22.2977990000 114.2555840000,22.2979710000 114.2556080000,22.2981480000 114.2556350000,22.2983010000 114.2556370000,22.2985570000 114.2556420000,22.2992790000 114.2556280000,22.2995970000 114.2556290000,22.3000160000 114.2556400000,22.3019860000 114.2556410000,22.3021250000 114.2556190000,22.3022220000 114.2555810000,22.3023150000 114.2555250000,22.3024080000 114.2554140000,22.3025680000 114.2553380000,22.3026730000 114.2552240000,22.3028170000 114.2551240000,22.3029370000 114.2549890000,22.3031070000 114.2547260000,22.3033800000 114.2545060000,22.3035480000 114.2542890000,22.3037230000 114.2539750000,22.3038710000 114.2535260000,22.3042060000 114.2534600000,22.3042830000 114.2533920000,22.3043630000 114.2533300000,22.3044540000 114.2532660000,22.3045410000 114.2531840000,22.3046840000 114.2530650000,22.3049010000 114.2528530000,22.3051800000 114.2528040000,22.3051550000 114.2527610000,22.3051330000 114.2527380000,22.3051130000 114.2526240000,22.3050190000 114.2525890000,22.3049900000 114.2525560000,22.3049620000 114.2525560000,22.3049620000 114.2520980000,22.3054120000 114.2521620000,22.3054680000 114.2522720000,22.3055120000 114.2526180000,22.3051730000 114.2526690000,22.3051800000 114.2526970000,22.3051830000 114.2527150000,22.3051980000 114.2527370000,22.3052390000 114.2527640000,22.3052890000 114.2525080000,22.3056230000 114.2523990000,22.3057550000 114.2523860000,22.3057710000 114.2523290000,22.3058470000 114.2522620000,22.3059500000 114.2521960000,22.3060440000 114.2520460000,22.3062630000 114.2519510000,22.3064530000 114.2518990000,22.3065960000 114.2518910000,22.3066650000 114.2518900000,22.3068280000 114.2519020000,22.3069530000 114.2519270000,22.3070800000 114.2519650000,22.3072200000 114.2520190000,22.3073670000 114.2520630000,22.3074330000 114.2520840000,22.3074670000 114.2521060000,22.3075060000 114.2521620000,22.3076040000 114.2522320000,22.3076650000 114.2522920000,22.3077170000 114.2523540000,22.3077630000 114.2524790000,22.3078560000 114.2525370000,22.3078990000 114.2525990000,22.3079400000 114.2528500000,22.3081030000 114.2529390000,22.3081610000 114.2534930000,22.3084470000 114.2536570000,22.3085320000 114.2540130000,22.3087290000 114.2543680000,22.3089190000 114.2548050000,22.3091540000 114.2550100000,22.3092600000 114.2551340000,22.3093370000 114.2551960000,22.3093860000 114.2552750000,22.3094560000 114.2553080000,22.3094850000 114.2553800000,22.3095740000 114.2554320000,22.3096710000 114.2554630000,22.3098310000 114.2556450000,22.3102980000 114.2556800000,22.3103960000 114.2559430000,22.3110270000 114.2560910000,22.3113730000 114.2563550000,22.3118980000 114.2567970000,22.3125980000 114.2571880000,22.3131270000 114.2573090000,22.3132750000 114.2574350000,22.3134070000 114.2576340000,22.3136070000 114.2576850000,22.3136600000 114.2577780000,22.3137770000 114.2579820000,22.3139780000 114.2581960000,22.3141850000 114.2582660000,22.3142560000 114.2584120000,22.3144180000 114.2585390000,22.3145460000 114.2586410000,22.3146260000 114.2587320000,22.3146960000 114.2588520000,22.3148100000 114.2590310000,22.3149920000 114.2591600000,22.3151240000 114.2593960000,22.3153640000 114.2597570000,22.3157320000 114.2601370000,22.3161110000 114.2604490000,22.3164180000 114.2608170000,22.3168040000 114.2612360000,22.3172710000 114.2615260000,22.3176480000 114.2616700000,22.3178560000 114.2620880000,22.3183990000 114.2622540000,22.3186470000 114.2623650000,22.3188570000 114.2624350000,22.3190010000 114.2624810000,22.3190970000 114.2625000000,22.3191460000 114.2625290000,22.3192620000 114.2625410000,22.3193940000 114.2625320000,22.3194270000 114.2625310000,22.3194870000 114.2625420000,22.3195140000 114.2625620000,22.3195590000 114.2626130000,22.3196100000 114.2626800000,22.3196410000 114.2627540000,22.3196480000 114.2628260000,22.3196300000 114.2628540000,22.3196150000 114.2628800000,22.3195970000 114.2630540000,22.3195100000 114.2631250000,22.3194790000 114.2631920000,22.3194580000 114.2632580000,22.3194420000 114.2633140000,22.3194300000 114.2633740000,22.3194210000 114.2634390000,22.3194130000 114.2642350000,22.3193240000 114.2650540000,22.3192320000 114.2651260000,22.3192270000 114.2652110000,22.3192250000 114.2652970000,22.3192270000 114.2653570000,22.3192310000 114.2654400000,22.3192450000 114.2654920000,22.3192810000 114.2655060000,22.3192850000 114.2655530000,22.3192990000 114.2656180000,22.3192990000 114.2656880000,22.3192750000 114.2657450000,22.3192300000 114.2657800000,22.3191690000 114.2657890000,22.3191130000 114.2657800000,22.3190570000 114.2657540000,22.3190070000 114.2656900000,22.3189510000 114.2656260000,22.3188550000 114.2656160000,22.3188210000 114.2656110000,22.3188000000 114.2655800000,22.3186890000 114.2654540000,22.3178340000 114.2654310000,22.3176030000 114.2654420000,22.3174750000 114.2654910000,22.3173450000 114.2656130000,22.3171440000 114.2656340000,22.3171260000 114.2657700000,22.3170040000 114.2660180000,22.3167840000 114.2662690000,22.3165770000 114.2664050000,22.3164520000 114.2664500000,22.3163950000 114.2664640000,22.3163230000 114.2664620000,22.3162520000 114.2664220000,22.3161130000 114.2662240000,22.3159000000 114.2660280000,22.3156820000 114.2658660000,22.3154870000 114.2657890000,22.3154500000 114.2657160000,22.3154410000 114.2656180000,22.3154700000 114.2653010000,22.3157280000 114.2652400000,22.3157780000 114.2648450000,22.3161020000 114.2646980000,22.3162230000 114.2646430000,22.3162680000 114.2644660000,22.3164140000 114.2643270000,22.3165390000 114.2642940000,22.3165690000 114.2645540000,22.3168370000 114.2650340000,22.3172980000 114.2651650000,22.3173490000 114.2652560000,22.3173580000 114.2653280000,22.3173360000 114.2654040000,22.3173020000 114.2656130000,22.3171440000 114.2656340000,22.3171260000 114.2657700000,22.3170040000 114.2660180000,22.3167840000 114.2662690000,22.3165770000 114.2664050000,22.3164520000 114.2664500000,22.3163950000 114.2664640000,22.3163230000 114.2664620000,22.3162520000 114.2664220000,22.3161130000 114.2662240000,22.3159000000 114.2660280000,22.3156820000 114.2658660000,22.3154870000 114.2658460000,22.3154100000 114.2658400000,22.3153520000 114.2658400000,22.3152980000 114.2658750000,22.3151910000 114.2659600000,22.3150680000 114.2661700000,22.3148870000 114.2664180000,22.3146830000 114.2666820000,22.3144610000 114.2674890000,22.3138070000 114.2675600000,22.3137440000 114.2675100000,22.3136930000 114.2673900000,22.3135930000 114.2669550000,22.3132320000 114.2666700000,22.3129820000 114.2664280000,22.3127150000 114.2662910000,22.3125590000 114.2661970000,22.3124560000 114.2660650000,22.3122810000 114.2660140000,22.3121940000 114.2659790000,22.3121260000 114.2659510000,22.3120630000 114.2659250000,22.3120100000 114.2658750000,22.3118680000 114.2658750000,22.3118390000 114.2658760000,22.3117980000 114.2658380000,22.3116810000 114.2657570000,22.3115860000 114.2656430000,22.3115250000 114.2655130000,22.3115070000 114.2654790000,22.3115100000 114.2654450000,22.3115160000 114.2653620000,22.3115460000 114.2652890000,22.3115940000 114.2652320000,22.3116580000 114.2651940000,22.3117320000 114.2651810000,22.3117760000 114.2651760000,22.3118210000 114.2651290000,22.3119090000 114.2649190000,22.3121830000 114.2645300000,22.3126610000 114.2639760000,22.3131710000 114.2636490000,22.3134730000 114.2633150000,22.3137110000 114.2627350000,22.3141150000 114.2618670000,22.3147150000 114.2609090000,22.3152320000 114.2606720000,22.3153600000 114.2604980000,22.3154380000 114.2603940000,22.3154690000 114.2602630000,22.3154890000 114.2601740000,22.3154900000 114.2600890000,22.3154800000 114.2600700000,22.3154760000 114.2600040000,22.3154620000 114.2599210000,22.3154390000 114.2598630000,22.3154180000 114.2598080000,22.3153910000 114.2596750000,22.3153100000 114.2595680000,22.3152470000 114.2593330000,22.3150650000 114.2591760000,22.3149640000 114.2591240000,22.3149110000 114.2587450000,22.3145200000 114.2584500000,22.3142380000 114.2583850000,22.3141750000 114.2583110000,22.3140980000 114.2580960000,22.3138790000 114.2577040000,22.3134910000 114.2574380000,22.3131940000 114.2573220000,22.3130660000 114.2569180000,22.3125420000 114.2564860000,22.3118400000 114.2562860000,22.3113410000 114.2561240000,22.3109070000 114.2559600000,22.3103530000 114.2559450000,22.3102560000 114.2559220000,22.3100790000 114.2559320000,22.3099100000 114.2559370000,22.3098510000 114.2559420000,22.3098030000 114.2559530000,22.3097520000 114.2559700000,22.3097350000 114.2559890000,22.3097150000 114.2560580000,22.3096400000 114.2560920000,22.3095670000 114.2561060000,22.3094890000 114.2561010000,22.3094090000 114.2560830000,22.3093520000 114.2560550000,22.3092980000 114.2559770000,22.3090760000 114.2559520000,22.3090050000 114.2558750000,22.3087870000 114.2558510000,22.3086990000 114.2558400000,22.3085900000 114.2558160000,22.3080270000 114.2557930000,22.3071750000 114.2557620000,22.3066620000 114.2557510000,22.3064800000 114.2557580000,22.3061210000 114.2557780000,22.3057850000 114.2557820000,22.3057200000 114.2557790000,22.3056010000 114.2556730000,22.3055650000 114.2555610000,22.3055280000 114.2554390000,22.3054880000 114.2551160000,22.3053830000 114.2547570000,22.3052530000 114.2544670000,22.3051350000 114.2540200000,22.3049310000 114.2536100000,22.3046800000 114.2535740000,22.3046580000 114.2535630000,22.3046510000 114.2534130000,22.3045240000 114.2533300000,22.3044540000 114.2532660000,22.3045410000 114.2531840000,22.3046840000 114.2530650000,22.3049010000 114.2528530000,22.3051800000 114.2528040000,22.3051550000 114.2527610000,22.3051330000 114.2527380000,22.3051130000 114.2526240000,22.3050190000 114.2525890000,22.3049900000 114.2525560000,22.3049620000 114.2525230000,22.3049950000 114.2520980000,22.3054120000 114.2521620000,22.3054680000 114.2522720000,22.3055120000 114.2526180000,22.3051730000 114.2526690000,22.3051800000 114.2526970000,22.3051830000 114.2527150000,22.3051980000 114.2527370000,22.3052390000 114.2527640000,22.3052890000 114.2525080000,22.3056230000 114.2523990000,22.3057550000 114.2523860000,22.3057710000 114.2523290000,22.3058470000 114.2522620000,22.3059500000 114.2521960000,22.3060440000 114.2520460000,22.3062630000 114.2519510000,22.3064530000 114.2518990000,22.3065960000 114.2518910000,22.3066650000 114.2518900000,22.3068280000 114.2519020000,22.3069530000 114.2519270000,22.3070800000 114.2519650000,22.3072200000 114.2520190000,22.3073670000 114.2520630000,22.3074330000 114.2520840000,22.3074670000 114.2521060000,22.3075060000 114.2521620000,22.3076040000 114.2522320000,22.3076650000 114.2522920000,22.3077170000 114.2523540000,22.3077630000 114.2524790000,22.3078560000 114.2525370000,22.3078990000 114.2525990000,22.3079400000 114.2528500000,22.3081030000 114.2529390000,22.3081610000 114.2534930000,22.3084470000 114.2536570000,22.3085320000 114.2540130000,22.3087290000 114.2543680000,22.3089190000 114.2548050000,22.3091540000 114.2550100000,22.3092600000 114.2551340000,22.3093370000 114.2551960000,22.3093860000 114.2552750000,22.3094560000 114.2553080000,22.3094850000 114.2553800000,22.3095740000 114.2554320000,22.3096710000 114.2554990000,22.3097190000 114.2556050000,22.3097820000 114.2557270000,22.3098070000 114.2558520000,22.3097920000 114.2559530000,22.3097520000 114.2559700000,22.3097350000 114.2559890000,22.3097150000 114.2560580000,22.3096400000 114.2560920000,22.3095670000 114.2561060000,22.3094890000 114.2561010000,22.3094090000 114.2560830000,22.3093520000 114.2560550000,22.3092980000 114.2559770000,22.3090760000 114.2559520000,22.3090050000 114.2558750000,22.3087870000 114.2558510000,22.3086990000 114.2558400000,22.3085900000 114.2558160000,22.3080270000 114.2557930000,22.3071750000 114.2557620000,22.3066620000 114.2557510000,22.3064800000 114.2557580000,22.3061210000 114.2557780000,22.3057850000 114.2557820000,22.3057200000 114.2557790000,22.3056010000 114.2557750000,22.3055180000 114.2557740000,22.3054590000 114.2557770000,22.3052330000 114.2557830000,22.3050260000 114.2557850000,22.3044590000 114.2557700000,22.3043590000 114.2557610000,22.3042390000 114.2557790000,22.3036030000 114.2557860000,22.3027970000 114.2557840000,22.3023830000 114.2557740000,22.3000230000 114.2557720000,22.2996040000 114.2557720000,22.2992860000 114.2557710000,22.2985650000 114.2557690000,22.2983200000 114.2557680000,22.2981530000 114.2557490000,22.2979650000 114.2557390000,22.2977950000 114.2557360000,22.2976670000 114.2557410000,22.2975200000 114.2557560000,22.2973940000 114.2557730000,22.2972800000 114.2557870000,22.2972050000 114.2558130000,22.2970990000 114.2558450000,22.2969850000 114.2558940000,22.2968450000 114.2559460000,22.2967260000 114.2560080000,22.2966010000 114.2560640000,22.2965000000 114.2561230000,22.2964060000 114.2561680000,22.2963380000 114.2562480000,22.2962320000 114.2563970000,22.2960580000 114.2564900000,22.2959460000 114.2565320000,22.2958920000 114.2565700000,22.2958350000 114.2565950000,22.2957930000 114.2566180000,22.2957470000 114.2566420000,22.2956880000 114.2566580000,22.2956320000 114.2566700000,22.2955270000 114.2566610000,22.2954430000 114.2566450000,22.2953840000 114.2566190000,22.2953280000 114.2565830000,22.2952760000 114.2565390000,22.2952260000 114.2564890000,22.2951880000 114.2564190000,22.2951490000 114.2563560000,22.2951250000 114.2563040000,22.2951120000 114.2562400000,22.2951030000 114.2561650000,22.2951030000 114.2560940000,22.2951090000 114.2560290000,22.2951210000 114.2559590000,22.2951400000 114.2558790000,22.2951710000 114.2558030000,22.2952050000 114.2557130000,22.2952560000 114.2556230000,22.2953130000 114.2553940000,22.2954680000 114.2552360000,22.2955620000 114.2550910000,22.2956410000 114.2545840000,22.2959080000 114.2543710000,22.2960260000 114.2542080000,22.2961090000 114.2540570000,22.2961890000 114.2538050000,22.2963340000 114.2535700000,22.2964930000 114.2533340000,22.2966560000 114.2531260000,22.2968010000 114.2528860000,22.2969930000 114.2528100000,22.2970620000 114.2526890000,22.2971720000 114.2526500000,22.2972080000 114.2525190000,22.2973310000 114.2512450000,22.2985380000 114.2509820000,22.2987870000 114.2508090000,22.2989350000 114.2506230000,22.2990860000 114.2504510000,22.2992260000 114.2501900000,22.2994110000 114.2498810000,22.2996270000 114.2496140000,22.2997960000 114.2493950000,22.2999280000 114.2491130000,22.3000860000 114.2476780000,22.3008400000 114.2458770000,22.3017750000 114.2454150000,22.3020140000 114.2449620000,22.3022250000 114.2445750000,22.3024380000 114.2438610000,22.3028180000 114.2435840000,22.3029300000 114.2432850000,22.3030610000 114.2432280000,22.3030870000 114.2430350000,22.3031660000 114.2428200000,22.3032590000 114.2423790000,22.3034280000 114.2418360000,22.3036370000 114.2412820000,22.3038380000 114.2405660000,22.3040560000 114.2400660000,22.3041660000 114.2396820000,22.3041980000 114.2391660000,22.3041930000 114.2387070000,22.3041330000 114.2385850000,22.3041130000 114.2382380000,22.3040580000 114.2376500000,22.3039150000 114.2372610000,22.3037690000 114.2368390000,22.3035480000 114.2365600000,22.3033640000 114.2362490000,22.3031750000 114.2361930000,22.3031310000 114.2360310000,22.3029910000 114.2359670000,22.3029350000 114.2359040000,22.3028810000 114.2357490000,22.3027350000 114.2356630000,22.3026420000 114.2355650000,22.3025120000 114.2352910000,22.3021360000 114.2351990000,22.3020260000 114.2350790000,22.3018830000 114.2349910000,22.3017960000 114.2348250000,22.3016240000 114.2347100000,22.3015180000 114.2345520000,22.3013830000 114.2343180000,22.3012460000 114.2341300000,22.3011450000 114.2340250000,22.3010750000 114.2339420000,22.3010210000 114.2336990000,22.3008820000 114.2336530000,22.3008540000 114.2333650000,22.3006800000 114.2332200000,22.3004080000 114.2329980000,22.3002730000 114.2329560000,22.3002480000 114.2328710000,22.3001990000 114.2327510000,22.3001320000 114.2325430000,22.3000570000 114.2320890000,22.2999830000 114.2318680000,22.2998750000 114.2317430000,22.2998160000 114.2316660000,22.2997790000 114.2315800000,22.2997260000 114.2314320000,22.2996350000 114.2313190000,22.2995710000 114.2310720000,22.2994350000 114.2306520000,22.2992110000 114.2302200000,22.2989800000 114.2298200000,22.2987710000 114.2130560000,22.2900030000 114.2128440000,22.2899070000 114.2127060000,22.2898440000 114.2125860000,22.2897730000 114.2124740000,22.2897070000 114.2123600000,22.2896000000 114.2122670000,22.2894860000 114.2122090000,22.2893950000 114.2121680000,22.2892920000 114.2121400000,22.2891850000 114.2121200000,22.2890270000 114.2121470000,22.2888410000 114.2122100000,22.2886710000 114.2122970000,22.2885530000 114.2123720000,22.2884540000 114.2125140000,22.2883720000 114.2125620000,22.2883450000 114.2126130000,22.2883210000 114.2126640000,22.2883030000 114.2127070000,22.2882900000 114.2127630000,22.2882800000 114.2128140000,22.2882710000 114.2128650000,22.2882660000 114.2129350000,22.2882650000 114.2130390000,22.2882650000 114.2131260000,22.2882710000 114.2132330000,22.2882970000 114.2133040000,22.2883230000 114.2133720000,22.2883500000 114.2134540000,22.2883920000 114.2135280000,22.2884390000 114.2135770000,22.2884740000 114.2136250000,22.2885150000 114.2136680000,22.2885550000 114.2137090000,22.2886030000 114.2137680000,22.2886870000 114.2138070000,22.2887510000 114.2138390000,22.2888150000 114.2138650000,22.2888760000 114.2138790000,22.2889200000 114.2138910000,22.2889800000 114.2138970000,22.2890600000 114.2138950000,22.2891510000 114.2138780000,22.2892930000 114.2138430000,22.2893960000 114.2137990000,22.2894820000 114.2137390000,22.2895790000 114.2136370000,22.2896870000 114.2135430000,22.2897790000 114.2134820000,22.2898300000 114.2133850000,22.2898990000 114.2132830000,22.2899810000 114.2131690000,22.2900720000 114.2127380000,22.2903170000 114.2124830000,22.2904610000 114.2123200000,22.2905530000 114.2122130000,22.2906180000 114.2121310000,22.2906670000 114.2120320000,22.2907270000 114.2119230000,22.2907940000 114.2116530000,22.2909590000 114.2114960000,22.2910550000 114.2114030000,22.2911130000 114.2111810000,22.2912530000 114.2110560000,22.2913310000 114.2109730000,22.2913830000 114.2106220000,22.2916380000 114.2102020000,22.2919430000 114.2096790000,22.2923280000 114.2094250000,22.2924890000 114.2091620000,22.2926270000 114.2088160000,22.2927860000 114.2086880000,22.2928400000 114.2084250000,22.2929190000 114.2081530000,22.2930010000 114.2077170000,22.2931270000 114.2072230000,22.2932690000 114.2071640000,22.2932870000 114.2066740000,22.2934340000 114.2061700000,22.2935940000 114.2056640000,22.2937480000 114.2053700000,22.2938370000 114.2052090000,22.2938850000 114.2051510000,22.2939030000 114.2050060000,22.2939470000 114.2049120000,22.2939730000 114.2046900000,22.2940340000 114.2044740000,22.2940870000 114.2040710000,22.2941440000 114.2037310000,22.2941630000 114.2035240000,22.2941730000 114.2034060000,22.2941670000 114.2031830000,22.2941550000 114.2029010000,22.2941180000 114.2026250000,22.2940640000 114.2025480000,22.2940480000 114.2021120000,22.2939650000 114.2005900000,22.2936420000 114.2005170000,22.2936260000 114.2000710000,22.2935390000 114.1999040000,22.2935110000 114.1997390000,22.2934890000 114.1995910000,22.2934740000 114.1994500000,22.2934640000 114.1992990000,22.2934600000 114.1989250000,22.2934630000 114.1987990000,22.2934610000 114.1986680000,22.2934560000 114.1984820000,22.2934470000 114.1983720000,22.2934380000 114.1982150000,22.2934210000 114.1980750000,22.2933990000 114.1971540000,22.2932100000 114.1968890000,22.2931570000 114.1966340000,22.2931040000 114.1963890000,22.2930500000 114.1963650000,22.2930450000 114.1962830000,22.2930270000 114.1961050000,22.2929900000 114.1958550000,22.2929350000 114.1956370000,22.2928790000 114.1955750000,22.2928640000 114.1955000000,22.2928430000 114.1953420000,22.2928020000 114.1950760000,22.2927130000 114.1949910000,22.2926820000 114.1948340000,22.2926050000 114.1947770000,22.2925780000 114.1947230000,22.2925510000 114.1945800000,22.2924720000 114.1944720000,22.2924140000 114.1943350000,22.2923380000 114.1943010000,22.2923180000 114.1940990000,22.2921780000 114.1939740000,22.2920840000 114.1938490000,22.2919940000 114.1937010000,22.2918840000 114.1936750000,22.2918610000 114.1936060000,22.2918030000 114.1935350000,22.2917410000 114.1934410000,22.2916610000 114.1933890000,22.2916150000 114.1933500000,22.2915810000 114.1933240000,22.2915550000 114.1933070000,22.2915380000 114.1932510000,22.2914830000 114.1931350000,22.2913490000 114.1931050000,22.2912530000 114.1930930000,22.2912180000 114.1930760000,22.2911620000 114.1930060000,22.2910820000 114.1929330000,22.2909960000 114.1928030000,22.2908470000 114.1922990000,22.2903210000 114.1915880000,22.2895560000 114.1913760000,22.2893230000 114.1912520000,22.2891910000 114.1906770000,22.2885810000 114.1903320000,22.2882150000 114.1900190000,22.2878880000 114.1899830000,22.2878420000 114.1898890000,22.2877330000 114.1898310000,22.2876540000 114.1897600000,22.2875550000 114.1896840000,22.2874280000 114.1896380000,22.2873400000 114.1896050000,22.2872270000 114.1895570000,22.2870540000 114.1895410000,22.2869790000 114.1895240000,22.2868670000 114.1895190000,22.2867910000 114.1895170000,22.2867210000 114.1895220000,22.2866350000 114.1895370000,22.2865560000 114.1895480000,22.2865160000 114.1895710000,22.2864550000 114.1896250000,22.2863560000 114.1896710000,22.2862960000 114.1897460000,22.2862200000 114.1897950000,22.2861790000 114.1898480000,22.2861400000 114.1902300000,22.2859020000 114.1903000000,22.2858550000 114.1904650000,22.2857460000 114.1905820000,22.2856180000 114.1906380000,22.2855580000 114.1906630000,22.2855260000 114.1907230000,22.2854500000 114.1907600000,22.2853850000 114.1908320000,22.2852560000 114.1908440000,22.2852400000 114.1908510000,22.2852330000 114.1908600000,22.2852280000 114.1908720000,22.2852240000 114.1908990000,22.2852250000 114.1910840000,22.2852330000 114.1915160000,22.2852490000 114.1915570000,22.2852500000 114.1916230000,22.2852530000 114.1917230000,22.2852600000 114.1922830000,22.2852940000 114.1923370000,22.2852970000 114.1927380000,22.2853210000 114.1927790000,22.2853240000 114.1928590000,22.2853260000 114.1928950000,22.2853210000 114.1929180000,22.2853190000 114.1929770000,22.2853080000 114.1928810000,22.2847740000 114.1928040000,22.2843680000 114.1927660000,22.2841910000 114.1926440000,22.2836020000 114.1926200000,22.2835040000 114.1925970000,22.2834320000 114.1925410000,22.2832850000 114.1924650000,22.2831050000 114.1923930000,22.2829500000 114.1923570000,22.2828710000 114.1922150000,22.2825790000 114.1921440000,22.2824650000 114.1920560000,22.2823530000 114.1920140000,22.2823010000 114.1919750000,22.2822570000 114.1919140000,22.2821900000 114.1918890000,22.2821650000 114.1918560000,22.2821370000 114.1917750000,22.2820740000 114.1917060000,22.2820260000 114.1914710000,22.2818590000 114.1914570000,22.2818500000 114.1913330000,22.2817660000 114.1909050000,22.2814850000 114.1908100000,22.2814230000 114.1903820000,22.2811300000 114.1901010000,22.2809380000 114.1896480000,22.2806270000 114.1895030000,22.2805270000 114.1894430000,22.2804860000 114.1889260000,22.2801340000 114.1886970000,22.2799780000 114.1881330000,22.2796030000 114.1879860000,22.2795050000 114.1876680000,22.2792970000 114.1873360000,22.2791450000 114.1872690000,22.2790210000 114.1872290000,22.2789720000 114.1870950000,22.2788060000 114.1870360000,22.2787430000 114.1868840000,22.2785920000 114.1867550000,22.2784640000 114.1864490000,22.2781620000 114.1862270000,22.2779420000 114.1861410000,22.2778640000 114.1860680000,22.2777980000 114.1856940000,22.2774040000 114.1855020000,22.2772050000 114.1854710000,22.2771870000 114.1854420000,22.2771750000 114.1853500000,22.2771380000 114.1852850000,22.2771300000 114.1852150000,22.2771350000 114.1850660000,22.2771850000 114.1849380000,22.2772470000 114.1847980000,22.2773200000 114.1846050000,22.2774220000 114.1841430000,22.2776660000 114.1840350000,22.2777240000 114.1839010000,22.2777860000 114.1837810000,22.2778120000 114.1836580000,22.2777930000 114.1836000000,22.2777800000 114.1835170000,22.2777570000 114.1834680000,22.2777370000 114.1833440000,22.2776730000 114.1829150000,22.2773850000 114.1828620000,22.2773500000 114.1827770000,22.2772990000 114.1825700000,22.2771750000 114.1824570000,22.2771280000 114.1824390000,22.2771210000 114.1823300000,22.2770810000 114.1822050000,22.2770340000 114.1821890000,22.2770280000 114.1821690000,22.2769850000 114.1821280000,22.2769680000 114.1820870000,22.2769520000 114.1820400000,22.2769710000 114.1818900000,22.2769110000 114.1817830000,22.2768640000 114.1817470000,22.2768140000 114.1813090000,22.2766350000 114.1806850000,22.2763800000 114.1806020000,22.2763830000 114.1805570000,22.2763940000 114.1805210000,22.2764020000 114.1804700000,22.2764270000 114.1804480000,22.2764380000 114.1803560000,22.2765080000 114.1803200000,22.2765610000 114.1801600000,22.2770820000 114.1800050000,22.2774170000 114.1799050000,22.2776350000 114.1798500000,22.2778070000 114.1798370000,22.2778190000 114.1797650000,22.2778730000 114.1796750000,22.2779120000 114.1796560000,22.2779210000 114.1795920000,22.2779340000 114.1794990000,22.2779380000 114.1794030000,22.2779310000 114.1789760000,22.2778330000 114.1788690000,22.2778180000 114.1786010000,22.2778130000 114.1785570000,22.2778090000 114.1784710000,22.2778020000 114.1783830000,22.2777900000 114.1783490000,22.2777850000 114.1783100000,22.2777760000 114.1781990000,22.2777380000 114.1780990000,22.2776860000 114.1779960000,22.2776210000 114.1779170000,22.2775560000 114.1778470000,22.2774860000 114.1776380000,22.2773480000 114.1773670000,22.2772330000 114.1769530000,22.2770600000 114.1766650000,22.2769290000 114.1766100000,22.2769070000 114.1765520000,22.2768900000 114.1764990000,22.2768810000 114.1763760000,22.2768700000 114.1758030000,22.2768090000 114.1754710000,22.2767810000 114.1752400000,22.2767640000 114.1751710000,22.2767590000 114.1750820000,22.2767390000 114.1749560000,22.2767210000 114.1748250000,22.2767090000 114.1747490000,22.2767020000 114.1746030000,22.2766860000 114.1744190000,22.2766650000 114.1740110000,22.2766190000 114.1735910000,22.2765750000 114.1734640000,22.2765600000 114.1733570000,22.2765480000 114.1733210000,22.2765440000 114.1731720000,22.2765270000 114.1728000000,22.2764900000 114.1724830000,22.2764590000 114.1722400000,22.2764350000 114.1719330000,22.2764000000 114.1717400000,22.2763790000 114.1716540000,22.2763750000 114.1716110000,22.2763740000 114.1715570000,22.2763780000 114.1714920000,22.2763890000 114.1714390000,22.2763970000 114.1714020000,22.2764070000 114.1712850000,22.2764490000 114.1712100000,22.2764850000 114.1711400000,22.2765240000 114.1708220000,22.2767250000 114.1707360000,22.2767790000 114.1706770000,22.2768160000 114.1702640000,22.2770710000 114.1702220000,22.2770970000 114.1701070000,22.2771660000 114.1698820000,22.2773040000 114.1695470000,22.2775150000 114.1694040000,22.2776050000 114.1693390000,22.2776470000 114.1692610000,22.2776680000 114.1689470000,22.2776930000 114.1685170000,22.2777300000 114.1683360000,22.2777460000 114.1679670000,22.2777780000 114.1679210000,22.2777820000 114.1674650000,22.2778220000 114.1673240000,22.2778430000 114.1663690000,22.2779390000 114.1661220000,22.2779690000 114.1659210000,22.2779930000 114.1657880000,22.2780080000 114.1654950000,22.2780460000 114.1654670000,22.2780500000 114.1654250000,22.2780560000 114.1649730000,22.2781170000 114.1648760000,22.2781360000 114.1646860000,22.2781740000 114.1644950000,22.2782280000 114.1643070000,22.2782990000 114.1640380000,22.2784180000 114.1638230000,22.2785170000 114.1637050000,22.2785840000 114.1634530000,22.2787390000 114.1633770000,22.2787880000 114.1630190000,22.2790660000 114.1628030000,22.2792020000 114.1627540000,22.2792320000 114.1625970000,22.2793340000 114.1625700000,22.2793420000 114.1624630000,22.2793960000 114.1624150000,22.2794190000 114.1622890000,22.2794780000 114.1620130000,22.2795920000 114.1618520000,22.2796470000 114.1615670000,22.2797490000 114.1615240000,22.2797580000 114.1613930000,22.2797870000 114.1613130000,22.2798000000 114.1610710000,22.2798410000 114.1608870000,22.2798740000 114.1607940000,22.2799100000 114.1607310000,22.2799330000 114.1606710000,22.2799490000 114.1605230000,22.2799630000 114.1604820000,22.2799670000 114.1603650000,22.2799660000 114.1602120000,22.2799520000 114.1598660000,22.2799050000 114.1598430000,22.2799020000 114.1597710000,22.2798930000 114.1596530000,22.2798800000 114.1595240000,22.2798700000 114.1594460000,22.2798730000 114.1593750000,22.2798840000 114.1592990000,22.2799020000 114.1586520000,22.2800850000 114.1584640000,22.2801310000 114.1580940000,22.2802050000 114.1580230000,22.2802190000 114.1579420000,22.2802500000 114.1578840000,22.2802860000 114.1578160000,22.2803390000 114.1577690000,22.2803760000 114.1575890000,22.2805640000 114.1573380000,22.2808460000 114.1573040000,22.2808850000 114.1572720000,22.2809200000 114.1572560000,22.2809390000 114.1569830000,22.2812640000 114.1569530000,22.2812990000 114.1568840000,22.2813790000 114.1568100000,22.2814600000 114.1567690000,22.2815040000 114.1567270000,22.2815500000 114.1565830000,22.2817090000 114.1565660000,22.2817280000 114.1565180000,22.2817800000 114.1564860000,22.2818210000 114.1564730000,22.2818380000 114.1561480000,22.2822450000 114.1560410000,22.2823710000 114.1559330000,22.2825010000 114.1559090000,22.2825310000 114.1558930000,22.2825510000 114.1556900000,22.2828040000 114.1555480000,22.2829700000 114.1554840000,22.2830640000 114.1553510000,22.2832530000 114.1552360000,22.2833860000 114.1552170000,22.2834090000 114.1551630000,22.2834710000 114.1551300000,22.2835100000 114.1550840000,22.2835440000 114.1549400000,22.2836500000 114.1548960000,22.2836820000 114.1548360000,22.2837280000 114.1548060000,22.2837510000 114.1547300000,22.2838090000 114.1546650000,22.2838550000 114.1545130000,22.2839720000 114.1541970000,22.2841820000 114.1540630000,22.2842790000 114.1540250000,22.2843050000 114.1538510000,22.2844390000 114.1536380000,22.2846230000 114.1533510000,22.2848580000 114.1530930000,22.2850640000 114.1529960000,22.2850750000 114.1529140000,22.2850730000 114.1527870000,22.2850470000 114.1526710000,22.2849940000 114.1524770000,22.2848650000 114.1523390000,22.2847970000 114.1522720000,22.2847740000 114.1522100000,22.2847650000 114.1520270000,22.2847580000 114.1517120000,22.2847300000 114.1516280000,22.2847100000 114.1515360000,22.2846730000 114.1513160000,22.2845430000 114.1512130000,22.2845040000 114.1511390000,22.2844920000 114.1510750000,22.2845050000 114.1509970000,22.2845410000 114.1505580000,22.2848150000 114.1505120000,22.2848530000 114.1504490000,22.2849160000 114.1503700000,22.2850230000 114.1502960000,22.2851260000 114.1498680000,22.2856980000 114.1498280000,22.2857400000 114.1497090000,22.2858330000 114.1495920000,22.2859030000 114.1495370000,22.2859270000 114.1495010000,22.2859390000 114.1494290000,22.2859600000 114.1492900000,22.2860050000 114.1487550000,22.2861800000 114.1479610000,22.2868000000 114.1479330000,22.2868190000 114.1479010000,22.2868330000 114.1478550000,22.2868470000 114.1478080000,22.2868510000 114.1477560000,22.2868450000 114.1477010000,22.2868240000 114.1476290000,22.2867850000 114.1475670000,22.2867440000 114.1468850000,22.2862610000 114.1467170000,22.2862430000 114.1465360000,22.2862440000 114.1463820000,22.2862510000 114.1463560000,22.2862520000 114.1462740000,22.2862560000 114.1460100000,22.2862750000 114.1458430000,22.2863160000 114.1457220000,22.2863730000 114.1456390000,22.2864310000 114.1455890000,22.2864650000 114.1452930000,22.2867370000 114.1449930000,22.2869870000 114.1448000000,22.2871100000 114.1447520000,22.2871070000 114.1446730000,22.2870820000 114.1445480000,22.2870360000 114.1443720000,22.2869420000 114.1443660000,22.2869390000 114.1442390000,22.2868780000 114.1440840000,22.2868570000 114.1438650000,22.2868620000 114.1438230000,22.2868630000 114.1437270000,22.2868660000 114.1436400000,22.2868680000 114.1433810000,22.2868780000 114.1430760000,22.2868890000 114.1430140000,22.2868910000 114.1426580000,22.2869030000 114.1423860000,22.2869130000 114.1423630000,22.2869140000 114.1423070000,22.2869160000 114.1422630000,22.2869180000 114.1414550000,22.2869460000 114.1413270000,22.2869510000 114.1412240000,22.2869540000 114.1411730000,22.2869560000 114.1409280000,22.2869650000 114.1407740000,22.2869710000 114.1407440000,22.2869780000 114.1405250000,22.2870140000 114.1396850000,22.2867810000 114.1391330000,22.2866410000 114.1390610000,22.2866230000 114.1390180000,22.2866120000 114.1387370000,22.2865410000 114.1383560000,22.2864440000 114.1381110000,22.2863820000 114.1378720000,22.2863180000 114.1377360000,22.2862700000 114.1376100000,22.2862100000 114.1374150000,22.2860980000 114.1371610000,22.2859330000 114.1369220000,22.2857780000 114.1368790000,22.2857470000 114.1368260000,22.2857250000 114.1367460000,22.2857250000 114.1366740000,22.2857400000 114.1362030000,22.2858430000 114.1358610000,22.2859190000 114.1357890000,22.2859360000 114.1353680000,22.2860360000 114.1353400000,22.2860430000 114.1352590000,22.2860610000 114.1351760000,22.2860790000 114.1351310000,22.2860890000 114.1343440000,22.2862660000 114.1339130000,22.2863670000 114.1328860000,22.2865950000 114.1328050000,22.2866140000 114.1327430000,22.2864350000 114.1325720000,22.2859130000 114.1324860000,22.2856570000 114.1322580000,22.2851140000 114.1321200000,22.2849070000 114.1320310000,22.2848010000 114.1319760000,22.2847460000 114.1314610000,22.2843270000 114.1312440000,22.2841480000 114.1311790000,22.2840990000 114.1308910000,22.2838650000 114.1302350000,22.2833310000 114.1301260000,22.2832420000 114.1300100000,22.2831550000 114.1297400000,22.2829520000 114.1295960000,22.2828700000 114.1294460000,22.2828230000 114.1292150000,22.2827640000 114.1290990000,22.2827440000 114.1290100000,22.2827280000 114.1283010000,22.2826040000 114.1282140000,22.2825900000 114.1281260000,22.2825760000 114.1280280000,22.2825600000 114.1272510000,22.2824370000 114.1270280000,22.2824010000 114.1269850000,22.2823940000 114.1268850000,22.2823800000 114.1268520000,22.2823750000 114.1268220000,22.2823700000 114.1266380000,22.2823420000 114.1262940000,22.2822910000 114.1262640000,22.2822860000 114.1262420000,22.2822830000 114.1262160000,22.2822790000 114.1261840000,22.2822740000 114.1260980000,22.2822720000 114.1260710000,22.2822750000 114.1260240000,22.2822740000 114.1259310000,22.2822710000 114.1254140000,22.2821880000 114.1252720000,22.2821650000 114.1247550000,22.2820850000 114.1246630000,22.2820690000 114.1244040000,22.2820220000 114.1235150000,22.2818670000 114.1233260000,22.2818340000 114.1233130000,22.2818740000 114.1232940000,22.2819380000 114.1232570000,22.2820590000 114.1232200000,22.2821800000 114.1232120000,22.2822090000 114.1231910000,22.2822440000 114.1231660000,22.2822710000 114.1231340000,22.2822910000 114.1230940000,22.2822990000 114.1230430000,22.2822970000 114.1230000000,22.2822880000 114.1229080000,22.2822540000 114.1223280000,22.2820600000 114.1221950000,22.2820160000 114.1207170000,22.2815330000 114.1205770000,22.2814870000</coordinates>
                </LineString>
                <ExtendedData>
                    <Data name="duration">
                        <value>00:59:16</value>
                    </Data>
                    <Data name="length">
                        <value>47317.934720588295</value>
                    </Data>
                </ExtendedData>
            </Placemark>
        </Document>
    </Document>
</kml>