<?xml version="1.0" encoding="UTF-8"?>
<kml xmlns="http://www.opengis.net/kml/2.2" xmlns:gx="http://www.google.com/kml/ext/2.2">
    <Document>
        <name>Route</name>
        <Folder>
            <name>Route Request</name>
            <Placemark>
                <address>Chun Fat House, Tam Kon Shan Road, Tsing Yi Hui, Kwai Tsing District, Hong Kong, PRC</address>
                <Point>
                    <coordinates>114.1030058524,22.3615670659</coordinates>
                </Point>
                <ExtendedData>
                    <Data name="road">
                        <value>Tam Kon Shan Road</value>
                    </Data>
                    <Data name="country_code">
                        <value>cn</value>
                    </Data>
                    <Data name="building">
                        <value>Chun Fat House</value>
                    </Data>
                    <Data name="country">
                        <value>PRC</value>
                    </Data>
                    <Data name="hamlet">
                        <value>Tsing Yi Hui</value>
                    </Data>
                    <Data name="county">
                        <value>Kwai Tsing District</value>
                    </Data>
                </ExtendedData>
            </Placemark>
            <Placemark>
                <address>Tsing Yi Town Clinic, Tsing Luk Street, Tsing Chau, Tsing Yu New Village, Kwai Tsing District, Hong Kong, 852, PRC</address>
                <Point>
                    <coordinates>114.1063271895,22.3546836219</coordinates>
                </Point>
                <ExtendedData>
                    <Data name="road">
                        <value>Tsing Luk Street</value>
                    </Data>
                    <Data name="country_code">
                        <value>cn</value>
                    </Data>
                    <Data name="suburb">
                        <value>Tsing Chau</value>
                    </Data>
                    <Data name="postcode">
                        <value>852</value>
                    </Data>
                    <Data name="country">
                        <value>PRC</value>
                    </Data>
                    <Data name="clinic">
                        <value>Tsing Yi Town Clinic</value>
                    </Data>
                    <Data name="hamlet">
                        <value>Tsing Yu New Village</value>
                    </Data>
                    <Data name="county">
                        <value>Kwai Tsing District</value>
                    </Data>
                </ExtendedData>
            </Placemark>
            <Placemark>
                <address>Tsing King Road, Sheung Ko Tan, Tsing Yi Town Centre, Tsing Yi, Kwai Tsing District, New Territories, Hong Kong, China</address>
                <Point>
                    <coordinates>114.1071037487,22.3536320449</coordinates>
                </Point>
                <ExtendedData>
                    <Data name="region">
                        <value>New Territories</value>
                    </Data>
                    <Data name="road">
                        <value>Tsing King Road</value>
                    </Data>
                    <Data name="country_code">
                        <value>cn</value>
                    </Data>
                    <Data name="suburb">
                        <value>Tsing Yi Town Centre</value>
                    </Data>
                    <Data name="country">
                        <value>China</value>
                    </Data>
                    <Data name="town">
                        <value>Tsing Yi</value>
                    </Data>
                    <Data name="county">
                        <value>Kwai Tsing District</value>
                    </Data>
                    <Data name="neighbourhood">
                        <value>Sheung Ko Tan</value>
                    </Data>
                    <Data name="state">
                        <value>Hong Kong</value>
                    </Data>
                </ExtendedData>
            </Placemark>
            <Placemark>
                <address>Man Po Street, SoHo, Central District, Central and Western District, Hong Kong Island, Hong Kong, China</address>
                <Point>
                    <coordinates>114.1578519754,22.2869665276</coordinates>
                </Point>
                <ExtendedData>
                    <Data name="road">
                        <value>Man Po Street</value>
                    </Data>
                    <Data name="country_code">
                        <value>cn</value>
                    </Data>
                    <Data name="ISO3166-2-lvl3">
                        <value>CN-HK</value>
                    </Data>
                    <Data name="borough">
                        <value>Central District</value>
                    </Data>
                    <Data name="city">
                        <value>Hong Kong Island</value>
                    </Data>
                    <Data name="city_district">
                        <value>Central and Western District</value>
                    </Data>
                    <Data name="country">
                        <value>China</value>
                    </Data>
                    <Data name="neighbourhood">
                        <value>SoHo</value>
                    </Data>
                    <Data name="state">
                        <value>Hong Kong</value>
                    </Data>
                </ExtendedData>
            </Placemark>
            <Placemark>
                <address>Hong Kong Convention and Exhibition Centre, Expo Drive Central, Wan Chai North, Wan Chai, Wan Chai District, Hong Kong Island, Hong Kong, China</address>
                <Point>
                    <coordinates>114.1716772175,22.2830366124</coordinates>
                </Point>
                <ExtendedData>
                    <Data name="road">
                        <value>Expo Drive Central</value>
                    </Data>
                    <Data name="country_code">
                        <value>cn</value>
                    </Data>
                    <Data name="ISO3166-2-lvl3">
                        <value>CN-HK</value>
                    </Data>
                    <Data name="city">
                        <value>Hong Kong Island</value>
                    </Data>
                    <Data name="suburb">
                        <value>Wan Chai</value>
                    </Data>
                    <Data name="city_district">
                        <value>Wan Chai District</value>
                    </Data>
                    <Data name="country">
                        <value>China</value>
                    </Data>
                    <Data name="amenity">
                        <value>Hong Kong Convention and Exhibition Centre</value>
                    </Data>
                    <Data name="quarter">
                        <value>Wan Chai North</value>
                    </Data>
                    <Data name="state">
                        <value>Hong Kong</value>
                    </Data>
                </ExtendedData>
            </Placemark>
            <Placemark>
                <address>V Causeway Bay, 9-15, Yee Wo Street, East Point, Causeway Bay, Wan Chai District, Hong Kong Island, Hong Kong, China</address>
                <Point>
                    <coordinates>114.1858463380,22.2798974846</coordinates>
                </Point>
                <ExtendedData>
                    <Data name="road">
                        <value>Yee Wo Street</value>
                    </Data>
                    <Data name="country_code">
                        <value>cn</value>
                    </Data>
                    <Data name="ISO3166-2-lvl3">
                        <value>CN-HK</value>
                    </Data>
                    <Data name="city">
                        <value>Hong Kong Island</value>
                    </Data>
                    <Data name="suburb">
                        <value>Causeway Bay</value>
                    </Data>
                    <Data name="city_district">
                        <value>Wan Chai District</value>
                    </Data>
                    <Data name="tourism">
                        <value>V Causeway Bay</value>
                    </Data>
                    <Data name="country">
                        <value>China</value>
                    </Data>
                    <Data name="neighbourhood">
                        <value>East Point</value>
                    </Data>
                    <Data name="house_number">
                        <value>9-15</value>
                    </Data>
                    <Data name="state">
                        <value>Hong Kong</value>
                    </Data>
                </ExtendedData>
            </Placemark>
            <Placemark>
                <address>King's Road, Kornhill, Sai Wan Ho, Eastern District, Hong Kong Island, Hong Kong, 000000, China</address>
                <Point>
                    <coordinates>114.2182888046,22.2850470323</coordinates>
                </Point>
                <ExtendedData>
                    <Data name="road">
                        <value>King's Road</value>
                    </Data>
                    <Data name="country_code">
                        <value>cn</value>
                    </Data>
                    <Data name="ISO3166-2-lvl3">
                        <value>CN-HK</value>
                    </Data>
                    <Data name="suburb">
                        <value>Sai Wan Ho</value>
                    </Data>
                    <Data name="city">
                        <value>Hong Kong Island</value>
                    </Data>
                    <Data name="city_district">
                        <value>Eastern District</value>
                    </Data>
                    <Data name="postcode">
                        <value>000000</value>
                    </Data>
                    <Data name="country">
                        <value>China</value>
                    </Data>
                    <Data name="quarter">
                        <value>Kornhill</value>
                    </Data>
                    <Data name="state">
                        <value>Hong Kong</value>
                    </Data>
                </ExtendedData>
            </Placemark>
            <Placemark>
                <address>Aldrich Bay, Sai Wan Ho, Eastern District, Hong Kong Island, Hong Kong, 000000, China</address>
                <Point>
                    <coordinates>114.2246220505,22.2847090822</coordinates>
                </Point>
                <ExtendedData>
                    <Data name="country_code">
                        <value>cn</value>
                    </Data>
                    <Data name="ISO3166-2-lvl3">
                        <value>CN-HK</value>
                    </Data>
                    <Data name="suburb">
                        <value>Sai Wan Ho</value>
                    </Data>
                    <Data name="city">
                        <value>Hong Kong Island</value>
                    </Data>
                    <Data name="city_district">
                        <value>Eastern District</value>
                    </Data>
                    <Data name="postcode">
                        <value>000000</value>
                    </Data>
                    <Data name="country">
                        <value>China</value>
                    </Data>
                    <Data name="neighbourhood">
                        <value>Aldrich Bay</value>
                    </Data>
                    <Data name="state">
                        <value>Hong Kong</value>
                    </Data>
                </ExtendedData>
            </Placemark>
            <Placemark>
                <address>Kornhill Road, Kornhill, Quarry Bay, Eastern District, Hong Kong Island, Hong Kong, 000000, China</address>
                <Point>
                    <coordinates>114.2154542492,22.2845555289</coordinates>
                </Point>
                <ExtendedData>
                    <Data name="road">
                        <value>Kornhill Road</value>
                    </Data>
                    <Data name="country_code">
                        <value>cn</value>
                    </Data>
                    <Data name="ISO3166-2-lvl3">
                        <value>CN-HK</value>
                    </Data>
                    <Data name="suburb">
                        <value>Quarry Bay</value>
                    </Data>
                    <Data name="city">
                        <value>Hong Kong Island</value>
                    </Data>
                    <Data name="city_district">
                        <value>Eastern District</value>
                    </Data>
                    <Data name="postcode">
                        <value>000000</value>
                    </Data>
                    <Data name="country">
                        <value>China</value>
                    </Data>
                    <Data name="quarter">
                        <value>Kornhill</value>
                    </Data>
                    <Data name="state">
                        <value>Hong Kong</value>
                    </Data>
                </ExtendedData>
            </Placemark>
            <Placemark>
                <address>Fire Dragon Path, Tai Hang, Wan Chai District, Hong Kong, IL 2258, PRC</address>
                <Point>
                    <coordinates>114.1905128140,22.2811478909</coordinates>
                </Point>
                <ExtendedData>
                    <Data name="country_code">
                        <value>cn</value>
                    </Data>
                    <Data name="pedestrian">
                        <value>Fire Dragon Path</value>
                    </Data>
                    <Data name="suburb">
                        <value>Tai Hang</value>
                    </Data>
                    <Data name="postcode">
                        <value>IL 2258</value>
                    </Data>
                    <Data name="country">
                        <value>PRC</value>
                    </Data>
                    <Data name="county">
                        <value>Wan Chai District</value>
                    </Data>
                </ExtendedData>
            </Placemark>
            <Placemark>
                <address>豪大大雞排, Jardine's Bazaar, Lee Gardens Hill, Causeway Bay, Wan Chai District, Hong Kong Island, Hong Kong, China</address>
                <Point>
                    <coordinates>114.1848719995,22.2797472963</coordinates>
                </Point>
                <ExtendedData>
                    <Data name="road">
                        <value>Jardine's Bazaar</value>
                    </Data>
                    <Data name="country_code">
                        <value>cn</value>
                    </Data>
                    <Data name="ISO3166-2-lvl3">
                        <value>CN-HK</value>
                    </Data>
                    <Data name="city">
                        <value>Hong Kong Island</value>
                    </Data>
                    <Data name="suburb">
                        <value>Causeway Bay</value>
                    </Data>
                    <Data name="city_district">
                        <value>Wan Chai District</value>
                    </Data>
                    <Data name="country">
                        <value>China</value>
                    </Data>
                    <Data name="amenity">
                        <value>豪大大雞排</value>
                    </Data>
                    <Data name="neighbourhood">
                        <value>Lee Gardens Hill</value>
                    </Data>
                    <Data name="state">
                        <value>Hong Kong</value>
                    </Data>
                </ExtendedData>
            </Placemark>
            <Placemark>
                <address>Wan Chai, 130-150, Hennessy Road, Wan Chai South, Wan Chai, Wan Chai District, Hong Kong Island, Hong Kong, 000000, China</address>
                <Point>
                    <coordinates>114.1718384855,22.2764163931</coordinates>
                </Point>
                <ExtendedData>
                    <Data name="road">
                        <value>Hennessy Road</value>
                    </Data>
                    <Data name="country_code">
                        <value>cn</value>
                    </Data>
                    <Data name="ISO3166-2-lvl3">
                        <value>CN-HK</value>
                    </Data>
                    <Data name="city">
                        <value>Hong Kong Island</value>
                    </Data>
                    <Data name="suburb">
                        <value>Wan Chai</value>
                    </Data>
                    <Data name="city_district">
                        <value>Wan Chai District</value>
                    </Data>
                    <Data name="postcode">
                        <value>000000</value>
                    </Data>
                    <Data name="country">
                        <value>China</value>
                    </Data>
                    <Data name="quarter">
                        <value>Wan Chai South</value>
                    </Data>
                    <Data name="routingVisited">
                        <value>false</value>
                    </Data>
                    <Data name="house_number">
                        <value>130-150</value>
                    </Data>
                    <Data name="state">
                        <value>Hong Kong</value>
                    </Data>
                    <Data name="railway">
                        <value>Wan Chai</value>
                    </Data>
                </ExtendedData>
            </Placemark>
            <Placemark>
                <address>Connaught Road Central, Government Hill, Central District, Central and Western District, Hong Kong Island, Hong Kong, China</address>
                <Point>
                    <coordinates>114.1581171472,22.2829827757</coordinates>
                </Point>
                <ExtendedData>
                    <Data name="road">
                        <value>Connaught Road Central</value>
                    </Data>
                    <Data name="country_code">
                        <value>cn</value>
                    </Data>
                    <Data name="ISO3166-2-lvl3">
                        <value>CN-HK</value>
                    </Data>
                    <Data name="borough">
                        <value>Central District</value>
                    </Data>
                    <Data name="city">
                        <value>Hong Kong Island</value>
                    </Data>
                    <Data name="city_district">
                        <value>Central and Western District</value>
                    </Data>
                    <Data name="country">
                        <value>China</value>
                    </Data>
                    <Data name="neighbourhood">
                        <value>Government Hill</value>
                    </Data>
                    <Data name="state">
                        <value>Hong Kong</value>
                    </Data>
                </ExtendedData>
            </Placemark>
            <Placemark>
                <address>Central (Rumsey Street), Central Elevated Walkway (Central System), SoHo, Sheung Wan, Central and Western District, Hong Kong Island, Hong Kong, China</address>
                <Point>
                    <coordinates>114.1545489802,22.2864266757</coordinates>
                </Point>
                <ExtendedData>
                    <Data name="road">
                        <value>Central Elevated Walkway (Central System)</value>
                    </Data>
                    <Data name="country_code">
                        <value>cn</value>
                    </Data>
                    <Data name="ISO3166-2-lvl3">
                        <value>CN-HK</value>
                    </Data>
                    <Data name="city">
                        <value>Hong Kong Island</value>
                    </Data>
                    <Data name="suburb">
                        <value>Sheung Wan</value>
                    </Data>
                    <Data name="city_district">
                        <value>Central and Western District</value>
                    </Data>
                    <Data name="country">
                        <value>China</value>
                    </Data>
                    <Data name="highway">
                        <value>Central (Rumsey Street)</value>
                    </Data>
                    <Data name="neighbourhood">
                        <value>SoHo</value>
                    </Data>
                    <Data name="state">
                        <value>Hong Kong</value>
                    </Data>
                </ExtendedData>
            </Placemark>
            <Placemark>
                <address>St. Thomas The Apostle Catholic Church, Tsing Luk Street, Tsing Chau, Tsing Yu New Village, Kwai Tsing District, Hong Kong, 852, PRC</address>
                <Point>
                    <coordinates>114.1038606109,22.3547160755</coordinates>
                </Point>
                <ExtendedData>
                    <Data name="road">
                        <value>Tsing Luk Street</value>
                    </Data>
                    <Data name="country_code">
                        <value>cn</value>
                    </Data>
                    <Data name="suburb">
                        <value>Tsing Chau</value>
                    </Data>
                    <Data name="place_of_worship">
                        <value>St. Thomas The Apostle Catholic Church</value>
                    </Data>
                    <Data name="postcode">
                        <value>852</value>
                    </Data>
                    <Data name="country">
                        <value>PRC</value>
                    </Data>
                    <Data name="hamlet">
                        <value>Tsing Yu New Village</value>
                    </Data>
                    <Data name="county">
                        <value>Kwai Tsing District</value>
                    </Data>
                </ExtendedData>
            </Placemark>
            <Placemark>
                <address>Yan Chai Hospital Chiu Tsang Hok Wan Primary School, Fung Shue Wo Road, Tsing Chau, Tsing Yu New Village, Kwai Tsing District, Hong Kong, PRC</address>
                <Point>
                    <coordinates>114.1016586264,22.3571982419</coordinates>
                </Point>
                <ExtendedData>
                    <Data name="road">
                        <value>Fung Shue Wo Road</value>
                    </Data>
                    <Data name="country_code">
                        <value>cn</value>
                    </Data>
                    <Data name="suburb">
                        <value>Tsing Chau</value>
                    </Data>
                    <Data name="country">
                        <value>PRC</value>
                    </Data>
                    <Data name="hamlet">
                        <value>Tsing Yu New Village</value>
                    </Data>
                    <Data name="county">
                        <value>Kwai Tsing District</value>
                    </Data>
                    <Data name="school">
                        <value>Yan Chai Hospital Chiu Tsang Hok Wan Primary School</value>
                    </Data>
                </ExtendedData>
            </Placemark>
            <Placemark>
                <address>Chun Fat House, Tam Kon Shan Road, Tsing Yi Hui, Kwai Tsing District, Hong Kong, PRC</address>
                <Point>
                    <coordinates>114.1029763101,22.3615670658</coordinates>
                </Point>
                <ExtendedData>
                    <Data name="road">
                        <value>Tam Kon Shan Road</value>
                    </Data>
                    <Data name="country_code">
                        <value>cn</value>
                    </Data>
                    <Data name="building">
                        <value>Chun Fat House</value>
                    </Data>
                    <Data name="country">
                        <value>PRC</value>
                    </Data>
                    <Data name="hamlet">
                        <value>Tsing Yi Hui</value>
                    </Data>
                    <Data name="county">
                        <value>Kwai Tsing District</value>
                    </Data>
                </ExtendedData>
            </Placemark>
        </Folder>
        <Document>
            <name>50.9 km; 01:00 h (OSRM)</name>
            <Placemark>
                <name>Route</name>
                <LineString>
                    <coordinates>114.1030060000,22.3615670000 114.1027590000,22.3615670000 114.1027450000,22.3615500000 114.1027240000,22.3615150000 114.1026990000,22.3614700000 114.1026710000,22.3614250000 114.1025600000,22.3613620000 114.1026360000,22.3611590000 114.1026650000,22.3610470000 114.1026900000,22.3609540000 114.1027030000,22.3608810000 114.1027420000,22.3608070000 114.1027590000,22.3606640000 114.1027540000,22.3604710000 114.1027830000,22.3603670000 114.1028410000,22.3602570000 114.1028540000,22.3601340000 114.1029390000,22.3601230000 114.1029970000,22.3601040000 114.1030500000,22.3600900000 114.1031180000,22.3600570000 114.1031570000,22.3600290000 114.1032090000,22.3599910000 114.1032580000,22.3599350000 114.1032890000,22.3598220000 114.1033060000,22.3597250000 114.1032790000,22.3596360000 114.1032630000,22.3595870000 114.1032060000,22.3594840000 114.1031600000,22.3594250000 114.1031230000,22.3593980000 114.1030200000,22.3593340000 114.1029420000,22.3593050000 114.1029010000,22.3592920000 114.1028510000,22.3592840000 114.1028030000,22.3592830000 114.1026940000,22.3592330000 114.1025790000,22.3591770000 114.1024060000,22.3590600000 114.1022270000,22.3589320000 114.1021380000,22.3588610000 114.1020580000,22.3587820000 114.1019910000,22.3587040000 114.1019270000,22.3586180000 114.1018790000,22.3585370000 114.1018370000,22.3584590000 114.1018000000,22.3583700000 114.1017690000,22.3582830000 114.1017460000,22.3581940000 114.1017310000,22.3581060000 114.1017170000,22.3580250000 114.1016480000,22.3578080000 114.1016340000,22.3577930000 114.1015880000,22.3577230000 114.1016380000,22.3576690000 114.1016920000,22.3576130000 114.1017280000,22.3575600000 114.1017940000,22.3573890000 114.1018170000,22.3573130000 114.1018640000,22.3571470000 114.1019830000,22.3567640000 114.1022030000,22.3559650000 114.1022240000,22.3558170000 114.1022600000,22.3555690000 114.1023030000,22.3553010000 114.1023180000,22.3552060000 114.1024410000,22.3552110000 114.1025340000,22.3552130000 114.1029450000,22.3551580000 114.1030720000,22.3551380000 114.1033340000,22.3550970000 114.1037710000,22.3550290000 114.1037800000,22.3550600000 114.1037980000,22.3550870000 114.1038230000,22.3551090000 114.1038540000,22.3551230000 114.1038880000,22.3551290000 114.1039280000,22.3551240000 114.1039650000,22.3551080000 114.1039930000,22.3550810000 114.1040100000,22.3550520000 114.1040160000,22.3550200000 114.1040120000,22.3549870000 114.1039990000,22.3549570000 114.1039760000,22.3549320000 114.1039470000,22.3549130000 114.1039140000,22.3549030000 114.1038780000,22.3549020000 114.1038850000,22.3547680000 114.1038940000,22.3544720000 114.1038980000,22.3543320000 114.1039000000,22.3542830000 114.1039070000,22.3541100000 114.1039090000,22.3540540000 114.1039180000,22.3538460000 114.1039260000,22.3537840000 114.1039460000,22.3536710000 114.1039990000,22.3535250000 114.1040850000,22.3534060000 114.1041610000,22.3533250000 114.1042230000,22.3532690000 114.1043000000,22.3532130000 114.1043630000,22.3531750000 114.1044330000,22.3531410000 114.1045040000,22.3531130000 114.1045810000,22.3530910000 114.1046560000,22.3530780000 114.1047330000,22.3530730000 114.1048140000,22.3530730000 114.1049090000,22.3530770000 114.1049920000,22.3530820000 114.1050520000,22.3530860000 114.1051560000,22.3530920000 114.1052910000,22.3531010000 114.1053690000,22.3531090000 114.1054520000,22.3531250000 114.1055280000,22.3531450000 114.1056030000,22.3531720000 114.1056830000,22.3532160000 114.1057590000,22.3532640000 114.1058210000,22.3533160000 114.1058930000,22.3533850000 114.1059460000,22.3534530000 114.1059900000,22.3535220000 114.1060260000,22.3535980000 114.1060540000,22.3536770000 114.1060770000,22.3537680000 114.1060890000,22.3538630000 114.1060940000,22.3543320000 114.1061010000,22.3543900000 114.1061230000,22.3544640000 114.1062030000,22.3545690000 114.1063470000,22.3546550000 114.1063530000,22.3546590000 114.1065540000,22.3546890000 114.1068110000,22.3547160000 114.1068720000,22.3547160000 114.1070380000,22.3547170000 114.1070510000,22.3545770000 114.1070580000,22.3543800000 114.1070610000,22.3542880000 114.1070760000,22.3538280000 114.1070790000,22.3537630000 114.1070860000,22.3536310000 114.1070890000,22.3535680000 114.1071030000,22.3535040000 114.1071240000,22.3534420000 114.1071480000,22.3533950000 114.1071620000,22.3533800000 114.1072110000,22.3533090000 114.1072810000,22.3532310000 114.1073630000,22.3531990000 114.1074370000,22.3531520000 114.1075010000,22.3530940000 114.1075700000,22.3529930000 114.1076080000,22.3528790000 114.1076110000,22.3527600000 114.1075890000,22.3526660000 114.1075450000,22.3525780000 114.1074820000,22.3525010000 114.1074720000,22.3524210000 114.1074600000,22.3523290000 114.1074530000,22.3522290000 114.1074580000,22.3521380000 114.1074750000,22.3520720000 114.1074970000,22.3520170000 114.1077720000,22.3516790000 114.1077890000,22.3516590000 114.1078130000,22.3516290000 114.1078320000,22.3516050000 114.1078530000,22.3515790000 114.1079920000,22.3514120000 114.1081390000,22.3512590000 114.1081640000,22.3512260000 114.1082890000,22.3510770000 114.1086570000,22.3506430000 114.1086980000,22.3505850000 114.1087860000,22.3504670000 114.1091400000,22.3500150000 114.1091630000,22.3499870000 114.1093070000,22.3498110000 114.1098740000,22.3491030000 114.1100630000,22.3488660000 114.1101260000,22.3487650000 114.1101930000,22.3486650000 114.1102620000,22.3485700000 114.1102840000,22.3484790000 114.1103050000,22.3483920000 114.1103120000,22.3482830000 114.1103190000,22.3482060000 114.1103240000,22.3481580000 114.1103310000,22.3481170000 114.1103470000,22.3480470000 114.1103810000,22.3479830000 114.1104280000,22.3479270000 114.1104880000,22.3478800000 114.1105670000,22.3478640000 114.1106550000,22.3478700000 114.1107240000,22.3478790000 114.1108640000,22.3479080000 114.1109030000,22.3479180000 114.1109400000,22.3479270000 114.1126300000,22.3483660000 114.1167520000,22.3494470000 114.1170910000,22.3495290000 114.1173230000,22.3496150000 114.1175030000,22.3497040000 114.1176650000,22.3497980000 114.1177990000,22.3498860000 114.1179050000,22.3499630000 114.1180140000,22.3500540000 114.1180610000,22.3501890000 114.1182170000,22.3503690000 114.1183880000,22.3506110000 114.1186480000,22.3509420000 114.1188460000,22.3512800000 114.1190200000,22.3516860000 114.1191540000,22.3520290000 114.1192820000,22.3522710000 114.1194590000,22.3525080000 114.1196090000,22.3526440000 114.1197820000,22.3527650000 114.1199350000,22.3528270000 114.1201950000,22.3529020000 114.1204660000,22.3529280000 114.1207280000,22.3528970000 114.1211280000,22.3527800000 114.1213410000,22.3526830000 114.1216200000,22.3525620000 114.1218320000,22.3524820000 114.1220270000,22.3524040000 114.1221390000,22.3523590000 114.1222240000,22.3523210000 114.1226760000,22.3520630000 114.1228980000,22.3518990000 114.1232400000,22.3516400000 114.1234320000,22.3514950000 114.1237280000,22.3512190000 114.1239480000,22.3509410000 114.1241480000,22.3506360000 114.1243000000,22.3503120000 114.1244440000,22.3499020000 114.1244990000,22.3496360000 114.1245500000,22.3491470000 114.1245370000,22.3484120000 114.1245330000,22.3480180000 114.1245490000,22.3476170000 114.1246060000,22.3472410000 114.1246110000,22.3472070000 114.1246230000,22.3471590000 114.1246360000,22.3471070000 114.1246480000,22.3470550000 114.1246730000,22.3469520000 114.1247110000,22.3468180000 114.1247390000,22.3467160000 114.1247610000,22.3466370000 114.1247850000,22.3465690000 114.1248130000,22.3464960000 114.1248340000,22.3464420000 114.1249030000,22.3462770000 114.1250230000,22.3459890000 114.1251600000,22.3457430000 114.1252280000,22.3456200000 114.1254330000,22.3453410000 114.1256160000,22.3450810000 114.1258790000,22.3448160000 114.1260740000,22.3446340000 114.1262650000,22.3444920000 114.1264800000,22.3443300000 114.1269240000,22.3440300000 114.1270200000,22.3439790000 114.1271090000,22.3439320000 114.1271840000,22.3438920000 114.1272820000,22.3438400000 114.1276470000,22.3436840000 114.1278970000,22.3435720000 114.1281270000,22.3434690000 114.1283770000,22.3433460000 114.1286560000,22.3432050000 114.1289710000,22.3430190000 114.1291870000,22.3428750000 114.1294020000,22.3427320000 114.1295670000,22.3426040000 114.1297310000,22.3424680000 114.1298900000,22.3423150000 114.1301370000,22.3420730000 114.1303630000,22.3417950000 114.1304050000,22.3417270000 114.1304940000,22.3415860000 114.1306050000,22.3414080000 114.1306680000,22.3413080000 114.1307450000,22.3411650000 114.1307910000,22.3410810000 114.1308490000,22.3409740000 114.1310190000,22.3406270000 114.1311190000,22.3404140000 114.1311910000,22.3402610000 114.1314770000,22.3396800000 114.1315870000,22.3394560000 114.1316710000,22.3392680000 114.1316840000,22.3392360000 114.1318380000,22.3388760000 114.1319550000,22.3386180000 114.1320070000,22.3385160000 114.1320500000,22.3384340000 114.1322000000,22.3381400000 114.1324040000,22.3378060000 114.1326480000,22.3374240000 114.1328610000,22.3371230000 114.1331790000,22.3367280000 114.1333570000,22.3365230000 114.1336230000,22.3362450000 114.1337460000,22.3361190000 114.1343320000,22.3356020000 114.1345140000,22.3354620000 114.1346460000,22.3353620000 114.1349080000,22.3351570000 114.1351140000,22.3350120000 114.1353150000,22.3348710000 114.1354560000,22.3347710000 114.1355370000,22.3347190000 114.1357120000,22.3346060000 114.1360310000,22.3344250000 114.1363260000,22.3342690000 114.1366140000,22.3341310000 114.1369430000,22.3339880000 114.1373830000,22.3338160000 114.1378110000,22.3336600000 114.1395900000,22.3330030000 114.1403040000,22.3327090000 114.1403630000,22.3326870000 114.1413360000,22.3323200000 114.1417340000,22.3321710000 114.1428990000,22.3317170000 114.1429790000,22.3316830000 114.1439300000,22.3312840000 114.1442400000,22.3311570000 114.1453050000,22.3307780000 114.1455120000,22.3307010000 114.1464210000,22.3303510000 114.1464970000,22.3303220000 114.1472530000,22.3300310000 114.1479270000,22.3297640000 114.1486470000,22.3294550000 114.1490060000,22.3292880000 114.1491000000,22.3292440000 114.1496580000,22.3289770000 114.1500510000,22.3287860000 114.1505450000,22.3285160000 114.1512720000,22.3280540000 114.1515440000,22.3278800000 114.1518840000,22.3276670000 114.1522940000,22.3273890000 114.1528420000,22.3269960000 114.1532080000,22.3267150000 114.1536570000,22.3263590000 114.1540770000,22.3260070000 114.1544350000,22.3256710000 114.1547960000,22.3253360000 114.1551400000,22.3249960000 114.1554890000,22.3246310000 114.1556770000,22.3244380000 114.1558850000,22.3242120000 114.1561370000,22.3239280000 114.1564520000,22.3235770000 114.1567130000,22.3232530000 114.1569820000,22.3229170000 114.1573320000,22.3224540000 114.1576600000,22.3219910000 114.1579160000,22.3216230000 114.1581500000,22.3212580000 114.1584730000,22.3206990000 114.1588490000,22.3199810000 114.1591160000,22.3194600000 114.1593190000,22.3190490000 114.1593710000,22.3189370000 114.1595390000,22.3185730000 114.1597120000,22.3181800000 114.1599320000,22.3176580000 114.1600640000,22.3173450000 114.1601700000,22.3170940000 114.1603190000,22.3167700000 114.1604140000,22.3165490000 114.1605800000,22.3161640000 114.1606070000,22.3160980000 114.1607260000,22.3158200000 114.1608510000,22.3155020000 114.1609120000,22.3153470000 114.1610010000,22.3151200000 114.1610710000,22.3149390000 114.1611630000,22.3146640000 114.1612000000,22.3145530000 114.1612380000,22.3144410000 114.1612590000,22.3143370000 114.1613020000,22.3141250000 114.1613200000,22.3140540000 114.1613560000,22.3139150000 114.1614070000,22.3137140000 114.1615260000,22.3131120000 114.1616050000,22.3127250000 114.1616500000,22.3123490000 114.1616650000,22.3120670000 114.1616820000,22.3115320000 114.1616810000,22.3111110000 114.1616740000,22.3108150000 114.1616710000,22.3107280000 114.1616550000,22.3102900000 114.1616470000,22.3100740000 114.1616080000,22.3098280000 114.1615120000,22.3092920000 114.1613690000,22.3086000000 114.1613000000,22.3082960000 114.1612760000,22.3081910000 114.1612580000,22.3081130000 114.1612190000,22.3079850000 114.1611350000,22.3077140000 114.1610650000,22.3074870000 114.1609840000,22.3072940000 114.1608400000,22.3069860000 114.1607610000,22.3068140000 114.1606820000,22.3066440000 114.1606230000,22.3065180000 114.1604320000,22.3061120000 114.1601860000,22.3056400000 114.1601500000,22.3054820000 114.1601260000,22.3053790000 114.1600330000,22.3051960000 114.1598820000,22.3050400000 114.1597500000,22.3049160000 114.1594580000,22.3043950000 114.1590380000,22.3037070000 114.1589210000,22.3035410000 114.1588210000,22.3033850000 114.1587790000,22.3033330000 114.1587290000,22.3032580000 114.1586820000,22.3031860000 114.1584390000,22.3028540000 114.1582710000,22.3026750000 114.1580860000,22.3025020000 114.1578670000,22.3023060000 114.1576670000,22.3021240000 114.1573770000,22.3018260000 114.1573160000,22.3017620000 114.1570200000,22.3014420000 114.1567160000,22.3011410000 114.1561410000,22.3005100000 114.1466970000,22.2902980000 114.1464940000,22.2900780000 114.1462180000,22.2897960000 114.1460110000,22.2896560000 114.1457910000,22.2895310000 114.1455600000,22.2894220000 114.1453200000,22.2893320000 114.1450730000,22.2892600000 114.1448200000,22.2892070000 114.1445630000,22.2891750000 114.1443050000,22.2891610000 114.1440460000,22.2891680000 114.1437880000,22.2891950000 114.1435340000,22.2892410000 114.1434400000,22.2892660000 114.1432930000,22.2893050000 114.1431720000,22.2893380000 114.1430560000,22.2893800000 114.1429890000,22.2894070000 114.1427890000,22.2894970000 114.1424550000,22.2896580000 114.1423480000,22.2897090000 114.1421420000,22.2898940000 114.1420960000,22.2899290000 114.1419130000,22.2900500000 114.1417650000,22.2901340000 114.1416830000,22.2901740000 114.1416110000,22.2902030000 114.1415520000,22.2902230000 114.1414750000,22.2902430000 114.1414010000,22.2902570000 114.1413120000,22.2902670000 114.1412340000,22.2902660000 114.1411520000,22.2902570000 114.1410740000,22.2902410000 114.1409980000,22.2902170000 114.1409280000,22.2901860000 114.1408620000,22.2901480000 114.1408000000,22.2901040000 114.1407410000,22.2900480000 114.1407000000,22.2900020000 114.1406620000,22.2899490000 114.1406280000,22.2898920000 114.1406000000,22.2898270000 114.1405800000,22.2897690000 114.1405680000,22.2897060000 114.1405610000,22.2896430000 114.1405610000,22.2895810000 114.1405700000,22.2895070000 114.1405860000,22.2894330000 114.1406090000,22.2893680000 114.1406370000,22.2893090000 114.1406700000,22.2892550000 114.1407120000,22.2892020000 114.1407600000,22.2891530000 114.1408120000,22.2891100000 114.1408700000,22.2890710000 114.1409310000,22.2890390000 114.1410100000,22.2890100000 114.1410920000,22.2889900000 114.1411640000,22.2889810000 114.1412360000,22.2889780000 114.1413350000,22.2889970000 114.1414320000,22.2890190000 114.1415290000,22.2890430000 114.1416010000,22.2890620000 114.1417210000,22.2890970000 114.1418460000,22.2891370000 114.1419730000,22.2891710000 114.1421020000,22.2891970000 114.1422320000,22.2892170000 114.1423640000,22.2892290000 114.1424960000,22.2892340000 114.1426280000,22.2892320000 114.1428230000,22.2892320000 114.1430190000,22.2892310000 114.1433170000,22.2891960000 114.1433840000,22.2891890000 114.1436430000,22.2891610000 114.1437730000,22.2891450000 114.1438430000,22.2891370000 114.1440640000,22.2890990000 114.1441870000,22.2890640000 114.1442750000,22.2890270000 114.1443640000,22.2889810000 114.1444990000,22.2889040000 114.1445740000,22.2888680000 114.1446490000,22.2888410000 114.1447140000,22.2888250000 114.1447870000,22.2888160000 114.1452310000,22.2887700000 114.1454040000,22.2887520000 114.1456810000,22.2887600000 114.1458200000,22.2887620000 114.1458680000,22.2887630000 114.1459820000,22.2887620000 114.1465690000,22.2887230000 114.1467750000,22.2887040000 114.1469550000,22.2886850000 114.1470650000,22.2886680000 114.1473640000,22.2886250000 114.1477580000,22.2885750000 114.1482620000,22.2884840000 114.1484340000,22.2884570000 114.1496810000,22.2881250000 114.1500790000,22.2880250000 114.1505060000,22.2879080000 114.1507870000,22.2878240000 114.1510070000,22.2877570000 114.1518340000,22.2875020000 114.1523580000,22.2873400000 114.1531290000,22.2871000000 114.1532370000,22.2870710000 114.1533270000,22.2870530000 114.1534360000,22.2870390000 114.1537640000,22.2870110000 114.1539470000,22.2870040000 114.1540900000,22.2870070000 114.1542410000,22.2870160000 114.1545950000,22.2870570000 114.1547710000,22.2870780000 114.1548730000,22.2870910000 114.1551040000,22.2871210000 114.1553890000,22.2871580000 114.1555250000,22.2871760000 114.1556170000,22.2871880000 114.1557410000,22.2872010000 114.1559570000,22.2872610000 114.1560150000,22.2872730000 114.1561980000,22.2872970000 114.1563680000,22.2873140000 114.1565140000,22.2873230000 114.1566810000,22.2873230000 114.1568170000,22.2873140000 114.1569930000,22.2872910000 114.1571780000,22.2872540000 114.1572820000,22.2872290000 114.1574580000,22.2871530000 114.1575320000,22.2871190000 114.1576000000,22.2870900000 114.1578350000,22.2869890000 114.1578580000,22.2869770000 114.1579170000,22.2869450000 114.1579970000,22.2868920000 114.1580960000,22.2868160000 114.1582190000,22.2867120000 114.1585550000,22.2865150000 114.1586590000,22.2864510000 114.1590830000,22.2861850000 114.1601100000,22.2855380000 114.1603830000,22.2853670000 114.1613200000,22.2848360000 114.1631300000,22.2838110000 114.1638350000,22.2834740000 114.1641470000,22.2833390000 114.1644930000,22.2832060000 114.1651340000,22.2829870000 114.1656200000,22.2828430000 114.1661460000,22.2827110000 114.1665970000,22.2826160000 114.1670640000,22.2825310000 114.1677350000,22.2824530000 114.1680670000,22.2824220000 114.1684300000,22.2823990000 114.1690810000,22.2823640000 114.1697510000,22.2823630000 114.1700250000,22.2823730000 114.1702530000,22.2823870000 114.1704380000,22.2824080000 114.1705550000,22.2824250000 114.1706740000,22.2824490000 114.1708100000,22.2824760000 114.1708840000,22.2824970000 114.1709570000,22.2825220000 114.1710650000,22.2825690000 114.1711650000,22.2826210000 114.1712500000,22.2826720000 114.1713390000,22.2827390000 114.1714300000,22.2828130000 114.1715500000,22.2829300000 114.1716430000,22.2830380000 114.1716530000,22.2830520000 114.1718180000,22.2832790000 114.1718900000,22.2833700000 114.1719490000,22.2834280000 114.1720220000,22.2834870000 114.1720860000,22.2835290000 114.1721490000,22.2835630000 114.1722050000,22.2835890000 114.1722660000,22.2836150000 114.1723530000,22.2836410000 114.1724500000,22.2836600000 114.1728130000,22.2836850000 114.1729660000,22.2836960000 114.1730140000,22.2836990000 114.1732090000,22.2837130000 114.1736400000,22.2837420000 114.1739290000,22.2837630000 114.1739710000,22.2837660000 114.1740380000,22.2837700000 114.1740500000,22.2837810000 114.1740670000,22.2837900000 114.1740840000,22.2837950000 114.1741020000,22.2837960000 114.1741210000,22.2837930000 114.1741370000,22.2837860000 114.1741510000,22.2837760000 114.1741630000,22.2837620000 114.1741700000,22.2837480000 114.1741740000,22.2837320000 114.1741730000,22.2837140000 114.1741670000,22.2836950000 114.1741570000,22.2836800000 114.1742350000,22.2826710000 114.1742670000,22.2825990000 114.1742940000,22.2825290000 114.1743140000,22.2824700000 114.1743240000,22.2824160000 114.1743290000,22.2823720000 114.1743280000,22.2823220000 114.1743330000,22.2821950000 114.1743540000,22.2820670000 114.1743640000,22.2819330000 114.1743750000,22.2817630000 114.1743800000,22.2817190000 114.1743890000,22.2816690000 114.1744020000,22.2816180000 114.1744190000,22.2815650000 114.1744300000,22.2815280000 114.1744480000,22.2814400000 114.1744580000,22.2813460000 114.1744650000,22.2811950000 114.1744790000,22.2810230000 114.1744960000,22.2808170000 114.1745150000,22.2806930000 114.1745300000,22.2805750000 114.1745050000,22.2805400000 114.1745360000,22.2802040000 114.1745950000,22.2797520000 114.1745990000,22.2796730000 114.1745920000,22.2793950000 114.1745930000,22.2790840000 114.1746320000,22.2787920000 114.1746620000,22.2786650000 114.1746740000,22.2785750000 114.1747080000,22.2785100000 114.1747110000,22.2784890000 114.1747230000,22.2783920000 114.1747330000,22.2783180000 114.1747420000,22.2782430000 114.1747440000,22.2782270000 114.1747120000,22.2781910000 114.1747400000,22.2779910000 114.1747450000,22.2779530000 114.1747610000,22.2778310000 114.1749650000,22.2778510000 114.1753690000,22.2778920000 114.1760850000,22.2779650000 114.1765530000,22.2780120000 114.1766260000,22.2780200000 114.1768130000,22.2780390000 114.1770770000,22.2781010000 114.1779220000,22.2783530000 114.1780270000,22.2783840000 114.1787880000,22.2785990000 114.1789170000,22.2786380000 114.1794800000,22.2788040000 114.1795100000,22.2788140000 114.1796990000,22.2788750000 114.1798290000,22.2789260000 114.1804030000,22.2791380000 114.1806000000,22.2792100000 114.1810590000,22.2793860000 114.1811240000,22.2794100000 114.1811380000,22.2794150000 114.1813180000,22.2794790000 114.1814110000,22.2795130000 114.1819580000,22.2797130000 114.1824420000,22.2798890000 114.1824900000,22.2799070000 114.1826560000,22.2799640000 114.1827180000,22.2799930000 114.1830170000,22.2801060000 114.1830290000,22.2801110000 114.1830550000,22.2801200000 114.1831080000,22.2801390000 114.1831670000,22.2801490000 114.1832310000,22.2801550000 114.1832730000,22.2801560000 114.1833330000,22.2801580000 114.1842570000,22.2801810000 114.1843190000,22.2801820000 114.1843560000,22.2801830000 114.1844280000,22.2801840000 114.1845770000,22.2801860000 114.1845980000,22.2801860000 114.1846230000,22.2801840000 114.1846840000,22.2801740000 114.1847820000,22.2801540000 114.1848040000,22.2801520000 114.1848330000,22.2801460000 114.1849070000,22.2801240000 114.1849770000,22.2801000000 114.1850730000,22.2800710000 114.1855430000,22.2799270000 114.1856270000,22.2799110000 114.1856990000,22.2798870000 114.1857230000,22.2798790000 114.1858170000,22.2798480000 114.1858260000,22.2798450000 114.1858820000,22.2798270000 114.1858960000,22.2798220000 114.1860330000,22.2797770000 114.1861760000,22.2797330000 114.1861930000,22.2797280000 114.1863660000,22.2796810000 114.1869210000,22.2795140000 114.1869570000,22.2795040000 114.1871390000,22.2794510000 114.1872990000,22.2794630000 114.1874440000,22.2794810000 114.1876100000,22.2795380000 114.1878280000,22.2796260000 114.1880330000,22.2797400000 114.1883320000,22.2799260000 114.1886080000,22.2801090000 114.1888300000,22.2802620000 114.1894050000,22.2806560000 114.1896180000,22.2808030000 114.1907300000,22.2815450000 114.1908350000,22.2816170000 114.1909610000,22.2817060000 114.1912010000,22.2818720000 114.1912280000,22.2818910000 114.1912890000,22.2819310000 114.1912600000,22.2819980000 114.1912580000,22.2820770000 114.1912390000,22.2824800000 114.1912380000,22.2825130000 114.1912340000,22.2826160000 114.1912320000,22.2826720000 114.1912310000,22.2826750000 114.1912210000,22.2829090000 114.1912180000,22.2829940000 114.1911980000,22.2833720000 114.1911740000,22.2837530000 114.1911600000,22.2839750000 114.1911480000,22.2841510000 114.1911370000,22.2843100000 114.1911270000,22.2843800000 114.1911140000,22.2844460000 114.1910980000,22.2844980000 114.1910300000,22.2846920000 114.1910010000,22.2847700000 114.1909730000,22.2848400000 114.1909220000,22.2849480000 114.1908430000,22.2850990000 114.1908210000,22.2851380000 114.1907780000,22.2852160000 114.1907860000,22.2852330000 114.1907810000,22.2852540000 114.1907650000,22.2852860000 114.1907360000,22.2853280000 114.1907190000,22.2853570000 114.1907090000,22.2853880000 114.1907070000,22.2854080000 114.1907090000,22.2854270000 114.1907230000,22.2854500000 114.1909330000,22.2855920000 114.1909780000,22.2856210000 114.1910630000,22.2856790000 114.1910790000,22.2856890000 114.1913500000,22.2858720000 114.1914040000,22.2859080000 114.1914310000,22.2859190000 114.1914760000,22.2859510000 114.1915150000,22.2859880000 114.1915440000,22.2860340000 114.1915590000,22.2860840000 114.1915600000,22.2861370000 114.1915280000,22.2866830000 114.1915220000,22.2867600000 114.1915280000,22.2868370000 114.1915470000,22.2869120000 114.1915770000,22.2869840000 114.1916140000,22.2870460000 114.1916730000,22.2871190000 114.1918540000,22.2873200000 114.1918710000,22.2873390000 114.1919360000,22.2874170000 114.1919990000,22.2874960000 114.1921490000,22.2876610000 114.1928140000,22.2883870000 114.1928470000,22.2884230000 114.1932230000,22.2888410000 114.1935690000,22.2892020000 114.1935820000,22.2892150000 114.1936850000,22.2893290000 114.1940390000,22.2897420000 114.1940690000,22.2897750000 114.1941280000,22.2898330000 114.1948160000,22.2906000000 114.1948400000,22.2906260000 114.1950170000,22.2908170000 114.1951340000,22.2909430000 114.1952500000,22.2910400000 114.1953390000,22.2910970000 114.1955040000,22.2911690000 114.1955250000,22.2911790000 114.1960580000,22.2914110000 114.1963320000,22.2915170000 114.1963580000,22.2915290000 114.1965580000,22.2915780000 114.1967070000,22.2916090000 114.1967440000,22.2916160000 114.1971080000,22.2916850000 114.1984160000,22.2919430000 114.1984600000,22.2919510000 114.1985700000,22.2919730000 114.1987650000,22.2920130000 114.1988570000,22.2920320000 114.1989210000,22.2920450000 114.1998850000,22.2922530000 114.1999400000,22.2922630000 114.2000440000,22.2922820000 114.2001400000,22.2923020000 114.2008440000,22.2924500000 114.2013000000,22.2925460000 114.2013940000,22.2925660000 114.2015150000,22.2925890000 114.2023880000,22.2927630000 114.2027040000,22.2928260000 114.2027600000,22.2928370000 114.2028370000,22.2928520000 114.2037650000,22.2930550000 114.2038670000,22.2930770000 114.2040090000,22.2931060000 114.2040940000,22.2931020000 114.2041260000,22.2930980000 114.2041660000,22.2930940000 114.2042730000,22.2930730000 114.2043390000,22.2930540000 114.2043960000,22.2930400000 114.2044240000,22.2930320000 114.2044470000,22.2930260000 114.2044750000,22.2930160000 114.2048000000,22.2929270000 114.2048470000,22.2929140000 114.2049510000,22.2928860000 114.2050520000,22.2928610000 114.2052970000,22.2928030000 114.2058490000,22.2926730000 114.2058950000,22.2926630000 114.2059610000,22.2926440000 114.2060510000,22.2926190000 114.2062100000,22.2925510000 114.2063730000,22.2925070000 114.2064940000,22.2924740000 114.2072060000,22.2922730000 114.2072410000,22.2922630000 114.2073230000,22.2922390000 114.2074540000,22.2921980000 114.2077060000,22.2921200000 114.2079130000,22.2920560000 114.2082680000,22.2919460000 114.2082950000,22.2919380000 114.2083200000,22.2919300000 114.2083490000,22.2919210000 114.2083640000,22.2919160000 114.2084430000,22.2918920000 114.2084960000,22.2918750000 114.2085760000,22.2918500000 114.2086760000,22.2918180000 114.2087900000,22.2917810000 114.2089870000,22.2917170000 114.2090310000,22.2917030000 114.2091120000,22.2916770000 114.2091170000,22.2916730000 114.2092060000,22.2915960000 114.2092740000,22.2915050000 114.2093040000,22.2914440000 114.2093250000,22.2913790000 114.2093340000,22.2913080000 114.2093340000,22.2912350000 114.2093270000,22.2911650000 114.2093130000,22.2911020000 114.2092600000,22.2909060000 114.2092460000,22.2908560000 114.2092320000,22.2907690000 114.2092410000,22.2906320000 114.2092840000,22.2905340000 114.2093340000,22.2904190000 114.2093980000,22.2902350000 114.2094930000,22.2899470000 114.2095350000,22.2898200000 114.2096180000,22.2895630000 114.2096450000,22.2894760000 114.2096710000,22.2893920000 114.2096790000,22.2893630000 114.2097850000,22.2890430000 114.2098990000,22.2887200000 114.2099850000,22.2884730000 114.2100990000,22.2881000000 114.2102430000,22.2876710000 114.2102500000,22.2876500000 114.2102600000,22.2876160000 114.2102690000,22.2875870000 114.2102780000,22.2875550000 114.2103080000,22.2874660000 114.2104320000,22.2870870000 114.2105270000,22.2868150000 114.2105580000,22.2867460000 114.2105640000,22.2867340000 114.2105760000,22.2867100000 114.2106090000,22.2866570000 114.2106530000,22.2865830000 114.2107150000,22.2864800000 114.2108730000,22.2862390000 114.2110340000,22.2859930000 114.2111150000,22.2858650000 114.2111360000,22.2858320000 114.2111870000,22.2857520000 114.2113210000,22.2855440000 114.2113460000,22.2854980000 114.2114280000,22.2853540000 114.2114810000,22.2852650000 114.2115260000,22.2852060000 114.2116720000,22.2850900000 114.2117680000,22.2850370000 114.2118790000,22.2849970000 114.2119370000,22.2849770000 114.2121640000,22.2848970000 114.2122930000,22.2848570000 114.2123180000,22.2848510000 114.2123760000,22.2848320000 114.2125620000,22.2847730000 114.2125910000,22.2847660000 114.2127110000,22.2847370000 114.2128970000,22.2847300000 114.2129370000,22.2847290000 114.2130720000,22.2847280000 114.2132730000,22.2847320000 114.2135540000,22.2847330000 114.2136670000,22.2847340000 114.2142410000,22.2847510000 114.2144420000,22.2847500000 114.2146170000,22.2847530000 114.2146900000,22.2847770000 114.2147390000,22.2847980000 114.2147880000,22.2848260000 114.2148290000,22.2848540000 114.2148660000,22.2848850000 114.2148980000,22.2849160000 114.2149170000,22.2849360000 114.2149260000,22.2849460000 114.2149430000,22.2849680000 114.2149470000,22.2849720000 114.2149650000,22.2849990000 114.2149850000,22.2850360000 114.2151070000,22.2853240000 114.2151430000,22.2853960000 114.2151860000,22.2854540000 114.2152400000,22.2855170000 114.2153090000,22.2855800000 114.2154190000,22.2856630000 114.2155300000,22.2857290000 114.2156110000,22.2857640000 114.2156890000,22.2857930000 114.2157840000,22.2858190000 114.2158650000,22.2858370000 114.2159440000,22.2858500000 114.2160350000,22.2858610000 114.2161430000,22.2858660000 114.2162780000,22.2858570000 114.2163480000,22.2858430000 114.2164350000,22.2858200000 114.2165140000,22.2857920000 114.2165920000,22.2857580000 114.2167230000,22.2856900000 114.2170030000,22.2855160000 114.2171440000,22.2854440000 114.2172430000,22.2853970000 114.2173370000,22.2853570000 114.2173540000,22.2853510000 114.2175780000,22.2852570000 114.2176310000,22.2852370000 114.2176410000,22.2852330000 114.2178070000,22.2851730000 114.2179570000,22.2851330000 114.2182640000,22.2850660000 114.2182920000,22.2850610000 114.2185780000,22.2850100000 114.2187810000,22.2849790000 114.2189420000,22.2849780000 114.2190210000,22.2849720000 114.2190980000,22.2849680000 114.2192360000,22.2849470000 114.2193910000,22.2849110000 114.2195190000,22.2848720000 114.2196560000,22.2848180000 114.2198190000,22.2847380000 114.2199030000,22.2846840000 114.2199810000,22.2846250000 114.2200420000,22.2845750000 114.2201230000,22.2844980000 114.2202410000,22.2843540000 114.2206620000,22.2838130000 114.2209860000,22.2834030000 114.2212450000,22.2830700000 114.2213170000,22.2829780000 114.2213770000,22.2830200000 114.2215850000,22.2831620000 114.2216600000,22.2832130000 114.2218290000,22.2833290000 114.2218720000,22.2833580000 114.2219410000,22.2834050000 114.2219920000,22.2834400000 114.2221230000,22.2835410000 114.2221380000,22.2835530000 114.2221560000,22.2835670000 114.2221720000,22.2835790000 114.2222160000,22.2836120000 114.2222670000,22.2836510000 114.2223560000,22.2837240000 114.2223700000,22.2837360000 114.2223890000,22.2837500000 114.2224780000,22.2838170000 114.2226060000,22.2839380000 114.2231380000,22.2844430000 114.2237840000,22.2850610000 114.2240400000,22.2853030000 114.2240780000,22.2852730000 114.2241100000,22.2852460000 114.2243600000,22.2850300000 114.2246600000,22.2847430000 114.2248120000,22.2845980000 114.2247150000,22.2845090000 114.2246300000,22.2844180000 114.2246180000,22.2844050000 114.2245920000,22.2843800000 114.2245470000,22.2843370000 114.2246000000,22.2842870000 114.2242920000,22.2839960000 114.2239530000,22.2836760000 114.2235520000,22.2833100000 114.2234700000,22.2832350000 114.2234210000,22.2831890000 114.2233600000,22.2831340000 114.2232320000,22.2830210000 114.2231990000,22.2829900000 114.2230870000,22.2828800000 114.2230710000,22.2828650000 114.2230630000,22.2828560000 114.2230500000,22.2828440000 114.2229740000,22.2827720000 114.2229100000,22.2827240000 114.2227960000,22.2826470000 114.2226230000,22.2825280000 114.2225770000,22.2824960000 114.2224410000,22.2823990000 114.2223970000,22.2823670000 114.2222020000,22.2822340000 114.2221620000,22.2822170000 114.2220490000,22.2821710000 114.2219780000,22.2821440000 114.2218900000,22.2821170000 114.2218650000,22.2821120000 114.2218180000,22.2821090000 114.2217610000,22.2821820000 114.2215420000,22.2824650000 114.2212900000,22.2827900000 114.2212030000,22.2828980000 114.2211280000,22.2829910000 114.2209590000,22.2832080000 114.2208720000,22.2833270000 114.2206720000,22.2835830000 114.2205490000,22.2837380000 114.2200900000,22.2843030000 114.2200800000,22.2843170000 114.2200130000,22.2843980000 114.2199520000,22.2844710000 114.2199080000,22.2845200000 114.2198680000,22.2845620000 114.2198140000,22.2846060000 114.2197520000,22.2846470000 114.2196810000,22.2846880000 114.2196080000,22.2847260000 114.2195070000,22.2847710000 114.2193900000,22.2848080000 114.2192710000,22.2848380000 114.2191350000,22.2848640000 114.2189620000,22.2848800000 114.2188380000,22.2848850000 114.2186930000,22.2848790000 114.2185050000,22.2848580000 114.2183270000,22.2848280000 114.2180130000,22.2847520000 114.2178720000,22.2847160000 114.2174830000,22.2846240000 114.2172680000,22.2845900000 114.2170510000,22.2845630000 114.2167690000,22.2845540000 114.2157680000,22.2845600000 114.2156560000,22.2845690000 114.2155520000,22.2845760000 114.2154570000,22.2845840000 114.2153420000,22.2845930000 114.2149420000,22.2846250000 114.2147470000,22.2846360000 114.2144610000,22.2846360000 114.2142890000,22.2846290000 114.2136740000,22.2846060000 114.2135550000,22.2846010000 114.2130270000,22.2845940000 114.2129870000,22.2845940000 114.2129300000,22.2845990000 114.2128000000,22.2846110000 114.2126900000,22.2846260000 114.2125430000,22.2846460000 114.2124270000,22.2846740000 114.2123310000,22.2847010000 114.2122800000,22.2847170000 114.2121840000,22.2847460000 114.2120790000,22.2847770000 114.2119570000,22.2848190000 114.2118510000,22.2848580000 114.2117960000,22.2848790000 114.2117070000,22.2849210000 114.2116350000,22.2849550000 114.2115690000,22.2849970000 114.2115200000,22.2850330000 114.2114750000,22.2850740000 114.2114250000,22.2851330000 114.2113790000,22.2851950000 114.2111410000,22.2855670000 114.2110610000,22.2856900000 114.2110400000,22.2857230000 114.2110140000,22.2857620000 114.2108180000,22.2860740000 114.2107710000,22.2861480000 114.2105260000,22.2865330000 114.2104800000,22.2866050000 114.2104470000,22.2866630000 114.2104350000,22.2866890000 114.2104290000,22.2867010000 114.2104000000,22.2867620000 114.2103130000,22.2870220000 114.2102970000,22.2870710000 114.2102600000,22.2871620000 114.2102330000,22.2872410000 114.2102120000,22.2873050000 114.2101400000,22.2875460000 114.2101270000,22.2875850000 114.2101170000,22.2876140000 114.2101080000,22.2876390000 114.2100960000,22.2876750000 114.2100300000,22.2878640000 114.2099700000,22.2880490000 114.2099350000,22.2881560000 114.2098500000,22.2884060000 114.2098400000,22.2884330000 114.2097480000,22.2886950000 114.2097240000,22.2887680000 114.2095520000,22.2893280000 114.2093600000,22.2898980000 114.2092590000,22.2901990000 114.2091910000,22.2903930000 114.2091480000,22.2905020000 114.2090960000,22.2906130000 114.2090470000,22.2907030000 114.2090160000,22.2907530000 114.2089830000,22.2908030000 114.2089670000,22.2908250000 114.2089110000,22.2908950000 114.2088700000,22.2909420000 114.2088300000,22.2909850000 114.2087920000,22.2910230000 114.2087190000,22.2910920000 114.2086440000,22.2911540000 114.2085780000,22.2912030000 114.2085130000,22.2912440000 114.2084420000,22.2912850000 114.2083580000,22.2913270000 114.2082580000,22.2913750000 114.2082170000,22.2913940000 114.2081820000,22.2914090000 114.2081390000,22.2914250000 114.2080520000,22.2914560000 114.2078710000,22.2915220000 114.2073340000,22.2917160000 114.2072860000,22.2917340000 114.2071610000,22.2917780000 114.2068080000,22.2919010000 114.2067540000,22.2919160000 114.2066850000,22.2919250000 114.2065100000,22.2919400000 114.2061150000,22.2919710000 114.2059010000,22.2919760000 114.2058780000,22.2919740000 114.2058380000,22.2919730000 114.2057680000,22.2919730000 114.2053830000,22.2919700000 114.2049910000,22.2919640000 114.2049430000,22.2919630000 114.2046920000,22.2919580000 114.2046400000,22.2919570000 114.2045120000,22.2919470000 114.2043640000,22.2919390000 114.2042950000,22.2919310000 114.2040150000,22.2918710000 114.2038270000,22.2918310000 114.2035030000,22.2917660000 114.2033670000,22.2917390000 114.2033410000,22.2917340000 114.2033240000,22.2917310000 114.2033040000,22.2917270000 114.2032910000,22.2917240000 114.2031770000,22.2917010000 114.2031080000,22.2916870000 114.2027420000,22.2916130000 114.2025740000,22.2915780000 114.2023540000,22.2915320000 114.2023230000,22.2915260000 114.2021560000,22.2914910000 114.2021070000,22.2914810000 114.2017780000,22.2914140000 114.2016760000,22.2913940000 114.2013020000,22.2913170000 114.2009440000,22.2912410000 114.2006030000,22.2911730000 114.2004610000,22.2911450000 114.2003230000,22.2911150000 114.1998350000,22.2910140000 114.1995200000,22.2909490000 114.1995030000,22.2909460000 114.1993870000,22.2909220000 114.1993660000,22.2909170000 114.1991330000,22.2908660000 114.1991220000,22.2908640000 114.1990180000,22.2908420000 114.1989490000,22.2908270000 114.1988950000,22.2908150000 114.1987320000,22.2907840000 114.1982720000,22.2906850000 114.1976010000,22.2905490000 114.1970670000,22.2904410000 114.1968590000,22.2904120000 114.1966180000,22.2903630000 114.1965740000,22.2903540000 114.1958210000,22.2902000000 114.1958000000,22.2901950000 114.1957510000,22.2901850000 114.1955490000,22.2901400000 114.1954640000,22.2901190000 114.1954350000,22.2901090000 114.1953600000,22.2900850000 114.1952220000,22.2900220000 114.1951230000,22.2899600000 114.1950440000,22.2899000000 114.1949620000,22.2898250000 114.1947570000,22.2895830000 114.1947000000,22.2895280000 114.1946360000,22.2894580000 114.1946050000,22.2894080000 114.1945520000,22.2893250000 114.1944580000,22.2892190000 114.1944490000,22.2892090000 114.1944390000,22.2891980000 114.1944310000,22.2891880000 114.1944220000,22.2891790000 114.1943110000,22.2890520000 114.1942340000,22.2889650000 114.1938690000,22.2885610000 114.1936620000,22.2883330000 114.1934520000,22.2880920000 114.1933680000,22.2879940000 114.1932260000,22.2878210000 114.1931440000,22.2877040000 114.1930900000,22.2875930000 114.1930560000,22.2875150000 114.1930250000,22.2874440000 114.1930080000,22.2873910000 114.1929920000,22.2873240000 114.1929780000,22.2872280000 114.1929710000,22.2871600000 114.1929670000,22.2870700000 114.1929680000,22.2870230000 114.1929650000,22.2869900000 114.1929670000,22.2869200000 114.1929810000,22.2868530000 114.1929890000,22.2866020000 114.1929910000,22.2865540000 114.1929920000,22.2864730000 114.1930010000,22.2862070000 114.1930060000,22.2859650000 114.1930080000,22.2858200000 114.1930070000,22.2855770000 114.1930010000,22.2854810000 114.1929890000,22.2853700000 114.1929770000,22.2853080000 114.1928810000,22.2847740000 114.1928040000,22.2843680000 114.1927660000,22.2841910000 114.1926440000,22.2836020000 114.1926200000,22.2835040000 114.1925970000,22.2834320000 114.1925410000,22.2832850000 114.1924650000,22.2831050000 114.1923930000,22.2829500000 114.1923570000,22.2828710000 114.1922150000,22.2825790000 114.1921440000,22.2824650000 114.1920560000,22.2823530000 114.1920140000,22.2823010000 114.1919750000,22.2822570000 114.1919140000,22.2821900000 114.1918890000,22.2821650000 114.1918560000,22.2821370000 114.1917750000,22.2820740000 114.1917060000,22.2820260000 114.1914710000,22.2818590000 114.1914570000,22.2818500000 114.1913330000,22.2817660000 114.1909050000,22.2814850000 114.1908100000,22.2814230000 114.1904760000,22.2811940000 114.1903820000,22.2811300000 114.1896480000,22.2806270000 114.1895030000,22.2805270000 114.1894430000,22.2804860000 114.1889260000,22.2801340000 114.1886970000,22.2799780000 114.1881330000,22.2796030000 114.1879860000,22.2795050000 114.1878300000,22.2794030000 114.1876680000,22.2792970000 114.1873360000,22.2791450000 114.1871790000,22.2790800000 114.1870900000,22.2789780000 114.1870800000,22.2789670000 114.1870450000,22.2789320000 114.1870060000,22.2789070000 114.1869460000,22.2788910000 114.1868830000,22.2788930000 114.1867940000,22.2789080000 114.1867160000,22.2789210000 114.1865680000,22.2789460000 114.1862520000,22.2790000000 114.1861070000,22.2790250000 114.1860490000,22.2790430000 114.1860180000,22.2790580000 114.1859260000,22.2791050000 114.1856680000,22.2792560000 114.1851230000,22.2795890000 114.1848730000,22.2797480000 114.1848330000,22.2797730000 114.1845530000,22.2799520000 114.1845330000,22.2799630000 114.1844930000,22.2799850000 114.1843960000,22.2800340000 114.1843470000,22.2800580000 114.1843210000,22.2800570000 114.1842610000,22.2800550000 114.1839810000,22.2800420000 114.1837640000,22.2800350000 114.1832760000,22.2800250000 114.1832390000,22.2800200000 114.1831920000,22.2800150000 114.1831290000,22.2799950000 114.1828080000,22.2798910000 114.1827730000,22.2798790000 114.1827070000,22.2798540000 114.1826770000,22.2798440000 114.1825420000,22.2797920000 114.1824620000,22.2797630000 114.1818000000,22.2795160000 114.1814500000,22.2793820000 114.1813610000,22.2793470000 114.1811760000,22.2792750000 114.1810330000,22.2792200000 114.1810170000,22.2792150000 114.1806970000,22.2790960000 114.1802340000,22.2789270000 114.1800860000,22.2788740000 114.1798540000,22.2787900000 114.1798050000,22.2787730000 114.1796440000,22.2787190000 114.1796170000,22.2787090000 114.1795370000,22.2786870000 114.1795030000,22.2786770000 114.1794280000,22.2786550000 114.1781550000,22.2782560000 114.1779750000,22.2782030000 114.1777460000,22.2781380000 114.1774830000,22.2780630000 114.1772060000,22.2779840000 114.1771140000,22.2779600000 114.1770130000,22.2779080000 114.1768050000,22.2778000000 114.1766390000,22.2777030000 114.1765530000,22.2776540000 114.1762620000,22.2774860000 114.1759430000,22.2772930000 114.1755820000,22.2770820000 114.1755060000,22.2770360000 114.1752880000,22.2769080000 114.1752440000,22.2768820000 114.1752250000,22.2768680000 114.1751670000,22.2768290000 114.1751180000,22.2767940000 114.1750780000,22.2767660000 114.1750510000,22.2767550000 114.1750280000,22.2767480000 114.1750080000,22.2767410000 114.1749820000,22.2767330000 114.1749610000,22.2767300000 114.1749440000,22.2767290000 114.1748860000,22.2767220000 114.1748760000,22.2767210000 114.1748640000,22.2767190000 114.1748480000,22.2767170000 114.1748320000,22.2767150000 114.1748210000,22.2767140000 114.1747900000,22.2767100000 114.1747520000,22.2767050000 114.1746630000,22.2766940000 114.1744190000,22.2766660000 114.1740100000,22.2766230000 114.1735910000,22.2765750000 114.1734640000,22.2765600000 114.1733570000,22.2765480000 114.1733210000,22.2765440000 114.1731720000,22.2765270000 114.1728000000,22.2764900000 114.1724830000,22.2764590000 114.1722400000,22.2764350000 114.1719330000,22.2764000000 114.1718410000,22.2763900000 114.1717400000,22.2763790000 114.1716540000,22.2763750000 114.1716110000,22.2763740000 114.1716050000,22.2763900000 114.1715960000,22.2764150000 114.1715820000,22.2764370000 114.1715680000,22.2764560000 114.1715480000,22.2764860000 114.1715320000,22.2765070000 114.1715220000,22.2765350000 114.1715190000,22.2765580000 114.1715600000,22.2770260000 114.1715920000,22.2773720000 114.1715940000,22.2773970000 114.1716020000,22.2774820000 114.1716220000,22.2775890000 114.1716310000,22.2776810000 114.1716490000,22.2778640000 114.1716580000,22.2779830000 114.1716600000,22.2780110000 114.1716660000,22.2780820000 114.1716740000,22.2781550000 114.1716820000,22.2782290000 114.1716890000,22.2782800000 114.1717110000,22.2784400000 114.1717210000,22.2785150000 114.1717240000,22.2785420000 114.1717300000,22.2786030000 114.1717340000,22.2786550000 114.1717350000,22.2786760000 114.1717570000,22.2789850000 114.1717610000,22.2790480000 114.1716390000,22.2790530000 114.1712320000,22.2790850000 114.1709310000,22.2791100000 114.1704380000,22.2791510000 114.1702470000,22.2791720000 114.1700260000,22.2793060000 114.1695590000,22.2793430000 114.1693990000,22.2793690000 114.1690260000,22.2794500000 114.1688970000,22.2794650000 114.1687260000,22.2795050000 114.1686570000,22.2795190000 114.1685610000,22.2795380000 114.1683340000,22.2795780000 114.1681730000,22.2795890000 114.1680620000,22.2795580000 114.1679690000,22.2795330000 114.1678780000,22.2795210000 114.1677650000,22.2795040000 114.1674090000,22.2794490000 114.1672060000,22.2794170000 114.1669640000,22.2793880000 114.1666330000,22.2793610000 114.1665480000,22.2793540000 114.1664120000,22.2793710000 114.1663450000,22.2793740000 114.1661350000,22.2794450000 114.1660530000,22.2794540000 114.1659300000,22.2794660000 114.1657430000,22.2794980000 114.1655310000,22.2795640000 114.1653260000,22.2796530000 114.1649120000,22.2799240000 114.1644970000,22.2801990000 114.1644040000,22.2802570000 114.1642250000,22.2803930000 114.1640590000,22.2805170000 114.1638310000,22.2806870000 114.1632240000,22.2810830000 114.1629860000,22.2812120000 114.1629160000,22.2812320000 114.1627190000,22.2812780000 114.1626100000,22.2813120000 114.1624320000,22.2813680000 114.1623800000,22.2813820000 114.1623190000,22.2813990000 114.1622000000,22.2814480000 114.1619970000,22.2815320000 114.1618950000,22.2815840000 114.1616370000,22.2816570000 114.1614330000,22.2817120000 114.1608800000,22.2818560000 114.1604890000,22.2819560000 114.1602690000,22.2820190000 114.1601700000,22.2820480000 114.1600580000,22.2820810000 114.1600020000,22.2820980000 114.1597900000,22.2821590000 114.1596410000,22.2822440000 114.1589650000,22.2825150000 114.1587780000,22.2825970000 114.1585440000,22.2827100000 114.1583720000,22.2828110000 114.1581740000,22.2829540000 114.1581260000,22.2829930000 114.1578920000,22.2831820000 114.1577880000,22.2832750000 114.1577280000,22.2833330000 114.1576310000,22.2834310000 114.1575640000,22.2835070000 114.1574590000,22.2836200000 114.1573560000,22.2837130000 114.1572720000,22.2837890000 114.1572170000,22.2838640000 114.1571750000,22.2839280000 114.1571260000,22.2839930000 114.1570630000,22.2840670000 114.1570030000,22.2841210000 114.1569650000,22.2841690000 114.1569080000,22.2842420000 114.1567160000,22.2844880000 114.1566630000,22.2845700000 114.1565970000,22.2846560000 114.1565100000,22.2847670000 114.1564190000,22.2848940000 114.1563950000,22.2849480000 114.1563710000,22.2850090000 114.1563480000,22.2850770000 114.1563080000,22.2852050000 114.1562810000,22.2852770000 114.1562610000,22.2853250000 114.1562230000,22.2853940000 114.1561800000,22.2854570000 114.1561320000,22.2855170000 114.1560890000,22.2855640000 114.1560390000,22.2856120000 114.1559870000,22.2856560000 114.1559340000,22.2856940000 114.1558750000,22.2857320000 114.1558270000,22.2857590000 114.1557580000,22.2857950000 114.1556820000,22.2858300000 114.1553360000,22.2859780000 114.1551380000,22.2860610000 114.1549190000,22.2861650000 114.1547930000,22.2862200000 114.1545310000,22.2863710000 114.1545170000,22.2863790000 114.1541970000,22.2865650000 114.1540350000,22.2866520000 114.1539120000,22.2867100000 114.1538060000,22.2867570000 114.1537180000,22.2867940000 114.1536290000,22.2868280000 114.1535140000,22.2868710000 114.1533220000,22.2869390000 114.1532130000,22.2869840000 114.1529020000,22.2870700000 114.1526480000,22.2871460000 114.1525440000,22.2871770000 114.1523260000,22.2872420000 114.1518070000,22.2873960000 114.1510010000,22.2876360000 114.1507380000,22.2877100000 114.1504730000,22.2877840000 114.1500380000,22.2879030000 114.1496450000,22.2880000000 114.1488010000,22.2882260000 114.1483480000,22.2883170000 114.1482760000,22.2883440000 114.1481130000,22.2883980000 114.1480310000,22.2884120000 114.1477010000,22.2884540000 114.1464610000,22.2885810000 114.1463690000,22.2885890000 114.1458940000,22.2886340000 114.1452760000,22.2886290000 114.1452130000,22.2886340000 114.1449270000,22.2886610000 114.1431340000,22.2888430000 114.1429290000,22.2888530000 114.1427240000,22.2888580000 114.1425180000,22.2888600000 114.1421640000,22.2888570000 114.1416570000,22.2888120000 114.1415230000,22.2888160000 114.1414030000,22.2888230000 114.1412830000,22.2888350000 114.1411630000,22.2888530000 114.1410450000,22.2888770000 114.1409610000,22.2889020000 114.1408800000,22.2889360000 114.1408030000,22.2889780000 114.1407310000,22.2890280000 114.1406660000,22.2890840000 114.1406080000,22.2891460000 114.1405650000,22.2892050000 114.1405280000,22.2892690000 114.1404990000,22.2893310000 114.1404750000,22.2893920000 114.1404580000,22.2894540000 114.1404480000,22.2895140000 114.1404430000,22.2895770000 114.1404430000,22.2896440000 114.1404490000,22.2897100000 114.1404610000,22.2897730000 114.1404780000,22.2898340000 114.1405030000,22.2898980000 114.1405360000,22.2899620000 114.1405750000,22.2900230000 114.1406370000,22.2901030000 114.1406880000,22.2901540000 114.1407440000,22.2902010000 114.1408050000,22.2902430000 114.1408760000,22.2902830000 114.1409480000,22.2903160000 114.1410200000,22.2903410000 114.1410970000,22.2903600000 114.1411730000,22.2903710000 114.1412540000,22.2903750000 114.1413400000,22.2903730000 114.1414220000,22.2903640000 114.1414930000,22.2903500000 114.1415690000,22.2903300000 114.1416550000,22.2902980000 114.1417490000,22.2902570000 114.1421090000,22.2900830000 114.1422010000,22.2900160000 114.1424570000,22.2898400000 114.1427260000,22.2896770000 114.1428510000,22.2896110000 114.1429780000,22.2895520000 114.1430950000,22.2895030000 114.1432150000,22.2894610000 114.1433370000,22.2894270000 114.1435660000,22.2893660000 114.1437070000,22.2893400000 114.1438090000,22.2893220000 114.1440550000,22.2892960000 114.1443030000,22.2892900000 114.1445500000,22.2893020000 114.1447950000,22.2893330000 114.1450370000,22.2893840000 114.1452730000,22.2894520000 114.1455020000,22.2895390000 114.1457230000,22.2896420000 114.1459340000,22.2897630000 114.1461330000,22.2898990000 114.1463680000,22.2901390000 114.1554730000,22.2999560000 114.1558600000,22.3003730000 114.1566150000,22.3012230000 114.1568940000,22.3015430000 114.1571420000,22.3018730000 114.1572490000,22.3020230000 114.1575930000,22.3024530000 114.1584030000,22.3034320000 114.1584690000,22.3035120000 114.1585150000,22.3035780000 114.1586210000,22.3037060000 114.1589420000,22.3041780000 114.1591530000,22.3044940000 114.1594820000,22.3050270000 114.1595880000,22.3051940000 114.1596600000,22.3053210000 114.1597240000,22.3054210000 114.1598150000,22.3055560000 114.1598920000,22.3056880000 114.1600100000,22.3058790000 114.1600740000,22.3059830000 114.1602070000,22.3062040000 114.1604750000,22.3067300000 114.1605520000,22.3068960000 114.1606170000,22.3070380000 114.1607670000,22.3073780000 114.1609030000,22.3077770000 114.1610160000,22.3080220000 114.1610810000,22.3081630000 114.1611240000,22.3082720000 114.1611510000,22.3083590000 114.1611690000,22.3084180000 114.1612440000,22.3086610000 114.1613700000,22.3093040000 114.1614650000,22.3098320000 114.1614950000,22.3100760000 114.1615180000,22.3103170000 114.1615390000,22.3107290000 114.1615440000,22.3108280000 114.1615570000,22.3111090000 114.1615500000,22.3115460000 114.1615310000,22.3120660000 114.1615120000,22.3123440000 114.1614680000,22.3127020000 114.1613990000,22.3130790000 114.1612700000,22.3136940000 114.1612220000,22.3138820000 114.1611790000,22.3140080000 114.1611490000,22.3140940000 114.1610750000,22.3143060000 114.1610470000,22.3143880000 114.1610120000,22.3144870000 114.1609700000,22.3146090000 114.1608720000,22.3148930000 114.1608170000,22.3150540000 114.1607220000,22.3152950000 114.1606600000,22.3154510000 114.1605320000,22.3157770000 114.1604310000,22.3160340000 114.1604020000,22.3161020000 114.1602320000,22.3165050000 114.1601490000,22.3167130000 114.1600170000,22.3170510000 114.1599140000,22.3172960000 114.1597820000,22.3176120000 114.1595720000,22.3181370000 114.1594170000,22.3185250000 114.1592550000,22.3188970000 114.1592030000,22.3190150000 114.1590080000,22.3194180000 114.1587420000,22.3199420000 114.1583530000,22.3206340000 114.1580280000,22.3211960000 114.1578120000,22.3215320000 114.1575490000,22.3219090000 114.1572310000,22.3223570000 114.1568960000,22.3228060000 114.1566210000,22.3231540000 114.1563410000,22.3235090000 114.1560360000,22.3238490000 114.1557920000,22.3241230000 114.1553950000,22.3245530000 114.1550540000,22.3249040000 114.1547300000,22.3252310000 114.1543620000,22.3255780000 114.1540020000,22.3258970000 114.1535900000,22.3262530000 114.1531170000,22.3266270000 114.1527770000,22.3268800000 114.1522560000,22.3272720000 114.1518220000,22.3275630000 114.1514760000,22.3277850000 114.1512290000,22.3279450000 114.1504710000,22.3283960000 114.1499850000,22.3286710000 114.1496200000,22.3288590000 114.1490590000,22.3291340000 114.1489510000,22.3291850000 114.1486060000,22.3293440000 114.1478890000,22.3296390000 114.1475170000,22.3297910000 114.1471780000,22.3299180000 114.1464480000,22.3302230000 114.1463850000,22.3302470000 114.1454820000,22.3305840000 114.1452560000,22.3306640000 114.1445070000,22.3309320000 114.1438590000,22.3311530000 114.1436130000,22.3312480000 114.1429310000,22.3315740000 114.1428530000,22.3316050000 114.1412890000,22.3322090000 114.1405410000,22.3324930000 114.1403740000,22.3325580000 114.1395880000,22.3328230000 114.1394970000,22.3328500000 114.1385640000,22.3332330000 114.1378030000,22.3335180000 114.1373210000,22.3337010000 114.1368860000,22.3338730000 114.1365640000,22.3340150000 114.1362710000,22.3341510000 114.1359690000,22.3343040000 114.1356310000,22.3344910000 114.1354440000,22.3346060000 114.1353440000,22.3346670000 114.1352220000,22.3347460000 114.1350140000,22.3348820000 114.1348000000,22.3350240000 114.1344480000,22.3352610000 114.1342910000,22.3353690000 114.1341900000,22.3354590000 114.1338720000,22.3357390000 114.1334860000,22.3361210000 114.1332200000,22.3364150000 114.1330340000,22.3366250000 114.1327260000,22.3370270000 114.1325120000,22.3373330000 114.1322740000,22.3377130000 114.1321960000,22.3378480000 114.1320510000,22.3380930000 114.1318960000,22.3383900000 114.1318580000,22.3384640000 114.1316890000,22.3387910000 114.1313190000,22.3395860000 114.1310380000,22.3402110000 114.1309620000,22.3403700000 114.1308660000,22.3405680000 114.1307020000,22.3409030000 114.1306300000,22.3410380000 114.1305920000,22.3411100000 114.1305250000,22.3412340000 114.1304660000,22.3413420000 114.1303470000,22.3415350000 114.1302580000,22.3416670000 114.1301950000,22.3417640000 114.1300900000,22.3418930000 114.1300170000,22.3419770000 114.1299130000,22.3420940000 114.1297960000,22.3422120000 114.1296700000,22.3423320000 114.1295520000,22.3424400000 114.1294840000,22.3425000000 114.1293200000,22.3426370000 114.1291160000,22.3427790000 114.1289430000,22.3428890000 114.1287970000,22.3429780000 114.1286030000,22.3430850000 114.1283130000,22.3432270000 114.1281970000,22.3432800000 114.1280870000,22.3433250000 114.1278230000,22.3434330000 114.1275370000,22.3435510000 114.1272190000,22.3436900000 114.1270920000,22.3437490000 114.1269950000,22.3437970000 114.1269170000,22.3438390000 114.1268020000,22.3439050000 114.1265700000,22.3440470000 114.1263600000,22.3441870000 114.1261980000,22.3443040000 114.1260630000,22.3444120000 114.1259430000,22.3445150000 114.1257850000,22.3446620000 114.1256620000,22.3447850000 114.1254920000,22.3449680000 114.1252790000,22.3452360000 114.1251700000,22.3453840000 114.1250580000,22.3455550000 114.1249770000,22.3456920000 114.1248460000,22.3459330000 114.1246780000,22.3462410000 114.1246340000,22.3464060000 114.1246200000,22.3464560000 114.1246030000,22.3465190000 114.1245820000,22.3465970000 114.1245630000,22.3466700000 114.1245300000,22.3467900000 114.1244960000,22.3469180000 114.1244670000,22.3470260000 114.1244530000,22.3470760000 114.1244430000,22.3471290000 114.1244350000,22.3471890000 114.1244300000,22.3472230000 114.1243930000,22.3475460000 114.1243650000,22.3479040000 114.1243660000,22.3480910000 114.1243750000,22.3483980000 114.1243700000,22.3487140000 114.1243510000,22.3491910000 114.1242990000,22.3496090000 114.1241960000,22.3499950000 114.1240680000,22.3503030000 114.1239290000,22.3506140000 114.1237360000,22.3509000000 114.1236170000,22.3510480000 114.1233060000,22.3513820000 114.1231200000,22.3515280000 114.1228140000,22.3517660000 114.1226790000,22.3518100000 114.1220650000,22.3520190000 114.1219870000,22.3520400000 114.1219230000,22.3520520000 114.1218010000,22.3520750000 114.1216210000,22.3520850000 114.1213080000,22.3520870000 114.1208510000,22.3520100000 114.1204700000,22.3518680000 114.1202110000,22.3517280000 114.1200700000,22.3516420000 114.1198640000,22.3514840000 114.1194000000,22.3510500000 114.1186930000,22.3504170000 114.1185030000,22.3502420000 114.1181730000,22.3499370000 114.1180210000,22.3498100000 114.1178600000,22.3497350000 114.1176420000,22.3495570000 114.1174680000,22.3494520000 114.1173320000,22.3493750000 114.1171870000,22.3493040000 114.1170050000,22.3492400000 114.1168280000,22.3491740000 114.1166770000,22.3491260000 114.1165100000,22.3490740000 114.1136600000,22.3483270000 114.1121360000,22.3479460000 114.1119830000,22.3478760000 114.1116370000,22.3477480000 114.1115260000,22.3477000000 114.1113880000,22.3476290000 114.1112440000,22.3475460000 114.1111760000,22.3475050000 114.1110340000,22.3473870000 114.1109500000,22.3473220000 114.1108550000,22.3472520000 114.1107870000,22.3471940000 114.1107320000,22.3471240000 114.1106930000,22.3470460000 114.1106710000,22.3469630000 114.1106670000,22.3468770000 114.1106780000,22.3467920000 114.1106860000,22.3467350000 114.1106830000,22.3466880000 114.1106610000,22.3466290000 114.1106220000,22.3465790000 114.1105690000,22.3465400000 114.1105090000,22.3465180000 114.1104450000,22.3465110000 114.1103760000,22.3465220000 114.1103130000,22.3465510000 114.1102620000,22.3465950000 114.1102200000,22.3466720000 114.1102130000,22.3467580000 114.1102420000,22.3468390000 114.1102400000,22.3469640000 114.1102690000,22.3471590000 114.1102840000,22.3473130000 114.1102930000,22.3474240000 114.1102850000,22.3475130000 114.1102560000,22.3475550000 114.1102380000,22.3476010000 114.1102310000,22.3476500000 114.1102360000,22.3476990000 114.1102520000,22.3477450000 114.1102780000,22.3477880000 114.1102970000,22.3479180000 114.1102790000,22.3480170000 114.1102590000,22.3481850000 114.1102540000,22.3482050000 114.1102410000,22.3483020000 114.1101990000,22.3484160000 114.1101370000,22.3485890000 114.1100640000,22.3487060000 114.1099770000,22.3488360000 114.1097960000,22.3490700000 114.1091000000,22.3499420000 114.1090770000,22.3499700000 114.1090510000,22.3500040000 114.1089390000,22.3500980000 114.1088370000,22.3502220000 114.1087750000,22.3502960000 114.1086870000,22.3504050000 114.1085630000,22.3505650000 114.1085440000,22.3505900000 114.1083550000,22.3508510000 114.1083020000,22.3509250000 114.1082150000,22.3510230000 114.1081640000,22.3510820000 114.1080310000,22.3512400000 114.1079780000,22.3513020000 114.1076130000,22.3517290000 114.1075780000,22.3517700000 114.1074890000,22.3518850000 114.1074560000,22.3519280000 114.1073470000,22.3520590000 114.1072350000,22.3521910000 114.1071330000,22.3522830000 114.1070510000,22.3523670000 114.1069660000,22.3523880000 114.1068870000,22.3524220000 114.1068160000,22.3524700000 114.1067380000,22.3525490000 114.1066820000,22.3526430000 114.1066530000,22.3527470000 114.1066520000,22.3528550000 114.1066780000,22.3529590000 114.1067240000,22.3530470000 114.1067900000,22.3531220000 114.1068410000,22.3532140000 114.1068950000,22.3533000000 114.1069180000,22.3533950000 114.1069330000,22.3534970000 114.1069320000,22.3535900000 114.1069260000,22.3536670000 114.1069180000,22.3537510000 114.1069150000,22.3538300000 114.1069080000,22.3540680000 114.1069010000,22.3542920000 114.1068980000,22.3543680000 114.1068720000,22.3547160000 114.1068110000,22.3547160000 114.1065540000,22.3546890000 114.1063530000,22.3546590000 114.1062030000,22.3545690000 114.1061230000,22.3544640000 114.1061010000,22.3543900000 114.1060940000,22.3543320000 114.1060890000,22.3538630000 114.1060770000,22.3537680000 114.1060540000,22.3536770000 114.1060260000,22.3535980000 114.1059900000,22.3535220000 114.1059460000,22.3534530000 114.1058930000,22.3533850000 114.1058210000,22.3533160000 114.1057590000,22.3532640000 114.1056830000,22.3532160000 114.1056030000,22.3531720000 114.1055280000,22.3531450000 114.1054520000,22.3531250000 114.1053690000,22.3531090000 114.1052910000,22.3531010000 114.1051560000,22.3530920000 114.1050520000,22.3530860000 114.1049920000,22.3530820000 114.1049090000,22.3530770000 114.1048140000,22.3530730000 114.1047330000,22.3530730000 114.1046560000,22.3530780000 114.1045810000,22.3530910000 114.1045040000,22.3531130000 114.1044330000,22.3531410000 114.1043630000,22.3531750000 114.1043000000,22.3532130000 114.1042230000,22.3532690000 114.1041610000,22.3533250000 114.1040850000,22.3534060000 114.1039990000,22.3535250000 114.1039460000,22.3536710000 114.1039260000,22.3537840000 114.1039180000,22.3538460000 114.1039090000,22.3540540000 114.1039070000,22.3541100000 114.1039000000,22.3542830000 114.1038980000,22.3543320000 114.1038940000,22.3544720000 114.1038870000,22.3547170000 114.1038850000,22.3547680000 114.1038780000,22.3549020000 114.1038410000,22.3549120000 114.1038090000,22.3549320000 114.1037860000,22.3549600000 114.1037720000,22.3549930000 114.1037710000,22.3550290000 114.1033340000,22.3550970000 114.1030720000,22.3551380000 114.1029450000,22.3551580000 114.1025340000,22.3552130000 114.1024410000,22.3552110000 114.1023180000,22.3552060000 114.1022270000,22.3552040000 114.1022060000,22.3553610000 114.1021790000,22.3555540000 114.1021460000,22.3557970000 114.1021250000,22.3559520000 114.1020170000,22.3563490000 114.1019090000,22.3567460000 114.1017860000,22.3571230000 114.1017530000,22.3572240000 114.1017290000,22.3572970000 114.1016600000,22.3574660000 114.1015810000,22.3575930000 114.1015300000,22.3576560000 114.1014570000,22.3577290000 114.1015110000,22.3578080000 114.1015520000,22.3578870000 114.1016170000,22.3580820000 114.1016240000,22.3581200000 114.1016430000,22.3582140000 114.1016670000,22.3583110000 114.1017040000,22.3584130000 114.1017430000,22.3584980000 114.1017850000,22.3585790000 114.1018320000,22.3586540000 114.1018880000,22.3587330000 114.1019410000,22.3587980000 114.1021410000,22.3590220000 114.1022720000,22.3591830000 114.1023150000,22.3592420000 114.1023430000,22.3592870000 114.1023640000,22.3593460000 114.1023720000,22.3593910000 114.1023760000,22.3594950000 114.1023420000,22.3595650000 114.1023110000,22.3596350000 114.1023050000,22.3597050000 114.1023170000,22.3597980000 114.1023700000,22.3599290000 114.1024280000,22.3600010000 114.1025030000,22.3600650000 114.1026000000,22.3601010000 114.1027270000,22.3601280000 114.1028540000,22.3601340000 114.1029390000,22.3601230000 114.1029970000,22.3601040000 114.1030500000,22.3600900000 114.1031470000,22.3601460000 114.1032190000,22.3602050000 114.1032760000,22.3602660000 114.1033520000,22.3603980000 114.1033760000,22.3604480000 114.1034170000,22.3605300000 114.1034540000,22.3605930000 114.1034850000,22.3606410000 114.1036200000,22.3608220000 114.1037260000,22.3609590000 114.1037710000,22.3610170000 114.1038670000,22.3610940000 114.1039700000,22.3611590000 114.1039580000,22.3611780000 114.1039280000,22.3612270000 114.1037340000,22.3615510000 114.1036840000,22.3616100000 114.1033490000,22.3616120000 114.1033090000,22.3616130000 114.1032770000,22.3615670000 114.1029760000,22.3615670000</coordinates>
                </LineString>
                <ExtendedData>
                    <Data name="length">
                        <value>50879.34968015892</value>
                    </Data>
                    <Data name="duration">
                        <value>01:00:34</value>
                    </Data>
                </ExtendedData>
            </Placemark>
        </Document>
    </Document>
</kml>