<?xml version="1.0" encoding="UTF-8"?>
<kml xmlns="http://www.opengis.net/kml/2.2" xmlns:gx="http://www.google.com/kml/ext/2.2">
    <Document>
        <name>Route</name>
        <Folder>
            <name>Route Request</name>
            <Placemark>
                <address>The University of Chicago Francis and Rose Yuen Campus, 168, Victoria Road, Mount Davis, Central and Western District, Hong Kong Island, Hong Kong, China</address>
                <Point>
                    <coordinates>114.1173957070,22.2749255020</coordinates>
                </Point>
                <ExtendedData>
                    <Data name="country">
                        <value>China</value>
                    </Data>
                    <Data name="suburb">
                        <value>Mount Davis</value>
                    </Data>
                    <Data name="city_district">
                        <value>Central and Western District</value>
                    </Data>
                    <Data name="amenity">
                        <value>The University of Chicago Francis and Rose Yuen Campus</value>
                    </Data>
                    <Data name="city">
                        <value>Hong Kong Island</value>
                    </Data>
                    <Data name="ISO3166-2-lvl3">
                        <value>CN-HK</value>
                    </Data>
                    <Data name="house_number">
                        <value>168</value>
                    </Data>
                    <Data name="road">
                        <value>Victoria Road</value>
                    </Data>
                    <Data name="country_code">
                        <value>cn</value>
                    </Data>
                    <Data name="state">
                        <value>Hong Kong</value>
                    </Data>
                </ExtendedData>
            </Placemark>
            <Placemark>
                <address>Pascucci, Des Voeux Road West, Shek Tong Tsui, Central and Western District, Hong Kong Island, Hong Kong, China</address>
                <Point>
                    <coordinates>114.1362839180,22.2868636522</coordinates>
                </Point>
                <ExtendedData>
                    <Data name="country">
                        <value>China</value>
                    </Data>
                    <Data name="suburb">
                        <value>Shek Tong Tsui</value>
                    </Data>
                    <Data name="city_district">
                        <value>Central and Western District</value>
                    </Data>
                    <Data name="amenity">
                        <value>Pascucci</value>
                    </Data>
                    <Data name="city">
                        <value>Hong Kong Island</value>
                    </Data>
                    <Data name="ISO3166-2-lvl3">
                        <value>CN-HK</value>
                    </Data>
                    <Data name="road">
                        <value>Des Voeux Road West</value>
                    </Data>
                    <Data name="country_code">
                        <value>cn</value>
                    </Data>
                    <Data name="state">
                        <value>Hong Kong</value>
                    </Data>
                </ExtendedData>
            </Placemark>
            <Placemark>
                <address>Sing Kui Commercial Building, 27, Des Voeux Road West, Tai Ping Shan, Sheung Wan, Central and Western District, Hong Kong Island, Hong Kong, China</address>
                <Point>
                    <coordinates>114.1466181419,22.2878206242</coordinates>
                </Point>
                <ExtendedData>
                    <Data name="building">
                        <value>Sing Kui Commercial Building</value>
                    </Data>
                    <Data name="country">
                        <value>China</value>
                    </Data>
                    <Data name="suburb">
                        <value>Sheung Wan</value>
                    </Data>
                    <Data name="city_district">
                        <value>Central and Western District</value>
                    </Data>
                    <Data name="city">
                        <value>Hong Kong Island</value>
                    </Data>
                    <Data name="ISO3166-2-lvl3">
                        <value>CN-HK</value>
                    </Data>
                    <Data name="house_number">
                        <value>27</value>
                    </Data>
                    <Data name="road">
                        <value>Des Voeux Road West</value>
                    </Data>
                    <Data name="neighbourhood">
                        <value>Tai Ping Shan</value>
                    </Data>
                    <Data name="country_code">
                        <value>cn</value>
                    </Data>
                    <Data name="state">
                        <value>Hong Kong</value>
                    </Data>
                </ExtendedData>
            </Placemark>
            <Placemark>
                <address>Queen Elizabeth Stadium, 18, Oi Kwan Road, Morrison Hill, Wan Chai, Wan Chai District, Hong Kong Island, Hong Kong, 000000, China</address>
                <Point>
                    <coordinates>114.1789451017,22.2750049018</coordinates>
                </Point>
                <ExtendedData>
                    <Data name="country">
                        <value>China</value>
                    </Data>
                    <Data name="suburb">
                        <value>Wan Chai</value>
                    </Data>
                    <Data name="city_district">
                        <value>Wan Chai District</value>
                    </Data>
                    <Data name="postcode">
                        <value>000000</value>
                    </Data>
                    <Data name="amenity">
                        <value>Queen Elizabeth Stadium</value>
                    </Data>
                    <Data name="city">
                        <value>Hong Kong Island</value>
                    </Data>
                    <Data name="ISO3166-2-lvl3">
                        <value>CN-HK</value>
                    </Data>
                    <Data name="house_number">
                        <value>18</value>
                    </Data>
                    <Data name="road">
                        <value>Oi Kwan Road</value>
                    </Data>
                    <Data name="country_code">
                        <value>cn</value>
                    </Data>
                    <Data name="quarter">
                        <value>Morrison Hill</value>
                    </Data>
                    <Data name="state">
                        <value>Hong Kong</value>
                    </Data>
                </ExtendedData>
            </Placemark>
            <Placemark>
                <address>Hong Kong Stadium, 55, Eastern Hospital Road, So Kon Po, Tai Hang, Wan Chai District, Hong Kong Island, Hong Kong, 000000, China</address>
                <Point>
                    <coordinates>114.1898507297,22.2739461137</coordinates>
                </Point>
                <ExtendedData>
                    <Data name="country">
                        <value>China</value>
                    </Data>
                    <Data name="leisure">
                        <value>Hong Kong Stadium</value>
                    </Data>
                    <Data name="suburb">
                        <value>Tai Hang</value>
                    </Data>
                    <Data name="city_district">
                        <value>Wan Chai District</value>
                    </Data>
                    <Data name="postcode">
                        <value>000000</value>
                    </Data>
                    <Data name="city">
                        <value>Hong Kong Island</value>
                    </Data>
                    <Data name="ISO3166-2-lvl3">
                        <value>CN-HK</value>
                    </Data>
                    <Data name="house_number">
                        <value>55</value>
                    </Data>
                    <Data name="road">
                        <value>Eastern Hospital Road</value>
                    </Data>
                    <Data name="country_code">
                        <value>cn</value>
                    </Data>
                    <Data name="quarter">
                        <value>So Kon Po</value>
                    </Data>
                    <Data name="state">
                        <value>Hong Kong</value>
                    </Data>
                </ExtendedData>
            </Placemark>
            <Placemark>
                <address>Khalsa Diwan Sikh Temple, 371, Queen's Road East, Morrison Hill, Wan Chai, Wan Chai District, Hong Kong Island, Hong Kong, 000000, China</address>
                <Point>
                    <coordinates>114.1780003377,22.2748682811</coordinates>
                </Point>
                <ExtendedData>
                    <Data name="country">
                        <value>China</value>
                    </Data>
                    <Data name="suburb">
                        <value>Wan Chai</value>
                    </Data>
                    <Data name="city_district">
                        <value>Wan Chai District</value>
                    </Data>
                    <Data name="postcode">
                        <value>000000</value>
                    </Data>
                    <Data name="amenity">
                        <value>Khalsa Diwan Sikh Temple</value>
                    </Data>
                    <Data name="city">
                        <value>Hong Kong Island</value>
                    </Data>
                    <Data name="ISO3166-2-lvl3">
                        <value>CN-HK</value>
                    </Data>
                    <Data name="house_number">
                        <value>371</value>
                    </Data>
                    <Data name="road">
                        <value>Queen's Road East</value>
                    </Data>
                    <Data name="country_code">
                        <value>cn</value>
                    </Data>
                    <Data name="quarter">
                        <value>Morrison Hill</value>
                    </Data>
                    <Data name="state">
                        <value>Hong Kong</value>
                    </Data>
                </ExtendedData>
            </Placemark>
            <Placemark>
                <address>The University of Chicago Francis and Rose Yuen Campus, 168, Victoria Road, Mount Davis, Central and Western District, Hong Kong Island, Hong Kong, China</address>
                <Point>
                    <coordinates>114.1174252336,22.2748981837</coordinates>
                </Point>
                <ExtendedData>
                    <Data name="country">
                        <value>China</value>
                    </Data>
                    <Data name="suburb">
                        <value>Mount Davis</value>
                    </Data>
                    <Data name="city_district">
                        <value>Central and Western District</value>
                    </Data>
                    <Data name="amenity">
                        <value>The University of Chicago Francis and Rose Yuen Campus</value>
                    </Data>
                    <Data name="city">
                        <value>Hong Kong Island</value>
                    </Data>
                    <Data name="ISO3166-2-lvl3">
                        <value>CN-HK</value>
                    </Data>
                    <Data name="house_number">
                        <value>168</value>
                    </Data>
                    <Data name="road">
                        <value>Victoria Road</value>
                    </Data>
                    <Data name="country_code">
                        <value>cn</value>
                    </Data>
                    <Data name="state">
                        <value>Hong Kong</value>
                    </Data>
                </ExtendedData>
            </Placemark>
        </Folder>
        <Document>
            <name>18.8 km; 00:26 h (OSRM)</name>
            <Placemark>
                <name>Route</name>
                <LineString>
                    <coordinates>114.1176160000,22.2749920000 114.1177590000,22.2750760000 114.1177850000,22.2750910000 114.1176880000,22.2752370000 114.1176230000,22.2753340000 114.1175960000,22.2753810000 114.1175700000,22.2754400000 114.1175490000,22.2755020000 114.1175370000,22.2755550000 114.1175350000,22.2755690000 114.1175200000,22.2756720000 114.1174770000,22.2760910000 114.1174700000,22.2761320000 114.1174560000,22.2761760000 114.1174360000,22.2762260000 114.1172720000,22.2765510000 114.1172360000,22.2766290000 114.1172040000,22.2767130000 114.1171810000,22.2767870000 114.1171640000,22.2768670000 114.1171520000,22.2769510000 114.1171470000,22.2770360000 114.1171490000,22.2771190000 114.1171630000,22.2771890000 114.1171890000,22.2772760000 114.1172130000,22.2773370000 114.1172480000,22.2774010000 114.1172880000,22.2774640000 114.1175070000,22.2777890000 114.1175370000,22.2778360000 114.1175660000,22.2778900000 114.1175870000,22.2779400000 114.1176040000,22.2779940000 114.1176180000,22.2780500000 114.1176520000,22.2782720000 114.1176670000,22.2783450000 114.1178570000,22.2790470000 114.1179630000,22.2794000000 114.1180130000,22.2795750000 114.1180820000,22.2797360000 114.1181390000,22.2798290000 114.1182280000,22.2799410000 114.1182860000,22.2799980000 114.1183660000,22.2800680000 114.1189700000,22.2805490000 114.1190260000,22.2805890000 114.1191030000,22.2806370000 114.1195070000,22.2808490000 114.1195860000,22.2808850000 114.1196750000,22.2809180000 114.1197580000,22.2809420000 114.1198730000,22.2809570000 114.1198870000,22.2809570000 114.1199480000,22.2809530000 114.1200380000,22.2809400000 114.1200770000,22.2809340000 114.1201870000,22.2809220000 114.1202550000,22.2809170000 114.1202970000,22.2809170000 114.1204300000,22.2809290000 114.1205000000,22.2809440000 114.1205690000,22.2809660000 114.1206520000,22.2810030000 114.1208030000,22.2810790000 114.1211150000,22.2812430000 114.1212310000,22.2812930000 114.1212530000,22.2813020000 114.1213780000,22.2813460000 114.1216200000,22.2814180000 114.1216300000,22.2814200000 114.1219360000,22.2815020000 114.1222630000,22.2815660000 114.1225410000,22.2816350000 114.1226650000,22.2816680000 114.1227510000,22.2816920000 114.1228780000,22.2817260000 114.1230010000,22.2817590000 114.1231190000,22.2817850000 114.1232330000,22.2818120000 114.1233260000,22.2818340000 114.1235150000,22.2818670000 114.1244040000,22.2820220000 114.1246630000,22.2820690000 114.1247550000,22.2820850000 114.1252720000,22.2821650000 114.1254140000,22.2821880000 114.1256030000,22.2822180000 114.1259310000,22.2822710000 114.1260040000,22.2823340000 114.1260410000,22.2823870000 114.1260500000,22.2824220000 114.1260450000,22.2824670000 114.1259710000,22.2828030000 114.1259470000,22.2829080000 114.1260270000,22.2829220000 114.1265380000,22.2830030000 114.1266020000,22.2830130000 114.1267550000,22.2830360000 114.1268320000,22.2830490000 114.1279520000,22.2832420000 114.1279580000,22.2832430000 114.1280680000,22.2832620000 114.1281490000,22.2832780000 114.1284930000,22.2833390000 114.1286180000,22.2833820000 114.1288500000,22.2834200000 114.1289490000,22.2834280000 114.1290450000,22.2834400000 114.1291620000,22.2834640000 114.1292650000,22.2835000000 114.1293420000,22.2835420000 114.1295180000,22.2836820000 114.1296200000,22.2837730000 114.1296780000,22.2838420000 114.1298770000,22.2840020000 114.1301390000,22.2842060000 114.1302700000,22.2843090000 114.1305640000,22.2845420000 114.1306840000,22.2846360000 114.1309380000,22.2848510000 114.1313160000,22.2851690000 114.1313840000,22.2852390000 114.1314380000,22.2853000000 114.1315330000,22.2853990000 114.1316110000,22.2854880000 114.1316670000,22.2855770000 114.1318710000,22.2859360000 114.1322340000,22.2866270000 114.1322960000,22.2867370000 114.1323670000,22.2868660000 114.1324240000,22.2869650000 114.1324770000,22.2870480000 114.1325300000,22.2871190000 114.1325890000,22.2871820000 114.1326490000,22.2872340000 114.1327140000,22.2872790000 114.1327860000,22.2873190000 114.1328580000,22.2873490000 114.1329470000,22.2873760000 114.1330370000,22.2873910000 114.1331150000,22.2873960000 114.1331820000,22.2873980000 114.1332480000,22.2873930000 114.1333270000,22.2873830000 114.1336790000,22.2873160000 114.1337030000,22.2873120000 114.1337840000,22.2872940000 114.1338000000,22.2872910000 114.1338780000,22.2872750000 114.1345940000,22.2871300000 114.1347110000,22.2871030000 114.1347410000,22.2870950000 114.1349660000,22.2870170000 114.1349890000,22.2870090000 114.1350970000,22.2869690000 114.1353030000,22.2869060000 114.1354480000,22.2868700000 114.1355090000,22.2868550000 114.1357450000,22.2868100000 114.1357790000,22.2868020000 114.1359970000,22.2867550000 114.1360770000,22.2867370000 114.1361140000,22.2867360000 114.1361580000,22.2867440000 114.1363100000,22.2867900000 114.1364240000,22.2868240000 114.1365090000,22.2868490000 114.1365380000,22.2868580000 114.1365510000,22.2868620000 114.1367810000,22.2869260000 114.1369960000,22.2869850000 114.1374180000,22.2871050000 114.1375140000,22.2871310000 114.1376110000,22.2871570000 114.1382790000,22.2873430000 114.1384740000,22.2873970000 114.1386770000,22.2874510000 114.1386980000,22.2874560000 114.1388050000,22.2874850000 114.1389140000,22.2875110000 114.1389410000,22.2875180000 114.1390400000,22.2875420000 114.1393260000,22.2876120000 114.1394070000,22.2876330000 114.1394490000,22.2876430000 114.1400520000,22.2878080000 114.1402960000,22.2878840000 114.1404120000,22.2879170000 114.1405540000,22.2879550000 114.1405850000,22.2879630000 114.1406440000,22.2879780000 114.1407040000,22.2879890000 114.1407350000,22.2879940000 114.1407810000,22.2880000000 114.1408280000,22.2880040000 114.1409090000,22.2880040000 114.1412500000,22.2879930000 114.1418750000,22.2879730000 114.1422510000,22.2879610000 114.1423360000,22.2879590000 114.1430030000,22.2879370000 114.1436650000,22.2879170000 114.1436840000,22.2879160000 114.1437740000,22.2879130000 114.1438640000,22.2879100000 114.1447620000,22.2878820000 114.1448540000,22.2878790000 114.1453350000,22.2878580000 114.1458390000,22.2878190000 114.1459200000,22.2878120000 114.1466000000,22.2877530000 114.1466110000,22.2877520000 114.1470370000,22.2877160000 114.1470760000,22.2877130000 114.1471310000,22.2877090000 114.1471510000,22.2877080000 114.1472420000,22.2877020000 114.1472720000,22.2877040000 114.1473050000,22.2877140000 114.1473420000,22.2877360000 114.1478030000,22.2880740000 114.1478900000,22.2881380000 114.1479530000,22.2881840000 114.1479960000,22.2882180000 114.1480730000,22.2883040000 114.1480890000,22.2883430000 114.1481370000,22.2884650000 114.1483350000,22.2884430000 114.1485520000,22.2884030000 114.1488350000,22.2883360000 114.1494260000,22.2881900000 114.1495090000,22.2881700000 114.1500860000,22.2880280000 114.1503900000,22.2879490000 114.1505430000,22.2879040000 114.1512830000,22.2876770000 114.1515710000,22.2875940000 114.1516850000,22.2875580000 114.1519040000,22.2874890000 114.1519860000,22.2874630000 114.1522920000,22.2873700000 114.1523810000,22.2873410000 114.1525100000,22.2873010000 114.1527610000,22.2872270000 114.1532200000,22.2870900000 114.1533330000,22.2870650000 114.1534050000,22.2870010000 114.1534330000,22.2869540000 114.1534450000,22.2868460000 114.1534140000,22.2867260000 114.1534100000,22.2867100000 114.1533970000,22.2866670000 114.1533460000,22.2864880000 114.1533370000,22.2864570000 114.1533300000,22.2864320000 114.1533190000,22.2863950000 114.1533070000,22.2863470000 114.1532980000,22.2862950000 114.1533470000,22.2862720000 114.1533950000,22.2862460000 114.1536090000,22.2861220000 114.1538310000,22.2859930000 114.1540740000,22.2858520000 114.1547170000,22.2854780000 114.1548210000,22.2854180000 114.1551100000,22.2852490000 114.1552520000,22.2851670000 114.1553130000,22.2851290000 114.1553650000,22.2850890000 114.1554490000,22.2850040000 114.1557010000,22.2846970000 114.1557210000,22.2846710000 114.1557800000,22.2846000000 114.1558320000,22.2845360000 114.1558520000,22.2845130000 114.1558890000,22.2844680000 114.1559300000,22.2844190000 114.1559920000,22.2843430000 114.1560220000,22.2843060000 114.1560450000,22.2842770000 114.1561130000,22.2841940000 114.1561510000,22.2841470000 114.1562840000,22.2839810000 114.1564810000,22.2837360000 114.1565030000,22.2837100000 114.1565300000,22.2836750000 114.1565550000,22.2836430000 114.1565820000,22.2836080000 114.1567600000,22.2833830000 114.1568590000,22.2832570000 114.1570290000,22.2830420000 114.1571430000,22.2828960000 114.1574510000,22.2825030000 114.1574890000,22.2824530000 114.1575660000,22.2823580000 114.1576590000,22.2822430000 114.1576780000,22.2822190000 114.1576940000,22.2822000000 114.1578280000,22.2820330000 114.1579440000,22.2819950000 114.1580810000,22.2819560000 114.1581520000,22.2819350000 114.1583830000,22.2818690000 114.1584100000,22.2818610000 114.1584940000,22.2818370000 114.1585230000,22.2818290000 114.1585450000,22.2818220000 114.1586800000,22.2817840000 114.1588020000,22.2817490000 114.1588690000,22.2817320000 114.1588900000,22.2817260000 114.1589800000,22.2817010000 114.1590740000,22.2816910000 114.1591530000,22.2816700000 114.1595070000,22.2815690000 114.1595440000,22.2815590000 114.1595940000,22.2815460000 114.1596490000,22.2815310000 114.1597490000,22.2815060000 114.1598080000,22.2815050000 114.1599740000,22.2814610000 114.1601270000,22.2814200000 114.1602600000,22.2813880000 114.1602980000,22.2813790000 114.1603590000,22.2813630000 114.1604530000,22.2813530000 114.1605890000,22.2813180000 114.1606310000,22.2813040000 114.1606770000,22.2812900000 114.1607050000,22.2812830000 114.1607420000,22.2812730000 114.1607960000,22.2812350000 114.1608520000,22.2812180000 114.1609520000,22.2811900000 114.1610490000,22.2811630000 114.1612430000,22.2811110000 114.1613660000,22.2810790000 114.1615170000,22.2810390000 114.1619060000,22.2809410000 114.1619460000,22.2809280000 114.1620010000,22.2808790000 114.1620420000,22.2807810000 114.1619590000,22.2806210000 114.1617930000,22.2800600000 114.1617640000,22.2799740000 114.1617610000,22.2799440000 114.1617670000,22.2798980000 114.1618210000,22.2798220000 114.1619180000,22.2797670000 114.1622910000,22.2796350000 114.1625660000,22.2795200000 114.1627940000,22.2794240000 114.1630800000,22.2792270000 114.1632720000,22.2790910000 114.1634860000,22.2789320000 114.1636320000,22.2788350000 114.1637480000,22.2787750000 114.1637880000,22.2787560000 114.1639140000,22.2786900000 114.1640790000,22.2786140000 114.1641980000,22.2785630000 114.1643650000,22.2784940000 114.1644550000,22.2784640000 114.1646060000,22.2784170000 114.1647480000,22.2783810000 114.1650100000,22.2783170000 114.1650660000,22.2783010000 114.1651810000,22.2782750000 114.1654420000,22.2782290000 114.1656290000,22.2782060000 114.1659150000,22.2781710000 114.1661510000,22.2781340000 114.1663180000,22.2781070000 114.1669630000,22.2780500000 114.1671340000,22.2780250000 114.1672900000,22.2779990000 114.1673230000,22.2779720000 114.1673730000,22.2779330000 114.1673980000,22.2779050000 114.1674650000,22.2778220000 114.1676070000,22.2777350000 114.1676380000,22.2777150000 114.1680270000,22.2774750000 114.1680410000,22.2774670000 114.1681050000,22.2774330000 114.1683290000,22.2772810000 114.1684790000,22.2771850000 114.1685820000,22.2771190000 114.1687350000,22.2770170000 114.1689060000,22.2769030000 114.1690390000,22.2768190000 114.1693520000,22.2766090000 114.1696130000,22.2764320000 114.1697480000,22.2763480000 114.1701250000,22.2760990000 114.1701900000,22.2760530000 114.1702410000,22.2760140000 114.1702840000,22.2759830000 114.1706320000,22.2757140000 114.1708500000,22.2755910000 114.1708620000,22.2755840000 114.1708970000,22.2755640000 114.1709480000,22.2755350000 114.1710690000,22.2754660000 114.1714090000,22.2752500000 114.1714240000,22.2752420000 114.1716660000,22.2751110000 114.1719840000,22.2749330000 114.1721910000,22.2748170000 114.1722380000,22.2747900000 114.1723140000,22.2747480000 114.1723550000,22.2747320000 114.1726110000,22.2746320000 114.1730880000,22.2745080000 114.1732120000,22.2744750000 114.1733120000,22.2744550000 114.1733950000,22.2744440000 114.1737370000,22.2744160000 114.1738470000,22.2744110000 114.1739120000,22.2744100000 114.1739610000,22.2744110000 114.1740020000,22.2744110000 114.1740350000,22.2744110000 114.1741330000,22.2744120000 114.1745510000,22.2744150000 114.1745890000,22.2744150000 114.1749890000,22.2744240000 114.1751480000,22.2744280000 114.1752540000,22.2744870000 114.1753310000,22.2745500000 114.1753510000,22.2745720000 114.1753820000,22.2746050000 114.1754450000,22.2746660000 114.1755620000,22.2747440000 114.1757010000,22.2748120000 114.1758250000,22.2748630000 114.1759530000,22.2748970000 114.1762470000,22.2749600000 114.1763650000,22.2749870000 114.1765830000,22.2750380000 114.1768430000,22.2750990000 114.1768670000,22.2751040000 114.1770440000,22.2751420000 114.1772340000,22.2751840000 114.1773340000,22.2752020000 114.1774210000,22.2752060000 114.1775700000,22.2751930000 114.1776950000,22.2751730000 114.1778280000,22.2751370000 114.1779130000,22.2751100000 114.1779800000,22.2750920000 114.1780690000,22.2750800000 114.1783460000,22.2749830000 114.1784960000,22.2749430000 114.1788880000,22.2748330000 114.1789400000,22.2748180000 114.1791040000,22.2748330000 114.1791690000,22.2748530000 114.1793600000,22.2749280000 114.1794570000,22.2750030000 114.1795640000,22.2750380000 114.1796010000,22.2751050000 114.1796630000,22.2751680000 114.1799410000,22.2754570000 114.1800190000,22.2755580000 114.1800890000,22.2756730000 114.1801690000,22.2758050000 114.1802480000,22.2759630000 114.1803700000,22.2760170000 114.1804550000,22.2761220000 114.1804780000,22.2761490000 114.1805430000,22.2762320000 114.1805640000,22.2762580000 114.1806200000,22.2763350000 114.1806410000,22.2763650000 114.1806750000,22.2764120000 114.1807630000,22.2765030000 114.1809650000,22.2766080000 114.1812140000,22.2766900000 114.1813260000,22.2767270000 114.1818460000,22.2769280000 114.1819350000,22.2769180000 114.1819820000,22.2769380000 114.1820400000,22.2769620000 114.1820610000,22.2770140000 114.1820960000,22.2770280000 114.1821390000,22.2770440000 114.1821890000,22.2770280000 114.1822050000,22.2770340000 114.1823440000,22.2770920000 114.1824620000,22.2771370000 114.1825260000,22.2771590000 114.1825700000,22.2771750000 114.1827770000,22.2772990000 114.1828620000,22.2773500000 114.1829150000,22.2773850000 114.1834620000,22.2777450000 114.1835170000,22.2777570000 114.1836000000,22.2777800000 114.1836580000,22.2777930000 114.1837810000,22.2778120000 114.1838540000,22.2778270000 114.1839370000,22.2778470000 114.1839970000,22.2778680000 114.1841110000,22.2779090000 114.1841490000,22.2779230000 114.1845060000,22.2780460000 114.1849000000,22.2781800000 114.1851960000,22.2774930000 114.1852570000,22.2773510000 114.1852910000,22.2772740000 114.1853100000,22.2772290000 114.1853500000,22.2771380000 114.1853350000,22.2770340000 114.1853320000,22.2770100000 114.1853180000,22.2769040000 114.1853100000,22.2767890000 114.1853710000,22.2765370000 114.1853950000,22.2764570000 114.1854060000,22.2763830000 114.1854110000,22.2762430000 114.1854810000,22.2762310000 114.1855070000,22.2762200000 114.1855520000,22.2761870000 114.1856080000,22.2761190000 114.1856200000,22.2761050000 114.1859060000,22.2757880000 114.1861350000,22.2755610000 114.1862000000,22.2755020000 114.1868620000,22.2749060000 114.1870340000,22.2747710000 114.1871580000,22.2747110000 114.1873630000,22.2746500000 114.1875030000,22.2746400000 114.1876030000,22.2746460000 114.1877040000,22.2746530000 114.1878690000,22.2746940000 114.1879020000,22.2746180000 114.1879140000,22.2745920000 114.1879600000,22.2745150000 114.1880340000,22.2744280000 114.1880920000,22.2743690000 114.1881590000,22.2743090000 114.1882520000,22.2742540000 114.1883500000,22.2742020000 114.1884440000,22.2741690000 114.1885160000,22.2741530000 114.1885830000,22.2741450000 114.1886630000,22.2741460000 114.1887700000,22.2741550000 114.1888830000,22.2741740000 114.1890020000,22.2742200000 114.1891020000,22.2742710000 114.1894820000,22.2745340000 114.1895690000,22.2744280000 114.1897600000,22.2741840000 114.1898090000,22.2741170000 114.1898090000,22.2741170000 114.1897600000,22.2741840000 114.1895690000,22.2744280000 114.1894820000,22.2745340000 114.1891020000,22.2742710000 114.1890020000,22.2742200000 114.1888830000,22.2741740000 114.1887700000,22.2741550000 114.1886630000,22.2741460000 114.1885830000,22.2741450000 114.1885160000,22.2741530000 114.1884440000,22.2741690000 114.1883500000,22.2742020000 114.1882520000,22.2742540000 114.1881590000,22.2743090000 114.1880920000,22.2743690000 114.1880340000,22.2744280000 114.1879600000,22.2745150000 114.1879140000,22.2745920000 114.1879020000,22.2746180000 114.1878690000,22.2746940000 114.1877040000,22.2746530000 114.1876030000,22.2746460000 114.1875030000,22.2746400000 114.1873630000,22.2746500000 114.1871580000,22.2747110000 114.1870340000,22.2747710000 114.1868620000,22.2749060000 114.1862000000,22.2755020000 114.1861350000,22.2755610000 114.1859060000,22.2757880000 114.1856200000,22.2761050000 114.1856080000,22.2761190000 114.1855520000,22.2761870000 114.1855070000,22.2762200000 114.1854810000,22.2762310000 114.1854110000,22.2762430000 114.1854060000,22.2763830000 114.1853950000,22.2764570000 114.1853710000,22.2765370000 114.1853100000,22.2767890000 114.1852600000,22.2769460000 114.1852130000,22.2769940000 114.1851920000,22.2770300000 114.1851340000,22.2771110000 114.1850660000,22.2771850000 114.1849380000,22.2772470000 114.1847980000,22.2773200000 114.1846050000,22.2774220000 114.1845360000,22.2774590000 114.1841430000,22.2776660000 114.1840350000,22.2777240000 114.1839010000,22.2777860000 114.1837810000,22.2778120000 114.1836580000,22.2777930000 114.1836000000,22.2777800000 114.1835170000,22.2777570000 114.1834620000,22.2777450000 114.1829150000,22.2773850000 114.1828620000,22.2773500000 114.1827770000,22.2772990000 114.1825700000,22.2771750000 114.1825260000,22.2771590000 114.1824620000,22.2771370000 114.1823440000,22.2770920000 114.1822050000,22.2770340000 114.1821890000,22.2770280000 114.1821690000,22.2769850000 114.1821280000,22.2769680000 114.1820870000,22.2769520000 114.1820400000,22.2769620000 114.1819820000,22.2769380000 114.1819350000,22.2769180000 114.1819010000,22.2768720000 114.1814400000,22.2766880000 114.1813090000,22.2766350000 114.1812440000,22.2764930000 114.1809880000,22.2762050000 114.1809590000,22.2761720000 114.1807890000,22.2759780000 114.1806760000,22.2758500000 114.1801180000,22.2752870000 114.1800030000,22.2751660000 114.1799360000,22.2750910000 114.1798290000,22.2749600000 114.1797520000,22.2748520000 114.1796820000,22.2747400000 114.1796230000,22.2746330000 114.1795220000,22.2746190000 114.1793970000,22.2746150000 114.1791540000,22.2746610000 114.1785960000,22.2748080000 114.1784700000,22.2748410000 114.1784210000,22.2748550000 114.1780350000,22.2749690000 114.1780130000,22.2749760000 114.1779780000,22.2749870000 114.1778800000,22.2750120000 114.1777910000,22.2750360000 114.1775420000,22.2750940000 114.1774010000,22.2751120000 114.1773060000,22.2751130000 114.1772330000,22.2751100000 114.1771560000,22.2750970000 114.1768550000,22.2750350000 114.1765850000,22.2749740000 114.1762320000,22.2748940000 114.1759660000,22.2748410000 114.1758370000,22.2748060000 114.1757230000,22.2747630000 114.1755930000,22.2746930000 114.1755400000,22.2746600000 114.1754630000,22.2746130000 114.1754150000,22.2745600000 114.1753950000,22.2745380000 114.1753310000,22.2744650000 114.1752520000,22.2744350000 114.1751480000,22.2744280000 114.1749890000,22.2744240000 114.1745890000,22.2744150000 114.1745510000,22.2744150000 114.1741330000,22.2744120000 114.1740350000,22.2744110000 114.1740020000,22.2744110000 114.1739610000,22.2744110000 114.1739120000,22.2744100000 114.1738470000,22.2744110000 114.1737370000,22.2744160000 114.1733950000,22.2744440000 114.1733120000,22.2744550000 114.1732120000,22.2744750000 114.1730880000,22.2745080000 114.1726110000,22.2746320000 114.1723550000,22.2747320000 114.1723140000,22.2747480000 114.1722380000,22.2747900000 114.1721910000,22.2748170000 114.1719840000,22.2749330000 114.1716660000,22.2751110000 114.1714240000,22.2752420000 114.1714090000,22.2752500000 114.1710690000,22.2754660000 114.1709480000,22.2755350000 114.1708970000,22.2755640000 114.1708620000,22.2755840000 114.1708500000,22.2755910000 114.1706320000,22.2757140000 114.1702840000,22.2759830000 114.1702410000,22.2760140000 114.1701900000,22.2760530000 114.1701250000,22.2760990000 114.1697480000,22.2763480000 114.1696130000,22.2764320000 114.1693520000,22.2766090000 114.1690390000,22.2768190000 114.1689060000,22.2769030000 114.1687350000,22.2770170000 114.1685820000,22.2771190000 114.1684790000,22.2771850000 114.1683290000,22.2772810000 114.1681050000,22.2774330000 114.1680410000,22.2774670000 114.1680270000,22.2774750000 114.1676380000,22.2777150000 114.1676070000,22.2777350000 114.1674650000,22.2778220000 114.1673240000,22.2778430000 114.1663690000,22.2779390000 114.1661220000,22.2779690000 114.1659210000,22.2779930000 114.1657880000,22.2780080000 114.1654950000,22.2780460000 114.1654670000,22.2780500000 114.1654250000,22.2780560000 114.1649730000,22.2781170000 114.1648760000,22.2781360000 114.1646860000,22.2781740000 114.1644950000,22.2782280000 114.1643070000,22.2782990000 114.1640380000,22.2784180000 114.1638230000,22.2785170000 114.1637050000,22.2785840000 114.1636400000,22.2786240000 114.1634530000,22.2787390000 114.1633770000,22.2787880000 114.1630190000,22.2790660000 114.1628030000,22.2792020000 114.1627540000,22.2792320000 114.1625970000,22.2793340000 114.1625700000,22.2793420000 114.1624630000,22.2793960000 114.1624150000,22.2794190000 114.1622890000,22.2794780000 114.1620130000,22.2795920000 114.1618520000,22.2796470000 114.1615670000,22.2797490000 114.1615240000,22.2797580000 114.1613930000,22.2797870000 114.1613130000,22.2798000000 114.1610710000,22.2798410000 114.1608870000,22.2798740000 114.1607940000,22.2799100000 114.1607310000,22.2799330000 114.1606710000,22.2799490000 114.1605230000,22.2799630000 114.1604820000,22.2799670000 114.1603650000,22.2799660000 114.1602120000,22.2799520000 114.1598470000,22.2798960000 114.1598280000,22.2798930000 114.1597000000,22.2798740000 114.1596730000,22.2798700000 114.1596530000,22.2798700000 114.1595240000,22.2798700000 114.1594410000,22.2798800000 114.1593040000,22.2799080000 114.1591270000,22.2799530000 114.1587870000,22.2800460000 114.1584870000,22.2801230000 114.1580780000,22.2802080000 114.1580240000,22.2802220000 114.1579060000,22.2802550000 114.1578680000,22.2802690000 114.1578270000,22.2802870000 114.1577870000,22.2803150000 114.1577420000,22.2803570000 114.1575190000,22.2806240000 114.1573380000,22.2808460000 114.1572550000,22.2809390000 114.1572390000,22.2809570000 114.1572080000,22.2809950000 114.1571500000,22.2810650000 114.1569830000,22.2812640000 114.1569530000,22.2812990000 114.1568840000,22.2813790000 114.1568100000,22.2814600000 114.1567690000,22.2815040000 114.1567270000,22.2815500000 114.1566540000,22.2816300000 114.1565830000,22.2817090000 114.1565660000,22.2817280000 114.1565180000,22.2817800000 114.1564860000,22.2818210000 114.1564730000,22.2818380000 114.1559090000,22.2825310000 114.1558930000,22.2825510000 114.1556900000,22.2828040000 114.1555480000,22.2829700000 114.1554840000,22.2830640000 114.1553510000,22.2832530000 114.1552360000,22.2833860000 114.1552170000,22.2834090000 114.1551300000,22.2835100000 114.1550900000,22.2835460000 114.1549400000,22.2836500000 114.1548360000,22.2837280000 114.1548060000,22.2837510000 114.1547300000,22.2838090000 114.1545130000,22.2839720000 114.1541970000,22.2841820000 114.1540630000,22.2842790000 114.1540250000,22.2843050000 114.1538510000,22.2844390000 114.1536380000,22.2846230000 114.1533510000,22.2848580000 114.1531100000,22.2850720000 114.1530510000,22.2850730000 114.1529960000,22.2850750000 114.1529140000,22.2850730000 114.1527870000,22.2850470000 114.1527040000,22.2850250000 114.1526600000,22.2850090000 114.1526190000,22.2849870000 114.1525810000,22.2849650000 114.1524440000,22.2848730000 114.1523950000,22.2848430000 114.1523430000,22.2848180000 114.1522780000,22.2847940000 114.1522100000,22.2847750000 114.1521360000,22.2847620000 114.1520310000,22.2847530000 114.1517390000,22.2847300000 114.1516890000,22.2847230000 114.1516340000,22.2847110000 114.1515810000,22.2846930000 114.1515310000,22.2846730000 114.1512270000,22.2845330000 114.1511820000,22.2845160000 114.1511430000,22.2845070000 114.1511030000,22.2845080000 114.1510640000,22.2845160000 114.1510250000,22.2845290000 114.1509760000,22.2845530000 114.1505740000,22.2847960000 114.1505370000,22.2848220000 114.1504490000,22.2849160000 114.1503700000,22.2850230000 114.1502960000,22.2851260000 114.1500900000,22.2854010000 114.1499130000,22.2856390000 114.1498620000,22.2857010000 114.1498280000,22.2857400000 114.1497470000,22.2858030000 114.1495920000,22.2859030000 114.1495370000,22.2859270000 114.1495010000,22.2859390000 114.1494290000,22.2859600000 114.1491150000,22.2860620000 114.1488870000,22.2861370000 114.1488330000,22.2861550000 114.1487550000,22.2861800000 114.1485840000,22.2863060000 114.1479590000,22.2867980000 114.1479330000,22.2868190000 114.1479010000,22.2868330000 114.1478550000,22.2868470000 114.1478080000,22.2868510000 114.1477560000,22.2868450000 114.1477010000,22.2868240000 114.1476290000,22.2867850000 114.1475670000,22.2867440000 114.1473150000,22.2865570000 114.1471410000,22.2864260000 114.1470240000,22.2863510000 114.1469750000,22.2863190000 114.1468850000,22.2862610000 114.1468380000,22.2862400000 114.1468140000,22.2862340000 114.1467880000,22.2862270000 114.1467460000,22.2862230000 114.1467050000,22.2862240000 114.1465110000,22.2862400000 114.1464420000,22.2862450000 114.1464080000,22.2862480000 114.1463730000,22.2862510000 114.1462740000,22.2862590000 114.1462220000,22.2862630000 114.1460260000,22.2862790000 114.1459570000,22.2862880000 114.1458900000,22.2863050000 114.1458260000,22.2863300000 114.1457660000,22.2863610000 114.1457100000,22.2863980000 114.1456590000,22.2864420000 114.1452830000,22.2867500000 114.1449540000,22.2870220000 114.1449030000,22.2870620000 114.1448000000,22.2871100000 114.1447520000,22.2871070000 114.1446730000,22.2870820000 114.1445480000,22.2870360000 114.1443720000,22.2869420000 114.1442390000,22.2868780000 114.1440840000,22.2868570000 114.1438650000,22.2868620000 114.1438230000,22.2868630000 114.1437220000,22.2868660000 114.1436260000,22.2868690000 114.1433180000,22.2868800000 114.1429640000,22.2868930000 114.1426580000,22.2869030000 114.1424090000,22.2869130000 114.1423900000,22.2869140000 114.1422890000,22.2869170000 114.1422010000,22.2869200000 114.1409080000,22.2869650000 114.1408480000,22.2869680000 114.1407740000,22.2869710000 114.1406830000,22.2869730000 114.1404780000,22.2869820000 114.1396850000,22.2867810000 114.1391330000,22.2866410000 114.1390610000,22.2866230000 114.1390180000,22.2866120000 114.1387240000,22.2865390000 114.1384650000,22.2864720000 114.1384030000,22.2864560000 114.1383560000,22.2864440000 114.1381110000,22.2863820000 114.1378720000,22.2863180000 114.1377360000,22.2862700000 114.1376100000,22.2862100000 114.1374100000,22.2860940000 114.1371440000,22.2859220000 114.1369220000,22.2857780000 114.1368740000,22.2857510000 114.1368430000,22.2857350000 114.1368240000,22.2857270000 114.1367990000,22.2857250000 114.1367460000,22.2857250000 114.1366740000,22.2857400000 114.1362030000,22.2858430000 114.1358610000,22.2859190000 114.1357890000,22.2859360000 114.1353680000,22.2860360000 114.1353400000,22.2860430000 114.1352590000,22.2860610000 114.1351760000,22.2860790000 114.1351310000,22.2860890000 114.1343440000,22.2862660000 114.1339130000,22.2863670000 114.1328860000,22.2865950000 114.1328050000,22.2866140000 114.1327660000,22.2865030000 114.1327430000,22.2864350000 114.1325610000,22.2859170000 114.1324690000,22.2856680000 114.1324550000,22.2856250000 114.1322580000,22.2851140000 114.1321200000,22.2849070000 114.1320310000,22.2848010000 114.1319760000,22.2847460000 114.1314610000,22.2843270000 114.1312440000,22.2841480000 114.1311790000,22.2840990000 114.1310980000,22.2840330000 114.1308910000,22.2838650000 114.1302350000,22.2833310000 114.1301260000,22.2832420000 114.1300100000,22.2831550000 114.1297400000,22.2829520000 114.1295960000,22.2828700000 114.1294460000,22.2828230000 114.1292150000,22.2827640000 114.1290990000,22.2827440000 114.1290100000,22.2827280000 114.1283010000,22.2826040000 114.1282140000,22.2825900000 114.1280980000,22.2825870000 114.1272020000,22.2824320000 114.1269850000,22.2823940000 114.1268870000,22.2823770000 114.1267600000,22.2823550000 114.1265810000,22.2823230000 114.1262970000,22.2822740000 114.1262030000,22.2822570000 114.1261870000,22.2822570000 114.1261200000,22.2822680000 114.1260700000,22.2822730000 114.1260240000,22.2822740000 114.1259310000,22.2822710000 114.1256030000,22.2822180000 114.1254140000,22.2821880000 114.1252720000,22.2821650000 114.1247550000,22.2820850000 114.1246630000,22.2820690000 114.1244040000,22.2820220000 114.1235150000,22.2818670000 114.1233260000,22.2818340000 114.1232330000,22.2818120000 114.1231190000,22.2817850000 114.1230010000,22.2817590000 114.1228780000,22.2817260000 114.1227510000,22.2816920000 114.1226650000,22.2816680000 114.1225410000,22.2816350000 114.1222630000,22.2815660000 114.1219360000,22.2815020000 114.1216300000,22.2814200000 114.1216200000,22.2814180000 114.1213780000,22.2813460000 114.1212530000,22.2813020000 114.1212310000,22.2812930000 114.1211150000,22.2812430000 114.1208030000,22.2810790000 114.1206520000,22.2810030000 114.1205690000,22.2809660000 114.1205000000,22.2809440000 114.1204300000,22.2809290000 114.1202970000,22.2809170000 114.1202550000,22.2809170000 114.1201870000,22.2809220000 114.1200770000,22.2809340000 114.1200380000,22.2809400000 114.1199480000,22.2809530000 114.1198870000,22.2809570000 114.1198730000,22.2809570000 114.1197580000,22.2809420000 114.1196750000,22.2809180000 114.1195860000,22.2808850000 114.1195070000,22.2808490000 114.1191030000,22.2806370000 114.1190260000,22.2805890000 114.1189700000,22.2805490000 114.1183660000,22.2800680000 114.1182860000,22.2799980000 114.1182280000,22.2799410000 114.1181390000,22.2798290000 114.1180820000,22.2797360000 114.1180130000,22.2795750000 114.1179630000,22.2794000000 114.1178570000,22.2790470000 114.1176670000,22.2783450000 114.1176520000,22.2782720000 114.1176180000,22.2780500000 114.1176040000,22.2779940000 114.1175870000,22.2779400000 114.1175660000,22.2778900000 114.1175370000,22.2778360000 114.1175070000,22.2777890000 114.1172880000,22.2774640000 114.1172480000,22.2774010000 114.1172130000,22.2773370000 114.1171890000,22.2772760000 114.1171630000,22.2771890000 114.1171490000,22.2771190000 114.1171470000,22.2770360000 114.1171520000,22.2769510000 114.1171640000,22.2768670000 114.1171810000,22.2767870000 114.1172040000,22.2767130000 114.1172360000,22.2766290000 114.1172720000,22.2765510000 114.1174360000,22.2762260000 114.1174560000,22.2761760000 114.1174700000,22.2761320000 114.1174770000,22.2760910000 114.1175200000,22.2756720000 114.1175350000,22.2755690000 114.1175370000,22.2755550000 114.1175490000,22.2755020000 114.1175700000,22.2754400000 114.1175960000,22.2753810000 114.1176230000,22.2753340000 114.1176880000,22.2752370000 114.1177850000,22.2750910000 114.1177590000,22.2750760000 114.1176160000,22.2749920000</coordinates>
                </LineString>
                <ExtendedData>
                    <Data name="length">
                        <value>18806.253909746873</value>
                    </Data>
                    <Data name="duration">
                        <value>00:26:02</value>
                    </Data>
                </ExtendedData>
            </Placemark>
        </Document>
    </Document>
</kml>