<?xml version="1.0" encoding="UTF-8"?>
<kml xmlns="http://www.opengis.net/kml/2.2" xmlns:gx="http://www.google.com/kml/ext/2.2">
    <Document>
        <name>Route</name>
        <Folder>
            <name>Route Request</name>
            <Placemark>
                <address>Stanley Village, Stanley Beach Road, Stanley Village, Stanley, Southern District, Hong Kong Island, Hong Kong, China</address>
                <Point>
                    <coordinates>114.2132350439,22.2192142722</coordinates>
                </Point>
                <ExtendedData>
                    <Data name="country">
                        <value>China</value>
                    </Data>
                    <Data name="suburb">
                        <value>Stanley</value>
                    </Data>
                    <Data name="city_district">
                        <value>Southern District</value>
                    </Data>
                    <Data name="amenity">
                        <value>Stanley Village</value>
                    </Data>
                    <Data name="city">
                        <value>Hong Kong Island</value>
                    </Data>
                    <Data name="ISO3166-2-lvl3">
                        <value>CN-HK</value>
                    </Data>
                    <Data name="road">
                        <value>Stanley Beach Road</value>
                    </Data>
                    <Data name="country_code">
                        <value>cn</value>
                    </Data>
                    <Data name="quarter">
                        <value>Stanley Village</value>
                    </Data>
                    <Data name="state">
                        <value>Hong Kong</value>
                    </Data>
                </ExtendedData>
            </Placemark>
            <Placemark>
                <address>Yiu Hing Road, Kornhill, Sai Wan Ho, Eastern District, Hong Kong Island, Hong Kong, 000000, China</address>
                <Point>
                    <coordinates>114.2194589604,22.2788643244</coordinates>
                </Point>
                <ExtendedData>
                    <Data name="country">
                        <value>China</value>
                    </Data>
                    <Data name="suburb">
                        <value>Sai Wan Ho</value>
                    </Data>
                    <Data name="city_district">
                        <value>Eastern District</value>
                    </Data>
                    <Data name="postcode">
                        <value>000000</value>
                    </Data>
                    <Data name="city">
                        <value>Hong Kong Island</value>
                    </Data>
                    <Data name="ISO3166-2-lvl3">
                        <value>CN-HK</value>
                    </Data>
                    <Data name="road">
                        <value>Yiu Hing Road</value>
                    </Data>
                    <Data name="country_code">
                        <value>cn</value>
                    </Data>
                    <Data name="quarter">
                        <value>Kornhill</value>
                    </Data>
                    <Data name="state">
                        <value>Hong Kong</value>
                    </Data>
                </ExtendedData>
            </Placemark>
            <Placemark>
                <address>Marine Police Regional Headquarters, Tai Hong Street, Aldrich Bay, Sai Wan Ho, Eastern District, Hong Kong Island, Hong Kong, 000000, China</address>
                <Point>
                    <coordinates>114.2249326096,22.2853795360</coordinates>
                </Point>
                <ExtendedData>
                    <Data name="country">
                        <value>China</value>
                    </Data>
                    <Data name="suburb">
                        <value>Sai Wan Ho</value>
                    </Data>
                    <Data name="city_district">
                        <value>Eastern District</value>
                    </Data>
                    <Data name="postcode">
                        <value>000000</value>
                    </Data>
                    <Data name="amenity">
                        <value>Marine Police Regional Headquarters</value>
                    </Data>
                    <Data name="city">
                        <value>Hong Kong Island</value>
                    </Data>
                    <Data name="ISO3166-2-lvl3">
                        <value>CN-HK</value>
                    </Data>
                    <Data name="road">
                        <value>Tai Hong Street</value>
                    </Data>
                    <Data name="neighbourhood">
                        <value>Aldrich Bay</value>
                    </Data>
                    <Data name="country_code">
                        <value>cn</value>
                    </Data>
                    <Data name="state">
                        <value>Hong Kong</value>
                    </Data>
                </ExtendedData>
            </Placemark>
            <Placemark>
                <address>Yiu Hing Road, Yiu Tung Estate, Sai Wan Ho, Eastern District, Hong Kong Island, Hong Kong, China</address>
                <Point>
                    <coordinates>114.2239500196,22.2769199316</coordinates>
                </Point>
                <ExtendedData>
                    <Data name="country">
                        <value>China</value>
                    </Data>
                    <Data name="residential">
                        <value>Yiu Tung Estate</value>
                    </Data>
                    <Data name="suburb">
                        <value>Sai Wan Ho</value>
                    </Data>
                    <Data name="city_district">
                        <value>Eastern District</value>
                    </Data>
                    <Data name="city">
                        <value>Hong Kong Island</value>
                    </Data>
                    <Data name="ISO3166-2-lvl3">
                        <value>CN-HK</value>
                    </Data>
                    <Data name="road">
                        <value>Yiu Hing Road</value>
                    </Data>
                    <Data name="country_code">
                        <value>cn</value>
                    </Data>
                    <Data name="state">
                        <value>Hong Kong</value>
                    </Data>
                </ExtendedData>
            </Placemark>
            <Placemark>
                <address>Chung Hom Kok Road, Chung Hom Kok, Stanley, Southern District, Hong Kong Island, Hong Kong, China</address>
                <Point>
                    <coordinates>114.2028987315,22.2223075959</coordinates>
                </Point>
                <ExtendedData>
                    <Data name="country">
                        <value>China</value>
                    </Data>
                    <Data name="suburb">
                        <value>Stanley</value>
                    </Data>
                    <Data name="city_district">
                        <value>Southern District</value>
                    </Data>
                    <Data name="city">
                        <value>Hong Kong Island</value>
                    </Data>
                    <Data name="ISO3166-2-lvl3">
                        <value>CN-HK</value>
                    </Data>
                    <Data name="road">
                        <value>Chung Hom Kok Road</value>
                    </Data>
                    <Data name="country_code">
                        <value>cn</value>
                    </Data>
                    <Data name="quarter">
                        <value>Chung Hom Kok</value>
                    </Data>
                    <Data name="state">
                        <value>Hong Kong</value>
                    </Data>
                </ExtendedData>
            </Placemark>
            <Placemark>
                <address>Stanley Village, Stanley Beach Road, Stanley Village, Stanley, Southern District, Hong Kong Island, Hong Kong, China</address>
                <Point>
                    <coordinates>114.2132643261,22.2192283502</coordinates>
                </Point>
                <ExtendedData>
                    <Data name="country">
                        <value>China</value>
                    </Data>
                    <Data name="suburb">
                        <value>Stanley</value>
                    </Data>
                    <Data name="city_district">
                        <value>Southern District</value>
                    </Data>
                    <Data name="amenity">
                        <value>Stanley Village</value>
                    </Data>
                    <Data name="city">
                        <value>Hong Kong Island</value>
                    </Data>
                    <Data name="ISO3166-2-lvl3">
                        <value>CN-HK</value>
                    </Data>
                    <Data name="road">
                        <value>Stanley Beach Road</value>
                    </Data>
                    <Data name="country_code">
                        <value>cn</value>
                    </Data>
                    <Data name="quarter">
                        <value>Stanley Village</value>
                    </Data>
                    <Data name="state">
                        <value>Hong Kong</value>
                    </Data>
                </ExtendedData>
            </Placemark>
        </Folder>
        <Document>
            <name>27.7 km; 00:36 h (OSRM)</name>
            <Placemark>
                <name>Route</name>
                <LineString>
                    <coordinates>114.2131470000,22.2192020000 114.2131430000,22.2192260000 114.2131380000,22.2192520000 114.2131340000,22.2192690000 114.2131240000,22.2192970000 114.2131100000,22.2193190000 114.2130300000,22.2194090000 114.2130150000,22.2194240000 114.2129970000,22.2194380000 114.2129870000,22.2194450000 114.2129740000,22.2194510000 114.2129450000,22.2194590000 114.2129090000,22.2194610000 114.2128980000,22.2194600000 114.2128310000,22.2194110000 114.2127660000,22.2199020000 114.2127580000,22.2199700000 114.2127550000,22.2199930000 114.2127120000,22.2203600000 114.2127110000,22.2204530000 114.2127280000,22.2205760000 114.2127300000,22.2206250000 114.2127260000,22.2206700000 114.2127180000,22.2207160000 114.2127050000,22.2207580000 114.2126870000,22.2208030000 114.2126650000,22.2208450000 114.2126420000,22.2208840000 114.2126110000,22.2209230000 114.2125730000,22.2209610000 114.2125290000,22.2209950000 114.2124800000,22.2210270000 114.2124220000,22.2210560000 114.2123800000,22.2210710000 114.2123290000,22.2210850000 114.2122850000,22.2210930000 114.2122360000,22.2210960000 114.2120660000,22.2210810000 114.2119330000,22.2210700000 114.2117580000,22.2210730000 114.2116940000,22.2210860000 114.2116290000,22.2211040000 114.2115690000,22.2211270000 114.2115180000,22.2211520000 114.2114690000,22.2211810000 114.2114210000,22.2212160000 114.2113820000,22.2212510000 114.2113480000,22.2212850000 114.2113150000,22.2213260000 114.2112890000,22.2213680000 114.2112600000,22.2214210000 114.2112420000,22.2214600000 114.2112270000,22.2215010000 114.2112150000,22.2215420000 114.2112050000,22.2215930000 114.2111990000,22.2216410000 114.2111960000,22.2216940000 114.2112220000,22.2218010000 114.2112730000,22.2219300000 114.2113090000,22.2219830000 114.2113480000,22.2220370000 114.2114370000,22.2221240000 114.2115080000,22.2221760000 114.2116040000,22.2222170000 114.2118450000,22.2223000000 114.2121050000,22.2223710000 114.2122620000,22.2224520000 114.2123330000,22.2225130000 114.2123910000,22.2225730000 114.2124520000,22.2226800000 114.2125180000,22.2228830000 114.2126060000,22.2232540000 114.2126530000,22.2233530000 114.2127190000,22.2234510000 114.2127970000,22.2235350000 114.2128830000,22.2236130000 114.2131740000,22.2238660000 114.2133500000,22.2239890000 114.2135700000,22.2241070000 114.2136860000,22.2241750000 114.2137570000,22.2242320000 114.2137970000,22.2242720000 114.2138340000,22.2243110000 114.2140700000,22.2245900000 114.2140970000,22.2246190000 114.2141280000,22.2246460000 114.2141560000,22.2246660000 114.2141910000,22.2246880000 114.2145140000,22.2248540000 114.2145540000,22.2248780000 114.2145810000,22.2249010000 114.2146030000,22.2249310000 114.2146170000,22.2249610000 114.2146240000,22.2250170000 114.2147220000,22.2250230000 114.2147940000,22.2250390000 114.2148820000,22.2250720000 114.2149750000,22.2251120000 114.2152610000,22.2252340000 114.2156440000,22.2254500000 114.2158270000,22.2255750000 114.2160570000,22.2257520000 114.2162550000,22.2259160000 114.2164320000,22.2260830000 114.2166410000,22.2263040000 114.2167110000,22.2263870000 114.2168070000,22.2265210000 114.2170790000,22.2269490000 114.2172670000,22.2272910000 114.2173380000,22.2274450000 114.2174080000,22.2275970000 114.2175300000,22.2279340000 114.2176250000,22.2281930000 114.2177040000,22.2284100000 114.2177570000,22.2285680000 114.2178240000,22.2287940000 114.2178530000,22.2290390000 114.2178600000,22.2293870000 114.2178710000,22.2297220000 114.2179010000,22.2298370000 114.2179190000,22.2298760000 114.2179370000,22.2299080000 114.2179570000,22.2299370000 114.2179820000,22.2299670000 114.2180080000,22.2299930000 114.2180330000,22.2300150000 114.2180630000,22.2300390000 114.2180900000,22.2300580000 114.2181200000,22.2300740000 114.2181600000,22.2300910000 114.2182020000,22.2301050000 114.2182590000,22.2301190000 114.2182940000,22.2301260000 114.2183320000,22.2301300000 114.2183740000,22.2301330000 114.2184160000,22.2301340000 114.2185060000,22.2301340000 114.2185450000,22.2301330000 114.2186050000,22.2301280000 114.2186590000,22.2301230000 114.2187750000,22.2301090000 114.2188050000,22.2301030000 114.2188350000,22.2300940000 114.2188610000,22.2300850000 114.2188900000,22.2300740000 114.2189210000,22.2300600000 114.2189520000,22.2300440000 114.2189860000,22.2300250000 114.2190170000,22.2300040000 114.2190590000,22.2299680000 114.2190860000,22.2299420000 114.2191140000,22.2299090000 114.2191440000,22.2298680000 114.2191660000,22.2298330000 114.2191840000,22.2297990000 114.2191930000,22.2297770000 114.2192010000,22.2297520000 114.2192080000,22.2297240000 114.2192190000,22.2296590000 114.2192260000,22.2296280000 114.2192370000,22.2295880000 114.2192520000,22.2295460000 114.2192630000,22.2295180000 114.2192770000,22.2294900000 114.2192930000,22.2294620000 114.2193160000,22.2294280000 114.2193410000,22.2293950000 114.2193650000,22.2293670000 114.2193910000,22.2293410000 114.2194170000,22.2293170000 114.2194440000,22.2292950000 114.2194760000,22.2292720000 114.2195130000,22.2292490000 114.2195530000,22.2292280000 114.2195950000,22.2292080000 114.2196350000,22.2291950000 114.2196770000,22.2291840000 114.2197170000,22.2291780000 114.2197590000,22.2291750000 114.2197990000,22.2291740000 114.2198400000,22.2291780000 114.2199100000,22.2291890000 114.2199840000,22.2292060000 114.2200850000,22.2292360000 114.2201590000,22.2292610000 114.2202310000,22.2292890000 114.2203080000,22.2293220000 114.2204400000,22.2293830000 114.2205290000,22.2294280000 114.2206250000,22.2294830000 114.2206890000,22.2295220000 114.2207530000,22.2295680000 114.2208260000,22.2296270000 114.2208730000,22.2296680000 114.2209280000,22.2297220000 114.2209770000,22.2297780000 114.2210210000,22.2298330000 114.2210580000,22.2298900000 114.2210920000,22.2299550000 114.2213170000,22.2304790000 114.2213980000,22.2306480000 114.2215370000,22.2309110000 114.2215780000,22.2309820000 114.2218460000,22.2314100000 114.2219060000,22.2314960000 114.2219460000,22.2315460000 114.2219880000,22.2315950000 114.2220360000,22.2316420000 114.2221870000,22.2317770000 114.2222200000,22.2318040000 114.2222750000,22.2318470000 114.2223070000,22.2318740000 114.2223320000,22.2318980000 114.2223520000,22.2319260000 114.2223710000,22.2319550000 114.2223910000,22.2319960000 114.2224070000,22.2320410000 114.2224170000,22.2320820000 114.2224220000,22.2321250000 114.2224190000,22.2321730000 114.2224040000,22.2323090000 114.2223820000,22.2324490000 114.2223710000,22.2325330000 114.2223650000,22.2325910000 114.2223640000,22.2326310000 114.2223670000,22.2326740000 114.2223740000,22.2327160000 114.2223860000,22.2327690000 114.2226150000,22.2335830000 114.2226430000,22.2336990000 114.2227800000,22.2344600000 114.2227840000,22.2345800000 114.2228510000,22.2349410000 114.2228620000,22.2350120000 114.2228720000,22.2351080000 114.2228750000,22.2352090000 114.2228720000,22.2353250000 114.2228600000,22.2354490000 114.2228380000,22.2355510000 114.2228100000,22.2356390000 114.2227680000,22.2357380000 114.2227160000,22.2358380000 114.2226600000,22.2359330000 114.2226080000,22.2360130000 114.2225570000,22.2360820000 114.2224980000,22.2361570000 114.2224420000,22.2362190000 114.2223890000,22.2362740000 114.2222010000,22.2364560000 114.2221650000,22.2364940000 114.2221210000,22.2365480000 114.2220660000,22.2366250000 114.2220130000,22.2367080000 114.2219630000,22.2367960000 114.2219330000,22.2368590000 114.2219030000,22.2369310000 114.2215890000,22.2378020000 114.2215680000,22.2378550000 114.2215440000,22.2379010000 114.2215170000,22.2379490000 114.2214880000,22.2379950000 114.2214530000,22.2380440000 114.2214220000,22.2380850000 114.2213960000,22.2381150000 114.2213570000,22.2381550000 114.2213310000,22.2381840000 114.2213090000,22.2382120000 114.2212920000,22.2382410000 114.2212790000,22.2382730000 114.2212680000,22.2383040000 114.2212600000,22.2383370000 114.2212560000,22.2383680000 114.2212560000,22.2383990000 114.2212580000,22.2384400000 114.2213910000,22.2399560000 114.2213990000,22.2400470000 114.2214340000,22.2404380000 114.2214840000,22.2408480000 114.2214930000,22.2408960000 114.2215040000,22.2409350000 114.2215220000,22.2409710000 114.2215430000,22.2410060000 114.2215690000,22.2410430000 114.2215970000,22.2410750000 114.2216270000,22.2411070000 114.2216540000,22.2411280000 114.2216850000,22.2411470000 114.2217970000,22.2412090000 114.2218290000,22.2412300000 114.2218540000,22.2412500000 114.2218750000,22.2412730000 114.2218950000,22.2413010000 114.2219140000,22.2413340000 114.2219410000,22.2413860000 114.2219520000,22.2414150000 114.2219610000,22.2414440000 114.2219670000,22.2414780000 114.2219710000,22.2415120000 114.2219940000,22.2418280000 114.2220010000,22.2418990000 114.2220120000,22.2419680000 114.2220150000,22.2419990000 114.2220150000,22.2420300000 114.2220130000,22.2420580000 114.2220070000,22.2420890000 114.2219960000,22.2421350000 114.2219900000,22.2421570000 114.2219820000,22.2421760000 114.2219720000,22.2421970000 114.2219110000,22.2423010000 114.2218940000,22.2423330000 114.2218790000,22.2423700000 114.2218670000,22.2424100000 114.2218600000,22.2424470000 114.2218560000,22.2424900000 114.2218610000,22.2425500000 114.2218770000,22.2426390000 114.2218870000,22.2426720000 114.2218990000,22.2427010000 114.2220150000,22.2429300000 114.2220260000,22.2429550000 114.2220300000,22.2429770000 114.2220270000,22.2429970000 114.2220210000,22.2430170000 114.2220120000,22.2430360000 114.2211090000,22.2447820000 114.2210940000,22.2448140000 114.2210820000,22.2448440000 114.2210670000,22.2448850000 114.2210570000,22.2449180000 114.2210430000,22.2449750000 114.2210360000,22.2450120000 114.2210320000,22.2450540000 114.2210320000,22.2450950000 114.2210360000,22.2451370000 114.2210420000,22.2451830000 114.2211880000,22.2459870000 114.2212000000,22.2460550000 114.2212090000,22.2461150000 114.2212110000,22.2461890000 114.2212030000,22.2465660000 114.2212000000,22.2474740000 114.2211960000,22.2476360000 114.2212180000,22.2477860000 114.2212510000,22.2478450000 114.2213040000,22.2479020000 114.2213550000,22.2479370000 114.2214050000,22.2479630000 114.2214800000,22.2479750000 114.2215390000,22.2479680000 114.2216000000,22.2479510000 114.2221100000,22.2477900000 114.2221500000,22.2477790000 114.2222200000,22.2477640000 114.2222800000,22.2477550000 114.2223500000,22.2477500000 114.2224100000,22.2477490000 114.2224800000,22.2477510000 114.2225400000,22.2477570000 114.2226010000,22.2477690000 114.2226600000,22.2477870000 114.2227140000,22.2478060000 114.2227610000,22.2478250000 114.2228110000,22.2478470000 114.2228550000,22.2478700000 114.2229010000,22.2478990000 114.2229420000,22.2479320000 114.2229710000,22.2479650000 114.2230000000,22.2480050000 114.2230300000,22.2480500000 114.2230500000,22.2480900000 114.2230660000,22.2481300000 114.2230800000,22.2481800000 114.2230900000,22.2482300000 114.2231100000,22.2484700000 114.2231200000,22.2485400000 114.2231400000,22.2486200000 114.2231580000,22.2486780000 114.2231800000,22.2487320000 114.2232060000,22.2487900000 114.2232370000,22.2488500000 114.2232700000,22.2489080000 114.2233000000,22.2489520000 114.2235630000,22.2493310000 114.2239440000,22.2498800000 114.2240620000,22.2500500000 114.2240720000,22.2500650000 114.2240990000,22.2501060000 114.2241270000,22.2501600000 114.2241300000,22.2501710000 114.2241420000,22.2502100000 114.2241480000,22.2502600000 114.2241460000,22.2503400000 114.2241420000,22.2505340000 114.2241420000,22.2505500000 114.2241490000,22.2507500000 114.2241600000,22.2509000000 114.2241750000,22.2510400000 114.2241810000,22.2510660000 114.2241840000,22.2510800000 114.2241980000,22.2511120000 114.2242100000,22.2511300000 114.2242260000,22.2511460000 114.2242400000,22.2511600000 114.2242700000,22.2511790000 114.2243100000,22.2511920000 114.2243500000,22.2511970000 114.2243730000,22.2511940000 114.2244100000,22.2511900000 114.2244510000,22.2511750000 114.2244680000,22.2511680000 114.2245100000,22.2511400000 114.2247640000,22.2509130000 114.2248090000,22.2508880000 114.2248280000,22.2508770000 114.2249000000,22.2508600000 114.2249390000,22.2508590000 114.2249600000,22.2508580000 114.2249800000,22.2508620000 114.2250180000,22.2508700000 114.2250440000,22.2508810000 114.2250650000,22.2508900000 114.2251280000,22.2509300000 114.2251810000,22.2509910000 114.2252200000,22.2510600000 114.2253770000,22.2514320000 114.2254600000,22.2516300000 114.2255810000,22.2518520000 114.2256750000,22.2519940000 114.2259180000,22.2522630000 114.2261020000,22.2524410000 114.2261730000,22.2525210000 114.2269970000,22.2536180000 114.2270230000,22.2536510000 114.2270430000,22.2536730000 114.2270650000,22.2536920000 114.2270890000,22.2537090000 114.2271130000,22.2537230000 114.2271370000,22.2537360000 114.2273640000,22.2538470000 114.2273980000,22.2538650000 114.2274370000,22.2538890000 114.2274670000,22.2539130000 114.2274920000,22.2539380000 114.2275100000,22.2539640000 114.2275250000,22.2539940000 114.2275350000,22.2540250000 114.2275400000,22.2540620000 114.2275410000,22.2540930000 114.2275310000,22.2542390000 114.2274700000,22.2544850000 114.2274540000,22.2546040000 114.2274530000,22.2547220000 114.2274830000,22.2548670000 114.2276430000,22.2555730000 114.2279160000,22.2563420000 114.2279780000,22.2565270000 114.2280730000,22.2568020000 114.2280890000,22.2568470000 114.2281460000,22.2570260000 114.2281590000,22.2570650000 114.2281830000,22.2571080000 114.2282060000,22.2571540000 114.2281950000,22.2571670000 114.2281890000,22.2571830000 114.2281880000,22.2571990000 114.2281910000,22.2572150000 114.2281990000,22.2572300000 114.2281990000,22.2572670000 114.2282000000,22.2572830000 114.2282020000,22.2573050000 114.2282200000,22.2573630000 114.2281760000,22.2574720000 114.2281620000,22.2575070000 114.2281260000,22.2575560000 114.2280860000,22.2575970000 114.2280610000,22.2576140000 114.2280310000,22.2576260000 114.2279470000,22.2576530000 114.2275590000,22.2577540000 114.2272330000,22.2578190000 114.2271040000,22.2578380000 114.2267510000,22.2578800000 114.2265920000,22.2578920000 114.2263220000,22.2579020000 114.2261560000,22.2578990000 114.2259460000,22.2578910000 114.2258750000,22.2578910000 114.2258440000,22.2578950000 114.2258130000,22.2579030000 114.2257840000,22.2579140000 114.2257560000,22.2579270000 114.2257310000,22.2579420000 114.2257080000,22.2579580000 114.2256850000,22.2579780000 114.2256660000,22.2579970000 114.2256490000,22.2580190000 114.2256340000,22.2580420000 114.2256200000,22.2580680000 114.2256090000,22.2580940000 114.2256010000,22.2581230000 114.2255970000,22.2581620000 114.2255970000,22.2581970000 114.2256010000,22.2582310000 114.2256080000,22.2582650000 114.2256570000,22.2584290000 114.2256930000,22.2585890000 114.2257000000,22.2586310000 114.2257080000,22.2587350000 114.2257000000,22.2598490000 114.2256960000,22.2599340000 114.2256870000,22.2600360000 114.2255420000,22.2612520000 114.2255370000,22.2613080000 114.2255370000,22.2613560000 114.2255400000,22.2614120000 114.2255460000,22.2614630000 114.2255530000,22.2615110000 114.2255750000,22.2616090000 114.2255890000,22.2616570000 114.2256050000,22.2617030000 114.2256240000,22.2617470000 114.2257150000,22.2619110000 114.2257320000,22.2619440000 114.2257440000,22.2619780000 114.2257530000,22.2620190000 114.2257580000,22.2620580000 114.2257600000,22.2621000000 114.2257550000,22.2621640000 114.2257360000,22.2622300000 114.2257080000,22.2622870000 114.2256750000,22.2623400000 114.2254600000,22.2626400000 114.2254280000,22.2626970000 114.2254030000,22.2627600000 114.2253880000,22.2628140000 114.2253830000,22.2628650000 114.2253850000,22.2629020000 114.2253920000,22.2629380000 114.2254050000,22.2629760000 114.2254210000,22.2630050000 114.2254430000,22.2630380000 114.2254730000,22.2630700000 114.2255190000,22.2631050000 114.2255640000,22.2631290000 114.2256210000,22.2631500000 114.2256900000,22.2631680000 114.2257580000,22.2631780000 114.2260850000,22.2632050000 114.2261410000,22.2632070000 114.2262300000,22.2632000000 114.2263110000,22.2631830000 114.2263730000,22.2631630000 114.2264230000,22.2631420000 114.2264700000,22.2631130000 114.2265100000,22.2630820000 114.2265480000,22.2630470000 114.2265840000,22.2630070000 114.2268510000,22.2626570000 114.2269940000,22.2624700000 114.2270430000,22.2624110000 114.2270980000,22.2623500000 114.2271390000,22.2623090000 114.2271820000,22.2622730000 114.2272300000,22.2622370000 114.2272880000,22.2621990000 114.2273450000,22.2621670000 114.2274130000,22.2621320000 114.2274650000,22.2621080000 114.2275260000,22.2620840000 114.2275880000,22.2620640000 114.2276640000,22.2620460000 114.2277350000,22.2620330000 114.2278060000,22.2620240000 114.2278810000,22.2620200000 114.2279760000,22.2620210000 114.2280530000,22.2620250000 114.2281280000,22.2620340000 114.2281940000,22.2620470000 114.2282700000,22.2620670000 114.2283580000,22.2620930000 114.2295070000,22.2624740000 114.2295730000,22.2625000000 114.2296210000,22.2625250000 114.2296730000,22.2625570000 114.2297150000,22.2625860000 114.2297590000,22.2626220000 114.2298020000,22.2626620000 114.2298470000,22.2627090000 114.2298820000,22.2627520000 114.2299210000,22.2628090000 114.2301900000,22.2632300000 114.2303550000,22.2635010000 114.2306950000,22.2640590000 114.2308300000,22.2642600000 114.2311860000,22.2647990000 114.2315420000,22.2653350000 114.2316710000,22.2655960000 114.2319100000,22.2662640000 114.2319970000,22.2664470000 114.2321730000,22.2668380000 114.2321920000,22.2668970000 114.2322040000,22.2669500000 114.2322120000,22.2669990000 114.2322170000,22.2670620000 114.2322160000,22.2671240000 114.2322090000,22.2671800000 114.2321660000,22.2674020000 114.2321560000,22.2674780000 114.2321520000,22.2675430000 114.2321520000,22.2676180000 114.2321730000,22.2680090000 114.2321810000,22.2680750000 114.2321910000,22.2681270000 114.2322010000,22.2681700000 114.2322150000,22.2682200000 114.2322320000,22.2682700000 114.2322520000,22.2683140000 114.2322790000,22.2683600000 114.2323090000,22.2684050000 114.2327460000,22.2689360000 114.2327800000,22.2689800000 114.2330470000,22.2694220000 114.2330700000,22.2694600000 114.2331290000,22.2697000000 114.2331390000,22.2698000000 114.2331390000,22.2698560000 114.2331390000,22.2699000000 114.2331360000,22.2699440000 114.2331300000,22.2700000000 114.2331160000,22.2700920000 114.2330840000,22.2702480000 114.2330690000,22.2703350000 114.2330600000,22.2704070000 114.2330540000,22.2704850000 114.2330530000,22.2705570000 114.2330580000,22.2706400000 114.2330630000,22.2706840000 114.2330810000,22.2707430000 114.2331190000,22.2708200000 114.2331560000,22.2708730000 114.2332100000,22.2709100000 114.2333120000,22.2709560000 114.2331750000,22.2711440000 114.2331450000,22.2712030000 114.2331250000,22.2712460000 114.2331070000,22.2712920000 114.2329430000,22.2717860000 114.2328250000,22.2721310000 114.2327280000,22.2724120000 114.2326340000,22.2726550000 114.2325970000,22.2727280000 114.2325560000,22.2727990000 114.2325170000,22.2728590000 114.2323880000,22.2730400000 114.2323390000,22.2731000000 114.2322880000,22.2731530000 114.2322260000,22.2732030000 114.2321910000,22.2732300000 114.2321350000,22.2732690000 114.2320020000,22.2733640000 114.2316410000,22.2736120000 114.2315350000,22.2736970000 114.2314380000,22.2737820000 114.2313520000,22.2738700000 114.2312680000,22.2739680000 114.2312090000,22.2740490000 114.2311610000,22.2741220000 114.2311190000,22.2741980000 114.2310440000,22.2743600000 114.2309610000,22.2745890000 114.2309180000,22.2747340000 114.2308900000,22.2748400000 114.2308210000,22.2751230000 114.2307770000,22.2752990000 114.2307550000,22.2753660000 114.2307200000,22.2754320000 114.2306700000,22.2755010000 114.2306300000,22.2755430000 114.2305830000,22.2755860000 114.2305400000,22.2756170000 114.2304980000,22.2756410000 114.2304190000,22.2756700000 114.2303270000,22.2756930000 114.2301860000,22.2757220000 114.2300870000,22.2757470000 114.2299330000,22.2757980000 114.2297940000,22.2758640000 114.2296620000,22.2759370000 114.2295030000,22.2760640000 114.2293760000,22.2761510000 114.2293030000,22.2761800000 114.2292260000,22.2762160000 114.2290630000,22.2762980000 114.2289140000,22.2763690000 114.2284010000,22.2765950000 114.2283210000,22.2766350000 114.2282390000,22.2767080000 114.2282100000,22.2767320000 114.2280320000,22.2769380000 114.2280120000,22.2769520000 114.2278120000,22.2771210000 114.2272170000,22.2774260000 114.2271020000,22.2774880000 114.2270670000,22.2775080000 114.2270000000,22.2775590000 114.2269410000,22.2776260000 114.2269050000,22.2776770000 114.2265440000,22.2782660000 114.2264770000,22.2782310000 114.2258150000,22.2778840000 114.2261350000,22.2772840000 114.2264440000,22.2767300000 114.2264970000,22.2766290000 114.2265310000,22.2765210000 114.2265450000,22.2764090000 114.2265380000,22.2762970000 114.2265120000,22.2761880000 114.2264660000,22.2760840000 114.2264020000,22.2759880000 114.2263220000,22.2759040000 114.2262500000,22.2758360000 114.2262120000,22.2758010000 114.2259880000,22.2756550000 114.2258660000,22.2755990000 114.2257380000,22.2755580000 114.2256050000,22.2755320000 114.2254690000,22.2755210000 114.2253340000,22.2755260000 114.2251990000,22.2755470000 114.2250690000,22.2755830000 114.2249450000,22.2756330000 114.2248670000,22.2756830000 114.2247870000,22.2757420000 114.2246690000,22.2758460000 114.2245940000,22.2759270000 114.2245270000,22.2760110000 114.2240730000,22.2766150000 114.2239530000,22.2767740000 114.2237760000,22.2770100000 114.2235780000,22.2772730000 114.2234000000,22.2775100000 114.2232270000,22.2777400000 114.2229610000,22.2780950000 114.2228310000,22.2782670000 114.2225930000,22.2785830000 114.2225580000,22.2786280000 114.2224680000,22.2787440000 114.2223960000,22.2788260000 114.2223140000,22.2789120000 114.2222170000,22.2789970000 114.2221050000,22.2790740000 114.2219900000,22.2791410000 114.2218680000,22.2791960000 114.2217470000,22.2792410000 114.2216490000,22.2792680000 114.2215490000,22.2792900000 114.2214500000,22.2793030000 114.2213570000,22.2793070000 114.2212660000,22.2793050000 114.2211810000,22.2792970000 114.2211010000,22.2792810000 114.2210200000,22.2792610000 114.2207330000,22.2791700000 114.2205760000,22.2791210000 114.2203930000,22.2790630000 114.2202670000,22.2790240000 114.2201640000,22.2789990000 114.2200670000,22.2789840000 114.2194530000,22.2789070000 114.2193150000,22.2788900000 114.2192350000,22.2788840000 114.2191630000,22.2788820000 114.2190800000,22.2788840000 114.2190050000,22.2788900000 114.2189190000,22.2789040000 114.2188480000,22.2789220000 114.2187800000,22.2789440000 114.2187030000,22.2789800000 114.2186260000,22.2790230000 114.2185580000,22.2790720000 114.2185130000,22.2791120000 114.2184740000,22.2791510000 114.2184290000,22.2792050000 114.2183880000,22.2792620000 114.2180700000,22.2797380000 114.2180390000,22.2797840000 114.2180100000,22.2798320000 114.2179850000,22.2798820000 114.2179550000,22.2799640000 114.2179350000,22.2800510000 114.2179240000,22.2801330000 114.2179210000,22.2801940000 114.2179250000,22.2802730000 114.2179350000,22.2803440000 114.2179500000,22.2804150000 114.2179740000,22.2804870000 114.2180050000,22.2805570000 114.2180420000,22.2806250000 114.2180850000,22.2806910000 114.2181690000,22.2807920000 114.2182200000,22.2808370000 114.2182870000,22.2808860000 114.2183540000,22.2809270000 114.2184190000,22.2809590000 114.2184760000,22.2809830000 114.2185300000,22.2810020000 114.2186840000,22.2810500000 114.2187490000,22.2810610000 114.2187970000,22.2810670000 114.2188400000,22.2810700000 114.2188920000,22.2810690000 114.2189690000,22.2810600000 114.2190470000,22.2810450000 114.2191210000,22.2810220000 114.2191860000,22.2810020000 114.2192280000,22.2809880000 114.2192900000,22.2809810000 114.2193410000,22.2809560000 114.2194200000,22.2809000000 114.2195400000,22.2808000000 114.2196300000,22.2807000000 114.2196900000,22.2806100000 114.2197400000,22.2805100000 114.2198000000,22.2804000000 114.2198400000,22.2803200000 114.2199100000,22.2802000000 114.2199790000,22.2801000000 114.2200460000,22.2800140000 114.2200750000,22.2799830000 114.2201060000,22.2799570000 114.2201450000,22.2799290000 114.2201870000,22.2799050000 114.2202330000,22.2798850000 114.2202840000,22.2798680000 114.2203350000,22.2798560000 114.2203770000,22.2798520000 114.2204200000,22.2798500000 114.2204650000,22.2798510000 114.2205090000,22.2798580000 114.2205530000,22.2798680000 114.2206000000,22.2798830000 114.2206370000,22.2798990000 114.2206700000,22.2799160000 114.2207010000,22.2799360000 114.2207320000,22.2799620000 114.2207590000,22.2799890000 114.2207880000,22.2800220000 114.2208310000,22.2800830000 114.2208640000,22.2801580000 114.2208800000,22.2802320000 114.2208800000,22.2803320000 114.2208720000,22.2803840000 114.2208590000,22.2804370000 114.2208370000,22.2804940000 114.2208140000,22.2805430000 114.2207930000,22.2805820000 114.2207700000,22.2806160000 114.2206180000,22.2808160000 114.2205920000,22.2808530000 114.2205680000,22.2808930000 114.2205430000,22.2809400000 114.2205180000,22.2809940000 114.2204930000,22.2810660000 114.2204850000,22.2811170000 114.2204770000,22.2812540000 114.2204780000,22.2813210000 114.2204800000,22.2813480000 114.2205420000,22.2817920000 114.2205200000,22.2819500000 114.2204530000,22.2821940000 114.2203470000,22.2823170000 114.2207770000,22.2826090000 114.2209860000,22.2827500000 114.2211510000,22.2828620000 114.2212030000,22.2828980000 114.2212480000,22.2829300000 114.2212680000,22.2829440000 114.2213170000,22.2829780000 114.2213770000,22.2830200000 114.2215850000,22.2831620000 114.2216600000,22.2832130000 114.2218290000,22.2833290000 114.2218720000,22.2833580000 114.2219410000,22.2834050000 114.2219920000,22.2834400000 114.2221230000,22.2835410000 114.2221380000,22.2835530000 114.2221560000,22.2835670000 114.2221720000,22.2835790000 114.2222160000,22.2836120000 114.2222670000,22.2836510000 114.2223560000,22.2837240000 114.2223700000,22.2837360000 114.2223890000,22.2837500000 114.2224780000,22.2838170000 114.2226060000,22.2839380000 114.2231380000,22.2844430000 114.2237840000,22.2850610000 114.2240400000,22.2853030000 114.2241030000,22.2853620000 114.2241900000,22.2854430000 114.2242630000,22.2855100000 114.2242980000,22.2854780000 114.2243400000,22.2854420000 114.2246700000,22.2851370000 114.2250140000,22.2848190000 114.2250140000,22.2847870000 114.2248820000,22.2846650000 114.2248120000,22.2845980000 114.2247150000,22.2845090000 114.2246300000,22.2844180000 114.2246180000,22.2844050000 114.2245920000,22.2843800000 114.2245470000,22.2843370000 114.2246000000,22.2842870000 114.2242920000,22.2839960000 114.2239530000,22.2836760000 114.2235520000,22.2833100000 114.2234700000,22.2832350000 114.2234210000,22.2831890000 114.2233600000,22.2831340000 114.2232320000,22.2830210000 114.2231990000,22.2829900000 114.2230870000,22.2828800000 114.2230710000,22.2828650000 114.2230630000,22.2828560000 114.2230500000,22.2828440000 114.2229740000,22.2827720000 114.2229100000,22.2827240000 114.2227960000,22.2826470000 114.2226230000,22.2825280000 114.2225770000,22.2824960000 114.2224410000,22.2823990000 114.2223970000,22.2823670000 114.2222020000,22.2822340000 114.2220900000,22.2821170000 114.2220320000,22.2820670000 114.2219660000,22.2820180000 114.2219480000,22.2820030000 114.2219190000,22.2819810000 114.2218830000,22.2819540000 114.2218190000,22.2819120000 114.2215430000,22.2817240000 114.2214800000,22.2816820000 114.2212590000,22.2815320000 114.2208440000,22.2812560000 114.2207680000,22.2812020000 114.2207070000,22.2811590000 114.2206690000,22.2811300000 114.2206400000,22.2811040000 114.2206160000,22.2810750000 114.2206070000,22.2810490000 114.2206050000,22.2810190000 114.2206100000,22.2809900000 114.2206200000,22.2809640000 114.2206380000,22.2809290000 114.2206600000,22.2808940000 114.2206850000,22.2808590000 114.2207790000,22.2807370000 114.2208180000,22.2806790000 114.2208710000,22.2805850000 114.2209090000,22.2805070000 114.2209290000,22.2804550000 114.2209440000,22.2804090000 114.2209540000,22.2803530000 114.2209600000,22.2803000000 114.2209570000,22.2802290000 114.2209330000,22.2801380000 114.2209170000,22.2800980000 114.2208980000,22.2800600000 114.2208780000,22.2800280000 114.2208550000,22.2799970000 114.2208280000,22.2799670000 114.2207980000,22.2799350000 114.2207610000,22.2799030000 114.2207200000,22.2798740000 114.2206840000,22.2798540000 114.2206420000,22.2798350000 114.2206000000,22.2798190000 114.2205520000,22.2798050000 114.2205030000,22.2797940000 114.2204530000,22.2797870000 114.2204030000,22.2797840000 114.2203520000,22.2797880000 114.2203000000,22.2797980000 114.2202000000,22.2798300000 114.2201000000,22.2798820000 114.2200700000,22.2799000000 114.2199780000,22.2799980000 114.2198990000,22.2801000000 114.2198400000,22.2802000000 114.2197800000,22.2803000000 114.2197500000,22.2803760000 114.2197400000,22.2804000000 114.2196900000,22.2805000000 114.2196300000,22.2806000000 114.2195600000,22.2807000000 114.2194700000,22.2808000000 114.2193920000,22.2808610000 114.2193130000,22.2809060000 114.2192630000,22.2809340000 114.2192280000,22.2809880000 114.2191860000,22.2810020000 114.2191210000,22.2810220000 114.2190470000,22.2810450000 114.2189690000,22.2810600000 114.2188920000,22.2810690000 114.2188400000,22.2810700000 114.2187970000,22.2810670000 114.2187490000,22.2810610000 114.2186840000,22.2810500000 114.2185300000,22.2810020000 114.2184760000,22.2809830000 114.2184190000,22.2809590000 114.2183540000,22.2809270000 114.2182870000,22.2808860000 114.2182200000,22.2808370000 114.2181690000,22.2807920000 114.2180850000,22.2806910000 114.2180420000,22.2806250000 114.2180050000,22.2805570000 114.2179740000,22.2804870000 114.2179500000,22.2804150000 114.2179350000,22.2803440000 114.2179250000,22.2802730000 114.2179210000,22.2801940000 114.2179240000,22.2801330000 114.2179350000,22.2800510000 114.2179550000,22.2799640000 114.2179850000,22.2798820000 114.2180100000,22.2798320000 114.2180390000,22.2797840000 114.2180700000,22.2797380000 114.2183880000,22.2792620000 114.2184290000,22.2792050000 114.2184740000,22.2791510000 114.2185130000,22.2791120000 114.2185580000,22.2790720000 114.2186260000,22.2790230000 114.2187030000,22.2789800000 114.2187800000,22.2789440000 114.2188480000,22.2789220000 114.2189190000,22.2789040000 114.2190050000,22.2788900000 114.2190800000,22.2788840000 114.2191630000,22.2788820000 114.2192350000,22.2788840000 114.2193150000,22.2788900000 114.2200670000,22.2789840000 114.2201640000,22.2789990000 114.2202670000,22.2790240000 114.2203930000,22.2790630000 114.2205760000,22.2791210000 114.2207330000,22.2791700000 114.2210200000,22.2792610000 114.2211010000,22.2792810000 114.2211810000,22.2792970000 114.2212660000,22.2793050000 114.2213570000,22.2793070000 114.2214500000,22.2793030000 114.2215490000,22.2792900000 114.2216490000,22.2792680000 114.2217470000,22.2792410000 114.2218680000,22.2791960000 114.2219900000,22.2791410000 114.2221050000,22.2790740000 114.2222170000,22.2789970000 114.2223140000,22.2789120000 114.2223960000,22.2788260000 114.2224680000,22.2787440000 114.2225580000,22.2786280000 114.2225930000,22.2785830000 114.2228310000,22.2782670000 114.2229610000,22.2780950000 114.2232270000,22.2777400000 114.2234000000,22.2775100000 114.2235780000,22.2772730000 114.2237760000,22.2770100000 114.2238780000,22.2768740000 114.2239530000,22.2767740000 114.2240730000,22.2766150000 114.2245270000,22.2760110000 114.2245940000,22.2759270000 114.2246690000,22.2758460000 114.2247870000,22.2757420000 114.2248670000,22.2756830000 114.2249450000,22.2756330000 114.2250690000,22.2755830000 114.2251990000,22.2755470000 114.2253340000,22.2755260000 114.2254690000,22.2755210000 114.2256050000,22.2755320000 114.2257380000,22.2755580000 114.2258660000,22.2755990000 114.2259880000,22.2756550000 114.2262120000,22.2758010000 114.2262500000,22.2758360000 114.2263220000,22.2759040000 114.2264020000,22.2759880000 114.2264660000,22.2760840000 114.2265120000,22.2761880000 114.2265380000,22.2762970000 114.2265450000,22.2764090000 114.2265310000,22.2765210000 114.2264970000,22.2766290000 114.2264440000,22.2767300000 114.2261350000,22.2772840000 114.2258150000,22.2778840000 114.2264770000,22.2782310000 114.2265440000,22.2782660000 114.2265870000,22.2782860000 114.2266080000,22.2782970000 114.2266320000,22.2783090000 114.2268930000,22.2778750000 114.2269840000,22.2777290000 114.2270500000,22.2776460000 114.2271230000,22.2775830000 114.2271790000,22.2775490000 114.2280260000,22.2771020000 114.2282110000,22.2770180000 114.2282930000,22.2769840000 114.2282900000,22.2769530000 114.2282980000,22.2769240000 114.2283180000,22.2768910000 114.2283730000,22.2768280000 114.2284020000,22.2768040000 114.2284370000,22.2767800000 114.2284610000,22.2767660000 114.2284910000,22.2767520000 114.2285180000,22.2767430000 114.2285430000,22.2767360000 114.2285920000,22.2767280000 114.2286210000,22.2767200000 114.2286500000,22.2767100000 114.2290880000,22.2765010000 114.2291680000,22.2764590000 114.2292170000,22.2764300000 114.2292670000,22.2763950000 114.2294120000,22.2762800000 114.2294590000,22.2762400000 114.2295230000,22.2761780000 114.2295560000,22.2761490000 114.2295950000,22.2761170000 114.2297530000,22.2759980000 114.2298280000,22.2759560000 114.2299010000,22.2759190000 114.2299900000,22.2758800000 114.2301700000,22.2758300000 114.2303600000,22.2757880000 114.2304510000,22.2757610000 114.2305390000,22.2757280000 114.2306330000,22.2756830000 114.2307100000,22.2756380000 114.2307410000,22.2756130000 114.2307720000,22.2755880000 114.2308090000,22.2755580000 114.2308440000,22.2755120000 114.2308760000,22.2754510000 114.2308950000,22.2753940000 114.2310180000,22.2748910000 114.2310850000,22.2746350000 114.2311680000,22.2744030000 114.2312180000,22.2742900000 114.2312750000,22.2741770000 114.2313640000,22.2740490000 114.2314730000,22.2739210000 114.2315910000,22.2738040000 114.2316730000,22.2737380000 114.2319450000,22.2735490000 114.2320690000,22.2734620000 114.2321510000,22.2734040000 114.2322780000,22.2733100000 114.2323490000,22.2732520000 114.2323990000,22.2732040000 114.2324620000,22.2731350000 114.2325200000,22.2730660000 114.2325820000,22.2729820000 114.2326380000,22.2728990000 114.2326860000,22.2728180000 114.2327310000,22.2727310000 114.2327740000,22.2726390000 114.2328030000,22.2725650000 114.2330300000,22.2719100000 114.2331900000,22.2714510000 114.2332450000,22.2713120000 114.2333040000,22.2711840000 114.2333230000,22.2711500000 114.2333400000,22.2711180000 114.2334140000,22.2709930000 114.2333120000,22.2709560000 114.2332100000,22.2709100000 114.2331560000,22.2708730000 114.2331190000,22.2708200000 114.2330810000,22.2707430000 114.2330630000,22.2706840000 114.2330580000,22.2706400000 114.2330530000,22.2705570000 114.2330540000,22.2704850000 114.2330600000,22.2704070000 114.2330690000,22.2703350000 114.2330840000,22.2702480000 114.2331160000,22.2700920000 114.2331300000,22.2700000000 114.2331360000,22.2699440000 114.2331390000,22.2699000000 114.2331390000,22.2698560000 114.2331390000,22.2698000000 114.2331290000,22.2697000000 114.2330700000,22.2694600000 114.2330470000,22.2694220000 114.2327800000,22.2689800000 114.2327460000,22.2689360000 114.2323090000,22.2684050000 114.2322790000,22.2683600000 114.2322520000,22.2683140000 114.2322320000,22.2682700000 114.2322150000,22.2682200000 114.2322010000,22.2681700000 114.2321910000,22.2681270000 114.2321810000,22.2680750000 114.2321730000,22.2680090000 114.2321520000,22.2676180000 114.2321520000,22.2675430000 114.2321560000,22.2674780000 114.2321660000,22.2674020000 114.2322090000,22.2671800000 114.2322160000,22.2671240000 114.2322170000,22.2670620000 114.2322120000,22.2669990000 114.2322040000,22.2669500000 114.2321920000,22.2668970000 114.2321730000,22.2668380000 114.2319970000,22.2664470000 114.2319100000,22.2662640000 114.2316710000,22.2655960000 114.2315420000,22.2653350000 114.2311860000,22.2647990000 114.2308300000,22.2642600000 114.2306950000,22.2640590000 114.2303550000,22.2635010000 114.2301900000,22.2632300000 114.2299210000,22.2628090000 114.2298820000,22.2627520000 114.2298470000,22.2627090000 114.2298020000,22.2626620000 114.2297590000,22.2626220000 114.2297150000,22.2625860000 114.2296730000,22.2625570000 114.2296210000,22.2625250000 114.2295730000,22.2625000000 114.2295070000,22.2624740000 114.2283580000,22.2620930000 114.2282700000,22.2620670000 114.2281940000,22.2620470000 114.2281280000,22.2620340000 114.2280530000,22.2620250000 114.2279760000,22.2620210000 114.2278810000,22.2620200000 114.2278060000,22.2620240000 114.2277350000,22.2620330000 114.2276640000,22.2620460000 114.2275880000,22.2620640000 114.2275260000,22.2620840000 114.2274650000,22.2621080000 114.2274130000,22.2621320000 114.2273450000,22.2621670000 114.2272880000,22.2621990000 114.2272300000,22.2622370000 114.2271820000,22.2622730000 114.2271390000,22.2623090000 114.2270980000,22.2623500000 114.2270430000,22.2624110000 114.2269940000,22.2624700000 114.2268510000,22.2626570000 114.2265840000,22.2630070000 114.2265480000,22.2630470000 114.2265100000,22.2630820000 114.2264700000,22.2631130000 114.2264230000,22.2631420000 114.2263730000,22.2631630000 114.2263110000,22.2631830000 114.2262300000,22.2632000000 114.2261410000,22.2632070000 114.2260850000,22.2632050000 114.2257580000,22.2631780000 114.2256900000,22.2631680000 114.2256210000,22.2631500000 114.2255640000,22.2631290000 114.2255190000,22.2631050000 114.2254730000,22.2630700000 114.2254430000,22.2630380000 114.2254210000,22.2630050000 114.2254050000,22.2629760000 114.2253920000,22.2629380000 114.2253850000,22.2629020000 114.2253830000,22.2628650000 114.2253880000,22.2628140000 114.2254030000,22.2627600000 114.2254280000,22.2626970000 114.2254600000,22.2626400000 114.2256750000,22.2623400000 114.2257080000,22.2622870000 114.2257360000,22.2622300000 114.2257550000,22.2621640000 114.2257600000,22.2621000000 114.2257580000,22.2620580000 114.2257530000,22.2620190000 114.2257440000,22.2619780000 114.2257320000,22.2619440000 114.2257150000,22.2619110000 114.2256240000,22.2617470000 114.2256050000,22.2617030000 114.2255890000,22.2616570000 114.2255750000,22.2616090000 114.2255530000,22.2615110000 114.2255460000,22.2614630000 114.2255400000,22.2614120000 114.2255370000,22.2613560000 114.2255370000,22.2613080000 114.2255420000,22.2612520000 114.2256870000,22.2600360000 114.2256960000,22.2599340000 114.2257000000,22.2598490000 114.2257080000,22.2587350000 114.2257000000,22.2586310000 114.2256930000,22.2585890000 114.2256570000,22.2584290000 114.2256080000,22.2582650000 114.2256010000,22.2582310000 114.2255970000,22.2581970000 114.2255970000,22.2581620000 114.2256010000,22.2581230000 114.2256090000,22.2580940000 114.2256200000,22.2580680000 114.2256340000,22.2580420000 114.2256490000,22.2580190000 114.2256660000,22.2579970000 114.2256850000,22.2579780000 114.2257080000,22.2579580000 114.2257310000,22.2579420000 114.2257560000,22.2579270000 114.2257840000,22.2579140000 114.2258130000,22.2579030000 114.2258440000,22.2578950000 114.2258750000,22.2578910000 114.2259460000,22.2578910000 114.2261560000,22.2578990000 114.2263220000,22.2579020000 114.2265920000,22.2578920000 114.2267510000,22.2578800000 114.2271040000,22.2578380000 114.2272330000,22.2578190000 114.2275590000,22.2577540000 114.2279470000,22.2576530000 114.2280310000,22.2576260000 114.2280610000,22.2576140000 114.2280860000,22.2575970000 114.2281260000,22.2575560000 114.2281620000,22.2575070000 114.2281760000,22.2574720000 114.2282200000,22.2573630000 114.2282540000,22.2573120000 114.2282660000,22.2572950000 114.2282790000,22.2572780000 114.2283000000,22.2572370000 114.2283120000,22.2572200000 114.2283180000,22.2572000000 114.2283150000,22.2571790000 114.2283050000,22.2571600000 114.2282890000,22.2571460000 114.2282680000,22.2571370000 114.2282460000,22.2571360000 114.2282240000,22.2571420000 114.2282060000,22.2571540000 114.2281830000,22.2571080000 114.2281590000,22.2570650000 114.2281460000,22.2570260000 114.2280890000,22.2568470000 114.2280730000,22.2568020000 114.2279780000,22.2565270000 114.2279160000,22.2563420000 114.2276430000,22.2555730000 114.2274830000,22.2548670000 114.2274530000,22.2547220000 114.2274540000,22.2546040000 114.2274700000,22.2544850000 114.2275310000,22.2542390000 114.2275410000,22.2540930000 114.2275400000,22.2540620000 114.2275350000,22.2540250000 114.2275250000,22.2539940000 114.2275100000,22.2539640000 114.2274920000,22.2539380000 114.2274670000,22.2539130000 114.2274370000,22.2538890000 114.2273980000,22.2538650000 114.2273640000,22.2538470000 114.2271370000,22.2537360000 114.2271130000,22.2537230000 114.2270890000,22.2537090000 114.2270650000,22.2536920000 114.2270430000,22.2536730000 114.2270230000,22.2536510000 114.2269970000,22.2536180000 114.2261730000,22.2525210000 114.2261020000,22.2524410000 114.2259180000,22.2522630000 114.2256750000,22.2519940000 114.2255810000,22.2518520000 114.2254600000,22.2516300000 114.2253770000,22.2514320000 114.2252200000,22.2510600000 114.2251810000,22.2509910000 114.2251280000,22.2509300000 114.2250650000,22.2508900000 114.2250440000,22.2508810000 114.2250180000,22.2508700000 114.2249800000,22.2508620000 114.2249600000,22.2508580000 114.2249390000,22.2508590000 114.2249000000,22.2508600000 114.2248280000,22.2508770000 114.2248090000,22.2508880000 114.2247640000,22.2509130000 114.2245100000,22.2511400000 114.2244680000,22.2511680000 114.2244510000,22.2511750000 114.2244100000,22.2511900000 114.2243730000,22.2511940000 114.2243500000,22.2511970000 114.2243100000,22.2511920000 114.2242700000,22.2511790000 114.2242400000,22.2511600000 114.2242260000,22.2511460000 114.2242100000,22.2511300000 114.2241980000,22.2511120000 114.2241840000,22.2510800000 114.2241810000,22.2510660000 114.2241750000,22.2510400000 114.2241600000,22.2509000000 114.2241490000,22.2507500000 114.2241420000,22.2505500000 114.2241420000,22.2505340000 114.2241460000,22.2503400000 114.2241480000,22.2502600000 114.2241420000,22.2502100000 114.2241300000,22.2501710000 114.2241270000,22.2501600000 114.2240990000,22.2501060000 114.2240720000,22.2500650000 114.2240620000,22.2500500000 114.2239440000,22.2498800000 114.2235630000,22.2493310000 114.2233000000,22.2489520000 114.2232700000,22.2489080000 114.2232370000,22.2488500000 114.2232060000,22.2487900000 114.2231800000,22.2487320000 114.2231580000,22.2486780000 114.2231400000,22.2486200000 114.2231200000,22.2485400000 114.2231100000,22.2484700000 114.2230900000,22.2482300000 114.2230800000,22.2481800000 114.2230660000,22.2481300000 114.2230500000,22.2480900000 114.2230300000,22.2480500000 114.2230000000,22.2480050000 114.2229710000,22.2479650000 114.2229420000,22.2479320000 114.2229010000,22.2478990000 114.2228550000,22.2478700000 114.2228110000,22.2478470000 114.2227610000,22.2478250000 114.2227140000,22.2478060000 114.2226600000,22.2477870000 114.2226010000,22.2477690000 114.2225400000,22.2477570000 114.2224800000,22.2477510000 114.2224100000,22.2477490000 114.2223500000,22.2477500000 114.2222800000,22.2477550000 114.2222200000,22.2477640000 114.2221500000,22.2477790000 114.2221100000,22.2477900000 114.2216000000,22.2479510000 114.2215390000,22.2479680000 114.2214800000,22.2479750000 114.2214050000,22.2479630000 114.2213550000,22.2479370000 114.2213040000,22.2479020000 114.2212510000,22.2478450000 114.2212180000,22.2477860000 114.2211960000,22.2476360000 114.2212000000,22.2474740000 114.2212030000,22.2465660000 114.2212110000,22.2461890000 114.2212090000,22.2461150000 114.2212000000,22.2460550000 114.2211880000,22.2459870000 114.2210420000,22.2451830000 114.2210360000,22.2451370000 114.2210320000,22.2450950000 114.2210320000,22.2450540000 114.2210360000,22.2450120000 114.2210430000,22.2449750000 114.2210570000,22.2449180000 114.2210670000,22.2448850000 114.2210820000,22.2448440000 114.2210940000,22.2448140000 114.2211090000,22.2447820000 114.2220120000,22.2430360000 114.2220210000,22.2430170000 114.2220270000,22.2429970000 114.2220300000,22.2429770000 114.2220260000,22.2429550000 114.2220150000,22.2429300000 114.2218990000,22.2427010000 114.2218870000,22.2426720000 114.2218770000,22.2426390000 114.2218610000,22.2425500000 114.2218560000,22.2424900000 114.2218600000,22.2424470000 114.2218670000,22.2424100000 114.2218790000,22.2423700000 114.2218940000,22.2423330000 114.2219110000,22.2423010000 114.2219720000,22.2421970000 114.2219820000,22.2421760000 114.2219900000,22.2421570000 114.2219960000,22.2421350000 114.2220070000,22.2420890000 114.2220130000,22.2420580000 114.2220150000,22.2420300000 114.2220150000,22.2419990000 114.2220120000,22.2419680000 114.2220010000,22.2418990000 114.2219940000,22.2418280000 114.2219710000,22.2415120000 114.2219670000,22.2414780000 114.2219610000,22.2414440000 114.2219520000,22.2414150000 114.2219410000,22.2413860000 114.2219140000,22.2413340000 114.2218950000,22.2413010000 114.2218750000,22.2412730000 114.2218540000,22.2412500000 114.2218290000,22.2412300000 114.2217970000,22.2412090000 114.2216850000,22.2411470000 114.2216540000,22.2411280000 114.2216270000,22.2411070000 114.2215970000,22.2410750000 114.2215690000,22.2410430000 114.2215430000,22.2410060000 114.2215220000,22.2409710000 114.2215040000,22.2409350000 114.2214930000,22.2408960000 114.2214840000,22.2408480000 114.2214340000,22.2404380000 114.2213990000,22.2400470000 114.2213910000,22.2399560000 114.2212580000,22.2384400000 114.2212560000,22.2383990000 114.2212560000,22.2383680000 114.2212600000,22.2383370000 114.2212680000,22.2383040000 114.2212790000,22.2382730000 114.2212920000,22.2382410000 114.2213090000,22.2382120000 114.2213310000,22.2381840000 114.2213570000,22.2381550000 114.2213960000,22.2381150000 114.2214220000,22.2380850000 114.2214530000,22.2380440000 114.2214880000,22.2379950000 114.2215170000,22.2379490000 114.2215440000,22.2379010000 114.2215680000,22.2378550000 114.2215890000,22.2378020000 114.2219030000,22.2369310000 114.2219330000,22.2368590000 114.2219790000,22.2367950000 114.2220300000,22.2367350000 114.2220920000,22.2366710000 114.2221610000,22.2366040000 114.2225310000,22.2362840000 114.2226200000,22.2361950000 114.2227030000,22.2360970000 114.2227760000,22.2359950000 114.2228340000,22.2358930000 114.2228740000,22.2358110000 114.2229070000,22.2357300000 114.2229330000,22.2356510000 114.2229500000,22.2355890000 114.2229670000,22.2355090000 114.2229800000,22.2354310000 114.2229850000,22.2353610000 114.2229860000,22.2352820000 114.2229810000,22.2351990000 114.2229720000,22.2351260000 114.2229020000,22.2347960000 114.2228350000,22.2345580000 114.2227800000,22.2344600000 114.2226430000,22.2336990000 114.2226150000,22.2335830000 114.2223860000,22.2327690000 114.2223740000,22.2327160000 114.2223670000,22.2326740000 114.2223640000,22.2326310000 114.2223650000,22.2325910000 114.2223710000,22.2325330000 114.2223820000,22.2324490000 114.2224040000,22.2323090000 114.2224190000,22.2321730000 114.2224220000,22.2321250000 114.2224170000,22.2320820000 114.2224070000,22.2320410000 114.2223910000,22.2319960000 114.2223710000,22.2319550000 114.2223520000,22.2319260000 114.2223320000,22.2318980000 114.2223070000,22.2318740000 114.2222750000,22.2318470000 114.2222200000,22.2318040000 114.2221870000,22.2317770000 114.2220360000,22.2316420000 114.2219880000,22.2315950000 114.2219460000,22.2315460000 114.2219060000,22.2314960000 114.2218460000,22.2314100000 114.2215780000,22.2309820000 114.2215370000,22.2309110000 114.2213980000,22.2306480000 114.2213170000,22.2304790000 114.2210920000,22.2299550000 114.2210580000,22.2298900000 114.2210210000,22.2298330000 114.2209770000,22.2297780000 114.2209280000,22.2297220000 114.2208730000,22.2296680000 114.2208260000,22.2296270000 114.2207530000,22.2295680000 114.2206890000,22.2295220000 114.2206250000,22.2294830000 114.2205290000,22.2294280000 114.2204400000,22.2293830000 114.2203080000,22.2293220000 114.2202310000,22.2292890000 114.2201590000,22.2292610000 114.2200850000,22.2292360000 114.2199840000,22.2292060000 114.2199100000,22.2291890000 114.2198400000,22.2291780000 114.2197990000,22.2291740000 114.2197590000,22.2291750000 114.2197170000,22.2291780000 114.2196770000,22.2291840000 114.2196350000,22.2291950000 114.2195950000,22.2292080000 114.2195530000,22.2292280000 114.2195130000,22.2292490000 114.2194760000,22.2292720000 114.2194440000,22.2292950000 114.2194170000,22.2293170000 114.2193910000,22.2293410000 114.2193650000,22.2293670000 114.2193410000,22.2293950000 114.2193160000,22.2294280000 114.2192930000,22.2294620000 114.2192770000,22.2294900000 114.2192630000,22.2295180000 114.2192520000,22.2295460000 114.2192370000,22.2295880000 114.2192260000,22.2296280000 114.2192190000,22.2296590000 114.2192080000,22.2297240000 114.2192010000,22.2297520000 114.2191930000,22.2297770000 114.2191840000,22.2297990000 114.2191660000,22.2298330000 114.2191440000,22.2298680000 114.2191140000,22.2299090000 114.2190860000,22.2299420000 114.2190590000,22.2299680000 114.2190170000,22.2300040000 114.2189860000,22.2300250000 114.2189520000,22.2300440000 114.2189210000,22.2300600000 114.2188900000,22.2300740000 114.2188610000,22.2300850000 114.2188350000,22.2300940000 114.2188050000,22.2301030000 114.2187750000,22.2301090000 114.2186590000,22.2301230000 114.2186050000,22.2301280000 114.2185450000,22.2301330000 114.2185060000,22.2301340000 114.2184160000,22.2301340000 114.2183740000,22.2301330000 114.2183320000,22.2301300000 114.2182940000,22.2301260000 114.2182590000,22.2301190000 114.2182020000,22.2301050000 114.2181600000,22.2300910000 114.2181200000,22.2300740000 114.2180900000,22.2300580000 114.2180630000,22.2300390000 114.2180330000,22.2300150000 114.2180080000,22.2299930000 114.2179820000,22.2299670000 114.2179570000,22.2299370000 114.2179370000,22.2299080000 114.2179190000,22.2298760000 114.2179010000,22.2298370000 114.2178710000,22.2297220000 114.2178600000,22.2293870000 114.2178530000,22.2290390000 114.2178240000,22.2287940000 114.2177570000,22.2285680000 114.2177040000,22.2284100000 114.2176250000,22.2281930000 114.2175300000,22.2279340000 114.2174080000,22.2275970000 114.2173380000,22.2274450000 114.2172670000,22.2272910000 114.2170790000,22.2269490000 114.2168070000,22.2265210000 114.2167110000,22.2263870000 114.2166410000,22.2263040000 114.2164320000,22.2260830000 114.2162550000,22.2259160000 114.2160570000,22.2257520000 114.2158270000,22.2255750000 114.2156440000,22.2254500000 114.2152610000,22.2252340000 114.2149750000,22.2251120000 114.2148820000,22.2250720000 114.2147940000,22.2250390000 114.2147220000,22.2250230000 114.2146240000,22.2250170000 114.2145520000,22.2250340000 114.2145080000,22.2250370000 114.2144660000,22.2250340000 114.2144300000,22.2250230000 114.2144000000,22.2250070000 114.2143710000,22.2249880000 114.2141950000,22.2248610000 114.2141310000,22.2248220000 114.2140790000,22.2247940000 114.2140240000,22.2247700000 114.2139730000,22.2247520000 114.2139140000,22.2247350000 114.2138470000,22.2247200000 114.2135260000,22.2246610000 114.2134320000,22.2246480000 114.2132920000,22.2246330000 114.2132300000,22.2246280000 114.2131680000,22.2246260000 114.2130920000,22.2246290000 114.2130040000,22.2246400000 114.2129000000,22.2246600000 114.2128530000,22.2246730000 114.2127700000,22.2247040000 114.2127130000,22.2247250000 114.2126730000,22.2247360000 114.2126250000,22.2247430000 114.2125770000,22.2247450000 114.2124500000,22.2247410000 114.2123700000,22.2247250000 114.2123210000,22.2247100000 114.2122770000,22.2246920000 114.2122380000,22.2246720000 114.2122020000,22.2246470000 114.2121200000,22.2245700000 114.2116410000,22.2240500000 114.2116110000,22.2240200000 114.2115610000,22.2239810000 114.2115060000,22.2239510000 114.2114750000,22.2239360000 114.2114470000,22.2239260000 114.2114220000,22.2239200000 114.2114000000,22.2239160000 114.2113740000,22.2239140000 114.2113450000,22.2239140000 114.2113040000,22.2239190000 114.2112670000,22.2239250000 114.2112240000,22.2239380000 114.2111810000,22.2239540000 114.2111430000,22.2239720000 114.2111070000,22.2239920000 114.2110780000,22.2240100000 114.2110410000,22.2240360000 114.2109990000,22.2240690000 114.2109490000,22.2241110000 114.2108110000,22.2242310000 114.2107710000,22.2242680000 114.2107320000,22.2243080000 114.2106820000,22.2243610000 114.2106460000,22.2244030000 114.2105900000,22.2244700000 114.2101360000,22.2250430000 114.2100990000,22.2250920000 114.2099680000,22.2252890000 114.2099350000,22.2253350000 114.2098940000,22.2253850000 114.2098600000,22.2254180000 114.2098240000,22.2254460000 114.2097890000,22.2254700000 114.2097560000,22.2254870000 114.2097210000,22.2255000000 114.2096880000,22.2255090000 114.2096520000,22.2255140000 114.2096090000,22.2255130000 114.2095680000,22.2255060000 114.2095320000,22.2254930000 114.2095010000,22.2254760000 114.2094760000,22.2254570000 114.2094530000,22.2254350000 114.2094330000,22.2254110000 114.2094150000,22.2253830000 114.2094000000,22.2253540000 114.2093860000,22.2253190000 114.2093750000,22.2252840000 114.2093690000,22.2252520000 114.2093650000,22.2252150000 114.2093000000,22.2243560000 114.2092930000,22.2242950000 114.2092840000,22.2242370000 114.2092730000,22.2241950000 114.2092560000,22.2241430000 114.2092360000,22.2240970000 114.2092110000,22.2240500000 114.2091540000,22.2239580000 114.2091230000,22.2239120000 114.2090920000,22.2238710000 114.2090540000,22.2238280000 114.2090180000,22.2237930000 114.2089770000,22.2237600000 114.2089280000,22.2237240000 114.2088860000,22.2236970000 114.2088270000,22.2236630000 114.2087720000,22.2236360000 114.2087240000,22.2236170000 114.2086750000,22.2236040000 114.2086450000,22.2235980000 114.2085990000,22.2235890000 114.2085500000,22.2235810000 114.2084920000,22.2235740000 114.2084330000,22.2235680000 114.2078980000,22.2235360000 114.2078350000,22.2235330000 114.2077740000,22.2235330000 114.2077090000,22.2235390000 114.2076490000,22.2235470000 114.2075810000,22.2235610000 114.2075110000,22.2235780000 114.2074520000,22.2235940000 114.2072010000,22.2236710000 114.2071120000,22.2237010000 114.2069070000,22.2237740000 114.2067110000,22.2238480000 114.2064470000,22.2239560000 114.2063400000,22.2240040000 114.2061240000,22.2241100000 114.2060690000,22.2241380000 114.2059760000,22.2241900000 114.2058780000,22.2242510000 114.2058000000,22.2243050000 114.2057560000,22.2243400000 114.2057210000,22.2243730000 114.2056820000,22.2244150000 114.2056530000,22.2244500000 114.2056110000,22.2245070000 114.2055790000,22.2245570000 114.2055540000,22.2246020000 114.2055270000,22.2246560000 114.2054730000,22.2247830000 114.2054100000,22.2249050000 114.2053990000,22.2249140000 114.2053200000,22.2249770000 114.2052220000,22.2250110000 114.2051760000,22.2250180000 114.2051180000,22.2250260000 114.2049270000,22.2250300000 114.2048460000,22.2250320000 114.2039530000,22.2250840000 114.2039040000,22.2250890000 114.2038930000,22.2249880000 114.2038410000,22.2246330000 114.2037550000,22.2240350000 114.2037430000,22.2239770000 114.2037280000,22.2239220000 114.2037110000,22.2238800000 114.2036810000,22.2238220000 114.2036500000,22.2237740000 114.2036200000,22.2237390000 114.2035840000,22.2237030000 114.2035520000,22.2236760000 114.2035100000,22.2236460000 114.2034670000,22.2236190000 114.2032640000,22.2234980000 114.2032090000,22.2234640000 114.2031710000,22.2234380000 114.2031340000,22.2234080000 114.2030980000,22.2233740000 114.2030690000,22.2233380000 114.2030380000,22.2232980000 114.2030100000,22.2232560000 114.2029840000,22.2232100000 114.2029640000,22.2231660000 114.2029460000,22.2231170000 114.2029320000,22.2230670000 114.2029210000,22.2230200000 114.2029160000,22.2229650000 114.2029140000,22.2229060000 114.2029160000,22.2228530000 114.2029230000,22.2228020000 114.2029330000,22.2227530000 114.2029520000,22.2226860000 114.2030480000,22.2223440000 114.2030500000,22.2223350000 114.2030580000,22.2222920000 114.2030650000,22.2222450000 114.2030700000,22.2221960000 114.2030710000,22.2221470000 114.2030680000,22.2220620000 114.2030150000,22.2212640000 114.2030130000,22.2211640000 114.2030180000,22.2210870000 114.2030290000,22.2210080000 114.2032000000,22.2204930000 114.2032650000,22.2203000000 114.2033380000,22.2200820000 114.2033570000,22.2200310000 114.2034040000,22.2199030000 114.2034170000,22.2198550000 114.2034630000,22.2197580000 114.2034780000,22.2197230000 114.2035810000,22.2195770000 114.2036080000,22.2195490000 114.2037060000,22.2194770000 114.2038060000,22.2194100000 114.2038530000,22.2193790000 114.2039960000,22.2192910000 114.2042890000,22.2191100000 114.2044520000,22.2189510000 114.2045560000,22.2188220000 114.2046190000,22.2187340000 114.2046760000,22.2186250000 114.2047420000,22.2184400000 114.2047640000,22.2183570000 114.2047710000,22.2182540000 114.2047580000,22.2180790000 114.2047140000,22.2179310000 114.2046420000,22.2177120000 114.2047010000,22.2176940000 114.2048400000,22.2176440000 114.2048880000,22.2176200000 114.2049230000,22.2175990000 114.2049540000,22.2175750000 114.2049820000,22.2175450000 114.2050060000,22.2175100000 114.2050840000,22.2173810000 114.2052000000,22.2171850000 114.2052980000,22.2170190000 114.2053910000,22.2168620000 114.2054340000,22.2168020000 114.2055050000,22.2167430000 114.2055780000,22.2167070000 114.2056270000,22.2166920000 114.2056620000,22.2166880000 114.2057070000,22.2166860000 114.2058000000,22.2166900000 114.2058740000,22.2167120000 114.2059540000,22.2167480000 114.2060310000,22.2167900000 114.2061000000,22.2168410000 114.2061790000,22.2169080000 114.2062390000,22.2169800000 114.2062830000,22.2170580000 114.2063090000,22.2171340000 114.2063930000,22.2175980000 114.2064050000,22.2176490000 114.2064170000,22.2176890000 114.2064340000,22.2177280000 114.2064530000,22.2177590000 114.2064770000,22.2177870000 114.2065050000,22.2178170000 114.2065380000,22.2178410000 114.2066200000,22.2178980000 114.2066570000,22.2179270000 114.2066850000,22.2179560000 114.2067070000,22.2179870000 114.2067270000,22.2180230000 114.2067500000,22.2180740000 114.2067700000,22.2181300000 114.2067870000,22.2181920000 114.2067990000,22.2182590000 114.2068060000,22.2183200000 114.2068110000,22.2183870000 114.2068100000,22.2184410000 114.2068050000,22.2185010000 114.2067970000,22.2185480000 114.2067880000,22.2185940000 114.2067460000,22.2187410000 114.2067270000,22.2188270000 114.2067150000,22.2188960000 114.2067110000,22.2189600000 114.2067140000,22.2190400000 114.2067160000,22.2190920000 114.2067260000,22.2191570000 114.2067870000,22.2193820000 114.2068060000,22.2194370000 114.2068170000,22.2197030000 114.2068000000,22.2197310000 114.2067950000,22.2197620000 114.2068010000,22.2197930000 114.2068170000,22.2198200000 114.2068430000,22.2198410000 114.2069430000,22.2199970000 114.2069500000,22.2200650000 114.2068560000,22.2203100000 114.2067740000,22.2204570000 114.2067110000,22.2205530000 114.2066150000,22.2206450000 114.2064020000,22.2207830000 114.2062120000,22.2208740000 114.2059560000,22.2209280000 114.2054720000,22.2209890000 114.2053050000,22.2210460000 114.2052470000,22.2210750000 114.2052040000,22.2210990000 114.2051700000,22.2211210000 114.2051410000,22.2211430000 114.2051130000,22.2211660000 114.2050810000,22.2211960000 114.2050470000,22.2212330000 114.2050190000,22.2212700000 114.2049930000,22.2213090000 114.2049710000,22.2213480000 114.2049510000,22.2213890000 114.2049370000,22.2214240000 114.2049250000,22.2214590000 114.2049130000,22.2215060000 114.2049050000,22.2215540000 114.2049000000,22.2216010000 114.2048990000,22.2216430000 114.2049010000,22.2216840000 114.2049060000,22.2217270000 114.2049180000,22.2217780000 114.2049320000,22.2218220000 114.2049480000,22.2218650000 114.2049710000,22.2219160000 114.2050000000,22.2219630000 114.2050280000,22.2220020000 114.2050580000,22.2220380000 114.2050950000,22.2220760000 114.2051370000,22.2221130000 114.2051770000,22.2221430000 114.2052180000,22.2221710000 114.2052690000,22.2221980000 114.2053260000,22.2222230000 114.2053750000,22.2222390000 114.2054200000,22.2222500000 114.2054700000,22.2222590000 114.2055270000,22.2222670000 114.2055960000,22.2222720000 114.2056790000,22.2222730000 114.2063240000,22.2222400000 114.2065300000,22.2222290000 114.2069340000,22.2222080000 114.2070340000,22.2222030000 114.2071380000,22.2221960000 114.2072000000,22.2221890000 114.2072590000,22.2221790000 114.2073180000,22.2221670000 114.2073890000,22.2221480000 114.2074570000,22.2221250000 114.2075200000,22.2220990000 114.2075860000,22.2220680000 114.2076540000,22.2220300000 114.2077180000,22.2219890000 114.2077870000,22.2219350000 114.2078450000,22.2218830000 114.2079130000,22.2218130000 114.2079740000,22.2217410000 114.2084700000,22.2211210000 114.2085440000,22.2210320000 114.2086140000,22.2209520000 114.2086980000,22.2208650000 114.2087800000,22.2207900000 114.2088590000,22.2207230000 114.2089650000,22.2206450000 114.2091580000,22.2205240000 114.2093020000,22.2204200000 114.2095280000,22.2202350000 114.2096280000,22.2201480000 114.2098060000,22.2199970000 114.2099600000,22.2198660000 114.2105470000,22.2193700000 114.2106070000,22.2193210000 114.2106640000,22.2192810000 114.2107310000,22.2192370000 114.2107950000,22.2192040000 114.2108510000,22.2191820000 114.2109100000,22.2191640000 114.2109720000,22.2191530000 114.2110330000,22.2191480000 114.2111000000,22.2191500000 114.2111630000,22.2191590000 114.2112290000,22.2191760000 114.2112880000,22.2191980000 114.2113490000,22.2192280000 114.2114050000,22.2192620000 114.2114630000,22.2193010000 114.2115100000,22.2193360000 114.2115440000,22.2193670000 114.2117190000,22.2195390000 114.2117710000,22.2195850000 114.2120980000,22.2198420000 114.2121470000,22.2198830000 114.2121850000,22.2199200000 114.2123050000,22.2200550000 114.2123450000,22.2200950000 114.2125380000,22.2202730000 114.2125700000,22.2202980000 114.2126080000,22.2203240000 114.2126670000,22.2203520000 114.2127120000,22.2203600000 114.2127550000,22.2199930000 114.2127580000,22.2199700000 114.2127660000,22.2199020000 114.2128310000,22.2194110000 114.2128560000,22.2192380000 114.2129200000,22.2188490000 114.2129960000,22.2188610000 114.2130200000,22.2188670000 114.2130390000,22.2188750000 114.2130550000,22.2188880000 114.2130730000,22.2189050000 114.2131130000,22.2189590000 114.2131590000,22.2190210000 114.2131660000,22.2190370000 114.2131690000,22.2190530000 114.2131680000,22.2190700000 114.2131450000,22.2192120000</coordinates>
                </LineString>
                <ExtendedData>
                    <Data name="length">
                        <value>27665.49474532525</value>
                    </Data>
                    <Data name="duration">
                        <value>00:36:48</value>
                    </Data>
                </ExtendedData>
            </Placemark>
        </Document>
    </Document>
</kml>