<?xml version="1.0" encoding="UTF-8"?>
<kml xmlns="http://www.opengis.net/kml/2.2" xmlns:gx="http://www.google.com/kml/ext/2.2">
    <Document>
        <name>Route</name>
        <Folder>
            <name>Route Request</name>
            <Placemark>
                <Point>
                    <coordinates>114.1881941976,22.2637511233</coordinates>
                </Point>
                <ExtendedData>
                    <Data name="routingVisited">
                        <value>false</value>
                    </Data>
                </ExtendedData>
            </Placemark>
            <Placemark>
                <Point>
                    <coordinates>114.1814717384,22.2709593794</coordinates>
                </Point>
                <ExtendedData>
                    <Data name="routingVisited">
                        <value>false</value>
                    </Data>
                </ExtendedData>
            </Placemark>
            <Placemark>
                <Point>
                    <coordinates>114.1945719211,22.2770546305</coordinates>
                </Point>
            </Placemark>
            <Placemark>
                <Point>
                    <coordinates>114.1946748794,22.2893353065</coordinates>
                </Point>
            </Placemark>
            <Placemark>
                <Point>
                    <coordinates>114.1890720206,22.2871289479</coordinates>
                </Point>
                <ExtendedData>
                    <Data name="routingVisited">
                        <value>false</value>
                    </Data>
                </ExtendedData>
            </Placemark>
            <Placemark>
                <address>Watsons, 102-104, Shau Kei Wan Main Street East, Aldrich Bay, Shau Kei Wan, Eastern District, Hong Kong Island, Hong Kong, China</address>
                <Point>
                    <coordinates>114.2295346512,22.2785601066</coordinates>
                </Point>
                <ExtendedData>
                    <Data name="house_number">
                        <value>102-104</value>
                    </Data>
                    <Data name="ISO3166-2-lvl3">
                        <value>CN-HK</value>
                    </Data>
                    <Data name="shop">
                        <value>Watsons</value>
                    </Data>
                    <Data name="road">
                        <value>Shau Kei Wan Main Street East</value>
                    </Data>
                    <Data name="city_district">
                        <value>Eastern District</value>
                    </Data>
                    <Data name="city">
                        <value>Hong Kong Island</value>
                    </Data>
                    <Data name="country">
                        <value>China</value>
                    </Data>
                    <Data name="country_code">
                        <value>cn</value>
                    </Data>
                    <Data name="neighbourhood">
                        <value>Aldrich Bay</value>
                    </Data>
                    <Data name="suburb">
                        <value>Shau Kei Wan</value>
                    </Data>
                    <Data name="state">
                        <value>Hong Kong</value>
                    </Data>
                </ExtendedData>
            </Placemark>
            <Placemark>
                <Point>
                    <coordinates>114.2382881113,22.2692525482</coordinates>
                </Point>
            </Placemark>
            <Placemark>
                <Point>
                    <coordinates>114.2371132648,22.2649330585</coordinates>
                </Point>
            </Placemark>
            <Placemark>
                <Point>
                    <coordinates>114.2511045770,22.2629851206</coordinates>
                </Point>
            </Placemark>
            <Placemark>
                <Point>
                    <coordinates>114.2509133851,22.2661894788</coordinates>
                </Point>
                <ExtendedData>
                    <Data name="routingVisited">
                        <value>false</value>
                    </Data>
                </ExtendedData>
            </Placemark>
            <Placemark>
                <Point>
                    <coordinates>114.2516353210,22.2628683366</coordinates>
                </Point>
            </Placemark>
            <Placemark>
                <Point>
                    <coordinates>114.2371058844,22.2649262283</coordinates>
                </Point>
            </Placemark>
            <Placemark>
                <Point>
                    <coordinates>114.2385169156,22.2703863593</coordinates>
                </Point>
            </Placemark>
            <Placemark>
                <address>Watsons, 102-104, Shau Kei Wan Main Street East, Aldrich Bay, Shau Kei Wan, Eastern District, Hong Kong Island, Hong Kong, China</address>
                <Point>
                    <coordinates>114.2301031113,22.2785778191</coordinates>
                </Point>
                <ExtendedData>
                    <Data name="house_number">
                        <value>102-104</value>
                    </Data>
                    <Data name="ISO3166-2-lvl3">
                        <value>CN-HK</value>
                    </Data>
                    <Data name="shop">
                        <value>Watsons</value>
                    </Data>
                    <Data name="road">
                        <value>Shau Kei Wan Main Street East</value>
                    </Data>
                    <Data name="city_district">
                        <value>Eastern District</value>
                    </Data>
                    <Data name="city">
                        <value>Hong Kong Island</value>
                    </Data>
                    <Data name="country">
                        <value>China</value>
                    </Data>
                    <Data name="country_code">
                        <value>cn</value>
                    </Data>
                    <Data name="neighbourhood">
                        <value>Aldrich Bay</value>
                    </Data>
                    <Data name="suburb">
                        <value>Shau Kei Wan</value>
                    </Data>
                    <Data name="state">
                        <value>Hong Kong</value>
                    </Data>
                </ExtendedData>
            </Placemark>
            <Placemark>
                <address>Sai Wan Ho Depot, Island Eastern Corridor, Aldrich Bay, Shau Kei Wan, Eastern District, Hong Kong Island, Hong Kong, China</address>
                <Point>
                    <coordinates>114.2259633674,22.2803354695</coordinates>
                </Point>
                <ExtendedData>
                    <Data name="ISO3166-2-lvl3">
                        <value>CN-HK</value>
                    </Data>
                    <Data name="road">
                        <value>Island Eastern Corridor</value>
                    </Data>
                    <Data name="city_district">
                        <value>Eastern District</value>
                    </Data>
                    <Data name="city">
                        <value>Hong Kong Island</value>
                    </Data>
                    <Data name="country">
                        <value>China</value>
                    </Data>
                    <Data name="country_code">
                        <value>cn</value>
                    </Data>
                    <Data name="neighbourhood">
                        <value>Aldrich Bay</value>
                    </Data>
                    <Data name="railway">
                        <value>Sai Wan Ho Depot</value>
                    </Data>
                    <Data name="suburb">
                        <value>Shau Kei Wan</value>
                    </Data>
                    <Data name="state">
                        <value>Hong Kong</value>
                    </Data>
                </ExtendedData>
            </Placemark>
            <Placemark>
                <Point>
                    <coordinates>114.1914093331,22.2862920187</coordinates>
                </Point>
                <ExtendedData>
                    <Data name="routingVisited">
                        <value>false</value>
                    </Data>
                </ExtendedData>
            </Placemark>
            <Placemark>
                <address>Cheung Chuk Shan College, Cloud View Road, Tin Hau, Tai Hang, Eastern District, Hong Kong Island, Hong Kong, 000000, China</address>
                <Point>
                    <coordinates>114.1955683166,22.2857329461</coordinates>
                </Point>
                <ExtendedData>
                    <Data name="amenity">
                        <value>Cheung Chuk Shan College</value>
                    </Data>
                    <Data name="ISO3166-2-lvl3">
                        <value>CN-HK</value>
                    </Data>
                    <Data name="road">
                        <value>Cloud View Road</value>
                    </Data>
                    <Data name="city_district">
                        <value>Eastern District</value>
                    </Data>
                    <Data name="city">
                        <value>Hong Kong Island</value>
                    </Data>
                    <Data name="country">
                        <value>China</value>
                    </Data>
                    <Data name="country_code">
                        <value>cn</value>
                    </Data>
                    <Data name="postcode">
                        <value>000000</value>
                    </Data>
                    <Data name="quarter">
                        <value>Tin Hau</value>
                    </Data>
                    <Data name="suburb">
                        <value>Tai Hang</value>
                    </Data>
                    <Data name="state">
                        <value>Hong Kong</value>
                    </Data>
                </ExtendedData>
            </Placemark>
            <Placemark>
                <Point>
                    <coordinates>114.1943209679,22.2768224003</coordinates>
                </Point>
                <ExtendedData>
                    <Data name="routingVisited">
                        <value>false</value>
                    </Data>
                </ExtendedData>
            </Placemark>
            <Placemark>
                <address>St. Paul's Secondary School, 18A, Ventris Road, Leighton Hill, Happy Valley, Wan Chai District, Hong Kong Island, Hong Kong, China</address>
                <Point>
                    <coordinates>114.1845567510,22.2721072353</coordinates>
                </Point>
                <ExtendedData>
                    <Data name="amenity">
                        <value>St. Paul's Secondary School</value>
                    </Data>
                    <Data name="house_number">
                        <value>18A</value>
                    </Data>
                    <Data name="ISO3166-2-lvl3">
                        <value>CN-HK</value>
                    </Data>
                    <Data name="road">
                        <value>Ventris Road</value>
                    </Data>
                    <Data name="city_district">
                        <value>Wan Chai District</value>
                    </Data>
                    <Data name="city">
                        <value>Hong Kong Island</value>
                    </Data>
                    <Data name="country">
                        <value>China</value>
                    </Data>
                    <Data name="country_code">
                        <value>cn</value>
                    </Data>
                    <Data name="neighbourhood">
                        <value>Leighton Hill</value>
                    </Data>
                    <Data name="suburb">
                        <value>Happy Valley</value>
                    </Data>
                    <Data name="state">
                        <value>Hong Kong</value>
                    </Data>
                </ExtendedData>
            </Placemark>
            <Placemark>
                <address>24, Green Lane, Happy Valley, Wan Chai District, Hong Kong Island, Hong Kong, China</address>
                <Point>
                    <coordinates>114.1881913220,22.2637296603</coordinates>
                </Point>
                <ExtendedData>
                    <Data name="house_number">
                        <value>24</value>
                    </Data>
                    <Data name="ISO3166-2-lvl3">
                        <value>CN-HK</value>
                    </Data>
                    <Data name="road">
                        <value>Green Lane</value>
                    </Data>
                    <Data name="city_district">
                        <value>Wan Chai District</value>
                    </Data>
                    <Data name="city">
                        <value>Hong Kong Island</value>
                    </Data>
                    <Data name="country">
                        <value>China</value>
                    </Data>
                    <Data name="country_code">
                        <value>cn</value>
                    </Data>
                    <Data name="quarter">
                        <value>Happy Valley</value>
                    </Data>
                    <Data name="suburb">
                        <value>Happy Valley</value>
                    </Data>
                    <Data name="state">
                        <value>Hong Kong</value>
                    </Data>
                </ExtendedData>
            </Placemark>
        </Folder>
        <Document>
            <name>38.9 km; 00:58 h (OSRM)</name>
            <Placemark>
                <name>Route</name>
                <LineString>
                    <coordinates>114.1882070000,22.2637510000 114.1882070000,22.2637980000 114.1881940000,22.2638000000 114.1881810000,22.2638040000 114.1881700000,22.2638120000 114.1881590000,22.2638250000 114.1881530000,22.2638410000 114.1881530000,22.2638580000 114.1881590000,22.2638730000 114.1881700000,22.2638860000 114.1881800000,22.2638930000 114.1881910000,22.2638980000 114.1882070000,22.2639000000 114.1882210000,22.2638980000 114.1882340000,22.2638940000 114.1882450000,22.2638860000 114.1882540000,22.2638750000 114.1882600000,22.2638630000 114.1898360000,22.2638730000 114.1899590000,22.2639170000 114.1899960000,22.2639470000 114.1900280000,22.2639740000 114.1900420000,22.2639900000 114.1900200000,22.2640300000 114.1899650000,22.2641070000 114.1898590000,22.2642070000 114.1898130000,22.2642400000 114.1897610000,22.2642730000 114.1896880000,22.2643100000 114.1896330000,22.2643300000 114.1895750000,22.2643500000 114.1894820000,22.2643640000 114.1894230000,22.2643720000 114.1891130000,22.2643730000 114.1890090000,22.2643890000 114.1888980000,22.2644440000 114.1888740000,22.2644730000 114.1888370000,22.2645420000 114.1888310000,22.2645800000 114.1888200000,22.2646480000 114.1888200000,22.2647900000 114.1888200000,22.2652410000 114.1888210000,22.2653580000 114.1888180000,22.2654910000 114.1888180000,22.2655960000 114.1887920000,22.2656200000 114.1887910000,22.2656600000 114.1887930000,22.2656830000 114.1888190000,22.2657070000 114.1888190000,22.2658970000 114.1888220000,22.2659480000 114.1888170000,22.2660070000 114.1887870000,22.2660850000 114.1887520000,22.2661010000 114.1887350000,22.2661150000 114.1887110000,22.2661290000 114.1886880000,22.2661550000 114.1884770000,22.2662560000 114.1879220000,22.2664940000 114.1878030000,22.2665500000 114.1876080000,22.2667110000 114.1873800000,22.2669460000 114.1873170000,22.2670340000 114.1871980000,22.2672180000 114.1871360000,22.2673160000 114.1871070000,22.2673650000 114.1869460000,22.2676280000 114.1868940000,22.2677150000 114.1867400000,22.2679700000 114.1866760000,22.2680690000 114.1864940000,22.2683730000 114.1864630000,22.2684220000 114.1862360000,22.2687870000 114.1861670000,22.2688670000 114.1860950000,22.2689380000 114.1860130000,22.2689990000 114.1859430000,22.2690490000 114.1857320000,22.2691860000 114.1856980000,22.2692060000 114.1856160000,22.2692020000 114.1855610000,22.2691960000 114.1854810000,22.2691730000 114.1853870000,22.2691490000 114.1848350000,22.2689630000 114.1842980000,22.2687730000 114.1842460000,22.2687550000 114.1841500000,22.2687210000 114.1841220000,22.2687590000 114.1840000000,22.2689300000 114.1839250000,22.2690050000 114.1838700000,22.2690600000 114.1838420000,22.2690890000 114.1838230000,22.2691090000 114.1837190000,22.2692160000 114.1836810000,22.2692540000 114.1836200000,22.2693170000 114.1834660000,22.2694220000 114.1833290000,22.2696120000 114.1832900000,22.2696570000 114.1832400000,22.2696720000 114.1831840000,22.2697340000 114.1831650000,22.2697540000 114.1831310000,22.2697890000 114.1829820000,22.2699390000 114.1828930000,22.2700220000 114.1822240000,22.2705600000 114.1820340000,22.2706650000 114.1817880000,22.2707790000 114.1814840000,22.2709050000 114.1814510000,22.2709210000 114.1813980000,22.2709470000 114.1813140000,22.2709960000 114.1812810000,22.2710190000 114.1803780000,22.2716360000 114.1802890000,22.2717000000 114.1801930000,22.2717730000 114.1800880000,22.2718840000 114.1799760000,22.2720890000 114.1798890000,22.2723080000 114.1794720000,22.2734180000 114.1794130000,22.2735080000 114.1793830000,22.2736130000 114.1793630000,22.2737010000 114.1793460000,22.2737820000 114.1793180000,22.2739540000 114.1793060000,22.2741270000 114.1793170000,22.2742600000 114.1793300000,22.2743480000 114.1793690000,22.2745110000 114.1793760000,22.2745380000 114.1793970000,22.2746150000 114.1794340000,22.2746870000 114.1795040000,22.2748340000 114.1795550000,22.2749250000 114.1795640000,22.2750380000 114.1796010000,22.2751050000 114.1796630000,22.2751680000 114.1799410000,22.2754570000 114.1800190000,22.2755580000 114.1800890000,22.2756730000 114.1801690000,22.2758050000 114.1802480000,22.2759630000 114.1803700000,22.2760170000 114.1804550000,22.2761220000 114.1804780000,22.2761490000 114.1805430000,22.2762320000 114.1805640000,22.2762580000 114.1806200000,22.2763350000 114.1806410000,22.2763650000 114.1806750000,22.2764120000 114.1807630000,22.2765030000 114.1809650000,22.2766080000 114.1812140000,22.2766900000 114.1813260000,22.2767270000 114.1818460000,22.2769280000 114.1819350000,22.2769180000 114.1819820000,22.2769380000 114.1820400000,22.2769620000 114.1820610000,22.2770140000 114.1820960000,22.2770280000 114.1821390000,22.2770440000 114.1821890000,22.2770280000 114.1822050000,22.2770340000 114.1823440000,22.2770920000 114.1824620000,22.2771370000 114.1825260000,22.2771590000 114.1825700000,22.2771750000 114.1827770000,22.2772990000 114.1828620000,22.2773500000 114.1829150000,22.2773850000 114.1834620000,22.2777450000 114.1835170000,22.2777570000 114.1836000000,22.2777800000 114.1836580000,22.2777930000 114.1837810000,22.2778120000 114.1839010000,22.2777860000 114.1840350000,22.2777240000 114.1841430000,22.2776660000 114.1845360000,22.2774590000 114.1846050000,22.2774220000 114.1847980000,22.2773200000 114.1849380000,22.2772470000 114.1850660000,22.2771850000 114.1851850000,22.2771450000 114.1852150000,22.2771350000 114.1852850000,22.2771300000 114.1853500000,22.2771380000 114.1854170000,22.2771650000 114.1854420000,22.2771750000 114.1854710000,22.2771870000 114.1855020000,22.2772050000 114.1856940000,22.2774040000 114.1860680000,22.2777980000 114.1860710000,22.2778740000 114.1860740000,22.2779330000 114.1860940000,22.2784120000 114.1861000000,22.2785700000 114.1861060000,22.2789500000 114.1861070000,22.2790250000 114.1861610000,22.2791860000 114.1861900000,22.2792680000 114.1862480000,22.2794200000 114.1862810000,22.2794490000 114.1862970000,22.2794730000 114.1863160000,22.2794920000 114.1863500000,22.2795090000 114.1863870000,22.2795100000 114.1864600000,22.2794920000 114.1866070000,22.2794470000 114.1868260000,22.2793770000 114.1868500000,22.2793700000 114.1869210000,22.2793700000 114.1869580000,22.2793840000 114.1869850000,22.2793940000 114.1870210000,22.2794070000 114.1870340000,22.2794110000 114.1871390000,22.2794510000 114.1872990000,22.2794630000 114.1874440000,22.2794810000 114.1876100000,22.2795380000 114.1876740000,22.2795240000 114.1877110000,22.2795040000 114.1877270000,22.2794820000 114.1877430000,22.2794600000 114.1877410000,22.2793750000 114.1876680000,22.2792970000 114.1877380000,22.2792250000 114.1880150000,22.2789680000 114.1881190000,22.2788720000 114.1881900000,22.2788040000 114.1882790000,22.2787190000 114.1883640000,22.2786410000 114.1884110000,22.2785970000 114.1884910000,22.2786170000 114.1885270000,22.2786250000 114.1891860000,22.2787910000 114.1894420000,22.2788520000 114.1896030000,22.2788920000 114.1896410000,22.2788510000 114.1896930000,22.2787920000 114.1897380000,22.2787600000 114.1897890000,22.2787370000 114.1898440000,22.2787250000 114.1903640000,22.2786470000 114.1905880000,22.2786180000 114.1905920000,22.2786690000 114.1906030000,22.2788120000 114.1905990000,22.2788460000 114.1905900000,22.2788790000 114.1905780000,22.2789120000 114.1905620000,22.2789420000 114.1904360000,22.2791080000 114.1903900000,22.2791490000 114.1903340000,22.2791770000 114.1902710000,22.2791870000 114.1902070000,22.2791800000 114.1901490000,22.2791550000 114.1899740000,22.2790500000 114.1899130000,22.2789660000 114.1898980000,22.2789030000 114.1898930000,22.2788590000 114.1898930000,22.2788120000 114.1898980000,22.2787660000 114.1899120000,22.2787150000 114.1900410000,22.2785700000 114.1900890000,22.2785240000 114.1901400000,22.2784870000 114.1901650000,22.2784660000 114.1902910000,22.2783730000 114.1903770000,22.2783140000 114.1904550000,22.2782610000 114.1906250000,22.2781570000 114.1908000000,22.2780620000 114.1908420000,22.2780420000 114.1909810000,22.2779760000 114.1911770000,22.2778750000 114.1916880000,22.2776650000 114.1918230000,22.2776120000 114.1921050000,22.2775030000 114.1927600000,22.2772490000 114.1928620000,22.2772110000 114.1932190000,22.2770850000 114.1934460000,22.2770210000 114.1936700000,22.2769530000 114.1937500000,22.2769270000 114.1938270000,22.2769050000 114.1939030000,22.2768840000 114.1939470000,22.2768680000 114.1940980000,22.2768200000 114.1941940000,22.2768020000 114.1942530000,22.2768150000 114.1943300000,22.2768630000 114.1944760000,22.2769160000 114.1945600000,22.2769710000 114.1946090000,22.2770280000 114.1946540000,22.2770820000 114.1946720000,22.2771700000 114.1946610000,22.2772670000 114.1945540000,22.2774640000 114.1945350000,22.2774990000 114.1945120000,22.2775400000 114.1944110000,22.2777280000 114.1943890000,22.2777660000 114.1941320000,22.2782100000 114.1939780000,22.2784130000 114.1937740000,22.2786260000 114.1936440000,22.2787750000 114.1935990000,22.2788710000 114.1935810000,22.2789220000 114.1935720000,22.2790110000 114.1935640000,22.2790950000 114.1935630000,22.2791350000 114.1935670000,22.2791790000 114.1936350000,22.2793800000 114.1936440000,22.2795150000 114.1936510000,22.2795460000 114.1936690000,22.2795770000 114.1936860000,22.2796060000 114.1937570000,22.2796600000 114.1938330000,22.2796860000 114.1938990000,22.2797200000 114.1939540000,22.2797630000 114.1939950000,22.2798310000 114.1940100000,22.2799060000 114.1940120000,22.2799780000 114.1939940000,22.2800390000 114.1939690000,22.2800920000 114.1939420000,22.2801300000 114.1939140000,22.2801610000 114.1936080000,22.2804730000 114.1935480000,22.2805390000 114.1935210000,22.2805720000 114.1934970000,22.2806050000 114.1934790000,22.2806360000 114.1934610000,22.2806730000 114.1934500000,22.2807040000 114.1934410000,22.2807410000 114.1934360000,22.2807780000 114.1934350000,22.2808200000 114.1934360000,22.2808630000 114.1934420000,22.2809030000 114.1934540000,22.2809480000 114.1934850000,22.2810340000 114.1935280000,22.2811040000 114.1937800000,22.2815130000 114.1938080000,22.2815580000 114.1939350000,22.2817250000 114.1940890000,22.2818710000 114.1942430000,22.2820170000 114.1945470000,22.2822750000 114.1945990000,22.2823230000 114.1946480000,22.2823710000 114.1946930000,22.2824250000 114.1947330000,22.2824820000 114.1947640000,22.2825360000 114.1947900000,22.2825920000 114.1948110000,22.2826510000 114.1948320000,22.2827230000 114.1949330000,22.2831840000 114.1950560000,22.2837380000 114.1950590000,22.2837550000 114.1950940000,22.2839140000 114.1951450000,22.2841490000 114.1952030000,22.2844190000 114.1952190000,22.2845440000 114.1951520000,22.2845400000 114.1950000000,22.2845590000 114.1948590000,22.2846180000 114.1947610000,22.2846830000 114.1946910000,22.2847670000 114.1946560000,22.2848240000 114.1946340000,22.2848780000 114.1946170000,22.2849350000 114.1946070000,22.2849730000 114.1946040000,22.2850120000 114.1946100000,22.2850920000 114.1946110000,22.2851030000 114.1946320000,22.2852190000 114.1946500000,22.2852650000 114.1946790000,22.2853100000 114.1947300000,22.2853700000 114.1947880000,22.2854290000 114.1948600000,22.2854780000 114.1948950000,22.2854930000 114.1949610000,22.2855200000 114.1951960000,22.2855810000 114.1953290000,22.2856150000 114.1953910000,22.2856300000 114.1954810000,22.2856600000 114.1954950000,22.2856680000 114.1955720000,22.2857120000 114.1956510000,22.2857880000 114.1956630000,22.2858030000 114.1957030000,22.2858600000 114.1958640000,22.2861850000 114.1958810000,22.2862600000 114.1958700000,22.2863320000 114.1958290000,22.2864040000 114.1955990000,22.2865390000 114.1954460000,22.2866280000 114.1952390000,22.2863140000 114.1951510000,22.2863740000 114.1951110000,22.2864040000 114.1950580000,22.2864530000 114.1950420000,22.2865010000 114.1950440000,22.2865340000 114.1950630000,22.2866130000 114.1952610000,22.2869670000 114.1953000000,22.2870400000 114.1953180000,22.2870700000 114.1954160000,22.2872390000 114.1954580000,22.2873450000 114.1955840000,22.2876600000 114.1955950000,22.2877070000 114.1955990000,22.2877560000 114.1955850000,22.2878330000 114.1953970000,22.2881610000 114.1953620000,22.2882210000 114.1952270000,22.2884410000 114.1951410000,22.2885860000 114.1950950000,22.2886790000 114.1950720000,22.2887210000 114.1950500000,22.2887740000 114.1950320000,22.2888180000 114.1950080000,22.2888830000 114.1949670000,22.2890180000 114.1949440000,22.2891350000 114.1949280000,22.2891800000 114.1949120000,22.2892190000 114.1948760000,22.2892800000 114.1948430000,22.2893170000 114.1948100000,22.2893310000 114.1947660000,22.2893610000 114.1947360000,22.2893840000 114.1947250000,22.2893920000 114.1946360000,22.2894580000 114.1946050000,22.2894080000 114.1945520000,22.2893250000 114.1944580000,22.2892190000 114.1944490000,22.2892090000 114.1944390000,22.2891980000 114.1944310000,22.2891880000 114.1944220000,22.2891790000 114.1943110000,22.2890520000 114.1942340000,22.2889650000 114.1938690000,22.2885610000 114.1936620000,22.2883330000 114.1934520000,22.2880920000 114.1933680000,22.2879940000 114.1932260000,22.2878210000 114.1931440000,22.2877040000 114.1930900000,22.2875930000 114.1930560000,22.2875150000 114.1930250000,22.2874440000 114.1930080000,22.2873910000 114.1929920000,22.2873240000 114.1929780000,22.2872280000 114.1929710000,22.2871600000 114.1929670000,22.2870700000 114.1929680000,22.2870230000 114.1929650000,22.2869900000 114.1929670000,22.2869200000 114.1929810000,22.2868530000 114.1929890000,22.2866020000 114.1929910000,22.2865540000 114.1929920000,22.2864730000 114.1930010000,22.2862070000 114.1930060000,22.2859650000 114.1930080000,22.2858200000 114.1930070000,22.2855770000 114.1930010000,22.2854810000 114.1929890000,22.2853700000 114.1929770000,22.2853080000 114.1928810000,22.2847740000 114.1928030000,22.2847450000 114.1927790000,22.2847420000 114.1927410000,22.2847480000 114.1926650000,22.2847670000 114.1925220000,22.2847740000 114.1918100000,22.2847310000 114.1916510000,22.2847250000 114.1915570000,22.2847190000 114.1911250000,22.2847000000 114.1910300000,22.2846920000 114.1910010000,22.2847700000 114.1909730000,22.2848400000 114.1909220000,22.2849480000 114.1908430000,22.2850990000 114.1908210000,22.2851380000 114.1907780000,22.2852160000 114.1907490000,22.2852400000 114.1907230000,22.2852640000 114.1906930000,22.2853060000 114.1906770000,22.2853300000 114.1906360000,22.2853920000 114.1905760000,22.2854760000 114.1905250000,22.2855430000 114.1904140000,22.2856760000 114.1903550000,22.2857320000 114.1902950000,22.2857790000 114.1902350000,22.2858200000 114.1901740000,22.2858580000 114.1895060000,22.2862750000 114.1893040000,22.2864000000 114.1892220000,22.2864660000 114.1891900000,22.2864980000 114.1891470000,22.2865490000 114.1891210000,22.2865840000 114.1890980000,22.2866190000 114.1890760000,22.2866580000 114.1890540000,22.2867040000 114.1890360000,22.2867560000 114.1890220000,22.2868030000 114.1890120000,22.2868610000 114.1890060000,22.2869170000 114.1890060000,22.2869710000 114.1890170000,22.2870760000 114.1890360000,22.2871380000 114.1890490000,22.2871820000 114.1890910000,22.2872660000 114.1891410000,22.2873420000 114.1892240000,22.2874490000 114.1893630000,22.2876290000 114.1894240000,22.2877120000 114.1894640000,22.2877670000 114.1895360000,22.2878630000 114.1896090000,22.2879590000 114.1896640000,22.2880280000 114.1896980000,22.2880650000 114.1899050000,22.2882920000 114.1900860000,22.2886490000 114.1902500000,22.2889500000 114.1903820000,22.2891680000 114.1904500000,22.2892800000 114.1905550000,22.2894300000 114.1905900000,22.2894800000 114.1907500000,22.2896800000 114.1910500000,22.2900000000 114.1913660000,22.2902870000 114.1921570000,22.2909910000 114.1923870000,22.2911680000 114.1924300000,22.2912020000 114.1925570000,22.2913050000 114.1926230000,22.2913590000 114.1926890000,22.2914090000 114.1928130000,22.2914980000 114.1930120000,22.2916410000 114.1930980000,22.2917060000 114.1931220000,22.2917220000 114.1931500000,22.2917410000 114.1931790000,22.2917610000 114.1933530000,22.2918870000 114.1934530000,22.2919710000 114.1935380000,22.2920420000 114.1935600000,22.2920570000 114.1935890000,22.2920770000 114.1936150000,22.2920950000 114.1937360000,22.2921760000 114.1938530000,22.2922540000 114.1939710000,22.2923350000 114.1942000000,22.2924760000 114.1942290000,22.2924940000 114.1943770000,22.2925660000 114.1944670000,22.2926100000 114.1946230000,22.2926870000 114.1946890000,22.2927190000 114.1947490000,22.2927490000 114.1949190000,22.2928180000 114.1950130000,22.2928550000 114.1951890000,22.2929160000 114.1952860000,22.2929460000 114.1954310000,22.2929870000 114.1955320000,22.2930090000 114.1956910000,22.2930430000 114.1958170000,22.2930670000 114.1960670000,22.2931130000 114.1961620000,22.2931270000 114.1963610000,22.2931600000 114.1964840000,22.2931820000 114.1966050000,22.2932070000 114.1967740000,22.2932440000 114.1968570000,22.2932610000 114.1971240000,22.2933140000 114.1979380000,22.2934830000 114.1980630000,22.2935070000 114.1981920000,22.2935260000 114.1984040000,22.2935500000 114.1985630000,22.2935620000 114.1987190000,22.2935680000 114.1989060000,22.2935720000 114.1992000000,22.2935690000 114.1994040000,22.2935740000 114.1995900000,22.2935850000 114.1997700000,22.2936020000 114.1999500000,22.2936270000 114.2001000000,22.2936520000 114.2004940000,22.2937360000 114.2005620000,22.2937500000 114.2013180000,22.2939100000 114.2015380000,22.2939610000 114.2018510000,22.2940330000 114.2020960000,22.2940870000 114.2021880000,22.2941020000 114.2025300000,22.2941540000 114.2026050000,22.2941710000 114.2028680000,22.2942240000 114.2031620000,22.2942590000 114.2034130000,22.2942700000 114.2035000000,22.2942730000 114.2037630000,22.2942770000 114.2039330000,22.2942720000 114.2040330000,22.2942680000 114.2042530000,22.2942480000 114.2045700000,22.2942130000 114.2047400000,22.2941890000 114.2049790000,22.2941720000 114.2050480000,22.2941670000 114.2052070000,22.2941560000 114.2052900000,22.2941450000 114.2057090000,22.2940920000 114.2058390000,22.2940690000 114.2059740000,22.2940410000 114.2061450000,22.2940000000 114.2063050000,22.2939520000 114.2064890000,22.2938890000 114.2073080000,22.2935620000 114.2075320000,22.2934770000 114.2077810000,22.2933920000 114.2082330000,22.2932500000 114.2085090000,22.2931560000 114.2087820000,22.2930640000 114.2089400000,22.2930070000 114.2090780000,22.2929240000 114.2092580000,22.2928120000 114.2094910000,22.2926640000 114.2097870000,22.2924670000 114.2103300000,22.2920690000 114.2107360000,22.2917730000 114.2110800000,22.2915210000 114.2112770000,22.2913910000 114.2114890000,22.2912520000 114.2115750000,22.2911980000 114.2117400000,22.2910950000 114.2120130000,22.2909330000 114.2121350000,22.2908620000 114.2122140000,22.2908150000 114.2122920000,22.2907670000 114.2124160000,22.2906960000 114.2125630000,22.2906120000 114.2128380000,22.2904560000 114.2130110000,22.2903960000 114.2131490000,22.2903480000 114.2132210000,22.2903240000 114.2132900000,22.2903010000 114.2133910000,22.2902620000 114.2136010000,22.2901930000 114.2137590000,22.2901410000 114.2141980000,22.2900120000 114.2152080000,22.2897610000 114.2154200000,22.2897020000 114.2159290000,22.2895610000 114.2159970000,22.2895460000 114.2162200000,22.2894900000 114.2167600000,22.2893500000 114.2170400000,22.2892800000 114.2175060000,22.2891330000 114.2189290000,22.2887910000 114.2192940000,22.2887030000 114.2194430000,22.2886760000 114.2201540000,22.2885500000 114.2203430000,22.2885060000 114.2205780000,22.2884310000 114.2207340000,22.2883680000 114.2208710000,22.2882970000 114.2209830000,22.2882290000 114.2210790000,22.2881610000 114.2212180000,22.2880420000 114.2213650000,22.2878910000 114.2214470000,22.2877890000 114.2215190000,22.2876910000 114.2215890000,22.2875770000 114.2216580000,22.2874390000 114.2217170000,22.2872920000 114.2217670000,22.2871360000 114.2217910000,22.2870320000 114.2218150000,22.2868850000 114.2218330000,22.2867310000 114.2218430000,22.2865610000 114.2218440000,22.2863850000 114.2218350000,22.2862270000 114.2217780000,22.2855990000 114.2217650000,22.2854190000 114.2217630000,22.2852390000 114.2217660000,22.2850970000 114.2217700000,22.2850060000 114.2217870000,22.2848230000 114.2218020000,22.2847340000 114.2218180000,22.2846630000 114.2218390000,22.2845850000 114.2218660000,22.2844980000 114.2218990000,22.2844080000 114.2219460000,22.2842920000 114.2219980000,22.2841830000 114.2220520000,22.2840830000 114.2221160000,22.2839800000 114.2221810000,22.2838840000 114.2222630000,22.2837750000 114.2236130000,22.2820710000 114.2236950000,22.2819720000 114.2237730000,22.2818930000 114.2238680000,22.2817980000 114.2239940000,22.2816860000 114.2240740000,22.2816230000 114.2243320000,22.2814630000 114.2247000000,22.2812770000 114.2253170000,22.2809880000 114.2256640000,22.2807990000 114.2260700000,22.2806080000 114.2262730000,22.2804520000 114.2268090000,22.2799400000 114.2272500000,22.2795100000 114.2273100000,22.2794600000 114.2273400000,22.2794360000 114.2274600000,22.2793600000 114.2275180000,22.2793300000 114.2276240000,22.2792830000 114.2276570000,22.2792560000 114.2276920000,22.2792220000 114.2277200000,22.2791870000 114.2277410000,22.2791430000 114.2277590000,22.2790930000 114.2278030000,22.2789020000 114.2278530000,22.2788170000 114.2278670000,22.2787790000 114.2278830000,22.2786970000 114.2278950000,22.2786260000 114.2279000000,22.2785920000 114.2279150000,22.2785160000 114.2279060000,22.2784650000 114.2278810000,22.2784110000 114.2278340000,22.2783510000 114.2277820000,22.2783110000 114.2276220000,22.2782520000 114.2275460000,22.2781990000 114.2274800000,22.2781450000 114.2274680000,22.2781280000 114.2274380000,22.2780920000 114.2273700000,22.2779700000 114.2272300000,22.2777500000 114.2272120000,22.2776670000 114.2271750000,22.2775940000 114.2271700000,22.2775790000 114.2271700000,22.2775640000 114.2271790000,22.2775490000 114.2280260000,22.2771020000 114.2282110000,22.2770180000 114.2283010000,22.2774100000 114.2283630000,22.2776890000 114.2283800000,22.2777640000 114.2284600000,22.2781250000 114.2285230000,22.2785590000 114.2285270000,22.2785860000 114.2285440000,22.2786080000 114.2285680000,22.2786210000 114.2285910000,22.2786250000 114.2286670000,22.2786110000 114.2286960000,22.2786050000 114.2293950000,22.2784670000 114.2294480000,22.2784680000 114.2294940000,22.2784750000 114.2295370000,22.2784940000 114.2295710000,22.2785230000 114.2295790000,22.2785360000 114.2295950000,22.2785610000 114.2296120000,22.2786150000 114.2295850000,22.2787370000 114.2295290000,22.2789140000 114.2295080000,22.2789760000 114.2294920000,22.2790300000 114.2294060000,22.2791840000 114.2293970000,22.2792240000 114.2293570000,22.2794130000 114.2292300000,22.2795300000 114.2293100000,22.2795900000 114.2294290000,22.2796800000 114.2295100000,22.2797600000 114.2295520000,22.2798080000 114.2296550000,22.2799400000 114.2297420000,22.2800680000 114.2297780000,22.2801320000 114.2298130000,22.2802020000 114.2298420000,22.2802660000 114.2298740000,22.2803520000 114.2299010000,22.2804370000 114.2299170000,22.2804950000 114.2299330000,22.2805620000 114.2299410000,22.2805970000 114.2300030000,22.2809180000 114.2300500000,22.2811300000 114.2300730000,22.2812100000 114.2301070000,22.2813110000 114.2301400000,22.2813940000 114.2301830000,22.2814960000 114.2302210000,22.2815740000 114.2302600000,22.2816500000 114.2303700000,22.2818200000 114.2304280000,22.2819000000 114.2305050000,22.2820000000 114.2305870000,22.2821030000 114.2307350000,22.2822550000 114.2307890000,22.2823010000 114.2309070000,22.2823960000 114.2310740000,22.2825110000 114.2312140000,22.2825940000 114.2313210000,22.2826500000 114.2315310000,22.2827430000 114.2316140000,22.2827750000 114.2317800000,22.2828230000 114.2320170000,22.2828760000 114.2321590000,22.2828980000 114.2323530000,22.2829130000 114.2324960000,22.2829130000 114.2326390000,22.2829020000 114.2328300000,22.2828820000 114.2329290000,22.2828660000 114.2330780000,22.2828400000 114.2332440000,22.2828050000 114.2334290000,22.2827570000 114.2335300000,22.2827260000 114.2336390000,22.2826870000 114.2337690000,22.2826310000 114.2339410000,22.2825410000 114.2340650000,22.2824680000 114.2342450000,22.2823430000 114.2343940000,22.2822240000 114.2344850000,22.2821390000 114.2345960000,22.2820270000 114.2347550000,22.2818300000 114.2349220000,22.2815870000 114.2349950000,22.2814670000 114.2351760000,22.2811350000 114.2352730000,22.2809770000 114.2354100000,22.2807870000 114.2355000000,22.2806650000 114.2359260000,22.2800860000 114.2360840000,22.2798690000 114.2361770000,22.2797450000 114.2363150000,22.2795400000 114.2363990000,22.2794150000 114.2364910000,22.2792560000 114.2365360000,22.2791650000 114.2365860000,22.2790520000 114.2366270000,22.2789410000 114.2366600000,22.2788280000 114.2366730000,22.2787680000 114.2367000000,22.2786580000 114.2367090000,22.2786230000 114.2367190000,22.2785830000 114.2367290000,22.2785440000 114.2368860000,22.2779410000 114.2369140000,22.2778420000 114.2369490000,22.2777280000 114.2369920000,22.2776060000 114.2370430000,22.2774730000 114.2371080000,22.2773270000 114.2371880000,22.2771640000 114.2373350000,22.2769080000 114.2375000000,22.2766770000 114.2388040000,22.2751210000 114.2390540000,22.2747850000 114.2392060000,22.2745190000 114.2393160000,22.2742690000 114.2393840000,22.2740700000 114.2394400000,22.2738550000 114.2394720000,22.2736770000 114.2394930000,22.2734740000 114.2394940000,22.2732460000 114.2394770000,22.2730170000 114.2394400000,22.2727910000 114.2393280000,22.2723540000 114.2391500000,22.2715110000 114.2388360000,22.2704010000 114.2387550000,22.2701890000 114.2386460000,22.2699870000 114.2385180000,22.2697700000 114.2382500000,22.2692710000 114.2380110000,22.2688260000 114.2379500000,22.2686950000 114.2379090000,22.2686000000 114.2378750000,22.2685210000 114.2378180000,22.2683540000 114.2377990000,22.2682910000 114.2377500000,22.2681220000 114.2377190000,22.2679750000 114.2377000000,22.2678510000 114.2376830000,22.2676750000 114.2376830000,22.2676470000 114.2376810000,22.2675450000 114.2376810000,22.2675240000 114.2376780000,22.2673930000 114.2376850000,22.2671900000 114.2376930000,22.2670450000 114.2377100000,22.2669040000 114.2377280000,22.2667790000 114.2378460000,22.2661540000 114.2378630000,22.2660380000 114.2378740000,22.2659330000 114.2378750000,22.2658500000 114.2378730000,22.2657370000 114.2378640000,22.2656500000 114.2378500000,22.2655640000 114.2378320000,22.2654880000 114.2378070000,22.2654070000 114.2376440000,22.2649390000 114.2376160000,22.2648520000 114.2375930000,22.2647560000 114.2375780000,22.2646700000 114.2375680000,22.2645970000 114.2375630000,22.2645380000 114.2375630000,22.2644620000 114.2375660000,22.2643860000 114.2375800000,22.2642740000 114.2375940000,22.2641890000 114.2376100000,22.2641200000 114.2376350000,22.2640440000 114.2376610000,22.2639780000 114.2376980000,22.2638950000 114.2378020000,22.2636820000 114.2378250000,22.2636360000 114.2378790000,22.2635620000 114.2379000000,22.2634900000 114.2379060000,22.2634260000 114.2379040000,22.2633900000 114.2378970000,22.2633460000 114.2378830000,22.2632980000 114.2378630000,22.2632470000 114.2378460000,22.2632140000 114.2378270000,22.2631830000 114.2377900000,22.2631510000 114.2377380000,22.2631200000 114.2376740000,22.2630890000 114.2376130000,22.2630670000 114.2375550000,22.2630490000 114.2375030000,22.2630380000 114.2374530000,22.2630320000 114.2374110000,22.2630320000 114.2373780000,22.2630350000 114.2373380000,22.2630440000 114.2373020000,22.2630550000 114.2372610000,22.2630750000 114.2372150000,22.2631020000 114.2371500000,22.2631500000 114.2371070000,22.2632200000 114.2371010000,22.2632700000 114.2371030000,22.2633200000 114.2371210000,22.2634300000 114.2371700000,22.2635300000 114.2373260000,22.2636430000 114.2373870000,22.2637250000 114.2374300000,22.2637880000 114.2374570000,22.2638390000 114.2374770000,22.2638840000 114.2374910000,22.2639240000 114.2375000000,22.2639690000 114.2375050000,22.2640160000 114.2375040000,22.2640640000 114.2375000000,22.2641120000 114.2374870000,22.2641950000 114.2374760000,22.2642820000 114.2374700000,22.2643800000 114.2374690000,22.2644800000 114.2374730000,22.2645780000 114.2374940000,22.2647200000 114.2375140000,22.2648110000 114.2375430000,22.2649080000 114.2376610000,22.2652300000 114.2376850000,22.2653060000 114.2377070000,22.2653830000 114.2377020000,22.2655270000 114.2376980000,22.2655650000 114.2376900000,22.2655940000 114.2376740000,22.2656240000 114.2376520000,22.2656480000 114.2376290000,22.2656640000 114.2376010000,22.2656780000 114.2375730000,22.2656850000 114.2375440000,22.2656860000 114.2375150000,22.2656830000 114.2374850000,22.2656750000 114.2374590000,22.2656630000 114.2374360000,22.2656470000 114.2374160000,22.2656270000 114.2373990000,22.2656020000 114.2373860000,22.2655780000 114.2373600000,22.2654990000 114.2373360000,22.2654500000 114.2373020000,22.2653980000 114.2372370000,22.2653450000 114.2371070000,22.2652540000 114.2369410000,22.2651290000 114.2368220000,22.2650390000 114.2367790000,22.2649740000 114.2367710000,22.2649530000 114.2367520000,22.2648470000 114.2369370000,22.2646510000 114.2369500000,22.2645920000 114.2369270000,22.2645100000 114.2369260000,22.2645080000 114.2368580000,22.2644540000 114.2365890000,22.2642370000 114.2365230000,22.2641850000 114.2362570000,22.2639740000 114.2361660000,22.2639050000 114.2361330000,22.2638030000 114.2361120000,22.2637400000 114.2361210000,22.2636800000 114.2361400000,22.2636200000 114.2361800000,22.2635700000 114.2362400000,22.2635300000 114.2363000000,22.2635070000 114.2364370000,22.2634720000 114.2365200000,22.2634500000 114.2367700000,22.2634400000 114.2368600000,22.2634380000 114.2369700000,22.2634500000 114.2370890000,22.2634860000 114.2371700000,22.2635300000 114.2373260000,22.2636430000 114.2373760000,22.2636710000 114.2374360000,22.2636960000 114.2374940000,22.2637150000 114.2375500000,22.2637220000 114.2376200000,22.2637200000 114.2377100000,22.2637000000 114.2378250000,22.2636360000 114.2378790000,22.2635620000 114.2379430000,22.2634950000 114.2380250000,22.2634190000 114.2380720000,22.2633830000 114.2381180000,22.2633570000 114.2381660000,22.2633340000 114.2382460000,22.2633050000 114.2383220000,22.2632900000 114.2383850000,22.2632830000 114.2386550000,22.2632730000 114.2387300000,22.2632740000 114.2387960000,22.2632790000 114.2388840000,22.2632910000 114.2389810000,22.2633100000 114.2390720000,22.2633330000 114.2391440000,22.2633560000 114.2392150000,22.2633860000 114.2392780000,22.2634160000 114.2393860000,22.2634700000 114.2394760000,22.2635200000 114.2395630000,22.2635810000 114.2397530000,22.2637190000 114.2399460000,22.2638600000 114.2402520000,22.2640810000 114.2404460000,22.2642240000 114.2406180000,22.2643500000 114.2406860000,22.2643990000 114.2407800000,22.2644710000 114.2408980000,22.2645580000 114.2417990000,22.2652170000 114.2420970000,22.2654330000 114.2424540000,22.2656840000 114.2426890000,22.2658520000 114.2430770000,22.2661400000 114.2432580000,22.2662660000 114.2433210000,22.2661860000 114.2434650000,22.2660400000 114.2435860000,22.2659580000 114.2437200000,22.2658920000 114.2439200000,22.2658210000 114.2441220000,22.2657760000 114.2442580000,22.2657640000 114.2443920000,22.2657650000 114.2445640000,22.2657840000 114.2446780000,22.2658060000 114.2450480000,22.2658850000 114.2451570000,22.2659060000 114.2452690000,22.2659240000 114.2453750000,22.2659370000 114.2454740000,22.2659430000 114.2456320000,22.2659460000 114.2457800000,22.2659400000 114.2460000000,22.2659200000 114.2461500000,22.2659000000 114.2462900000,22.2658700000 114.2465210000,22.2657970000 114.2467450000,22.2657050000 114.2467600000,22.2656990000 114.2467800000,22.2656910000 114.2468550000,22.2656570000 114.2469430000,22.2656150000 114.2470160000,22.2655790000 114.2471260000,22.2655170000 114.2472550000,22.2654330000 114.2473700000,22.2653500000 114.2475140000,22.2652390000 114.2476130000,22.2651590000 114.2477010000,22.2650840000 114.2477710000,22.2650170000 114.2478500000,22.2649400000 114.2481500000,22.2646600000 114.2482450000,22.2645660000 114.2483470000,22.2644600000 114.2484300000,22.2643700000 114.2484740000,22.2643170000 114.2485260000,22.2642550000 114.2486030000,22.2641630000 114.2486520000,22.2641030000 114.2487230000,22.2640160000 114.2487850000,22.2639350000 114.2488330000,22.2638690000 114.2491930000,22.2633450000 114.2493980000,22.2630450000 114.2494690000,22.2629500000 114.2495330000,22.2628660000 114.2495930000,22.2627990000 114.2496660000,22.2627260000 114.2497300000,22.2626700000 114.2497900000,22.2626250000 114.2498590000,22.2625830000 114.2499230000,22.2625490000 114.2499920000,22.2625200000 114.2500640000,22.2624960000 114.2501430000,22.2624770000 114.2502220000,22.2624650000 114.2503050000,22.2624590000 114.2503880000,22.2624610000 114.2504620000,22.2624690000 114.2505650000,22.2624900000 114.2506810000,22.2625250000 114.2507950000,22.2625700000 114.2509080000,22.2626240000 114.2509680000,22.2626570000 114.2511180000,22.2627490000 114.2512230000,22.2628250000 114.2512380000,22.2628360000 114.2513430000,22.2629170000 114.2514420000,22.2630030000 114.2515200000,22.2630760000 114.2516000000,22.2631600000 114.2517500000,22.2633350000 114.2517970000,22.2633960000 114.2518700000,22.2635100000 114.2519340000,22.2636440000 114.2519560000,22.2637130000 114.2519750000,22.2637910000 114.2519860000,22.2638750000 114.2519880000,22.2639630000 114.2519820000,22.2640520000 114.2519680000,22.2641400000 114.2519500000,22.2642070000 114.2519200000,22.2642900000 114.2518790000,22.2643770000 114.2518320000,22.2644620000 114.2517780000,22.2645430000 114.2516830000,22.2646620000 114.2516430000,22.2647080000 114.2515800000,22.2647810000 114.2514920000,22.2648730000 114.2514210000,22.2649450000 114.2512940000,22.2650680000 114.2511520000,22.2651950000 114.2509800000,22.2653300000 114.2508250000,22.2654430000 114.2506500000,22.2655700000 114.2505430000,22.2656440000 114.2504010000,22.2657440000 114.2503300000,22.2657950000 114.2502640000,22.2658370000 114.2502260000,22.2658690000 114.2500270000,22.2659740000 114.2498320000,22.2660670000 114.2496980000,22.2661200000 114.2495730000,22.2661640000 114.2494490000,22.2662020000 114.2491080000,22.2662900000 114.2484590000,22.2664580000 114.2479290000,22.2665950000 114.2478140000,22.2666250000 114.2477610000,22.2666380000 114.2475990000,22.2666980000 114.2474430000,22.2667080000 114.2471160000,22.2666970000 114.2470680000,22.2666990000 114.2470280000,22.2666640000 114.2470050000,22.2666620000 114.2469400000,22.2666600000 114.2468460000,22.2666590000 114.2468460000,22.2667430000 114.2469380000,22.2667420000 114.2470000000,22.2667410000 114.2470180000,22.2667400000 114.2470680000,22.2666990000 114.2471160000,22.2666970000 114.2474430000,22.2667080000 114.2475990000,22.2666980000 114.2477540000,22.2667160000 114.2478230000,22.2667010000 114.2480400000,22.2666500000 114.2494280000,22.2662880000 114.2495250000,22.2662610000 114.2496040000,22.2662350000 114.2496980000,22.2662030000 114.2497690000,22.2661770000 114.2498340000,22.2661510000 114.2498930000,22.2661260000 114.2499350000,22.2661210000 114.2499760000,22.2661210000 114.2500110000,22.2661260000 114.2500410000,22.2661310000 114.2500750000,22.2661420000 114.2501010000,22.2661520000 114.2501260000,22.2661670000 114.2501640000,22.2661990000 114.2506510000,22.2666490000 114.2506840000,22.2666740000 114.2507100000,22.2666850000 114.2507330000,22.2666940000 114.2507590000,22.2666990000 114.2508690000,22.2667080000 114.2508890000,22.2667070000 114.2509050000,22.2667030000 114.2509210000,22.2666970000 114.2509470000,22.2666790000 114.2511610000,22.2664830000 114.2514290000,22.2662390000 114.2514430000,22.2662180000 114.2514530000,22.2661990000 114.2514570000,22.2661820000 114.2514600000,22.2660920000 114.2514570000,22.2660690000 114.2514520000,22.2660490000 114.2514400000,22.2660290000 114.2511060000,22.2657150000 114.2510690000,22.2656880000 114.2510540000,22.2656810000 114.2510380000,22.2656790000 114.2510230000,22.2656800000 114.2510020000,22.2656840000 114.2509790000,22.2656920000 114.2509300000,22.2657170000 114.2509070000,22.2657280000 114.2508840000,22.2657430000 114.2508650000,22.2657640000 114.2508550000,22.2657810000 114.2508470000,22.2658020000 114.2508450000,22.2658370000 114.2508390000,22.2658630000 114.2508300000,22.2658830000 114.2508140000,22.2659040000 114.2507920000,22.2659280000 114.2507400000,22.2659740000 114.2507400000,22.2659740000 114.2507170000,22.2659870000 114.2506940000,22.2659900000 114.2506660000,22.2659890000 114.2506380000,22.2659780000 114.2506050000,22.2659550000 114.2505450000,22.2659040000 114.2505260000,22.2658840000 114.2505030000,22.2658570000 114.2504630000,22.2658080000 114.2507000000,22.2656300000 114.2510300000,22.2653900000 114.2510440000,22.2653780000 114.2512310000,22.2652240000 114.2513580000,22.2651160000 114.2514460000,22.2650310000 114.2514780000,22.2649990000 114.2515530000,22.2649270000 114.2516370000,22.2648430000 114.2517150000,22.2647630000 114.2518020000,22.2646640000 114.2518690000,22.2645750000 114.2519360000,22.2644730000 114.2519830000,22.2643880000 114.2520200000,22.2643080000 114.2520510000,22.2642220000 114.2520690000,22.2641590000 114.2520870000,22.2640590000 114.2520920000,22.2639300000 114.2520880000,22.2638460000 114.2520750000,22.2637580000 114.2520580000,22.2636850000 114.2520300000,22.2636060000 114.2519700000,22.2634800000 114.2520390000,22.2634530000 114.2520700000,22.2634400000 114.2521140000,22.2634220000 114.2522710000,22.2633600000 114.2522680000,22.2632010000 114.2520500000,22.2632260000 114.2518010000,22.2629110000 114.2517000000,22.2628550000 114.2516800000,22.2628330000 114.2515730000,22.2627170000 114.2517000000,22.2628550000 114.2518010000,22.2629110000 114.2520500000,22.2632260000 114.2522680000,22.2632010000 114.2522710000,22.2633600000 114.2521140000,22.2634220000 114.2520700000,22.2634400000 114.2520390000,22.2634530000 114.2519700000,22.2634800000 114.2518700000,22.2633400000 114.2517600000,22.2632000000 114.2516780000,22.2631020000 114.2514900000,22.2629200000 114.2513000000,22.2627600000 114.2511230000,22.2626400000 114.2510590000,22.2626010000 114.2510290000,22.2625820000 114.2509570000,22.2625430000 114.2507590000,22.2624500000 114.2506510000,22.2624100000 114.2505720000,22.2623880000 114.2504930000,22.2623730000 114.2504050000,22.2623650000 114.2503160000,22.2623630000 114.2502430000,22.2623670000 114.2501650000,22.2623750000 114.2500900000,22.2623880000 114.2500170000,22.2624070000 114.2499430000,22.2624320000 114.2498730000,22.2624610000 114.2498060000,22.2624940000 114.2497420000,22.2625300000 114.2496880000,22.2625670000 114.2496330000,22.2626120000 114.2495920000,22.2626490000 114.2495200000,22.2627260000 114.2494530000,22.2628080000 114.2493870000,22.2629030000 114.2490580000,22.2633780000 114.2488640000,22.2636700000 114.2486910000,22.2639140000 114.2486510000,22.2639690000 114.2485890000,22.2640520000 114.2485390000,22.2641120000 114.2484630000,22.2642030000 114.2482520000,22.2644350000 114.2481500000,22.2645390000 114.2479950000,22.2646900000 114.2478000000,22.2648700000 114.2477080000,22.2649560000 114.2475670000,22.2650840000 114.2474400000,22.2651860000 114.2473420000,22.2652610000 114.2472500000,22.2653250000 114.2471530000,22.2653880000 114.2470560000,22.2654430000 114.2469590000,22.2654930000 114.2468950000,22.2655250000 114.2468110000,22.2655690000 114.2467400000,22.2656020000 114.2465200000,22.2656900000 114.2463470000,22.2657440000 114.2462070000,22.2657810000 114.2460540000,22.2658140000 114.2459480000,22.2658310000 114.2457940000,22.2658440000 114.2457140000,22.2658470000 114.2456390000,22.2658500000 114.2455640000,22.2658500000 114.2454900000,22.2658460000 114.2453610000,22.2658340000 114.2452350000,22.2658200000 114.2450700000,22.2657900000 114.2449990000,22.2657750000 114.2447460000,22.2657200000 114.2447000000,22.2657100000 114.2445830000,22.2656860000 114.2444610000,22.2656650000 114.2443480000,22.2656500000 114.2442310000,22.2656440000 114.2441230000,22.2656460000 114.2440380000,22.2656630000 114.2432950000,22.2657930000 114.2432330000,22.2657930000 114.2430970000,22.2657930000 114.2428720000,22.2657590000 114.2427740000,22.2657300000 114.2426260000,22.2656880000 114.2421620000,22.2653560000 114.2417790000,22.2650770000 114.2414720000,22.2648500000 114.2408530000,22.2643850000 114.2407250000,22.2642900000 114.2403230000,22.2639950000 114.2399550000,22.2637210000 114.2396690000,22.2635200000 114.2396370000,22.2634960000 114.2395440000,22.2634350000 114.2393700000,22.2633300000 114.2392770000,22.2632900000 114.2391920000,22.2632610000 114.2390980000,22.2632350000 114.2389870000,22.2632100000 114.2388990000,22.2631950000 114.2388450000,22.2631900000 114.2387840000,22.2631890000 114.2385890000,22.2631970000 114.2382660000,22.2632180000 114.2381350000,22.2632220000 114.2380060000,22.2632190000 114.2379430000,22.2632090000 114.2378740000,22.2631960000 114.2378270000,22.2631830000 114.2377900000,22.2631510000 114.2377380000,22.2631200000 114.2376740000,22.2630890000 114.2376130000,22.2630670000 114.2375550000,22.2630490000 114.2375030000,22.2630380000 114.2374530000,22.2630320000 114.2374110000,22.2630320000 114.2373780000,22.2630350000 114.2373380000,22.2630440000 114.2373020000,22.2630550000 114.2372610000,22.2630750000 114.2372150000,22.2631020000 114.2371500000,22.2631500000 114.2371070000,22.2632200000 114.2371010000,22.2632700000 114.2371030000,22.2633200000 114.2371210000,22.2634300000 114.2371700000,22.2635300000 114.2373260000,22.2636430000 114.2373870000,22.2637250000 114.2374300000,22.2637880000 114.2374570000,22.2638390000 114.2374770000,22.2638840000 114.2374910000,22.2639240000 114.2375000000,22.2639690000 114.2375050000,22.2640160000 114.2375040000,22.2640640000 114.2375000000,22.2641120000 114.2374870000,22.2641950000 114.2374760000,22.2642820000 114.2374700000,22.2643800000 114.2374690000,22.2644800000 114.2374730000,22.2645780000 114.2374940000,22.2647200000 114.2375140000,22.2648110000 114.2375430000,22.2649080000 114.2376610000,22.2652300000 114.2376850000,22.2653060000 114.2377070000,22.2653830000 114.2377020000,22.2655270000 114.2376980000,22.2655650000 114.2376900000,22.2655940000 114.2376740000,22.2656240000 114.2376520000,22.2656480000 114.2376290000,22.2656640000 114.2376010000,22.2656780000 114.2375730000,22.2656850000 114.2375440000,22.2656860000 114.2375150000,22.2656830000 114.2374850000,22.2656750000 114.2374590000,22.2656630000 114.2374360000,22.2656470000 114.2374160000,22.2656270000 114.2373990000,22.2656020000 114.2373860000,22.2655780000 114.2373600000,22.2654990000 114.2373360000,22.2654500000 114.2373020000,22.2653980000 114.2372370000,22.2653450000 114.2371070000,22.2652540000 114.2369330000,22.2651230000 114.2368220000,22.2650390000 114.2367790000,22.2649740000 114.2367710000,22.2649530000 114.2367520000,22.2648470000 114.2369370000,22.2646510000 114.2369500000,22.2645920000 114.2369270000,22.2645100000 114.2369260000,22.2645080000 114.2368580000,22.2644540000 114.2365890000,22.2642370000 114.2365230000,22.2641850000 114.2362570000,22.2639740000 114.2361660000,22.2639050000 114.2361330000,22.2638030000 114.2361120000,22.2637400000 114.2361210000,22.2636800000 114.2361400000,22.2636200000 114.2361800000,22.2635700000 114.2362400000,22.2635300000 114.2363000000,22.2635070000 114.2364370000,22.2634720000 114.2365200000,22.2634500000 114.2367700000,22.2634400000 114.2368600000,22.2634380000 114.2369700000,22.2634500000 114.2370890000,22.2634860000 114.2371700000,22.2635300000 114.2373260000,22.2636430000 114.2373870000,22.2637250000 114.2374300000,22.2637880000 114.2374570000,22.2638390000 114.2374770000,22.2638840000 114.2374910000,22.2639240000 114.2375000000,22.2639690000 114.2375050000,22.2640160000 114.2375040000,22.2640640000 114.2375000000,22.2641120000 114.2374870000,22.2641950000 114.2374760000,22.2642820000 114.2374700000,22.2643800000 114.2374690000,22.2644800000 114.2374730000,22.2645780000 114.2374940000,22.2647200000 114.2375140000,22.2648110000 114.2375430000,22.2649080000 114.2376610000,22.2652300000 114.2376850000,22.2653060000 114.2377070000,22.2653830000 114.2377320000,22.2655220000 114.2377410000,22.2656050000 114.2377470000,22.2657190000 114.2377460000,22.2659060000 114.2377380000,22.2660120000 114.2376060000,22.2670930000 114.2375970000,22.2671950000 114.2375920000,22.2672940000 114.2375900000,22.2673860000 114.2375920000,22.2674860000 114.2376050000,22.2676770000 114.2376190000,22.2678380000 114.2376300000,22.2679220000 114.2376520000,22.2680540000 114.2376710000,22.2681440000 114.2377090000,22.2683070000 114.2377400000,22.2684200000 114.2377620000,22.2684930000 114.2377960000,22.2685930000 114.2378550000,22.2687500000 114.2379080000,22.2688700000 114.2380560000,22.2691820000 114.2381230000,22.2693340000 114.2382440000,22.2696400000 114.2383310000,22.2698500000 114.2383950000,22.2700280000 114.2384450000,22.2701930000 114.2384930000,22.2703910000 114.2385130000,22.2704720000 114.2385690000,22.2706410000 114.2388440000,22.2713530000 114.2391590000,22.2722780000 114.2392430000,22.2725450000 114.2392910000,22.2727140000 114.2393240000,22.2728570000 114.2393460000,22.2729910000 114.2393630000,22.2731330000 114.2393730000,22.2732560000 114.2393750000,22.2733820000 114.2393710000,22.2735130000 114.2393540000,22.2736650000 114.2393250000,22.2738250000 114.2392870000,22.2739860000 114.2392450000,22.2741240000 114.2392050000,22.2742440000 114.2391490000,22.2743750000 114.2390890000,22.2745010000 114.2390290000,22.2746120000 114.2389630000,22.2747230000 114.2388870000,22.2748380000 114.2388160000,22.2749360000 114.2387520000,22.2750200000 114.2386830000,22.2751040000 114.2375420000,22.2764650000 114.2374170000,22.2766210000 114.2373250000,22.2767460000 114.2372560000,22.2768480000 114.2371670000,22.2769930000 114.2371030000,22.2771070000 114.2370510000,22.2772100000 114.2369960000,22.2773260000 114.2369350000,22.2774750000 114.2368700000,22.2776600000 114.2367930000,22.2779100000 114.2366440000,22.2785280000 114.2366360000,22.2785600000 114.2366210000,22.2786070000 114.2366090000,22.2786410000 114.2365730000,22.2787530000 114.2364020000,22.2791420000 114.2363310000,22.2792660000 114.2358180000,22.2800200000 114.2353720000,22.2806110000 114.2352810000,22.2807320000 114.2350780000,22.2809760000 114.2349990000,22.2810520000 114.2347300000,22.2813150000 114.2346850000,22.2813650000 114.2341840000,22.2819110000 114.2340320000,22.2820830000 114.2339610000,22.2821620000 114.2338720000,22.2822490000 114.2337240000,22.2823760000 114.2336700000,22.2824180000 114.2335430000,22.2824980000 114.2334740000,22.2825340000 114.2333690000,22.2825800000 114.2332080000,22.2826370000 114.2330380000,22.2826830000 114.2329580000,22.2827020000 114.2328190000,22.2827250000 114.2326230000,22.2827470000 114.2325270000,22.2827500000 114.2323140000,22.2827490000 114.2321960000,22.2827400000 114.2320070000,22.2827130000 114.2318020000,22.2826670000 114.2316750000,22.2826280000 114.2315320000,22.2825670000 114.2313730000,22.2825000000 114.2311590000,22.2823790000 114.2310290000,22.2822890000 114.2309240000,22.2822020000 114.2308170000,22.2821010000 114.2307780000,22.2820630000 114.2306970000,22.2819790000 114.2305900000,22.2818500000 114.2305900000,22.2818000000 114.2305990000,22.2816610000 114.2306620000,22.2812030000 114.2306690000,22.2811510000 114.2307060000,22.2810020000 114.2307090000,22.2809760000 114.2307160000,22.2808810000 114.2307160000,22.2808510000 114.2307110000,22.2808160000 114.2306910000,22.2807700000 114.2304250000,22.2802420000 114.2303860000,22.2801660000 114.2303610000,22.2801150000 114.2303360000,22.2800580000 114.2300040000,22.2792050000 114.2299950000,22.2791760000 114.2299910000,22.2791470000 114.2299890000,22.2791220000 114.2299900000,22.2791030000 114.2299950000,22.2790800000 114.2301490000,22.2785900000 114.2302940000,22.2781290000 114.2303080000,22.2780610000 114.2303090000,22.2779920000 114.2302980000,22.2779240000 114.2302750000,22.2778590000 114.2302660000,22.2778330000 114.2302470000,22.2777770000 114.2301150000,22.2775820000 114.2299150000,22.2772160000 114.2298700000,22.2771350000 114.2298610000,22.2771190000 114.2298470000,22.2770930000 114.2298140000,22.2770340000 114.2298020000,22.2770390000 114.2297600000,22.2770600000 114.2296500000,22.2770850000 114.2294480000,22.2771700000 114.2293680000,22.2772100000 114.2293340000,22.2772290000 114.2292750000,22.2772960000 114.2289080000,22.2774840000 114.2287840000,22.2775450000 114.2286500000,22.2776140000 114.2285560000,22.2776620000 114.2284750000,22.2777080000 114.2283800000,22.2777640000 114.2284600000,22.2781250000 114.2285230000,22.2785590000 114.2285270000,22.2785860000 114.2285440000,22.2786080000 114.2285680000,22.2786210000 114.2285910000,22.2786250000 114.2286670000,22.2786110000 114.2286960000,22.2786050000 114.2293950000,22.2784670000 114.2294480000,22.2784680000 114.2294940000,22.2784750000 114.2295370000,22.2784940000 114.2295710000,22.2785230000 114.2295950000,22.2785610000 114.2296120000,22.2786150000 114.2295850000,22.2787370000 114.2295290000,22.2789140000 114.2295080000,22.2789760000 114.2294920000,22.2790300000 114.2294060000,22.2791840000 114.2293970000,22.2792240000 114.2293570000,22.2794130000 114.2292770000,22.2793660000 114.2291800000,22.2793090000 114.2289500000,22.2791950000 114.2288900000,22.2791700000 114.2288090000,22.2791420000 114.2287000000,22.2791100000 114.2286200000,22.2790900000 114.2285300000,22.2790700000 114.2283500000,22.2790400000 114.2280900000,22.2790100000 114.2280570000,22.2790010000 114.2280240000,22.2789870000 114.2279930000,22.2789710000 114.2279660000,22.2789520000 114.2279430000,22.2789300000 114.2279230000,22.2789040000 114.2278840000,22.2788260000 114.2278670000,22.2787790000 114.2278830000,22.2786970000 114.2278950000,22.2786260000 114.2279000000,22.2785920000 114.2279150000,22.2785160000 114.2279060000,22.2784650000 114.2278810000,22.2784110000 114.2278340000,22.2783510000 114.2277820000,22.2783110000 114.2276220000,22.2782520000 114.2275400000,22.2782650000 114.2274880000,22.2782720000 114.2274630000,22.2782750000 114.2274260000,22.2782830000 114.2273930000,22.2782950000 114.2273630000,22.2783080000 114.2273350000,22.2783240000 114.2273040000,22.2783450000 114.2272740000,22.2783680000 114.2272450000,22.2783950000 114.2272200000,22.2784230000 114.2271930000,22.2784590000 114.2271690000,22.2784990000 114.2270810000,22.2786460000 114.2265840000,22.2794620000 114.2263200000,22.2798870000 114.2262610000,22.2799750000 114.2262050000,22.2800540000 114.2259770000,22.2803440000 114.2259590000,22.2803670000 114.2257350000,22.2806190000 114.2255450000,22.2807470000 114.2251880000,22.2809320000 114.2246470000,22.2811710000 114.2242770000,22.2813510000 114.2240040000,22.2815230000 114.2237970000,22.2816730000 114.2236060000,22.2818400000 114.2233730000,22.2820850000 114.2225600000,22.2830850000 114.2222970000,22.2834090000 114.2219170000,22.2838780000 114.2216550000,22.2842510000 114.2215660000,22.2844270000 114.2214950000,22.2845880000 114.2214380000,22.2847610000 114.2213980000,22.2849180000 114.2213560000,22.2851750000 114.2213520000,22.2852210000 114.2213500000,22.2852670000 114.2213520000,22.2852960000 114.2213590000,22.2853570000 114.2213530000,22.2855080000 114.2213570000,22.2858410000 114.2213610000,22.2860780000 114.2213760000,22.2866650000 114.2213690000,22.2867960000 114.2213550000,22.2869820000 114.2213220000,22.2871970000 114.2212320000,22.2874440000 114.2211840000,22.2875360000 114.2211090000,22.2876640000 114.2210020000,22.2877990000 114.2209110000,22.2878780000 114.2207880000,22.2879490000 114.2206690000,22.2880380000 114.2204850000,22.2881450000 114.2203750000,22.2882000000 114.2202220000,22.2882780000 114.2200180000,22.2883510000 114.2198480000,22.2883900000 114.2198020000,22.2884010000 114.2197290000,22.2884130000 114.2196740000,22.2884270000 114.2194880000,22.2884760000 114.2192360000,22.2885300000 114.2190490000,22.2885710000 114.2185110000,22.2886880000 114.2180910000,22.2887630000 114.2172060000,22.2889130000 114.2168690000,22.2889320000 114.2167970000,22.2889440000 114.2163450000,22.2890210000 114.2160060000,22.2890940000 114.2159010000,22.2891190000 114.2157740000,22.2891470000 114.2153060000,22.2892730000 114.2151250000,22.2893220000 114.2147580000,22.2894410000 114.2142880000,22.2896070000 114.2137820000,22.2898170000 114.2134510000,22.2899700000 114.2133040000,22.2900230000 114.2131690000,22.2900720000 114.2127380000,22.2903170000 114.2124830000,22.2904610000 114.2123200000,22.2905530000 114.2122130000,22.2906180000 114.2121310000,22.2906670000 114.2120320000,22.2907270000 114.2119230000,22.2907940000 114.2116530000,22.2909590000 114.2114960000,22.2910550000 114.2114030000,22.2911130000 114.2111810000,22.2912530000 114.2110560000,22.2913310000 114.2109730000,22.2913830000 114.2106220000,22.2916380000 114.2102020000,22.2919430000 114.2096790000,22.2923280000 114.2094250000,22.2924890000 114.2091620000,22.2926270000 114.2088160000,22.2927860000 114.2086880000,22.2928400000 114.2084250000,22.2929190000 114.2081530000,22.2930010000 114.2077170000,22.2931270000 114.2072230000,22.2932690000 114.2071640000,22.2932870000 114.2066740000,22.2934340000 114.2061700000,22.2935940000 114.2056640000,22.2937480000 114.2053700000,22.2938370000 114.2050060000,22.2939470000 114.2049120000,22.2939730000 114.2046900000,22.2940290000 114.2045330000,22.2940650000 114.2042430000,22.2941180000 114.2040330000,22.2941470000 114.2039120000,22.2941540000 114.2037320000,22.2941650000 114.2035270000,22.2941680000 114.2034090000,22.2941650000 114.2032010000,22.2941380000 114.2031730000,22.2941340000 114.2030020000,22.2941110000 114.2029330000,22.2941020000 114.2028290000,22.2940850000 114.2026460000,22.2940560000 114.2025500000,22.2940360000 114.2022170000,22.2939690000 114.2021190000,22.2939490000 114.2018350000,22.2938920000 114.2015540000,22.2938360000 114.2013450000,22.2937940000 114.2005900000,22.2936420000 114.2005170000,22.2936260000 114.2000710000,22.2935390000 114.1999040000,22.2935110000 114.1997390000,22.2934890000 114.1995910000,22.2934740000 114.1994500000,22.2934640000 114.1992990000,22.2934600000 114.1989250000,22.2934630000 114.1987990000,22.2934610000 114.1986680000,22.2934560000 114.1984820000,22.2934470000 114.1983720000,22.2934380000 114.1982150000,22.2934210000 114.1980750000,22.2933990000 114.1971540000,22.2932100000 114.1968890000,22.2931570000 114.1966340000,22.2931040000 114.1963890000,22.2930500000 114.1963650000,22.2930450000 114.1962830000,22.2930270000 114.1961050000,22.2929900000 114.1958550000,22.2929350000 114.1956370000,22.2928790000 114.1955750000,22.2928640000 114.1955000000,22.2928430000 114.1953420000,22.2928020000 114.1950760000,22.2927130000 114.1949500000,22.2926590000 114.1948340000,22.2926050000 114.1947770000,22.2925780000 114.1947230000,22.2925510000 114.1945570000,22.2924640000 114.1944720000,22.2924140000 114.1943380000,22.2923400000 114.1943010000,22.2923180000 114.1940990000,22.2921780000 114.1939740000,22.2920840000 114.1938490000,22.2919940000 114.1937010000,22.2918840000 114.1936750000,22.2918610000 114.1936060000,22.2918030000 114.1935350000,22.2917410000 114.1934410000,22.2916610000 114.1933890000,22.2916150000 114.1933500000,22.2915810000 114.1933240000,22.2915550000 114.1933070000,22.2915380000 114.1932510000,22.2914830000 114.1931350000,22.2913490000 114.1931050000,22.2912530000 114.1930930000,22.2912180000 114.1930760000,22.2911620000 114.1930060000,22.2910820000 114.1929330000,22.2909960000 114.1928030000,22.2908470000 114.1922990000,22.2903210000 114.1915880000,22.2895560000 114.1913760000,22.2893230000 114.1912520000,22.2891910000 114.1906770000,22.2885810000 114.1903320000,22.2882150000 114.1900190000,22.2878880000 114.1899830000,22.2878420000 114.1898890000,22.2877330000 114.1898310000,22.2876540000 114.1897600000,22.2875550000 114.1896840000,22.2874280000 114.1896380000,22.2873400000 114.1896050000,22.2872270000 114.1895570000,22.2870540000 114.1895410000,22.2869790000 114.1895240000,22.2868670000 114.1895190000,22.2867910000 114.1895170000,22.2867210000 114.1895220000,22.2866350000 114.1895370000,22.2865560000 114.1895480000,22.2865160000 114.1895710000,22.2864550000 114.1896250000,22.2863560000 114.1896710000,22.2862960000 114.1897460000,22.2862200000 114.1897950000,22.2861790000 114.1898480000,22.2861400000 114.1902300000,22.2859020000 114.1903000000,22.2858550000 114.1904650000,22.2857460000 114.1905820000,22.2856180000 114.1906380000,22.2855580000 114.1906630000,22.2855260000 114.1907230000,22.2854500000 114.1909330000,22.2855920000 114.1909780000,22.2856210000 114.1910630000,22.2856790000 114.1910790000,22.2856890000 114.1913500000,22.2858720000 114.1914040000,22.2859080000 114.1914310000,22.2859190000 114.1914470000,22.2859860000 114.1914490000,22.2860430000 114.1914440000,22.2861320000 114.1914400000,22.2861910000 114.1914340000,22.2862930000 114.1914170000,22.2865570000 114.1914390000,22.2867490000 114.1914520000,22.2868060000 114.1914630000,22.2868300000 114.1914740000,22.2868600000 114.1915020000,22.2869060000 114.1915360000,22.2869470000 114.1915770000,22.2869840000 114.1916140000,22.2870460000 114.1916730000,22.2871190000 114.1918540000,22.2873200000 114.1918710000,22.2873390000 114.1919360000,22.2874170000 114.1919990000,22.2874960000 114.1921490000,22.2876610000 114.1928140000,22.2883870000 114.1928470000,22.2884230000 114.1932230000,22.2888410000 114.1935690000,22.2892020000 114.1935820000,22.2892150000 114.1936850000,22.2893290000 114.1940390000,22.2897420000 114.1940690000,22.2897750000 114.1941280000,22.2898330000 114.1948160000,22.2906000000 114.1948400000,22.2906260000 114.1948830000,22.2905930000 114.1952780000,22.2902880000 114.1953050000,22.2902560000 114.1953130000,22.2902360000 114.1953300000,22.2901940000 114.1953470000,22.2901560000 114.1953570000,22.2901320000 114.1953600000,22.2900850000 114.1952220000,22.2900220000 114.1951230000,22.2899600000 114.1950440000,22.2899000000 114.1949620000,22.2898250000 114.1947570000,22.2895830000 114.1947650000,22.2895020000 114.1947660000,22.2894870000 114.1947670000,22.2894720000 114.1947680000,22.2894610000 114.1947710000,22.2894500000 114.1947760000,22.2894390000 114.1947820000,22.2894250000 114.1947890000,22.2894120000 114.1948070000,22.2893930000 114.1948340000,22.2893600000 114.1948430000,22.2893170000 114.1948760000,22.2892800000 114.1949120000,22.2892190000 114.1949280000,22.2891800000 114.1949440000,22.2891350000 114.1949670000,22.2890180000 114.1950080000,22.2888830000 114.1950320000,22.2888180000 114.1950500000,22.2887740000 114.1950720000,22.2887210000 114.1950950000,22.2886790000 114.1951410000,22.2885860000 114.1952270000,22.2884410000 114.1953620000,22.2882210000 114.1953970000,22.2881610000 114.1955850000,22.2878330000 114.1955990000,22.2877560000 114.1955950000,22.2877070000 114.1955840000,22.2876600000 114.1954580000,22.2873450000 114.1954160000,22.2872390000 114.1953180000,22.2870700000 114.1953000000,22.2870400000 114.1952610000,22.2869670000 114.1950630000,22.2866130000 114.1950440000,22.2865340000 114.1950420000,22.2865010000 114.1950580000,22.2864530000 114.1951110000,22.2864040000 114.1951510000,22.2863740000 114.1952390000,22.2863140000 114.1954460000,22.2866280000 114.1955990000,22.2865390000 114.1958290000,22.2864040000 114.1958700000,22.2863320000 114.1958810000,22.2862600000 114.1958640000,22.2861850000 114.1957030000,22.2858600000 114.1956630000,22.2858030000 114.1956510000,22.2857880000 114.1955810000,22.2857210000 114.1955720000,22.2857120000 114.1954950000,22.2856680000 114.1954810000,22.2856600000 114.1953910000,22.2856300000 114.1953290000,22.2856150000 114.1951960000,22.2855810000 114.1949610000,22.2855200000 114.1948950000,22.2854930000 114.1948600000,22.2854780000 114.1947880000,22.2854290000 114.1947300000,22.2853700000 114.1946790000,22.2853100000 114.1946500000,22.2852650000 114.1946320000,22.2852190000 114.1946110000,22.2851030000 114.1946100000,22.2850920000 114.1946040000,22.2850120000 114.1946070000,22.2849730000 114.1946170000,22.2849350000 114.1946340000,22.2848780000 114.1946560000,22.2848240000 114.1946910000,22.2847670000 114.1947610000,22.2846830000 114.1948590000,22.2846180000 114.1950000000,22.2845590000 114.1951520000,22.2845400000 114.1952190000,22.2845440000 114.1952030000,22.2844190000 114.1951450000,22.2841490000 114.1950940000,22.2839140000 114.1950590000,22.2837550000 114.1950560000,22.2837380000 114.1949330000,22.2831840000 114.1948320000,22.2827230000 114.1948110000,22.2826510000 114.1947900000,22.2825920000 114.1947640000,22.2825360000 114.1947330000,22.2824820000 114.1946930000,22.2824250000 114.1946480000,22.2823710000 114.1945990000,22.2823230000 114.1945470000,22.2822750000 114.1942430000,22.2820170000 114.1940890000,22.2818710000 114.1939350000,22.2817250000 114.1938080000,22.2815580000 114.1937800000,22.2815130000 114.1935280000,22.2811040000 114.1934850000,22.2810340000 114.1934540000,22.2809480000 114.1934420000,22.2809030000 114.1934360000,22.2808630000 114.1934350000,22.2808200000 114.1934360000,22.2807780000 114.1934410000,22.2807410000 114.1934500000,22.2807040000 114.1934610000,22.2806730000 114.1934790000,22.2806360000 114.1934970000,22.2806050000 114.1935210000,22.2805720000 114.1935480000,22.2805390000 114.1936080000,22.2804730000 114.1939140000,22.2801610000 114.1939420000,22.2801300000 114.1939690000,22.2800920000 114.1939940000,22.2800390000 114.1940120000,22.2799780000 114.1940100000,22.2799060000 114.1939950000,22.2798310000 114.1939540000,22.2797630000 114.1938990000,22.2797200000 114.1938330000,22.2796860000 114.1937570000,22.2796600000 114.1936860000,22.2796060000 114.1936690000,22.2795770000 114.1936510000,22.2795460000 114.1936440000,22.2795150000 114.1936350000,22.2793800000 114.1935670000,22.2791790000 114.1935630000,22.2791350000 114.1935640000,22.2790950000 114.1935720000,22.2790110000 114.1935810000,22.2789220000 114.1935990000,22.2788710000 114.1936440000,22.2787750000 114.1937740000,22.2786260000 114.1939780000,22.2784130000 114.1941320000,22.2782100000 114.1943890000,22.2777660000 114.1944110000,22.2777280000 114.1945120000,22.2775400000 114.1945350000,22.2774990000 114.1945540000,22.2774640000 114.1946610000,22.2772670000 114.1946720000,22.2771700000 114.1946540000,22.2770820000 114.1946230000,22.2769490000 114.1946210000,22.2769090000 114.1946540000,22.2769000000 114.1946780000,22.2768780000 114.1946890000,22.2768480000 114.1946840000,22.2768170000 114.1946630000,22.2767910000 114.1946320000,22.2767770000 114.1945980000,22.2767790000 114.1945680000,22.2767940000 114.1945500000,22.2768210000 114.1945480000,22.2768400000 114.1944950000,22.2768360000 114.1944650000,22.2768330000 114.1943700000,22.2768370000 114.1943200000,22.2768280000 114.1942530000,22.2768150000 114.1941940000,22.2768020000 114.1940980000,22.2768200000 114.1939470000,22.2768680000 114.1939030000,22.2768840000 114.1938270000,22.2769050000 114.1937500000,22.2769270000 114.1936700000,22.2769530000 114.1934460000,22.2770210000 114.1932190000,22.2770850000 114.1928620000,22.2772110000 114.1927600000,22.2772490000 114.1921050000,22.2775030000 114.1918230000,22.2776120000 114.1916880000,22.2776650000 114.1911770000,22.2778750000 114.1909810000,22.2779760000 114.1908420000,22.2780420000 114.1908000000,22.2780620000 114.1906250000,22.2781570000 114.1904550000,22.2782610000 114.1903770000,22.2783140000 114.1902910000,22.2783730000 114.1901650000,22.2784660000 114.1901400000,22.2784870000 114.1900890000,22.2785240000 114.1900110000,22.2785480000 114.1895370000,22.2785970000 114.1892480000,22.2786240000 114.1892140000,22.2786360000 114.1891860000,22.2786590000 114.1891670000,22.2786890000 114.1891600000,22.2787250000 114.1891670000,22.2787600000 114.1891860000,22.2787910000 114.1894420000,22.2788520000 114.1896030000,22.2788920000 114.1895310000,22.2789850000 114.1893970000,22.2791150000 114.1892090000,22.2793450000 114.1890590000,22.2795340000 114.1890210000,22.2795810000 114.1887660000,22.2799010000 114.1886970000,22.2799780000 114.1881330000,22.2796030000 114.1879860000,22.2795050000 114.1878300000,22.2794030000 114.1876680000,22.2792970000 114.1873360000,22.2791450000 114.1872690000,22.2790210000 114.1872290000,22.2789720000 114.1870950000,22.2788060000 114.1870360000,22.2787430000 114.1868840000,22.2785920000 114.1867550000,22.2784640000 114.1864490000,22.2781620000 114.1862270000,22.2779420000 114.1861410000,22.2778640000 114.1860680000,22.2777980000 114.1856940000,22.2774040000 114.1855020000,22.2772050000 114.1854710000,22.2771870000 114.1854420000,22.2771750000 114.1854170000,22.2771650000 114.1853500000,22.2771380000 114.1853350000,22.2770340000 114.1853320000,22.2770100000 114.1853180000,22.2769040000 114.1853100000,22.2767890000 114.1853710000,22.2765370000 114.1853950000,22.2764570000 114.1854060000,22.2763830000 114.1854110000,22.2762430000 114.1854020000,22.2761420000 114.1853790000,22.2758620000 114.1853680000,22.2757760000 114.1853490000,22.2756660000 114.1852920000,22.2753930000 114.1852710000,22.2753080000 114.1852470000,22.2752130000 114.1851830000,22.2749720000 114.1851060000,22.2747510000 114.1850730000,22.2746790000 114.1850580000,22.2746380000 114.1849990000,22.2745070000 114.1849670000,22.2744340000 114.1848540000,22.2742130000 114.1847340000,22.2740770000 114.1846260000,22.2740010000 114.1844920000,22.2739460000 114.1843050000,22.2738920000 114.1841490000,22.2738690000 114.1838070000,22.2739370000 114.1837580000,22.2739530000 114.1837270000,22.2739180000 114.1837140000,22.2738960000 114.1836960000,22.2738270000 114.1840310000,22.2731230000 114.1843080000,22.2725410000 114.1844530000,22.2722350000 114.1845210000,22.2720920000 114.1846890000,22.2717390000 114.1847050000,22.2717010000 114.1847190000,22.2716600000 114.1847310000,22.2716240000 114.1847710000,22.2714880000 114.1847830000,22.2714330000 114.1847930000,22.2713740000 114.1847990000,22.2713110000 114.1848020000,22.2711870000 114.1847850000,22.2707370000 114.1847640000,22.2706130000 114.1847290000,22.2705040000 114.1846920000,22.2704180000 114.1846310000,22.2703000000 114.1845930000,22.2702510000 114.1845660000,22.2702170000 114.1845620000,22.2701870000 114.1845640000,22.2701180000 114.1845730000,22.2700750000 114.1845830000,22.2700290000 114.1846110000,22.2699760000 114.1846600000,22.2699140000 114.1846720000,22.2699000000 114.1846850000,22.2698900000 114.1847010000,22.2698790000 114.1847090000,22.2698740000 114.1851610000,22.2695780000 114.1852200000,22.2695400000 114.1854340000,22.2693880000 114.1855220000,22.2693260000 114.1855780000,22.2692880000 114.1856140000,22.2692630000 114.1856980000,22.2692060000 114.1857320000,22.2691860000 114.1859430000,22.2690490000 114.1860130000,22.2689990000 114.1860950000,22.2689380000 114.1861670000,22.2688670000 114.1862360000,22.2687870000 114.1864630000,22.2684220000 114.1864940000,22.2683730000 114.1866760000,22.2680690000 114.1867400000,22.2679700000 114.1868940000,22.2677150000 114.1869460000,22.2676280000 114.1871070000,22.2673650000 114.1871360000,22.2673160000 114.1871980000,22.2672180000 114.1873170000,22.2670340000 114.1873800000,22.2669460000 114.1876080000,22.2667110000 114.1878030000,22.2665500000 114.1879220000,22.2664940000 114.1884770000,22.2662560000 114.1886880000,22.2661550000 114.1887240000,22.2661580000 114.1887560000,22.2661430000 114.1887770000,22.2661330000 114.1887870000,22.2660850000 114.1888170000,22.2660070000 114.1888220000,22.2659480000 114.1888190000,22.2658970000 114.1888190000,22.2657070000 114.1888310000,22.2656840000 114.1888320000,22.2656600000 114.1888330000,22.2656180000 114.1888180000,22.2655960000 114.1888180000,22.2654910000 114.1888210000,22.2653580000 114.1888200000,22.2652410000 114.1888200000,22.2647900000 114.1888200000,22.2646480000 114.1888310000,22.2645800000 114.1888370000,22.2645420000 114.1888740000,22.2644730000 114.1888980000,22.2644440000 114.1890090000,22.2643890000 114.1891130000,22.2643730000 114.1894230000,22.2643720000 114.1894820000,22.2643640000 114.1895750000,22.2643500000 114.1896330000,22.2643300000 114.1896880000,22.2643100000 114.1897610000,22.2642730000 114.1898130000,22.2642400000 114.1898590000,22.2642070000 114.1899650000,22.2641070000 114.1900200000,22.2640300000 114.1900420000,22.2639900000 114.1900610000,22.2639520000 114.1900950000,22.2638730000 114.1900160000,22.2638730000 114.1898360000,22.2638730000 114.1882600000,22.2638630000 114.1882620000,22.2638490000 114.1882600000,22.2638350000 114.1882540000,22.2638220000 114.1882450000,22.2638120000 114.1882340000,22.2638040000 114.1882210000,22.2638000000 114.1882070000,22.2637980000 114.1882080000,22.2637300000</coordinates>
                </LineString>
                <ExtendedData>
                    <Data name="duration">
                        <value>00:58:23</value>
                    </Data>
                    <Data name="length">
                        <value>38876.94966009702</value>
                    </Data>
                </ExtendedData>
            </Placemark>
        </Document>
    </Document>
</kml>