<?xml version="1.0" encoding="UTF-8"?>
<kml xmlns="http://www.opengis.net/kml/2.2" xmlns:gx="http://www.google.com/kml/ext/2.2">
    <Document>
        <name>Route</name>
        <Folder>
            <name>Route Request</name>
            <Placemark>
                <address>東區二號抽水站, Broom Road, Happy Valley, Wan Chai District, Hong Kong Island, Hong Kong, China</address>
                <Point>
                    <coordinates>114.1874965978,22.2643061581</coordinates>
                </Point>
                <ExtendedData>
                    <Data name="building">
                        <value>東區二號抽水站</value>
                    </Data>
                    <Data name="quarter">
                        <value>Happy Valley</value>
                    </Data>
                    <Data name="city">
                        <value>Hong Kong Island</value>
                    </Data>
                    <Data name="state">
                        <value>Hong Kong</value>
                    </Data>
                    <Data name="country_code">
                        <value>cn</value>
                    </Data>
                    <Data name="suburb">
                        <value>Happy Valley</value>
                    </Data>
                    <Data name="country">
                        <value>China</value>
                    </Data>
                    <Data name="city_district">
                        <value>Wan Chai District</value>
                    </Data>
                    <Data name="ISO3166-2-lvl3">
                        <value>CN-HK</value>
                    </Data>
                    <Data name="road">
                        <value>Broom Road</value>
                    </Data>
                </ExtendedData>
            </Placemark>
            <Placemark>
                <address>77-79, Wong Nai Chung Road, Leighton Hill, Happy Valley, Wan Chai District, Hong Kong Island, Hong Kong, China</address>
                <Point>
                    <coordinates>114.1851986193,22.2716989370</coordinates>
                </Point>
                <ExtendedData>
                    <Data name="quarter">
                        <value>Happy Valley</value>
                    </Data>
                    <Data name="city">
                        <value>Hong Kong Island</value>
                    </Data>
                    <Data name="state">
                        <value>Hong Kong</value>
                    </Data>
                    <Data name="country_code">
                        <value>cn</value>
                    </Data>
                    <Data name="house_number">
                        <value>77-79</value>
                    </Data>
                    <Data name="suburb">
                        <value>Happy Valley</value>
                    </Data>
                    <Data name="country">
                        <value>China</value>
                    </Data>
                    <Data name="city_district">
                        <value>Wan Chai District</value>
                    </Data>
                    <Data name="neighbourhood">
                        <value>Leighton Hill</value>
                    </Data>
                    <Data name="ISO3166-2-lvl3">
                        <value>CN-HK</value>
                    </Data>
                    <Data name="road">
                        <value>Wong Nai Chung Road</value>
                    </Data>
                </ExtendedData>
            </Placemark>
            <Placemark>
                <address>Happy Valley Racecourse, Wong Nai Chung Road, Leighton Hill, Morrison Hill, Happy Valley, Wan Chai District, Hong Kong Island, Hong Kong, China</address>
                <Point>
                    <coordinates>114.1810496743,22.2710635517</coordinates>
                </Point>
                <ExtendedData>
                    <Data name="quarter">
                        <value>Morrison Hill</value>
                    </Data>
                    <Data name="city">
                        <value>Hong Kong Island</value>
                    </Data>
                    <Data name="state">
                        <value>Hong Kong</value>
                    </Data>
                    <Data name="country_code">
                        <value>cn</value>
                    </Data>
                    <Data name="suburb">
                        <value>Happy Valley</value>
                    </Data>
                    <Data name="highway">
                        <value>Happy Valley Racecourse</value>
                    </Data>
                    <Data name="country">
                        <value>China</value>
                    </Data>
                    <Data name="city_district">
                        <value>Wan Chai District</value>
                    </Data>
                    <Data name="neighbourhood">
                        <value>Leighton Hill</value>
                    </Data>
                    <Data name="ISO3166-2-lvl3">
                        <value>CN-HK</value>
                    </Data>
                    <Data name="road">
                        <value>Wong Nai Chung Road</value>
                    </Data>
                </ExtendedData>
            </Placemark>
            <Placemark>
                <address>North Point Police Station, 343, Java Road, Tsat Tsz Mui, Quarry Bay, Eastern District, Hong Kong Island, Hong Kong, China</address>
                <Point>
                    <coordinates>114.2086031832,22.2918703197</coordinates>
                </Point>
                <ExtendedData>
                    <Data name="city">
                        <value>Hong Kong Island</value>
                    </Data>
                    <Data name="state">
                        <value>Hong Kong</value>
                    </Data>
                    <Data name="country_code">
                        <value>cn</value>
                    </Data>
                    <Data name="amenity">
                        <value>North Point Police Station</value>
                    </Data>
                    <Data name="house_number">
                        <value>343</value>
                    </Data>
                    <Data name="suburb">
                        <value>Quarry Bay</value>
                    </Data>
                    <Data name="country">
                        <value>China</value>
                    </Data>
                    <Data name="city_district">
                        <value>Eastern District</value>
                    </Data>
                    <Data name="neighbourhood">
                        <value>Tsat Tsz Mui</value>
                    </Data>
                    <Data name="ISO3166-2-lvl3">
                        <value>CN-HK</value>
                    </Data>
                    <Data name="road">
                        <value>Java Road</value>
                    </Data>
                </ExtendedData>
            </Placemark>
            <Placemark>
                <address>MOViE MOViE, 1111, King's Road, Kornhill, Quarry Bay, Eastern District, Hong Kong Island, Hong Kong, China</address>
                <Point>
                    <coordinates>114.2168420473,22.2855988109</coordinates>
                </Point>
                <ExtendedData>
                    <Data name="quarter">
                        <value>Kornhill</value>
                    </Data>
                    <Data name="city">
                        <value>Hong Kong Island</value>
                    </Data>
                    <Data name="state">
                        <value>Hong Kong</value>
                    </Data>
                    <Data name="country_code">
                        <value>cn</value>
                    </Data>
                    <Data name="amenity">
                        <value>MOViE MOViE</value>
                    </Data>
                    <Data name="house_number">
                        <value>1111</value>
                    </Data>
                    <Data name="suburb">
                        <value>Quarry Bay</value>
                    </Data>
                    <Data name="country">
                        <value>China</value>
                    </Data>
                    <Data name="city_district">
                        <value>Eastern District</value>
                    </Data>
                    <Data name="ISO3166-2-lvl3">
                        <value>CN-HK</value>
                    </Data>
                    <Data name="road">
                        <value>King's Road</value>
                    </Data>
                </ExtendedData>
            </Placemark>
            <Placemark>
                <address>東華三院方樹泉社會服務大樓, 6, Po Man Street, Aldrich Bay, Shau Kei Wan, Eastern District, Hong Kong Island, Hong Kong, China</address>
                <Point>
                    <coordinates>114.2294786758,22.2784651450</coordinates>
                </Point>
                <ExtendedData>
                    <Data name="building">
                        <value>東華三院方樹泉社會服務大樓</value>
                    </Data>
                    <Data name="city">
                        <value>Hong Kong Island</value>
                    </Data>
                    <Data name="state">
                        <value>Hong Kong</value>
                    </Data>
                    <Data name="country_code">
                        <value>cn</value>
                    </Data>
                    <Data name="house_number">
                        <value>6</value>
                    </Data>
                    <Data name="suburb">
                        <value>Shau Kei Wan</value>
                    </Data>
                    <Data name="country">
                        <value>China</value>
                    </Data>
                    <Data name="city_district">
                        <value>Eastern District</value>
                    </Data>
                    <Data name="neighbourhood">
                        <value>Aldrich Bay</value>
                    </Data>
                    <Data name="ISO3166-2-lvl3">
                        <value>CN-HK</value>
                    </Data>
                    <Data name="road">
                        <value>Po Man Street</value>
                    </Data>
                </ExtendedData>
            </Placemark>
            <Placemark>
                <address>2, Island Eastern Corridor, Chai Wan Industrial Area, Chai Wan, Eastern District, Hong Kong Island, Hong Kong, China</address>
                <Point>
                    <coordinates>114.2382008307,22.2691884771</coordinates>
                </Point>
                <ExtendedData>
                    <Data name="quarter">
                        <value>Chai Wan Industrial Area</value>
                    </Data>
                    <Data name="city">
                        <value>Hong Kong Island</value>
                    </Data>
                    <Data name="state">
                        <value>Hong Kong</value>
                    </Data>
                    <Data name="country_code">
                        <value>cn</value>
                    </Data>
                    <Data name="suburb">
                        <value>Chai Wan</value>
                    </Data>
                    <Data name="highway">
                        <value>2</value>
                    </Data>
                    <Data name="country">
                        <value>China</value>
                    </Data>
                    <Data name="city_district">
                        <value>Eastern District</value>
                    </Data>
                    <Data name="ISO3166-2-lvl3">
                        <value>CN-HK</value>
                    </Data>
                    <Data name="road">
                        <value>Island Eastern Corridor</value>
                    </Data>
                </ExtendedData>
            </Placemark>
            <Placemark>
                <address>Chai Wan Station, Kut Shing Street, Chai Wan Industrial Area, Chai Wan, Eastern District, Hong Kong Island, Hong Kong, China</address>
                <Point>
                    <coordinates>114.2371234018,22.2649165244</coordinates>
                </Point>
                <ExtendedData>
                    <Data name="quarter">
                        <value>Chai Wan Industrial Area</value>
                    </Data>
                    <Data name="city">
                        <value>Hong Kong Island</value>
                    </Data>
                    <Data name="state">
                        <value>Hong Kong</value>
                    </Data>
                    <Data name="country_code">
                        <value>cn</value>
                    </Data>
                    <Data name="amenity">
                        <value>Chai Wan Station</value>
                    </Data>
                    <Data name="suburb">
                        <value>Chai Wan</value>
                    </Data>
                    <Data name="country">
                        <value>China</value>
                    </Data>
                    <Data name="city_district">
                        <value>Eastern District</value>
                    </Data>
                    <Data name="ISO3166-2-lvl3">
                        <value>CN-HK</value>
                    </Data>
                    <Data name="road">
                        <value>Kut Shing Street</value>
                    </Data>
                </ExtendedData>
            </Placemark>
            <Placemark>
                <address>Fullview Garden, Siu Sai Wan Road, Lok Kang Po, Siu Sai Wan, Eastern District, Hong Kong Island, Hong Kong, China</address>
                <Point>
                    <coordinates>114.2517024509,22.2641595915</coordinates>
                </Point>
                <ExtendedData>
                    <Data name="city">
                        <value>Hong Kong Island</value>
                    </Data>
                    <Data name="state">
                        <value>Hong Kong</value>
                    </Data>
                    <Data name="country_code">
                        <value>cn</value>
                    </Data>
                    <Data name="suburb">
                        <value>Siu Sai Wan</value>
                    </Data>
                    <Data name="highway">
                        <value>Fullview Garden</value>
                    </Data>
                    <Data name="country">
                        <value>China</value>
                    </Data>
                    <Data name="city_district">
                        <value>Eastern District</value>
                    </Data>
                    <Data name="neighbourhood">
                        <value>Lok Kang Po</value>
                    </Data>
                    <Data name="ISO3166-2-lvl3">
                        <value>CN-HK</value>
                    </Data>
                    <Data name="road">
                        <value>Siu Sai Wan Road</value>
                    </Data>
                </ExtendedData>
            </Placemark>
            <Placemark>
                <address>Island Resort Mall, Siu Sai Wan Road, Lok Kang Po, Siu Sai Wan, Eastern District, Hong Kong Island, Hong Kong, China</address>
                <Point>
                    <coordinates>114.2509735981,22.2666838400</coordinates>
                </Point>
                <ExtendedData>
                    <Data name="city">
                        <value>Hong Kong Island</value>
                    </Data>
                    <Data name="state">
                        <value>Hong Kong</value>
                    </Data>
                    <Data name="country_code">
                        <value>cn</value>
                    </Data>
                    <Data name="suburb">
                        <value>Siu Sai Wan</value>
                    </Data>
                    <Data name="country">
                        <value>China</value>
                    </Data>
                    <Data name="city_district">
                        <value>Eastern District</value>
                    </Data>
                    <Data name="shop">
                        <value>Island Resort Mall</value>
                    </Data>
                    <Data name="neighbourhood">
                        <value>Lok Kang Po</value>
                    </Data>
                    <Data name="ISO3166-2-lvl3">
                        <value>CN-HK</value>
                    </Data>
                    <Data name="road">
                        <value>Siu Sai Wan Road</value>
                    </Data>
                </ExtendedData>
            </Placemark>
            <Placemark>
                <address>Siu Sai Wan Estate Bus Terminus, Siu Sai Wan Road, Lok Kang Po, Siu Sai Wan, Eastern District, Hong Kong Island, Hong Kong, China</address>
                <Point>
                    <coordinates>114.2494325790,22.2628593019</coordinates>
                </Point>
                <ExtendedData>
                    <Data name="city">
                        <value>Hong Kong Island</value>
                    </Data>
                    <Data name="state">
                        <value>Hong Kong</value>
                    </Data>
                    <Data name="country_code">
                        <value>cn</value>
                    </Data>
                    <Data name="amenity">
                        <value>Siu Sai Wan Estate Bus Terminus</value>
                    </Data>
                    <Data name="suburb">
                        <value>Siu Sai Wan</value>
                    </Data>
                    <Data name="country">
                        <value>China</value>
                    </Data>
                    <Data name="city_district">
                        <value>Eastern District</value>
                    </Data>
                    <Data name="neighbourhood">
                        <value>Lok Kang Po</value>
                    </Data>
                    <Data name="ISO3166-2-lvl3">
                        <value>CN-HK</value>
                    </Data>
                    <Data name="road">
                        <value>Siu Sai Wan Road</value>
                    </Data>
                </ExtendedData>
            </Placemark>
            <Placemark>
                <address>Chai Wan Station, Kut Shing Street, Chai Wan Industrial Area, Chai Wan, Eastern District, Hong Kong Island, Hong Kong, China</address>
                <Point>
                    <coordinates>114.2371129115,22.2649520018</coordinates>
                </Point>
                <ExtendedData>
                    <Data name="quarter">
                        <value>Chai Wan Industrial Area</value>
                    </Data>
                    <Data name="city">
                        <value>Hong Kong Island</value>
                    </Data>
                    <Data name="state">
                        <value>Hong Kong</value>
                    </Data>
                    <Data name="country_code">
                        <value>cn</value>
                    </Data>
                    <Data name="amenity">
                        <value>Chai Wan Station</value>
                    </Data>
                    <Data name="suburb">
                        <value>Chai Wan</value>
                    </Data>
                    <Data name="country">
                        <value>China</value>
                    </Data>
                    <Data name="city_district">
                        <value>Eastern District</value>
                    </Data>
                    <Data name="ISO3166-2-lvl3">
                        <value>CN-HK</value>
                    </Data>
                    <Data name="road">
                        <value>Kut Shing Street</value>
                    </Data>
                </ExtendedData>
            </Placemark>
            <Placemark>
                <address>Pamela Youde Nethersole Eastern Hospital, Tsui Wan Street, Chai Wan Industrial Area, Chai Wan, Eastern District, Hong Kong Island, Hong Kong, China</address>
                <Point>
                    <coordinates>114.2384895458,22.2701775242</coordinates>
                </Point>
                <ExtendedData>
                    <Data name="quarter">
                        <value>Chai Wan Industrial Area</value>
                    </Data>
                    <Data name="city">
                        <value>Hong Kong Island</value>
                    </Data>
                    <Data name="state">
                        <value>Hong Kong</value>
                    </Data>
                    <Data name="country_code">
                        <value>cn</value>
                    </Data>
                    <Data name="amenity">
                        <value>Pamela Youde Nethersole Eastern Hospital</value>
                    </Data>
                    <Data name="suburb">
                        <value>Chai Wan</value>
                    </Data>
                    <Data name="country">
                        <value>China</value>
                    </Data>
                    <Data name="city_district">
                        <value>Eastern District</value>
                    </Data>
                    <Data name="ISO3166-2-lvl3">
                        <value>CN-HK</value>
                    </Data>
                    <Data name="road">
                        <value>Tsui Wan Street</value>
                    </Data>
                </ExtendedData>
            </Placemark>
            <Placemark>
                <address>King Fai Building, 94-112, Shau Kei Wan Main Street East, Aldrich Bay, Shau Kei Wan, Eastern District, Hong Kong Island, Hong Kong, China</address>
                <Point>
                    <coordinates>114.2300931882,22.2787857018</coordinates>
                </Point>
                <ExtendedData>
                    <Data name="building">
                        <value>King Fai Building</value>
                    </Data>
                    <Data name="city">
                        <value>Hong Kong Island</value>
                    </Data>
                    <Data name="state">
                        <value>Hong Kong</value>
                    </Data>
                    <Data name="country_code">
                        <value>cn</value>
                    </Data>
                    <Data name="house_number">
                        <value>94-112</value>
                    </Data>
                    <Data name="suburb">
                        <value>Shau Kei Wan</value>
                    </Data>
                    <Data name="country">
                        <value>China</value>
                    </Data>
                    <Data name="city_district">
                        <value>Eastern District</value>
                    </Data>
                    <Data name="neighbourhood">
                        <value>Aldrich Bay</value>
                    </Data>
                    <Data name="ISO3166-2-lvl3">
                        <value>CN-HK</value>
                    </Data>
                    <Data name="road">
                        <value>Shau Kei Wan Main Street East</value>
                    </Data>
                </ExtendedData>
            </Placemark>
            <Placemark>
                <address>Island Eastern Corridor, Tsat Tsz Mui, North Point, Eastern District, Hong Kong Island, Hong Kong, China</address>
                <Point>
                    <coordinates>114.2040836349,22.2934400196</coordinates>
                </Point>
                <ExtendedData>
                    <Data name="city">
                        <value>Hong Kong Island</value>
                    </Data>
                    <Data name="state">
                        <value>Hong Kong</value>
                    </Data>
                    <Data name="country_code">
                        <value>cn</value>
                    </Data>
                    <Data name="suburb">
                        <value>North Point</value>
                    </Data>
                    <Data name="country">
                        <value>China</value>
                    </Data>
                    <Data name="city_district">
                        <value>Eastern District</value>
                    </Data>
                    <Data name="neighbourhood">
                        <value>Tsat Tsz Mui</value>
                    </Data>
                    <Data name="ISO3166-2-lvl3">
                        <value>CN-HK</value>
                    </Data>
                    <Data name="road">
                        <value>Island Eastern Corridor</value>
                    </Data>
                </ExtendedData>
            </Placemark>
            <Placemark>
                <address>Gloucester Road Refuse Collection Point, Gloucester Road, Leighton Hill, Bowrington, Causeway Bay, Wan Chai District, Hong Kong Island, Hong Kong, China</address>
                <Point>
                    <coordinates>114.1807857168,22.2809579630</coordinates>
                </Point>
                <ExtendedData>
                    <Data name="city">
                        <value>Hong Kong Island</value>
                    </Data>
                    <Data name="state">
                        <value>Hong Kong</value>
                    </Data>
                    <Data name="country_code">
                        <value>cn</value>
                    </Data>
                    <Data name="amenity">
                        <value>Gloucester Road Refuse Collection Point</value>
                    </Data>
                    <Data name="suburb">
                        <value>Causeway Bay</value>
                    </Data>
                    <Data name="country">
                        <value>China</value>
                    </Data>
                    <Data name="city_district">
                        <value>Wan Chai District</value>
                    </Data>
                    <Data name="neighbourhood">
                        <value>Bowrington</value>
                    </Data>
                    <Data name="ISO3166-2-lvl3">
                        <value>CN-HK</value>
                    </Data>
                    <Data name="road">
                        <value>Gloucester Road</value>
                    </Data>
                </ExtendedData>
            </Placemark>
            <Placemark>
                <address>9, Broom Road, Happy Valley, Wan Chai District, Hong Kong Island, Hong Kong, China</address>
                <Point>
                    <coordinates>114.1875264609,22.2643281508</coordinates>
                </Point>
                <ExtendedData>
                    <Data name="quarter">
                        <value>Happy Valley</value>
                    </Data>
                    <Data name="city">
                        <value>Hong Kong Island</value>
                    </Data>
                    <Data name="state">
                        <value>Hong Kong</value>
                    </Data>
                    <Data name="country_code">
                        <value>cn</value>
                    </Data>
                    <Data name="house_number">
                        <value>9</value>
                    </Data>
                    <Data name="suburb">
                        <value>Happy Valley</value>
                    </Data>
                    <Data name="country">
                        <value>China</value>
                    </Data>
                    <Data name="city_district">
                        <value>Wan Chai District</value>
                    </Data>
                    <Data name="ISO3166-2-lvl3">
                        <value>CN-HK</value>
                    </Data>
                    <Data name="road">
                        <value>Broom Road</value>
                    </Data>
                </ExtendedData>
            </Placemark>
        </Folder>
        <Document>
            <name>33.3 km; 00:47 h (OSRM)</name>
            <Placemark>
                <name>Route</name>
                <LineString>
                    <coordinates>114.1874970000,22.2643640000 114.1877390000,22.2643620000 114.1882050000,22.2643650000 114.1882560000,22.2643650000 114.1887360000,22.2643680000 114.1887890000,22.2643720000 114.1888980000,22.2644440000 114.1888740000,22.2644730000 114.1888370000,22.2645420000 114.1888310000,22.2645800000 114.1888200000,22.2646480000 114.1888200000,22.2647900000 114.1888200000,22.2652410000 114.1888210000,22.2653580000 114.1888180000,22.2654910000 114.1888180000,22.2655960000 114.1887920000,22.2656200000 114.1887910000,22.2656600000 114.1887930000,22.2656830000 114.1888190000,22.2657070000 114.1888190000,22.2658970000 114.1888220000,22.2659480000 114.1888800000,22.2659850000 114.1889270000,22.2660450000 114.1889460000,22.2661080000 114.1889530000,22.2661390000 114.1889560000,22.2662460000 114.1889540000,22.2662910000 114.1889520000,22.2663310000 114.1889260000,22.2664570000 114.1889150000,22.2664800000 114.1888560000,22.2666040000 114.1887390000,22.2667790000 114.1886520000,22.2669110000 114.1886440000,22.2669190000 114.1878760000,22.2677280000 114.1878560000,22.2677620000 114.1878290000,22.2678080000 114.1876410000,22.2681300000 114.1875000000,22.2683730000 114.1869450000,22.2689850000 114.1868140000,22.2691290000 114.1867150000,22.2692340000 114.1864780000,22.2694420000 114.1863340000,22.2695190000 114.1862730000,22.2695480000 114.1858680000,22.2697490000 114.1856650000,22.2698540000 114.1857250000,22.2699780000 114.1857240000,22.2700690000 114.1856980000,22.2701460000 114.1856910000,22.2701670000 114.1854960000,22.2707300000 114.1853000000,22.2713060000 114.1852390000,22.2717040000 114.1851930000,22.2720100000 114.1843050000,22.2738920000 114.1841490000,22.2738690000 114.1838070000,22.2739370000 114.1837580000,22.2739530000 114.1837270000,22.2739180000 114.1837210000,22.2738970000 114.1837140000,22.2738700000 114.1837240000,22.2738520000 114.1840040000,22.2732480000 114.1840560000,22.2731410000 114.1843330000,22.2725640000 114.1844840000,22.2722510000 114.1846320000,22.2719460000 114.1847890000,22.2714290000 114.1848020000,22.2711870000 114.1847700000,22.2707730000 114.1847520000,22.2706680000 114.1847340000,22.2705850000 114.1847030000,22.2704820000 114.1846660000,22.2703730000 114.1846310000,22.2703000000 114.1845930000,22.2702510000 114.1845660000,22.2702170000 114.1845260000,22.2701660000 114.1844130000,22.2700540000 114.1842960000,22.2699610000 114.1841180000,22.2698720000 114.1840520000,22.2698470000 114.1839740000,22.2698200000 114.1839210000,22.2698100000 114.1838590000,22.2697990000 114.1838140000,22.2697950000 114.1837710000,22.2697910000 114.1837510000,22.2697910000 114.1837040000,22.2697910000 114.1836800000,22.2697910000 114.1836360000,22.2697850000 114.1835990000,22.2697890000 114.1835430000,22.2697960000 114.1835120000,22.2698010000 114.1834690000,22.2698100000 114.1833970000,22.2698370000 114.1833290000,22.2698570000 114.1831860000,22.2698910000 114.1830780000,22.2699160000 114.1829820000,22.2699390000 114.1828930000,22.2700220000 114.1822310000,22.2705670000 114.1820340000,22.2706650000 114.1817880000,22.2707790000 114.1814840000,22.2709050000 114.1813980000,22.2709470000 114.1813140000,22.2709960000 114.1812810000,22.2710190000 114.1811080000,22.2711370000 114.1803780000,22.2716360000 114.1802890000,22.2717000000 114.1801930000,22.2717730000 114.1800880000,22.2718840000 114.1799760000,22.2720890000 114.1798890000,22.2723080000 114.1794210000,22.2735480000 114.1793640000,22.2737950000 114.1793420000,22.2740430000 114.1793590000,22.2742490000 114.1793680000,22.2743540000 114.1794040000,22.2745540000 114.1794140000,22.2746150000 114.1794340000,22.2746870000 114.1794740000,22.2747790000 114.1796200000,22.2749290000 114.1798460000,22.2751770000 114.1803390000,22.2756630000 114.1804820000,22.2758050000 114.1807340000,22.2760950000 114.1808160000,22.2762000000 114.1808860000,22.2762950000 114.1809680000,22.2764400000 114.1810240000,22.2765380000 114.1810440000,22.2766020000 114.1810760000,22.2767640000 114.1810940000,22.2769090000 114.1811080000,22.2771100000 114.1811280000,22.2775070000 114.1811340000,22.2776400000 114.1812170000,22.2790490000 114.1812140000,22.2791480000 114.1812010000,22.2792440000 114.1811820000,22.2793290000 114.1811490000,22.2794410000 114.1811100000,22.2795580000 114.1808490000,22.2801620000 114.1807270000,22.2804420000 114.1806490000,22.2806280000 114.1805960000,22.2807150000 114.1805000000,22.2808400000 114.1804200000,22.2809300000 114.1801850000,22.2811000000 114.1801520000,22.2811300000 114.1801180000,22.2811700000 114.1800880000,22.2812100000 114.1800600000,22.2812520000 114.1800340000,22.2813260000 114.1800140000,22.2814400000 114.1800150000,22.2815230000 114.1800300000,22.2815710000 114.1800420000,22.2816020000 114.1800790000,22.2816750000 114.1801270000,22.2817430000 114.1802510000,22.2818510000 114.1803510000,22.2819180000 114.1804800000,22.2819790000 114.1806300000,22.2820300000 114.1807700000,22.2820700000 114.1809190000,22.2821070000 114.1810570000,22.2821270000 114.1812740000,22.2821190000 114.1817450000,22.2819910000 114.1820100000,22.2818840000 114.1821610000,22.2818560000 114.1823250000,22.2818750000 114.1825120000,22.2819370000 114.1828270000,22.2820440000 114.1835090000,22.2822820000 114.1838660000,22.2824360000 114.1840860000,22.2825590000 114.1842650000,22.2826710000 114.1844720000,22.2828070000 114.1847290000,22.2830540000 114.1849700000,22.2832450000 114.1852740000,22.2834880000 114.1855820000,22.2837280000 114.1856950000,22.2837910000 114.1857960000,22.2838410000 114.1859320000,22.2838970000 114.1860540000,22.2839410000 114.1861730000,22.2839750000 114.1862920000,22.2840060000 114.1864260000,22.2840350000 114.1864880000,22.2840470000 114.1866930000,22.2840500000 114.1867740000,22.2840660000 114.1869520000,22.2841070000 114.1871040000,22.2841440000 114.1876100000,22.2842750000 114.1877200000,22.2843050000 114.1878380000,22.2843420000 114.1879700000,22.2843900000 114.1880900000,22.2844370000 114.1882040000,22.2844860000 114.1883100000,22.2845400000 114.1884130000,22.2845970000 114.1885300000,22.2846700000 114.1886410000,22.2847590000 114.1887500000,22.2848600000 114.1888430000,22.2849570000 114.1889280000,22.2850720000 114.1889930000,22.2851900000 114.1890600000,22.2853300000 114.1891100000,22.2854500000 114.1891430000,22.2855700000 114.1891600000,22.2856300000 114.1891820000,22.2857480000 114.1891900000,22.2857900000 114.1892030000,22.2858920000 114.1892190000,22.2860100000 114.1892210000,22.2860480000 114.1892300000,22.2862100000 114.1892330000,22.2862990000 114.1892400000,22.2864700000 114.1892570000,22.2866700000 114.1892650000,22.2867350000 114.1892680000,22.2867570000 114.1892870000,22.2869000000 114.1893020000,22.2869630000 114.1893160000,22.2870220000 114.1893380000,22.2871190000 114.1893980000,22.2872690000 114.1894660000,22.2874000000 114.1895240000,22.2875130000 114.1895620000,22.2875990000 114.1896470000,22.2877580000 114.1897630000,22.2879760000 114.1897760000,22.2880060000 114.1898520000,22.2882210000 114.1900860000,22.2886490000 114.1902500000,22.2889500000 114.1903820000,22.2891680000 114.1904500000,22.2892800000 114.1905550000,22.2894300000 114.1905900000,22.2894800000 114.1907500000,22.2896800000 114.1910500000,22.2900000000 114.1913660000,22.2902870000 114.1921570000,22.2909910000 114.1923870000,22.2911680000 114.1924300000,22.2912020000 114.1925570000,22.2913050000 114.1926230000,22.2913590000 114.1926890000,22.2914090000 114.1928130000,22.2914980000 114.1930120000,22.2916410000 114.1930980000,22.2917060000 114.1931220000,22.2917220000 114.1931500000,22.2917410000 114.1931790000,22.2917610000 114.1933530000,22.2918870000 114.1934530000,22.2919710000 114.1935380000,22.2920420000 114.1935600000,22.2920570000 114.1935890000,22.2920770000 114.1936150000,22.2920950000 114.1937360000,22.2921760000 114.1938530000,22.2922540000 114.1939710000,22.2923350000 114.1942000000,22.2924760000 114.1942280000,22.2924930000 114.1943770000,22.2925660000 114.1944880000,22.2926190000 114.1946230000,22.2926870000 114.1946890000,22.2927190000 114.1947490000,22.2927490000 114.1949190000,22.2928180000 114.1950130000,22.2928550000 114.1951890000,22.2929160000 114.1952850000,22.2929480000 114.1954480000,22.2929840000 114.1955700000,22.2930110000 114.1956800000,22.2930340000 114.1958530000,22.2930690000 114.1960960000,22.2931200000 114.1961620000,22.2931270000 114.1963630000,22.2931510000 114.1964880000,22.2931720000 114.1966070000,22.2931980000 114.1967820000,22.2932350000 114.1968600000,22.2932510000 114.1971240000,22.2933140000 114.1974960000,22.2934010000 114.1979200000,22.2934800000 114.1981920000,22.2935260000 114.1983380000,22.2935420000 114.1987100000,22.2935630000 114.1992000000,22.2935690000 114.1995900000,22.2935850000 114.1997700000,22.2936020000 114.1999500000,22.2936270000 114.2001000000,22.2936520000 114.2004940000,22.2937360000 114.2005620000,22.2937500000 114.2020820000,22.2940720000 114.2024950000,22.2942540000 114.2025960000,22.2942830000 114.2029000000,22.2943600000 114.2031700000,22.2944100000 114.2034000000,22.2944400000 114.2035000000,22.2944470000 114.2036000000,22.2944460000 114.2036990000,22.2944350000 114.2037900000,22.2944140000 114.2038630000,22.2943910000 114.2039500000,22.2943500000 114.2040220000,22.2943000000 114.2040900000,22.2942400000 114.2041800000,22.2941400000 114.2042330000,22.2940600000 114.2042700000,22.2939710000 114.2042950000,22.2938600000 114.2043030000,22.2937500000 114.2043070000,22.2932920000 114.2043120000,22.2932290000 114.2043220000,22.2931750000 114.2043390000,22.2931220000 114.2043590000,22.2930780000 114.2043840000,22.2930390000 114.2044410000,22.2929720000 114.2044860000,22.2929380000 114.2045290000,22.2929130000 114.2045810000,22.2928880000 114.2046350000,22.2928660000 114.2047090000,22.2928460000 114.2055810000,22.2926560000 114.2059860000,22.2925640000 114.2061220000,22.2925420000 114.2062770000,22.2925390000 114.2063810000,22.2925080000 114.2072600000,22.2922590000 114.2073230000,22.2922390000 114.2075360000,22.2921730000 114.2077060000,22.2921200000 114.2079130000,22.2920560000 114.2082680000,22.2919460000 114.2082950000,22.2919380000 114.2083200000,22.2919300000 114.2083490000,22.2919210000 114.2083640000,22.2919160000 114.2084430000,22.2918920000 114.2084960000,22.2918750000 114.2085760000,22.2918500000 114.2085930000,22.2918440000 114.2086760000,22.2918180000 114.2087900000,22.2917810000 114.2089870000,22.2917170000 114.2090310000,22.2917030000 114.2091120000,22.2916770000 114.2091170000,22.2916730000 114.2092060000,22.2915960000 114.2092980000,22.2914710000 114.2093330000,22.2913450000 114.2093380000,22.2912140000 114.2093330000,22.2911330000 114.2093210000,22.2910540000 114.2092740000,22.2909510000 114.2092600000,22.2909060000 114.2092460000,22.2908560000 114.2092320000,22.2907690000 114.2092410000,22.2906320000 114.2092840000,22.2905340000 114.2093340000,22.2904190000 114.2093980000,22.2902350000 114.2095350000,22.2898200000 114.2096450000,22.2894760000 114.2096890000,22.2893970000 114.2097000000,22.2893680000 114.2097850000,22.2890430000 114.2098990000,22.2887200000 114.2099850000,22.2884730000 114.2100990000,22.2881000000 114.2102460000,22.2876730000 114.2102520000,22.2876530000 114.2102640000,22.2876190000 114.2102770000,22.2875880000 114.2102910000,22.2875520000 114.2103080000,22.2874660000 114.2104320000,22.2870870000 114.2105270000,22.2868150000 114.2105580000,22.2867460000 114.2105640000,22.2867340000 114.2105760000,22.2867100000 114.2106090000,22.2866570000 114.2106530000,22.2865830000 114.2107150000,22.2864800000 114.2108320000,22.2863000000 114.2109030000,22.2861890000 114.2110340000,22.2859930000 114.2111150000,22.2858650000 114.2111360000,22.2858320000 114.2111870000,22.2857520000 114.2113210000,22.2855440000 114.2113460000,22.2854980000 114.2114280000,22.2853540000 114.2114810000,22.2852650000 114.2115260000,22.2852060000 114.2116720000,22.2850900000 114.2117680000,22.2850370000 114.2118790000,22.2849970000 114.2119370000,22.2849770000 114.2121640000,22.2848970000 114.2122930000,22.2848570000 114.2123180000,22.2848510000 114.2123760000,22.2848320000 114.2125620000,22.2847730000 114.2125910000,22.2847660000 114.2127110000,22.2847370000 114.2128970000,22.2847300000 114.2129370000,22.2847290000 114.2130720000,22.2847280000 114.2132730000,22.2847320000 114.2135540000,22.2847330000 114.2136670000,22.2847340000 114.2142410000,22.2847510000 114.2144420000,22.2847500000 114.2146170000,22.2847530000 114.2147930000,22.2848270000 114.2148570000,22.2848750000 114.2149070000,22.2849230000 114.2149430000,22.2849680000 114.2149790000,22.2850230000 114.2151070000,22.2853240000 114.2151430000,22.2853960000 114.2151860000,22.2854540000 114.2152400000,22.2855170000 114.2153090000,22.2855800000 114.2154190000,22.2856630000 114.2155300000,22.2857290000 114.2156110000,22.2857640000 114.2156890000,22.2857930000 114.2157840000,22.2858190000 114.2158630000,22.2858350000 114.2159470000,22.2858460000 114.2160320000,22.2858530000 114.2161430000,22.2858570000 114.2162760000,22.2858510000 114.2164110000,22.2858270000 114.2165920000,22.2857580000 114.2167220000,22.2856880000 114.2168560000,22.2856250000 114.2169130000,22.2855980000 114.2171140000,22.2854840000 114.2172210000,22.2854230000 114.2172550000,22.2854100000 114.2173410000,22.2853770000 114.2175860000,22.2852820000 114.2176460000,22.2852590000 114.2179890000,22.2851260000 114.2182630000,22.2850590000 114.2185780000,22.2850100000 114.2187810000,22.2849790000 114.2189420000,22.2849780000 114.2190210000,22.2849720000 114.2190980000,22.2849680000 114.2192360000,22.2849470000 114.2193910000,22.2849110000 114.2195190000,22.2848720000 114.2196560000,22.2848180000 114.2198190000,22.2847380000 114.2199030000,22.2846840000 114.2199810000,22.2846250000 114.2200420000,22.2845750000 114.2201230000,22.2844980000 114.2202410000,22.2843540000 114.2206620000,22.2838130000 114.2209860000,22.2834030000 114.2212450000,22.2830700000 114.2213170000,22.2829780000 114.2216430000,22.2825650000 114.2216600000,22.2825430000 114.2218890000,22.2822610000 114.2219780000,22.2821440000 114.2220320000,22.2820670000 114.2220680000,22.2820190000 114.2222100000,22.2818050000 114.2223480000,22.2815980000 114.2223830000,22.2815480000 114.2224140000,22.2815060000 114.2224640000,22.2814480000 114.2225000000,22.2814120000 114.2225640000,22.2813550000 114.2226280000,22.2813030000 114.2226870000,22.2812600000 114.2227470000,22.2812180000 114.2228500000,22.2811500000 114.2228920000,22.2811240000 114.2229880000,22.2810710000 114.2230730000,22.2810250000 114.2235360000,22.2808090000 114.2238400000,22.2806670000 114.2239520000,22.2806170000 114.2239820000,22.2806050000 114.2240220000,22.2805890000 114.2242660000,22.2805100000 114.2243390000,22.2804910000 114.2246020000,22.2804400000 114.2247070000,22.2804170000 114.2249550000,22.2803650000 114.2252120000,22.2803100000 114.2252810000,22.2802910000 114.2253510000,22.2802590000 114.2254130000,22.2802190000 114.2254540000,22.2801860000 114.2254940000,22.2801420000 114.2255160000,22.2801150000 114.2255370000,22.2800870000 114.2255930000,22.2799970000 114.2255990000,22.2799890000 114.2257570000,22.2797370000 114.2258160000,22.2796400000 114.2260390000,22.2792770000 114.2262930000,22.2788620000 114.2263630000,22.2787480000 114.2265830000,22.2783890000 114.2266320000,22.2783090000 114.2268930000,22.2778750000 114.2269840000,22.2777290000 114.2270500000,22.2776460000 114.2271230000,22.2775830000 114.2271790000,22.2775490000 114.2280260000,22.2771020000 114.2282110000,22.2770180000 114.2283010000,22.2774100000 114.2283630000,22.2776890000 114.2283820000,22.2777750000 114.2284600000,22.2781250000 114.2285230000,22.2785590000 114.2285270000,22.2785860000 114.2285440000,22.2786080000 114.2285680000,22.2786210000 114.2285950000,22.2786220000 114.2286960000,22.2786050000 114.2293950000,22.2784670000 114.2294480000,22.2784680000 114.2294780000,22.2784730000 114.2294940000,22.2784750000 114.2295370000,22.2784940000 114.2295710000,22.2785230000 114.2295950000,22.2785610000 114.2296120000,22.2786150000 114.2295850000,22.2787370000 114.2295290000,22.2789140000 114.2295080000,22.2789760000 114.2294920000,22.2790300000 114.2294060000,22.2791840000 114.2293970000,22.2792240000 114.2293570000,22.2794130000 114.2292300000,22.2795300000 114.2293100000,22.2795900000 114.2294290000,22.2796800000 114.2295100000,22.2797600000 114.2295520000,22.2798080000 114.2296550000,22.2799400000 114.2297420000,22.2800680000 114.2298100000,22.2801900000 114.2298420000,22.2802660000 114.2298700000,22.2803500000 114.2299180000,22.2805650000 114.2299260000,22.2806010000 114.2299800000,22.2808400000 114.2299990000,22.2809200000 114.2300500000,22.2811300000 114.2300730000,22.2812100000 114.2301070000,22.2813110000 114.2301710000,22.2814790000 114.2302600000,22.2816500000 114.2303700000,22.2818200000 114.2304280000,22.2819000000 114.2305050000,22.2820000000 114.2305870000,22.2821030000 114.2307350000,22.2822550000 114.2307890000,22.2823010000 114.2309070000,22.2823960000 114.2310740000,22.2825110000 114.2312140000,22.2825940000 114.2313210000,22.2826500000 114.2315270000,22.2827430000 114.2316140000,22.2827750000 114.2317800000,22.2828230000 114.2320170000,22.2828760000 114.2321590000,22.2828980000 114.2323530000,22.2829130000 114.2324960000,22.2829130000 114.2326390000,22.2829020000 114.2328300000,22.2828820000 114.2329290000,22.2828660000 114.2330780000,22.2828380000 114.2332440000,22.2828050000 114.2334290000,22.2827570000 114.2335300000,22.2827260000 114.2336390000,22.2826870000 114.2337690000,22.2826310000 114.2339410000,22.2825410000 114.2340650000,22.2824680000 114.2342450000,22.2823430000 114.2343940000,22.2822240000 114.2344850000,22.2821390000 114.2345960000,22.2820270000 114.2347550000,22.2818300000 114.2349220000,22.2815870000 114.2351990000,22.2811490000 114.2353890000,22.2808190000 114.2357490000,22.2803230000 114.2361840000,22.2797420000 114.2362800000,22.2796010000 114.2363730000,22.2794510000 114.2364590000,22.2792960000 114.2366090000,22.2789610000 114.2367060000,22.2786580000 114.2369020000,22.2778860000 114.2369520000,22.2777270000 114.2370900000,22.2773720000 114.2371880000,22.2771640000 114.2373350000,22.2769080000 114.2375000000,22.2766770000 114.2388040000,22.2751210000 114.2390540000,22.2747850000 114.2392060000,22.2745190000 114.2393160000,22.2742690000 114.2393840000,22.2740700000 114.2394400000,22.2738550000 114.2394720000,22.2736770000 114.2394930000,22.2734740000 114.2394940000,22.2732460000 114.2394770000,22.2730170000 114.2394400000,22.2727910000 114.2393280000,22.2723540000 114.2391500000,22.2715110000 114.2388360000,22.2704010000 114.2387550000,22.2701890000 114.2386460000,22.2699870000 114.2385180000,22.2697700000 114.2382050000,22.2691860000 114.2380110000,22.2688260000 114.2379500000,22.2686950000 114.2379090000,22.2686000000 114.2378750000,22.2685210000 114.2378180000,22.2683540000 114.2377990000,22.2682910000 114.2377500000,22.2681220000 114.2377190000,22.2679750000 114.2377000000,22.2678510000 114.2376830000,22.2676750000 114.2376830000,22.2676470000 114.2376810000,22.2675450000 114.2376810000,22.2675240000 114.2376780000,22.2673930000 114.2376850000,22.2671900000 114.2376930000,22.2670450000 114.2377100000,22.2669040000 114.2377280000,22.2667790000 114.2378460000,22.2661540000 114.2378630000,22.2660380000 114.2378740000,22.2659330000 114.2378750000,22.2658500000 114.2378730000,22.2657370000 114.2378640000,22.2656500000 114.2378500000,22.2655640000 114.2378320000,22.2654880000 114.2378070000,22.2654070000 114.2376440000,22.2649390000 114.2376160000,22.2648520000 114.2375930000,22.2647560000 114.2375780000,22.2646700000 114.2375680000,22.2645970000 114.2375630000,22.2645380000 114.2375630000,22.2644620000 114.2375660000,22.2643860000 114.2375800000,22.2642740000 114.2375940000,22.2641890000 114.2376100000,22.2641200000 114.2376350000,22.2640440000 114.2376610000,22.2639780000 114.2376980000,22.2638950000 114.2378020000,22.2636820000 114.2378250000,22.2636360000 114.2378790000,22.2635620000 114.2379000000,22.2634900000 114.2379060000,22.2634260000 114.2379040000,22.2633900000 114.2378970000,22.2633460000 114.2378830000,22.2632980000 114.2378630000,22.2632470000 114.2378460000,22.2632140000 114.2378270000,22.2631830000 114.2377900000,22.2631510000 114.2377380000,22.2631200000 114.2376740000,22.2630890000 114.2376130000,22.2630670000 114.2375550000,22.2630490000 114.2375030000,22.2630380000 114.2374530000,22.2630320000 114.2374110000,22.2630320000 114.2373780000,22.2630350000 114.2373380000,22.2630440000 114.2373020000,22.2630550000 114.2372610000,22.2630750000 114.2372150000,22.2631020000 114.2371500000,22.2631500000 114.2371070000,22.2632200000 114.2371010000,22.2632700000 114.2371030000,22.2633200000 114.2371210000,22.2634300000 114.2371700000,22.2635300000 114.2373260000,22.2636430000 114.2374300000,22.2637900000 114.2374800000,22.2639100000 114.2375000000,22.2640200000 114.2374850000,22.2643720000 114.2374870000,22.2645740000 114.2375110000,22.2647170000 114.2375400000,22.2648550000 114.2375780000,22.2649960000 114.2377400000,22.2654750000 114.2377150000,22.2656180000 114.2376990000,22.2656450000 114.2376620000,22.2656700000 114.2376070000,22.2656930000 114.2375630000,22.2656950000 114.2375150000,22.2656830000 114.2374770000,22.2656640000 114.2374060000,22.2655890000 114.2373780000,22.2655210000 114.2373340000,22.2654490000 114.2373020000,22.2653980000 114.2372370000,22.2653450000 114.2371070000,22.2652540000 114.2369380000,22.2651270000 114.2368220000,22.2650390000 114.2367790000,22.2649740000 114.2367710000,22.2649530000 114.2367520000,22.2648470000 114.2369370000,22.2646510000 114.2369500000,22.2645920000 114.2369270000,22.2645100000 114.2369260000,22.2645080000 114.2368580000,22.2644540000 114.2365890000,22.2642370000 114.2365230000,22.2641850000 114.2362570000,22.2639740000 114.2361660000,22.2639050000 114.2361120000,22.2637400000 114.2361210000,22.2636800000 114.2361400000,22.2636200000 114.2361800000,22.2635700000 114.2362400000,22.2635300000 114.2363000000,22.2635070000 114.2364370000,22.2634720000 114.2365200000,22.2634500000 114.2367700000,22.2634400000 114.2368600000,22.2634380000 114.2369700000,22.2634500000 114.2370890000,22.2634860000 114.2371700000,22.2635300000 114.2373260000,22.2636430000 114.2374520000,22.2637080000 114.2375500000,22.2637220000 114.2376200000,22.2637200000 114.2377100000,22.2637000000 114.2378250000,22.2636360000 114.2378790000,22.2635620000 114.2379430000,22.2634950000 114.2380250000,22.2634190000 114.2380720000,22.2633830000 114.2381180000,22.2633570000 114.2381660000,22.2633340000 114.2382460000,22.2633050000 114.2383220000,22.2632900000 114.2383850000,22.2632830000 114.2386550000,22.2632730000 114.2387300000,22.2632740000 114.2387960000,22.2632790000 114.2388840000,22.2632910000 114.2389810000,22.2633100000 114.2390720000,22.2633330000 114.2391440000,22.2633560000 114.2392150000,22.2633860000 114.2392780000,22.2634160000 114.2393860000,22.2634700000 114.2394760000,22.2635200000 114.2395630000,22.2635810000 114.2397530000,22.2637190000 114.2399460000,22.2638600000 114.2402520000,22.2640810000 114.2404460000,22.2642240000 114.2406180000,22.2643500000 114.2406860000,22.2643990000 114.2407800000,22.2644710000 114.2408980000,22.2645580000 114.2417990000,22.2652170000 114.2420970000,22.2654330000 114.2424490000,22.2657000000 114.2430770000,22.2661400000 114.2432580000,22.2662660000 114.2433210000,22.2661860000 114.2434650000,22.2660400000 114.2435860000,22.2659580000 114.2437200000,22.2658920000 114.2439200000,22.2658210000 114.2441220000,22.2657760000 114.2442580000,22.2657640000 114.2443920000,22.2657650000 114.2445640000,22.2657840000 114.2446780000,22.2658060000 114.2450480000,22.2658850000 114.2451570000,22.2659060000 114.2452690000,22.2659240000 114.2453750000,22.2659370000 114.2454740000,22.2659430000 114.2456320000,22.2659460000 114.2457800000,22.2659400000 114.2460000000,22.2659200000 114.2461500000,22.2659000000 114.2463800000,22.2658400000 114.2465380000,22.2657990000 114.2467620000,22.2657210000 114.2468620000,22.2656740000 114.2469550000,22.2656170000 114.2470080000,22.2655850000 114.2471240000,22.2655150000 114.2472450000,22.2654350000 114.2473700000,22.2653500000 114.2476900000,22.2650800000 114.2477720000,22.2650080000 114.2478500000,22.2649400000 114.2479320000,22.2648620000 114.2480400000,22.2647600000 114.2481500000,22.2646600000 114.2482530000,22.2645530000 114.2483500000,22.2644500000 114.2484300000,22.2643700000 114.2484740000,22.2643170000 114.2485260000,22.2642550000 114.2486030000,22.2641630000 114.2486500000,22.2641000000 114.2487160000,22.2640060000 114.2493980000,22.2630450000 114.2494800000,22.2629300000 114.2495400000,22.2628500000 114.2496600000,22.2627300000 114.2497300000,22.2626700000 114.2498560000,22.2625810000 114.2500190000,22.2625080000 114.2500800000,22.2624880000 114.2501600000,22.2624700000 114.2502400000,22.2624600000 114.2503400000,22.2624560000 114.2505300000,22.2624800000 114.2506600000,22.2625200000 114.2507470000,22.2625570000 114.2509080000,22.2626240000 114.2509620000,22.2626570000 114.2511400000,22.2627700000 114.2514200000,22.2629900000 114.2516000000,22.2631600000 114.2517500000,22.2633350000 114.2517730000,22.2633690000 114.2518700000,22.2635100000 114.2519340000,22.2636440000 114.2519600000,22.2637300000 114.2519850000,22.2638900000 114.2519800000,22.2640600000 114.2519500000,22.2642000000 114.2519320000,22.2642420000 114.2519000000,22.2643200000 114.2517150000,22.2645870000 114.2516600000,22.2646480000 114.2516260000,22.2646860000 114.2515560000,22.2647650000 114.2514830000,22.2648440000 114.2514040000,22.2649270000 114.2512840000,22.2650540000 114.2511400000,22.2651840000 114.2509800000,22.2653300000 114.2506500000,22.2655700000 114.2505430000,22.2656440000 114.2504010000,22.2657440000 114.2503300000,22.2657950000 114.2502170000,22.2658670000 114.2501400000,22.2659100000 114.2500260000,22.2659630000 114.2498810000,22.2660300000 114.2494490000,22.2662020000 114.2491080000,22.2662900000 114.2490360000,22.2663090000 114.2484590000,22.2664580000 114.2479290000,22.2665950000 114.2478140000,22.2666250000 114.2477610000,22.2666380000 114.2475990000,22.2666980000 114.2474430000,22.2667080000 114.2471160000,22.2666970000 114.2470560000,22.2666950000 114.2469980000,22.2666550000 114.2469400000,22.2666520000 114.2468650000,22.2666490000 114.2468650000,22.2667200000 114.2469390000,22.2667230000 114.2469930000,22.2667240000 114.2470560000,22.2666950000 114.2471160000,22.2666970000 114.2474430000,22.2667080000 114.2475990000,22.2666980000 114.2477540000,22.2667160000 114.2478230000,22.2667010000 114.2480400000,22.2666500000 114.2490550000,22.2663800000 114.2491280000,22.2663630000 114.2493300000,22.2663100000 114.2494300000,22.2662810000 114.2494810000,22.2662670000 114.2495640000,22.2662440000 114.2495800000,22.2662390000 114.2496900000,22.2662000000 114.2497900000,22.2661640000 114.2498900000,22.2661220000 114.2499320000,22.2661130000 114.2499770000,22.2661070000 114.2500160000,22.2661060000 114.2500490000,22.2661060000 114.2500810000,22.2661070000 114.2501010000,22.2661090000 114.2501200000,22.2661140000 114.2501350000,22.2661210000 114.2501750000,22.2661430000 114.2506470000,22.2666150000 114.2506640000,22.2666250000 114.2506840000,22.2666260000 114.2507030000,22.2666140000 114.2508070000,22.2665220000 114.2510160000,22.2663370000 114.2513390000,22.2660520000 114.2513460000,22.2660350000 114.2513500000,22.2660170000 114.2513510000,22.2660010000 114.2513500000,22.2659870000 114.2513490000,22.2659770000 114.2513470000,22.2659670000 114.2513420000,22.2659540000 114.2510430000,22.2656400000 114.2510310000,22.2656320000 114.2510160000,22.2656280000 114.2510020000,22.2656280000 114.2509900000,22.2656280000 114.2509690000,22.2656310000 114.2509550000,22.2656380000 114.2509400000,22.2656460000 114.2509240000,22.2656560000 114.2509070000,22.2656690000 114.2508970000,22.2656710000 114.2508810000,22.2656790000 114.2508690000,22.2656860000 114.2508560000,22.2656950000 114.2508440000,22.2657050000 114.2508270000,22.2657230000 114.2508090000,22.2657420000 114.2507930000,22.2657630000 114.2507820000,22.2657850000 114.2507770000,22.2657990000 114.2507740000,22.2658140000 114.2507660000,22.2658440000 114.2507600000,22.2658590000 114.2507510000,22.2658770000 114.2507420000,22.2658910000 114.2507300000,22.2659060000 114.2507170000,22.2659170000 114.2507010000,22.2659260000 114.2506850000,22.2659340000 114.2506690000,22.2659390000 114.2506510000,22.2659430000 114.2506330000,22.2659450000 114.2506160000,22.2659450000 114.2506000000,22.2659430000 114.2505790000,22.2659320000 114.2505620000,22.2659190000 114.2505450000,22.2659040000 114.2505260000,22.2658840000 114.2505030000,22.2658570000 114.2504630000,22.2658080000 114.2507000000,22.2656300000 114.2510300000,22.2653900000 114.2510440000,22.2653780000 114.2512310000,22.2652240000 114.2513580000,22.2651160000 114.2514460000,22.2650310000 114.2514780000,22.2649990000 114.2515740000,22.2649070000 114.2516450000,22.2648310000 114.2517300000,22.2647510000 114.2518020000,22.2646640000 114.2520000000,22.2643500000 114.2520700000,22.2641700000 114.2520900000,22.2640600000 114.2520920000,22.2639300000 114.2520880000,22.2638460000 114.2520750000,22.2637580000 114.2520580000,22.2636850000 114.2520300000,22.2636060000 114.2519700000,22.2634800000 114.2518700000,22.2633400000 114.2517600000,22.2632000000 114.2516780000,22.2631020000 114.2514900000,22.2629200000 114.2513000000,22.2627600000 114.2511230000,22.2626400000 114.2510590000,22.2626010000 114.2510290000,22.2625820000 114.2509600000,22.2625400000 114.2507700000,22.2624500000 114.2506550000,22.2624100000 114.2505400000,22.2623800000 114.2504200000,22.2623630000 114.2503000000,22.2623600000 114.2501700000,22.2623700000 114.2500400000,22.2624000000 114.2500000000,22.2624140000 114.2499000000,22.2624500000 114.2497770000,22.2625070000 114.2496800000,22.2625700000 114.2496400000,22.2626080000 114.2495930000,22.2626520000 114.2494670000,22.2628010000 114.2494290000,22.2628570000 114.2494120000,22.2628820000 114.2490640000,22.2633920000 114.2488630000,22.2636760000 114.2486870000,22.2639110000 114.2486540000,22.2639550000 114.2485850000,22.2640460000 114.2485340000,22.2641040000 114.2484530000,22.2641970000 114.2482300000,22.2644500000 114.2481500000,22.2645390000 114.2479950000,22.2646900000 114.2478000000,22.2648700000 114.2477070000,22.2649460000 114.2476400000,22.2650020000 114.2472900000,22.2652900000 114.2471900000,22.2653600000 114.2469460000,22.2654880000 114.2469010000,22.2655150000 114.2468110000,22.2655690000 114.2467090000,22.2656150000 114.2465200000,22.2656900000 114.2463470000,22.2657440000 114.2462070000,22.2657810000 114.2460540000,22.2658140000 114.2459480000,22.2658310000 114.2457940000,22.2658440000 114.2456390000,22.2658500000 114.2455640000,22.2658500000 114.2454900000,22.2658460000 114.2453610000,22.2658340000 114.2452350000,22.2658200000 114.2450700000,22.2657900000 114.2449990000,22.2657750000 114.2447460000,22.2657200000 114.2447000000,22.2657100000 114.2445830000,22.2656860000 114.2444610000,22.2656650000 114.2443480000,22.2656500000 114.2442310000,22.2656440000 114.2441230000,22.2656460000 114.2440380000,22.2656630000 114.2432950000,22.2657930000 114.2432330000,22.2657930000 114.2430970000,22.2657930000 114.2428720000,22.2657590000 114.2427150000,22.2657060000 114.2425470000,22.2656330000 114.2421620000,22.2653560000 114.2417790000,22.2650770000 114.2414720000,22.2648500000 114.2408530000,22.2643850000 114.2407250000,22.2642900000 114.2403230000,22.2639950000 114.2399550000,22.2637210000 114.2396690000,22.2635200000 114.2396370000,22.2634960000 114.2395440000,22.2634350000 114.2393700000,22.2633300000 114.2392770000,22.2632900000 114.2391920000,22.2632610000 114.2390980000,22.2632350000 114.2389870000,22.2632100000 114.2388990000,22.2631950000 114.2388450000,22.2631900000 114.2387840000,22.2631890000 114.2385890000,22.2631970000 114.2382660000,22.2632180000 114.2381350000,22.2632220000 114.2380060000,22.2632190000 114.2379430000,22.2632090000 114.2378740000,22.2631960000 114.2378270000,22.2631830000 114.2377900000,22.2631510000 114.2377380000,22.2631200000 114.2376740000,22.2630890000 114.2376130000,22.2630670000 114.2375550000,22.2630490000 114.2375030000,22.2630380000 114.2374530000,22.2630320000 114.2374110000,22.2630320000 114.2373780000,22.2630350000 114.2373380000,22.2630440000 114.2373020000,22.2630550000 114.2372610000,22.2630750000 114.2372150000,22.2631020000 114.2371500000,22.2631500000 114.2371070000,22.2632200000 114.2371010000,22.2632700000 114.2371030000,22.2633200000 114.2371210000,22.2634300000 114.2371700000,22.2635300000 114.2373260000,22.2636430000 114.2374300000,22.2637900000 114.2374800000,22.2639100000 114.2375000000,22.2640200000 114.2374850000,22.2643720000 114.2374870000,22.2645740000 114.2375110000,22.2647170000 114.2375400000,22.2648550000 114.2375780000,22.2649960000 114.2377400000,22.2654750000 114.2377150000,22.2656180000 114.2376990000,22.2656450000 114.2376620000,22.2656700000 114.2376070000,22.2656930000 114.2375630000,22.2656950000 114.2375150000,22.2656830000 114.2374770000,22.2656640000 114.2374060000,22.2655890000 114.2373780000,22.2655210000 114.2373340000,22.2654490000 114.2373020000,22.2653980000 114.2372370000,22.2653450000 114.2371070000,22.2652540000 114.2369510000,22.2651360000 114.2368220000,22.2650390000 114.2367790000,22.2649740000 114.2367710000,22.2649530000 114.2367520000,22.2648470000 114.2369370000,22.2646510000 114.2369500000,22.2645920000 114.2369270000,22.2645100000 114.2369260000,22.2645080000 114.2368580000,22.2644540000 114.2365890000,22.2642370000 114.2365230000,22.2641850000 114.2362570000,22.2639740000 114.2361660000,22.2639050000 114.2361120000,22.2637400000 114.2361210000,22.2636800000 114.2361400000,22.2636200000 114.2361800000,22.2635700000 114.2362400000,22.2635300000 114.2363000000,22.2635070000 114.2364370000,22.2634720000 114.2365200000,22.2634500000 114.2367700000,22.2634400000 114.2368600000,22.2634380000 114.2369700000,22.2634500000 114.2370890000,22.2634860000 114.2371700000,22.2635300000 114.2373260000,22.2636430000 114.2374300000,22.2637900000 114.2374800000,22.2639100000 114.2375000000,22.2640200000 114.2374850000,22.2643720000 114.2374870000,22.2645740000 114.2375110000,22.2647170000 114.2375400000,22.2648550000 114.2375780000,22.2649960000 114.2377400000,22.2654750000 114.2377670000,22.2655760000 114.2377820000,22.2656880000 114.2377780000,22.2658310000 114.2377620000,22.2660290000 114.2377250000,22.2662410000 114.2376570000,22.2666640000 114.2376250000,22.2670080000 114.2376110000,22.2671910000 114.2376050000,22.2673950000 114.2376050000,22.2675290000 114.2376050000,22.2675470000 114.2376070000,22.2676520000 114.2376080000,22.2676780000 114.2376180000,22.2678590000 114.2376370000,22.2679860000 114.2376560000,22.2680620000 114.2376750000,22.2681370000 114.2377280000,22.2683050000 114.2378030000,22.2685390000 114.2382440000,22.2696400000 114.2383700000,22.2699420000 114.2384340000,22.2701100000 114.2384580000,22.2701870000 114.2385820000,22.2705900000 114.2386930000,22.2708790000 114.2388590000,22.2713520000 114.2390420000,22.2719110000 114.2392520000,22.2725530000 114.2393120000,22.2727910000 114.2393540000,22.2730310000 114.2393740000,22.2732500000 114.2393760000,22.2734650000 114.2393540000,22.2736720000 114.2393210000,22.2738520000 114.2392750000,22.2740380000 114.2391990000,22.2742610000 114.2390980000,22.2744850000 114.2389610000,22.2747330000 114.2388590000,22.2748800000 114.2386980000,22.2750870000 114.2375420000,22.2764650000 114.2374110000,22.2766310000 114.2372600000,22.2768500000 114.2371100000,22.2770900000 114.2369900000,22.2773250000 114.2368700000,22.2776600000 114.2367930000,22.2779100000 114.2366200000,22.2785900000 114.2365100000,22.2789200000 114.2363700000,22.2792200000 114.2361900000,22.2795100000 114.2353570000,22.2806520000 114.2350860000,22.2809370000 114.2341840000,22.2819110000 114.2340320000,22.2820830000 114.2339610000,22.2821620000 114.2338720000,22.2822490000 114.2337240000,22.2823760000 114.2336700000,22.2824180000 114.2335430000,22.2824980000 114.2334740000,22.2825340000 114.2333690000,22.2825800000 114.2332080000,22.2826370000 114.2330380000,22.2826830000 114.2329580000,22.2827020000 114.2328190000,22.2827250000 114.2326230000,22.2827470000 114.2325270000,22.2827500000 114.2323140000,22.2827490000 114.2321960000,22.2827400000 114.2320070000,22.2827130000 114.2318020000,22.2826670000 114.2316750000,22.2826280000 114.2315320000,22.2825670000 114.2313730000,22.2825000000 114.2311590000,22.2823790000 114.2310290000,22.2822890000 114.2309240000,22.2822020000 114.2308170000,22.2821010000 114.2307780000,22.2820630000 114.2306970000,22.2819790000 114.2305900000,22.2818500000 114.2305900000,22.2818000000 114.2305990000,22.2816610000 114.2306800000,22.2812070000 114.2307020000,22.2809750000 114.2307150000,22.2808500000 114.2307080000,22.2808120000 114.2306820000,22.2807500000 114.2306200000,22.2806180000 114.2304280000,22.2802400000 114.2303860000,22.2801660000 114.2303660000,22.2801310000 114.2303550000,22.2801080000 114.2301540000,22.2796180000 114.2299990000,22.2792010000 114.2299910000,22.2791200000 114.2299930000,22.2791050000 114.2300670000,22.2788510000 114.2300880000,22.2787850000 114.2302940000,22.2781290000 114.2303080000,22.2780610000 114.2303090000,22.2779920000 114.2302980000,22.2779240000 114.2302750000,22.2778590000 114.2302660000,22.2778330000 114.2302530000,22.2777980000 114.2302350000,22.2777500000 114.2301150000,22.2775820000 114.2298790000,22.2771520000 114.2298430000,22.2770860000 114.2298440000,22.2770640000 114.2298490000,22.2770220000 114.2297190000,22.2768030000 114.2296620000,22.2767440000 114.2295660000,22.2766930000 114.2294910000,22.2766700000 114.2294210000,22.2766650000 114.2293640000,22.2766690000 114.2291970000,22.2766980000 114.2290490000,22.2767110000 114.2288360000,22.2767520000 114.2285510000,22.2768270000 114.2284610000,22.2768500000 114.2283180000,22.2768910000 114.2282020000,22.2769410000 114.2278120000,22.2771210000 114.2272170000,22.2774260000 114.2271020000,22.2774880000 114.2270670000,22.2775080000 114.2270000000,22.2775590000 114.2269410000,22.2776260000 114.2269050000,22.2776770000 114.2265440000,22.2782660000 114.2264970000,22.2783430000 114.2261680000,22.2788810000 114.2257310000,22.2795960000 114.2256930000,22.2796580000 114.2255220000,22.2799460000 114.2254890000,22.2799970000 114.2254230000,22.2800730000 114.2253600000,22.2801280000 114.2253160000,22.2801600000 114.2252480000,22.2801920000 114.2251360000,22.2802230000 114.2250820000,22.2802350000 114.2246790000,22.2803080000 114.2245770000,22.2803280000 114.2243770000,22.2803690000 114.2242680000,22.2803960000 114.2239400000,22.2805220000 114.2234930000,22.2807280000 114.2233840000,22.2807780000 114.2230290000,22.2809450000 114.2229150000,22.2809990000 114.2226910000,22.2811340000 114.2225940000,22.2812080000 114.2224920000,22.2812910000 114.2224250000,22.2813490000 114.2223680000,22.2814100000 114.2223150000,22.2814730000 114.2221100000,22.2817370000 114.2219440000,22.2819500000 114.2219190000,22.2819810000 114.2218180000,22.2821090000 114.2217610000,22.2821820000 114.2215420000,22.2824650000 114.2212900000,22.2827900000 114.2212030000,22.2828980000 114.2211280000,22.2829910000 114.2209590000,22.2832080000 114.2208720000,22.2833270000 114.2206720000,22.2835830000 114.2205490000,22.2837380000 114.2200900000,22.2843030000 114.2200800000,22.2843170000 114.2200130000,22.2843980000 114.2199520000,22.2844710000 114.2199080000,22.2845200000 114.2198680000,22.2845620000 114.2198140000,22.2846060000 114.2197520000,22.2846470000 114.2196810000,22.2846880000 114.2196080000,22.2847260000 114.2195070000,22.2847710000 114.2193900000,22.2848080000 114.2192710000,22.2848380000 114.2191350000,22.2848640000 114.2189620000,22.2848800000 114.2188380000,22.2848850000 114.2186930000,22.2848790000 114.2185050000,22.2848580000 114.2183270000,22.2848280000 114.2180130000,22.2847520000 114.2178720000,22.2847160000 114.2174830000,22.2846240000 114.2172680000,22.2845900000 114.2170510000,22.2845630000 114.2167690000,22.2845540000 114.2158780000,22.2845530000 114.2155520000,22.2845760000 114.2152740000,22.2846000000 114.2149420000,22.2846250000 114.2147470000,22.2846360000 114.2144610000,22.2846360000 114.2142890000,22.2846290000 114.2136740000,22.2846060000 114.2135550000,22.2846010000 114.2130270000,22.2845940000 114.2129870000,22.2845940000 114.2129300000,22.2845990000 114.2128000000,22.2846110000 114.2126900000,22.2846260000 114.2125430000,22.2846460000 114.2124270000,22.2846740000 114.2123310000,22.2847010000 114.2122800000,22.2847170000 114.2121840000,22.2847460000 114.2120790000,22.2847770000 114.2119570000,22.2848190000 114.2118510000,22.2848580000 114.2117960000,22.2848790000 114.2117070000,22.2849210000 114.2116350000,22.2849550000 114.2115460000,22.2850210000 114.2114800000,22.2850790000 114.2113790000,22.2851950000 114.2112470000,22.2854040000 114.2111640000,22.2855320000 114.2111410000,22.2855670000 114.2110610000,22.2856900000 114.2110400000,22.2857230000 114.2110140000,22.2857620000 114.2109830000,22.2858120000 114.2108180000,22.2860740000 114.2107710000,22.2861480000 114.2107260000,22.2862180000 114.2107020000,22.2862560000 114.2106040000,22.2864100000 114.2105260000,22.2865330000 114.2104800000,22.2866050000 114.2104470000,22.2866630000 114.2104350000,22.2866890000 114.2104290000,22.2867010000 114.2104000000,22.2867620000 114.2103130000,22.2870220000 114.2102970000,22.2870710000 114.2102600000,22.2871620000 114.2102330000,22.2872410000 114.2102120000,22.2873050000 114.2101410000,22.2875490000 114.2101300000,22.2875850000 114.2101170000,22.2876140000 114.2101080000,22.2876390000 114.2100960000,22.2876750000 114.2100300000,22.2878640000 114.2099700000,22.2880490000 114.2099350000,22.2881560000 114.2098500000,22.2884060000 114.2098400000,22.2884330000 114.2097480000,22.2886950000 114.2097240000,22.2887680000 114.2095520000,22.2893280000 114.2093580000,22.2899070000 114.2092590000,22.2901990000 114.2091880000,22.2903860000 114.2091250000,22.2905120000 114.2090910000,22.2905770000 114.2090230000,22.2906990000 114.2089990000,22.2907460000 114.2089650000,22.2907940000 114.2089510000,22.2908140000 114.2089130000,22.2908620000 114.2088680000,22.2909220000 114.2088280000,22.2909700000 114.2087880000,22.2910180000 114.2086950000,22.2911000000 114.2086110000,22.2911660000 114.2084690000,22.2912500000 114.2083490000,22.2913120000 114.2082460000,22.2913780000 114.2082140000,22.2913930000 114.2082000000,22.2914000000 114.2081820000,22.2914090000 114.2081560000,22.2914180000 114.2081390000,22.2914250000 114.2081090000,22.2914330000 114.2080470000,22.2914470000 114.2078650000,22.2915110000 114.2072820000,22.2917280000 114.2071620000,22.2917730000 114.2068360000,22.2918910000 114.2067700000,22.2919090000 114.2066700000,22.2919250000 114.2065100000,22.2919400000 114.2058360000,22.2919710000 114.2056940000,22.2920400000 114.2055900000,22.2920410000 114.2054270000,22.2920380000 114.2047050000,22.2920230000 114.2046440000,22.2920250000 114.2045710000,22.2920350000 114.2044960000,22.2920590000 114.2044240000,22.2920920000 114.2043790000,22.2921220000 114.2043320000,22.2921610000 114.2042900000,22.2922120000 114.2042620000,22.2922600000 114.2042410000,22.2923100000 114.2042230000,22.2923700000 114.2042120000,22.2924400000 114.2042100000,22.2924900000 114.2042100000,22.2933670000 114.2042070000,22.2934330000 114.2042050000,22.2934520000 114.2042000000,22.2934930000 114.2041900000,22.2935480000 114.2041750000,22.2936070000 114.2041550000,22.2936600000 114.2041340000,22.2937060000 114.2041070000,22.2937510000 114.2040780000,22.2937930000 114.2040410000,22.2938380000 114.2040020000,22.2938780000 114.2039580000,22.2939160000 114.2039140000,22.2939500000 114.2038690000,22.2939770000 114.2038200000,22.2940020000 114.2037660000,22.2940250000 114.2037110000,22.2940420000 114.2036580000,22.2940550000 114.2036000000,22.2940650000 114.2035500000,22.2940700000 114.2034960000,22.2940730000 114.2034030000,22.2940760000 114.2031960000,22.2940860000 114.2029010000,22.2941180000 114.2026250000,22.2940640000 114.2025480000,22.2940480000 114.2021120000,22.2939650000 114.2005900000,22.2936420000 114.2005170000,22.2936260000 114.1999680000,22.2935100000 114.1996280000,22.2934690000 114.1992060000,22.2934470000 114.1987250000,22.2934460000 114.1983660000,22.2934260000 114.1979580000,22.2933590000 114.1975110000,22.2932730000 114.1971570000,22.2931990000 114.1968930000,22.2931450000 114.1966360000,22.2930950000 114.1965160000,22.2930760000 114.1963890000,22.2930500000 114.1963670000,22.2930430000 114.1962870000,22.2930260000 114.1961330000,22.2929940000 114.1958930000,22.2929450000 114.1957170000,22.2928940000 114.1956110000,22.2928720000 114.1955000000,22.2928430000 114.1953420000,22.2928020000 114.1950760000,22.2927130000 114.1949910000,22.2926820000 114.1948300000,22.2926120000 114.1947780000,22.2925820000 114.1947230000,22.2925510000 114.1945800000,22.2924720000 114.1944720000,22.2924140000 114.1943390000,22.2923300000 114.1943080000,22.2923090000 114.1940960000,22.2921610000 114.1939940000,22.2920890000 114.1938640000,22.2919970000 114.1937830000,22.2919430000 114.1937490000,22.2919190000 114.1937160000,22.2918970000 114.1937010000,22.2918840000 114.1936750000,22.2918610000 114.1936060000,22.2918030000 114.1935350000,22.2917410000 114.1934410000,22.2916610000 114.1933890000,22.2916150000 114.1933500000,22.2915810000 114.1933240000,22.2915550000 114.1933070000,22.2915380000 114.1932510000,22.2914830000 114.1931350000,22.2913490000 114.1931050000,22.2912530000 114.1930930000,22.2912180000 114.1930760000,22.2911620000 114.1930060000,22.2910820000 114.1929330000,22.2909960000 114.1928030000,22.2908470000 114.1922990000,22.2903210000 114.1915880000,22.2895560000 114.1913760000,22.2893230000 114.1912520000,22.2891910000 114.1906770000,22.2885810000 114.1903320000,22.2882150000 114.1900190000,22.2878880000 114.1899830000,22.2878420000 114.1898890000,22.2877330000 114.1898310000,22.2876540000 114.1897600000,22.2875550000 114.1896840000,22.2874280000 114.1896380000,22.2873400000 114.1895570000,22.2872390000 114.1894580000,22.2870630000 114.1894350000,22.2869950000 114.1894190000,22.2869350000 114.1894020000,22.2868650000 114.1893850000,22.2867830000 114.1893780000,22.2867270000 114.1893710000,22.2866570000 114.1893630000,22.2865650000 114.1893570000,22.2864690000 114.1893520000,22.2863510000 114.1893440000,22.2860110000 114.1893380000,22.2859370000 114.1893310000,22.2858670000 114.1893190000,22.2857830000 114.1893060000,22.2857010000 114.1892870000,22.2856040000 114.1892600000,22.2854970000 114.1892280000,22.2853930000 114.1891830000,22.2852740000 114.1891130000,22.2851340000 114.1890310000,22.2850070000 114.1889800000,22.2849320000 114.1888980000,22.2848300000 114.1888130000,22.2847440000 114.1887120000,22.2846530000 114.1885960000,22.2845670000 114.1884740000,22.2844880000 114.1883480000,22.2844200000 114.1882350000,22.2843700000 114.1880960000,22.2843140000 114.1879710000,22.2842690000 114.1877860000,22.2842120000 114.1876240000,22.2841670000 114.1871890000,22.2840570000 114.1871400000,22.2840320000 114.1870940000,22.2839960000 114.1869060000,22.2839590000 114.1866430000,22.2839070000 114.1865190000,22.2838830000 114.1864390000,22.2838650000 114.1863640000,22.2838430000 114.1862310000,22.2837970000 114.1860990000,22.2837360000 114.1859880000,22.2836800000 114.1859020000,22.2836190000 114.1857900000,22.2835350000 114.1854100000,22.2832190000 114.1852890000,22.2831460000 114.1851240000,22.2830460000 114.1849060000,22.2828830000 114.1846060000,22.2826830000 114.1843680000,22.2825090000 114.1842400000,22.2824220000 114.1840550000,22.2823030000 114.1836400000,22.2821430000 114.1831790000,22.2819590000 114.1829490000,22.2818710000 114.1827910000,22.2818100000 114.1826870000,22.2817690000 114.1823980000,22.2816580000 114.1823200000,22.2816240000 114.1822920000,22.2816120000 114.1821640000,22.2815570000 114.1820580000,22.2815120000 114.1819220000,22.2814530000 114.1818240000,22.2814020000 114.1817500000,22.2813760000 114.1816690000,22.2813450000 114.1815870000,22.2813120000 114.1812430000,22.2811660000 114.1809050000,22.2810230000 114.1808650000,22.2810030000 114.1808290000,22.2809820000 114.1808010000,22.2809620000 114.1807930000,22.2809530000 114.1807790000,22.2809380000 114.1807640000,22.2809140000 114.1807500000,22.2808830000 114.1807450000,22.2808500000 114.1807480000,22.2807850000 114.1807590000,22.2807190000 114.1807930000,22.2806110000 114.1808650000,22.2804290000 114.1811770000,22.2797040000 114.1812830000,22.2794790000 114.1813410000,22.2793390000 114.1813570000,22.2792850000 114.1813680000,22.2792400000 114.1813740000,22.2791860000 114.1813730000,22.2791220000 114.1813040000,22.2778020000 114.1813400000,22.2775280000 114.1813340000,22.2772790000 114.1813280000,22.2769770000 114.1813310000,22.2767660000 114.1813260000,22.2767270000 114.1813090000,22.2766350000 114.1812440000,22.2764930000 114.1812110000,22.2764050000 114.1811280000,22.2762310000 114.1810520000,22.2760870000 114.1812490000,22.2758330000 114.1812990000,22.2757660000 114.1813330000,22.2757290000 114.1813720000,22.2756930000 114.1814120000,22.2756620000 114.1814480000,22.2756400000 114.1814920000,22.2756200000 114.1815360000,22.2756070000 114.1815810000,22.2755980000 114.1816360000,22.2755950000 114.1816920000,22.2755970000 114.1821370000,22.2756250000 114.1822170000,22.2756350000 114.1822860000,22.2756510000 114.1823560000,22.2756720000 114.1826720000,22.2757830000 114.1827490000,22.2758100000 114.1832090000,22.2748670000 114.1832980000,22.2746850000 114.1836330000,22.2740250000 114.1836520000,22.2739860000 114.1836580000,22.2739530000 114.1836730000,22.2739240000 114.1836850000,22.2739040000 114.1836920000,22.2738920000 114.1837140000,22.2738700000 114.1837240000,22.2738520000 114.1840040000,22.2732480000 114.1840560000,22.2731410000 114.1843330000,22.2725640000 114.1844840000,22.2722510000 114.1846320000,22.2719460000 114.1847890000,22.2714290000 114.1848020000,22.2711870000 114.1847700000,22.2707730000 114.1847520000,22.2706680000 114.1847340000,22.2705850000 114.1847030000,22.2704820000 114.1846660000,22.2703730000 114.1846310000,22.2703000000 114.1845930000,22.2702510000 114.1845660000,22.2702170000 114.1845620000,22.2701870000 114.1845640000,22.2701180000 114.1845730000,22.2700750000 114.1845830000,22.2700290000 114.1846110000,22.2699760000 114.1846600000,22.2699140000 114.1846720000,22.2699000000 114.1846850000,22.2698900000 114.1847010000,22.2698790000 114.1847090000,22.2698740000 114.1852200000,22.2695400000 114.1854340000,22.2693880000 114.1855220000,22.2693260000 114.1856980000,22.2692060000 114.1857320000,22.2691860000 114.1859430000,22.2690490000 114.1860130000,22.2689990000 114.1860950000,22.2689380000 114.1861670000,22.2688670000 114.1862360000,22.2687870000 114.1864630000,22.2684220000 114.1864940000,22.2683730000 114.1866760000,22.2680690000 114.1867400000,22.2679700000 114.1868940000,22.2677150000 114.1869460000,22.2676280000 114.1871070000,22.2673650000 114.1871360000,22.2673160000 114.1871980000,22.2672180000 114.1873170000,22.2670340000 114.1873800000,22.2669460000 114.1876080000,22.2667110000 114.1878030000,22.2665500000 114.1879220000,22.2664940000 114.1884770000,22.2662560000 114.1886880000,22.2661550000 114.1887240000,22.2661580000 114.1887560000,22.2661430000 114.1887770000,22.2661330000 114.1887870000,22.2660850000 114.1888170000,22.2660070000 114.1888220000,22.2659480000 114.1888190000,22.2658970000 114.1888190000,22.2657070000 114.1888310000,22.2656840000 114.1888320000,22.2656600000 114.1888330000,22.2656180000 114.1888180000,22.2655960000 114.1888180000,22.2654910000 114.1888210000,22.2653580000 114.1887560000,22.2653580000 114.1884180000,22.2653570000 114.1882490000,22.2653570000 114.1882510000,22.2651290000 114.1882520000,22.2650200000 114.1882530000,22.2648130000 114.1882540000,22.2647100000 114.1882540000,22.2646910000 114.1882560000,22.2643650000 114.1882050000,22.2643650000 114.1877390000,22.2643620000 114.1875260000,22.2643630000</coordinates>
                </LineString>
                <ExtendedData>
                    <Data name="duration">
                        <value>00:47:54</value>
                    </Data>
                    <Data name="length">
                        <value>33317.0375254799</value>
                    </Data>
                </ExtendedData>
            </Placemark>
        </Document>
    </Document>
</kml>