<?xml version="1.0" encoding="UTF-8"?>
<kml xmlns="http://www.opengis.net/kml/2.2" xmlns:gx="http://www.google.com/kml/ext/2.2">
    <Document>
        <name>Route</name>
        <Folder>
            <name>Route Request</name>
            <Placemark>
                <address>26, Shek O Headland Road, Shek O Headland, Shek O, Southern District, Hong Kong Island, Hong Kong, China</address>
                <Point>
                    <coordinates>114.2549655914,22.2299092619</coordinates>
                </Point>
                <ExtendedData>
                    <Data name="country">
                        <value>China</value>
                    </Data>
                    <Data name="suburb">
                        <value>Shek O</value>
                    </Data>
                    <Data name="city_district">
                        <value>Southern District</value>
                    </Data>
                    <Data name="city">
                        <value>Hong Kong Island</value>
                    </Data>
                    <Data name="ISO3166-2-lvl3">
                        <value>CN-HK</value>
                    </Data>
                    <Data name="house_number">
                        <value>26</value>
                    </Data>
                    <Data name="road">
                        <value>Shek O Headland Road</value>
                    </Data>
                    <Data name="country_code">
                        <value>cn</value>
                    </Data>
                    <Data name="quarter">
                        <value>Shek O Headland</value>
                    </Data>
                    <Data name="state">
                        <value>Hong Kong</value>
                    </Data>
                </ExtendedData>
            </Placemark>
            <Placemark>
                <address>Sui Lung House, Siu Sai Wan Road, Lok Kang Po, Siu Sai Wan, Eastern District, Hong Kong Island, Hong Kong, China</address>
                <Point>
                    <coordinates>114.2501839792,22.2622598677</coordinates>
                </Point>
                <ExtendedData>
                    <Data name="building">
                        <value>Sui Lung House</value>
                    </Data>
                    <Data name="country">
                        <value>China</value>
                    </Data>
                    <Data name="suburb">
                        <value>Siu Sai Wan</value>
                    </Data>
                    <Data name="city_district">
                        <value>Eastern District</value>
                    </Data>
                    <Data name="city">
                        <value>Hong Kong Island</value>
                    </Data>
                    <Data name="ISO3166-2-lvl3">
                        <value>CN-HK</value>
                    </Data>
                    <Data name="road">
                        <value>Siu Sai Wan Road</value>
                    </Data>
                    <Data name="neighbourhood">
                        <value>Lok Kang Po</value>
                    </Data>
                    <Data name="country_code">
                        <value>cn</value>
                    </Data>
                    <Data name="state">
                        <value>Hong Kong</value>
                    </Data>
                </ExtendedData>
            </Placemark>
            <Placemark>
                <address>Shing Tai Road, Heng Fa Chuen, Shau Kei Wan, Eastern District, Hong Kong Island, Hong Kong, China</address>
                <Point>
                    <coordinates>114.2403711843,22.2779122026</coordinates>
                </Point>
                <ExtendedData>
                    <Data name="country">
                        <value>China</value>
                    </Data>
                    <Data name="residential">
                        <value>Heng Fa Chuen</value>
                    </Data>
                    <Data name="suburb">
                        <value>Shau Kei Wan</value>
                    </Data>
                    <Data name="city_district">
                        <value>Eastern District</value>
                    </Data>
                    <Data name="city">
                        <value>Hong Kong Island</value>
                    </Data>
                    <Data name="ISO3166-2-lvl3">
                        <value>CN-HK</value>
                    </Data>
                    <Data name="road">
                        <value>Shing Tai Road</value>
                    </Data>
                    <Data name="country_code">
                        <value>cn</value>
                    </Data>
                    <Data name="state">
                        <value>Hong Kong</value>
                    </Data>
                </ExtendedData>
            </Placemark>
            <Placemark>
                <address>Sui Lung House, Siu Sai Wan Road, Lok Kang Po, Siu Sai Wan, Eastern District, Hong Kong Island, Hong Kong, China</address>
                <Point>
                    <coordinates>114.2501987411,22.2623008484</coordinates>
                </Point>
                <ExtendedData>
                    <Data name="building">
                        <value>Sui Lung House</value>
                    </Data>
                    <Data name="country">
                        <value>China</value>
                    </Data>
                    <Data name="suburb">
                        <value>Siu Sai Wan</value>
                    </Data>
                    <Data name="city_district">
                        <value>Eastern District</value>
                    </Data>
                    <Data name="city">
                        <value>Hong Kong Island</value>
                    </Data>
                    <Data name="ISO3166-2-lvl3">
                        <value>CN-HK</value>
                    </Data>
                    <Data name="road">
                        <value>Siu Sai Wan Road</value>
                    </Data>
                    <Data name="neighbourhood">
                        <value>Lok Kang Po</value>
                    </Data>
                    <Data name="country_code">
                        <value>cn</value>
                    </Data>
                    <Data name="state">
                        <value>Hong Kong</value>
                    </Data>
                </ExtendedData>
            </Placemark>
            <Placemark>
                <address>Tai Tam Road, Chai Wan Mid-Levels, Chai Wan, Eastern District, Hong Kong Island, Hong Kong, China</address>
                <Point>
                    <coordinates>114.2257851880,22.2583928025</coordinates>
                </Point>
                <ExtendedData>
                    <Data name="country">
                        <value>China</value>
                    </Data>
                    <Data name="suburb">
                        <value>Chai Wan</value>
                    </Data>
                    <Data name="city_district">
                        <value>Eastern District</value>
                    </Data>
                    <Data name="city">
                        <value>Hong Kong Island</value>
                    </Data>
                    <Data name="ISO3166-2-lvl3">
                        <value>CN-HK</value>
                    </Data>
                    <Data name="road">
                        <value>Tai Tam Road</value>
                    </Data>
                    <Data name="country_code">
                        <value>cn</value>
                    </Data>
                    <Data name="quarter">
                        <value>Chai Wan Mid-Levels</value>
                    </Data>
                    <Data name="state">
                        <value>Hong Kong</value>
                    </Data>
                </ExtendedData>
            </Placemark>
            <Placemark>
                <address>26, Shek O Headland Road, Shek O Headland, Shek O, Southern District, Hong Kong Island, Hong Kong, China</address>
                <Point>
                    <coordinates>114.2549763085,22.2298724207</coordinates>
                </Point>
                <ExtendedData>
                    <Data name="country">
                        <value>China</value>
                    </Data>
                    <Data name="suburb">
                        <value>Shek O</value>
                    </Data>
                    <Data name="city_district">
                        <value>Southern District</value>
                    </Data>
                    <Data name="city">
                        <value>Hong Kong Island</value>
                    </Data>
                    <Data name="ISO3166-2-lvl3">
                        <value>CN-HK</value>
                    </Data>
                    <Data name="house_number">
                        <value>26</value>
                    </Data>
                    <Data name="road">
                        <value>Shek O Headland Road</value>
                    </Data>
                    <Data name="country_code">
                        <value>cn</value>
                    </Data>
                    <Data name="quarter">
                        <value>Shek O Headland</value>
                    </Data>
                    <Data name="state">
                        <value>Hong Kong</value>
                    </Data>
                </ExtendedData>
            </Placemark>
        </Folder>
        <Document>
            <name>32.3 km; 00:48 h (OSRM)</name>
            <Placemark>
                <name>Route</name>
                <LineString>
                    <coordinates>114.2550470000,22.2297370000 114.2549330000,22.2295380000 114.2550050000,22.2295050000 114.2550830000,22.2294470000 114.2551670000,22.2293280000 114.2552290000,22.2292210000 114.2552360000,22.2291250000 114.2552260000,22.2290270000 114.2551630000,22.2288460000 114.2547980000,22.2289570000 114.2543590000,22.2290990000 114.2541110000,22.2291750000 114.2538430000,22.2293040000 114.2536020000,22.2294510000 114.2535430000,22.2295490000 114.2535110000,22.2297430000 114.2535010000,22.2297890000 114.2534950000,22.2298150000 114.2534670000,22.2298650000 114.2534420000,22.2298980000 114.2533940000,22.2299620000 114.2533370000,22.2299880000 114.2533130000,22.2300120000 114.2532690000,22.2301130000 114.2532540000,22.2301360000 114.2532280000,22.2301560000 114.2531960000,22.2301640000 114.2531580000,22.2301700000 114.2531050000,22.2301670000 114.2530540000,22.2301620000 114.2530410000,22.2301610000 114.2529880000,22.2301510000 114.2528540000,22.2301210000 114.2526860000,22.2300840000 114.2525440000,22.2300590000 114.2524110000,22.2300360000 114.2523510000,22.2300430000 114.2522970000,22.2300570000 114.2522350000,22.2301370000 114.2521860000,22.2302580000 114.2521670000,22.2302880000 114.2521460000,22.2303050000 114.2521210000,22.2303110000 114.2520810000,22.2303110000 114.2516910000,22.2301900000 114.2514440000,22.2301520000 114.2513750000,22.2302810000 114.2513250000,22.2303490000 114.2512780000,22.2304120000 114.2511230000,22.2305710000 114.2510260000,22.2306630000 114.2508850000,22.2307850000 114.2505440000,22.2310660000 114.2492880000,22.2321170000 114.2491820000,22.2322210000 114.2490340000,22.2324320000 114.2489320000,22.2326420000 114.2488740000,22.2328070000 114.2488450000,22.2329560000 114.2488380000,22.2330950000 114.2488410000,22.2332240000 114.2489500000,22.2342260000 114.2489560000,22.2344130000 114.2489510000,22.2345580000 114.2488900000,22.2351550000 114.2488860000,22.2352600000 114.2488270000,22.2358590000 114.2487860000,22.2363630000 114.2487590000,22.2367820000 114.2487310000,22.2370320000 114.2487110000,22.2371720000 114.2487010000,22.2372180000 114.2486920000,22.2372360000 114.2486770000,22.2372550000 114.2486650000,22.2372660000 114.2486520000,22.2372750000 114.2486370000,22.2372820000 114.2486180000,22.2372880000 114.2486020000,22.2372840000 114.2485850000,22.2372780000 114.2485720000,22.2372700000 114.2485600000,22.2372590000 114.2484860000,22.2371820000 114.2484400000,22.2371010000 114.2484100000,22.2370180000 114.2483000000,22.2366580000 114.2482910000,22.2366290000 114.2481440000,22.2359660000 114.2479840000,22.2352870000 114.2478100000,22.2345490000 114.2476620000,22.2339750000 114.2476270000,22.2338380000 114.2475280000,22.2334440000 114.2474040000,22.2329650000 114.2473260000,22.2326580000 114.2473110000,22.2325500000 114.2473050000,22.2325060000 114.2473120000,22.2323440000 114.2473280000,22.2321290000 114.2473280000,22.2320000000 114.2473040000,22.2318100000 114.2472750000,22.2317380000 114.2472440000,22.2316750000 114.2472060000,22.2316100000 114.2471730000,22.2315580000 114.2471350000,22.2315030000 114.2470980000,22.2314550000 114.2470440000,22.2313900000 114.2470130000,22.2313510000 114.2469830000,22.2313070000 114.2469530000,22.2312610000 114.2469200000,22.2312030000 114.2468970000,22.2311550000 114.2468770000,22.2311040000 114.2468550000,22.2310360000 114.2468370000,22.2309670000 114.2467220000,22.2303880000 114.2466320000,22.2299390000 114.2466140000,22.2298700000 114.2465930000,22.2298060000 114.2465470000,22.2296860000 114.2464990000,22.2295780000 114.2464220000,22.2294250000 114.2462840000,22.2291730000 114.2462600000,22.2291240000 114.2462440000,22.2290800000 114.2462360000,22.2290480000 114.2462310000,22.2290110000 114.2462290000,22.2289710000 114.2462300000,22.2289370000 114.2462350000,22.2289010000 114.2462430000,22.2288670000 114.2462550000,22.2288350000 114.2462650000,22.2288110000 114.2462790000,22.2287850000 114.2462980000,22.2287580000 114.2463180000,22.2287330000 114.2463390000,22.2287130000 114.2463600000,22.2286950000 114.2463860000,22.2286780000 114.2464180000,22.2286620000 114.2464650000,22.2286440000 114.2465230000,22.2286260000 114.2465620000,22.2286170000 114.2466280000,22.2286050000 114.2466680000,22.2285950000 114.2467070000,22.2285810000 114.2467440000,22.2285620000 114.2467770000,22.2285420000 114.2468050000,22.2285210000 114.2468290000,22.2284980000 114.2468520000,22.2284710000 114.2468840000,22.2284200000 114.2469030000,22.2283690000 114.2469130000,22.2283120000 114.2469160000,22.2282660000 114.2469110000,22.2282030000 114.2468990000,22.2281340000 114.2468860000,22.2280810000 114.2468600000,22.2280050000 114.2468380000,22.2279490000 114.2468110000,22.2278960000 114.2467750000,22.2278390000 114.2467460000,22.2277980000 114.2467110000,22.2277580000 114.2466470000,22.2276930000 114.2460570000,22.2271280000 114.2459910000,22.2270730000 114.2459260000,22.2270210000 114.2458410000,22.2269630000 114.2457760000,22.2269270000 114.2456990000,22.2268920000 114.2456350000,22.2268650000 114.2454080000,22.2267790000 114.2453730000,22.2267620000 114.2453370000,22.2267430000 114.2453040000,22.2267210000 114.2452760000,22.2266980000 114.2452490000,22.2266710000 114.2452280000,22.2266470000 114.2452090000,22.2266230000 114.2451940000,22.2266000000 114.2451660000,22.2265490000 114.2451470000,22.2265190000 114.2451260000,22.2264890000 114.2451060000,22.2264650000 114.2450780000,22.2264340000 114.2448410000,22.2261810000 114.2448000000,22.2261350000 114.2446420000,22.2259530000 114.2445880000,22.2258870000 114.2439410000,22.2250540000 114.2437530000,22.2247980000 114.2435700000,22.2246300000 114.2434840000,22.2245700000 114.2433800000,22.2245100000 114.2432800000,22.2244600000 114.2431000000,22.2243950000 114.2430000000,22.2243750000 114.2429000000,22.2243610000 114.2428000000,22.2243530000 114.2427100000,22.2243510000 114.2425560000,22.2243630000 114.2422300000,22.2244580000 114.2417210000,22.2246680000 114.2415000000,22.2248140000 114.2412720000,22.2249650000 114.2409950000,22.2251670000 114.2408920000,22.2252430000 114.2405620000,22.2255840000 114.2405020000,22.2256660000 114.2402950000,22.2259520000 114.2400480000,22.2263010000 114.2400180000,22.2263430000 114.2399130000,22.2265520000 114.2398370000,22.2267430000 114.2397440000,22.2270010000 114.2397130000,22.2270900000 114.2393820000,22.2281210000 114.2393650000,22.2281850000 114.2393590000,22.2282300000 114.2393560000,22.2282740000 114.2393550000,22.2283210000 114.2393560000,22.2283800000 114.2393630000,22.2284410000 114.2393720000,22.2284990000 114.2393830000,22.2285510000 114.2393960000,22.2285980000 114.2394130000,22.2286430000 114.2394340000,22.2286860000 114.2395080000,22.2288210000 114.2395270000,22.2288620000 114.2395520000,22.2289270000 114.2395660000,22.2289750000 114.2395750000,22.2290190000 114.2395820000,22.2290630000 114.2395860000,22.2291130000 114.2395860000,22.2291620000 114.2395820000,22.2292030000 114.2395760000,22.2292400000 114.2395670000,22.2292790000 114.2395110000,22.2294780000 114.2394950000,22.2295430000 114.2394850000,22.2295880000 114.2394800000,22.2296220000 114.2394750000,22.2296540000 114.2394720000,22.2297010000 114.2394710000,22.2297460000 114.2394730000,22.2297820000 114.2394770000,22.2298160000 114.2394830000,22.2298520000 114.2394980000,22.2299080000 114.2395070000,22.2299370000 114.2395160000,22.2299620000 114.2395270000,22.2299870000 114.2395470000,22.2300260000 114.2395740000,22.2300710000 114.2396040000,22.2301160000 114.2396370000,22.2301590000 114.2396660000,22.2301960000 114.2397080000,22.2302420000 114.2398210000,22.2303560000 114.2398650000,22.2303980000 114.2400270000,22.2305450000 114.2400560000,22.2305730000 114.2400770000,22.2305970000 114.2400990000,22.2306250000 114.2401170000,22.2306510000 114.2401750000,22.2307430000 114.2402190000,22.2308240000 114.2402470000,22.2308830000 114.2402710000,22.2309450000 114.2402910000,22.2310090000 114.2403120000,22.2310880000 114.2403240000,22.2311580000 114.2403350000,22.2312310000 114.2403410000,22.2312940000 114.2403440000,22.2313590000 114.2403400000,22.2321990000 114.2403370000,22.2322640000 114.2403250000,22.2323820000 114.2403040000,22.2325250000 114.2402860000,22.2326250000 114.2402650000,22.2327140000 114.2402390000,22.2328000000 114.2402190000,22.2328540000 114.2398920000,22.2336730000 114.2397390000,22.2340700000 114.2397120000,22.2341320000 114.2396890000,22.2341860000 114.2396570000,22.2342460000 114.2396280000,22.2342920000 114.2395960000,22.2343400000 114.2395630000,22.2343820000 114.2394500000,22.2344990000 114.2392730000,22.2346690000 114.2391480000,22.2348000000 114.2389900000,22.2349770000 114.2385490000,22.2356780000 114.2383420000,22.2360070000 114.2382310000,22.2362330000 114.2381360000,22.2364900000 114.2381190000,22.2365600000 114.2380380000,22.2368940000 114.2380180000,22.2369660000 114.2379860000,22.2370840000 114.2379800000,22.2371290000 114.2379660000,22.2372320000 114.2379580000,22.2373000000 114.2379460000,22.2374640000 114.2379440000,22.2375720000 114.2379480000,22.2377180000 114.2379670000,22.2378910000 114.2379860000,22.2379920000 114.2380070000,22.2380970000 114.2380330000,22.2381970000 114.2380670000,22.2383120000 114.2382490000,22.2388680000 114.2382600000,22.2389100000 114.2382690000,22.2389540000 114.2382740000,22.2390030000 114.2382730000,22.2390460000 114.2382660000,22.2390980000 114.2382470000,22.2391710000 114.2382180000,22.2392350000 114.2377700000,22.2400300000 114.2377490000,22.2400700000 114.2377300000,22.2401110000 114.2377080000,22.2401640000 114.2376890000,22.2402140000 114.2376700000,22.2402770000 114.2376540000,22.2403380000 114.2376400000,22.2403980000 114.2376270000,22.2404650000 114.2376170000,22.2405350000 114.2376110000,22.2406000000 114.2376090000,22.2406630000 114.2376120000,22.2407210000 114.2376180000,22.2407790000 114.2376270000,22.2408390000 114.2376390000,22.2408970000 114.2376530000,22.2409450000 114.2376700000,22.2409900000 114.2377670000,22.2412300000 114.2377850000,22.2412710000 114.2378060000,22.2413110000 114.2378280000,22.2413500000 114.2378520000,22.2413890000 114.2378720000,22.2414170000 114.2378940000,22.2414430000 114.2379180000,22.2414660000 114.2379440000,22.2414880000 114.2379770000,22.2415110000 114.2380200000,22.2415360000 114.2380660000,22.2415590000 114.2381540000,22.2415990000 114.2381990000,22.2416220000 114.2382400000,22.2416460000 114.2382780000,22.2416730000 114.2383130000,22.2417030000 114.2383400000,22.2417330000 114.2383610000,22.2417620000 114.2383790000,22.2417940000 114.2383950000,22.2418300000 114.2384060000,22.2418650000 114.2384110000,22.2418980000 114.2384130000,22.2419400000 114.2384120000,22.2419710000 114.2384090000,22.2420000000 114.2384040000,22.2420290000 114.2383970000,22.2420560000 114.2383890000,22.2420810000 114.2383790000,22.2421100000 114.2383640000,22.2421480000 114.2383270000,22.2422270000 114.2383080000,22.2422690000 114.2382920000,22.2423080000 114.2382740000,22.2423590000 114.2382580000,22.2424110000 114.2382440000,22.2424630000 114.2382330000,22.2425100000 114.2382140000,22.2425960000 114.2382010000,22.2426460000 114.2381860000,22.2426870000 114.2381670000,22.2427280000 114.2381450000,22.2427690000 114.2381220000,22.2428070000 114.2381000000,22.2428400000 114.2380770000,22.2428700000 114.2380500000,22.2428990000 114.2380200000,22.2429270000 114.2379810000,22.2429610000 114.2379350000,22.2429970000 114.2378790000,22.2430370000 114.2378330000,22.2430660000 114.2377880000,22.2430920000 114.2377400000,22.2431160000 114.2376700000,22.2431470000 114.2376480000,22.2431590000 114.2376240000,22.2431750000 114.2375990000,22.2431940000 114.2375770000,22.2432140000 114.2375580000,22.2432340000 114.2375410000,22.2432540000 114.2375250000,22.2432750000 114.2375110000,22.2432980000 114.2374980000,22.2433240000 114.2374860000,22.2433510000 114.2374750000,22.2433790000 114.2374670000,22.2434040000 114.2374600000,22.2434290000 114.2374400000,22.2435100000 114.2374330000,22.2435340000 114.2374220000,22.2435600000 114.2374070000,22.2435860000 114.2373850000,22.2436150000 114.2373580000,22.2436420000 114.2373270000,22.2436650000 114.2372920000,22.2436840000 114.2372520000,22.2437000000 114.2372050000,22.2437120000 114.2371600000,22.2437170000 114.2371240000,22.2437150000 114.2370900000,22.2437090000 114.2370430000,22.2436930000 114.2370070000,22.2436740000 114.2369720000,22.2436500000 114.2367820000,22.2435100000 114.2367280000,22.2434740000 114.2366680000,22.2434460000 114.2366050000,22.2434310000 114.2365400000,22.2434270000 114.2360960000,22.2434320000 114.2359870000,22.2434340000 114.2359040000,22.2434460000 114.2358340000,22.2434710000 114.2357800000,22.2434990000 114.2357230000,22.2435420000 114.2356710000,22.2435950000 114.2356390000,22.2436330000 114.2356100000,22.2436720000 114.2355550000,22.2437600000 114.2355220000,22.2438280000 114.2354940000,22.2438970000 114.2354750000,22.2439500000 114.2354310000,22.2441010000 114.2354010000,22.2441950000 114.2353700000,22.2442730000 114.2353340000,22.2443480000 114.2352950000,22.2444160000 114.2352420000,22.2444930000 114.2351800000,22.2445700000 114.2350830000,22.2446790000 114.2350290000,22.2447430000 114.2349800000,22.2448070000 114.2349340000,22.2448730000 114.2348850000,22.2449580000 114.2348420000,22.2450500000 114.2348030000,22.2451500000 114.2345920000,22.2458080000 114.2345540000,22.2459330000 114.2343720000,22.2466000000 114.2343560000,22.2466450000 114.2343410000,22.2466830000 114.2343220000,22.2467270000 114.2342920000,22.2467860000 114.2342680000,22.2468280000 114.2342460000,22.2468600000 114.2342190000,22.2468900000 114.2341860000,22.2469230000 114.2341510000,22.2469540000 114.2341190000,22.2469790000 114.2340840000,22.2470030000 114.2339030000,22.2471190000 114.2338580000,22.2471500000 114.2338130000,22.2471840000 114.2337760000,22.2472130000 114.2337400000,22.2472470000 114.2337090000,22.2472800000 114.2336820000,22.2473110000 114.2336590000,22.2473420000 114.2336390000,22.2473740000 114.2336150000,22.2474150000 114.2335960000,22.2474530000 114.2335300000,22.2476320000 114.2335060000,22.2476880000 114.2334860000,22.2477330000 114.2334660000,22.2477720000 114.2334450000,22.2478050000 114.2334210000,22.2478350000 114.2333950000,22.2478650000 114.2333650000,22.2478950000 114.2333350000,22.2479230000 114.2329830000,22.2482190000 114.2329500000,22.2482450000 114.2329050000,22.2482770000 114.2328610000,22.2483060000 114.2327880000,22.2483460000 114.2327200000,22.2483790000 114.2326550000,22.2484060000 114.2325990000,22.2484250000 114.2325410000,22.2484410000 114.2324920000,22.2484500000 114.2319210000,22.2485230000 114.2318590000,22.2485330000 114.2317940000,22.2485460000 114.2316870000,22.2485730000 114.2316260000,22.2485900000 114.2315730000,22.2486080000 114.2315200000,22.2486290000 114.2314620000,22.2486540000 114.2310570000,22.2488500000 114.2309780000,22.2488860000 114.2309150000,22.2489100000 114.2308550000,22.2489310000 114.2307840000,22.2489510000 114.2307240000,22.2489660000 114.2306540000,22.2489810000 114.2305060000,22.2490070000 114.2304480000,22.2490200000 114.2304050000,22.2490320000 114.2303720000,22.2490440000 114.2303410000,22.2490590000 114.2303070000,22.2490790000 114.2302740000,22.2491030000 114.2302470000,22.2491260000 114.2302250000,22.2491490000 114.2302040000,22.2491750000 114.2301830000,22.2492090000 114.2301650000,22.2492450000 114.2301530000,22.2492750000 114.2301440000,22.2493030000 114.2301390000,22.2493290000 114.2301370000,22.2493630000 114.2301380000,22.2493940000 114.2301440000,22.2494400000 114.2301530000,22.2494790000 114.2302960000,22.2499980000 114.2303090000,22.2500540000 114.2303410000,22.2502190000 114.2303510000,22.2502850000 114.2303570000,22.2503410000 114.2303640000,22.2504480000 114.2303710000,22.2508100000 114.2303710000,22.2509030000 114.2303670000,22.2509810000 114.2303590000,22.2510690000 114.2303070000,22.2514600000 114.2303030000,22.2515100000 114.2303020000,22.2515520000 114.2303040000,22.2515910000 114.2303100000,22.2516520000 114.2303190000,22.2517130000 114.2303950000,22.2521280000 114.2304040000,22.2521820000 114.2304100000,22.2522310000 114.2304310000,22.2524630000 114.2304420000,22.2526560000 114.2304700000,22.2537790000 114.2304840000,22.2547030000 114.2304830000,22.2547640000 114.2304770000,22.2548160000 114.2304410000,22.2550120000 114.2304360000,22.2550680000 114.2304320000,22.2551320000 114.2304320000,22.2551920000 114.2304430000,22.2553270000 114.2304510000,22.2553840000 114.2304640000,22.2554500000 114.2305160000,22.2556350000 114.2305180000,22.2556840000 114.2305170000,22.2557140000 114.2305020000,22.2557630000 114.2304750000,22.2558240000 114.2304290000,22.2558970000 114.2303500000,22.2560260000 114.2303330000,22.2560540000 114.2302850000,22.2561180000 114.2301950000,22.2562510000 114.2301660000,22.2562900000 114.2301340000,22.2563300000 114.2301050000,22.2563590000 114.2300570000,22.2563950000 114.2300220000,22.2564140000 114.2299870000,22.2564310000 114.2299500000,22.2564450000 114.2299090000,22.2564580000 114.2297070000,22.2565090000 114.2296400000,22.2565300000 114.2295790000,22.2565550000 114.2295120000,22.2565870000 114.2294600000,22.2566200000 114.2293000000,22.2567310000 114.2291520000,22.2568340000 114.2289550000,22.2569710000 114.2289230000,22.2569910000 114.2288820000,22.2570140000 114.2288380000,22.2570380000 114.2287750000,22.2570660000 114.2287310000,22.2570830000 114.2286570000,22.2571060000 114.2285570000,22.2571260000 114.2284810000,22.2571410000 114.2283150000,22.2571790000 114.2283050000,22.2571600000 114.2282890000,22.2571460000 114.2282680000,22.2571370000 114.2282460000,22.2571360000 114.2282240000,22.2571420000 114.2282060000,22.2571540000 114.2281950000,22.2571670000 114.2281890000,22.2571830000 114.2281880000,22.2571990000 114.2281910000,22.2572150000 114.2281990000,22.2572300000 114.2281990000,22.2572670000 114.2282000000,22.2572830000 114.2282020000,22.2573050000 114.2282200000,22.2573630000 114.2281760000,22.2574720000 114.2281620000,22.2575070000 114.2281260000,22.2575560000 114.2280860000,22.2575970000 114.2280610000,22.2576140000 114.2280310000,22.2576260000 114.2279470000,22.2576530000 114.2275590000,22.2577540000 114.2272330000,22.2578190000 114.2271040000,22.2578380000 114.2267510000,22.2578800000 114.2265920000,22.2578920000 114.2263220000,22.2579020000 114.2261560000,22.2578990000 114.2259460000,22.2578910000 114.2258750000,22.2578910000 114.2258440000,22.2578950000 114.2258130000,22.2579030000 114.2257840000,22.2579140000 114.2257560000,22.2579270000 114.2257310000,22.2579420000 114.2257080000,22.2579580000 114.2256850000,22.2579780000 114.2256660000,22.2579970000 114.2256490000,22.2580190000 114.2256340000,22.2580420000 114.2256200000,22.2580680000 114.2256090000,22.2580940000 114.2256010000,22.2581230000 114.2255970000,22.2581620000 114.2255970000,22.2581970000 114.2256010000,22.2582310000 114.2256080000,22.2582650000 114.2256570000,22.2584290000 114.2256930000,22.2585890000 114.2257000000,22.2586310000 114.2257080000,22.2587350000 114.2257000000,22.2598490000 114.2256960000,22.2599340000 114.2256870000,22.2600360000 114.2255420000,22.2612520000 114.2255370000,22.2613080000 114.2255370000,22.2613560000 114.2255400000,22.2614120000 114.2255460000,22.2614630000 114.2255530000,22.2615110000 114.2255750000,22.2616090000 114.2255890000,22.2616570000 114.2256050000,22.2617030000 114.2256240000,22.2617470000 114.2257150000,22.2619110000 114.2257320000,22.2619440000 114.2257440000,22.2619780000 114.2257530000,22.2620190000 114.2257580000,22.2620580000 114.2257600000,22.2621000000 114.2257550000,22.2621640000 114.2257360000,22.2622300000 114.2257080000,22.2622870000 114.2256750000,22.2623400000 114.2254600000,22.2626400000 114.2254280000,22.2626970000 114.2254030000,22.2627600000 114.2253880000,22.2628140000 114.2253830000,22.2628650000 114.2253850000,22.2629020000 114.2253920000,22.2629380000 114.2254050000,22.2629760000 114.2254210000,22.2630050000 114.2254430000,22.2630380000 114.2254730000,22.2630700000 114.2255190000,22.2631050000 114.2255640000,22.2631290000 114.2256210000,22.2631500000 114.2256900000,22.2631680000 114.2257580000,22.2631780000 114.2260850000,22.2632050000 114.2261410000,22.2632070000 114.2262300000,22.2632000000 114.2263110000,22.2631830000 114.2263730000,22.2631630000 114.2264230000,22.2631420000 114.2264700000,22.2631130000 114.2265100000,22.2630820000 114.2265480000,22.2630470000 114.2265840000,22.2630070000 114.2268510000,22.2626570000 114.2269940000,22.2624700000 114.2270430000,22.2624110000 114.2270980000,22.2623500000 114.2271390000,22.2623090000 114.2271820000,22.2622730000 114.2272300000,22.2622370000 114.2272880000,22.2621990000 114.2273450000,22.2621670000 114.2274130000,22.2621320000 114.2274650000,22.2621080000 114.2275260000,22.2620840000 114.2275880000,22.2620640000 114.2276640000,22.2620460000 114.2277350000,22.2620330000 114.2278060000,22.2620240000 114.2278810000,22.2620200000 114.2279760000,22.2620210000 114.2280530000,22.2620250000 114.2281280000,22.2620340000 114.2281940000,22.2620470000 114.2282700000,22.2620670000 114.2283580000,22.2620930000 114.2295070000,22.2624740000 114.2295730000,22.2625000000 114.2296210000,22.2625250000 114.2296730000,22.2625570000 114.2297150000,22.2625860000 114.2297590000,22.2626220000 114.2298020000,22.2626620000 114.2298470000,22.2627090000 114.2298820000,22.2627520000 114.2299210000,22.2628090000 114.2301900000,22.2632300000 114.2303550000,22.2635010000 114.2306950000,22.2640590000 114.2308300000,22.2642600000 114.2311860000,22.2647990000 114.2315420000,22.2653350000 114.2316710000,22.2655960000 114.2319100000,22.2662640000 114.2319970000,22.2664470000 114.2321730000,22.2668380000 114.2321920000,22.2668970000 114.2322040000,22.2669500000 114.2322120000,22.2669990000 114.2322170000,22.2670620000 114.2322160000,22.2671240000 114.2322090000,22.2671800000 114.2321660000,22.2674020000 114.2321560000,22.2674780000 114.2321520000,22.2675430000 114.2321520000,22.2676180000 114.2321730000,22.2680090000 114.2321810000,22.2680750000 114.2321910000,22.2681270000 114.2322010000,22.2681700000 114.2322150000,22.2682200000 114.2322320000,22.2682700000 114.2322520000,22.2683140000 114.2322790000,22.2683600000 114.2323090000,22.2684050000 114.2327460000,22.2689360000 114.2327800000,22.2689800000 114.2330470000,22.2694220000 114.2330700000,22.2694600000 114.2331290000,22.2697000000 114.2331390000,22.2698000000 114.2331390000,22.2698560000 114.2331390000,22.2699000000 114.2331360000,22.2699440000 114.2331300000,22.2700000000 114.2331160000,22.2700920000 114.2330840000,22.2702480000 114.2330690000,22.2703350000 114.2330600000,22.2704070000 114.2330540000,22.2704850000 114.2330530000,22.2705570000 114.2330580000,22.2706400000 114.2330630000,22.2706840000 114.2330810000,22.2707430000 114.2331190000,22.2708200000 114.2331560000,22.2708730000 114.2332100000,22.2709100000 114.2333120000,22.2709560000 114.2334140000,22.2709930000 114.2334860000,22.2708830000 114.2335080000,22.2708500000 114.2335710000,22.2707420000 114.2336030000,22.2706530000 114.2336500000,22.2705100000 114.2337420000,22.2701190000 114.2337700000,22.2699600000 114.2337800000,22.2697200000 114.2337490000,22.2694210000 114.2336810000,22.2690520000 114.2336750000,22.2690070000 114.2336710000,22.2689760000 114.2336600000,22.2688700000 114.2335740000,22.2683000000 114.2335740000,22.2681500000 114.2335900000,22.2678530000 114.2336130000,22.2675010000 114.2336320000,22.2672200000 114.2337650000,22.2655900000 114.2337910000,22.2653900000 114.2338300000,22.2652500000 114.2338890000,22.2651100000 114.2339720000,22.2649900000 114.2340900000,22.2648700000 114.2342170000,22.2647650000 114.2343200000,22.2646800000 114.2344270000,22.2645940000 114.2346580000,22.2644090000 114.2347670000,22.2643220000 114.2349620000,22.2641650000 114.2350800000,22.2640700000 114.2350900000,22.2640630000 114.2354440000,22.2637920000 114.2355110000,22.2637400000 114.2355890000,22.2636900000 114.2356730000,22.2636420000 114.2357680000,22.2635970000 114.2358800000,22.2635540000 114.2359700000,22.2635270000 114.2360400000,22.2635080000 114.2361200000,22.2634900000 114.2362000000,22.2634750000 114.2363100000,22.2634620000 114.2365200000,22.2634500000 114.2367700000,22.2634400000 114.2368600000,22.2634380000 114.2369700000,22.2634500000 114.2370890000,22.2634860000 114.2371700000,22.2635300000 114.2373260000,22.2636430000 114.2373760000,22.2636710000 114.2374360000,22.2636960000 114.2374940000,22.2637150000 114.2375500000,22.2637220000 114.2376200000,22.2637200000 114.2377100000,22.2637000000 114.2378250000,22.2636360000 114.2378790000,22.2635620000 114.2379430000,22.2634950000 114.2380250000,22.2634190000 114.2380720000,22.2633830000 114.2381180000,22.2633570000 114.2381660000,22.2633340000 114.2382460000,22.2633050000 114.2383220000,22.2632900000 114.2383850000,22.2632830000 114.2386550000,22.2632730000 114.2387300000,22.2632740000 114.2387960000,22.2632790000 114.2388840000,22.2632910000 114.2389810000,22.2633100000 114.2390720000,22.2633330000 114.2391440000,22.2633560000 114.2392150000,22.2633860000 114.2392780000,22.2634160000 114.2393860000,22.2634700000 114.2394760000,22.2635200000 114.2395630000,22.2635810000 114.2397530000,22.2637190000 114.2399460000,22.2638600000 114.2402520000,22.2640810000 114.2404460000,22.2642240000 114.2406180000,22.2643500000 114.2406860000,22.2643990000 114.2407800000,22.2644710000 114.2408980000,22.2645580000 114.2417990000,22.2652170000 114.2420970000,22.2654330000 114.2424540000,22.2656840000 114.2426890000,22.2658520000 114.2430770000,22.2661400000 114.2432580000,22.2662660000 114.2433210000,22.2661860000 114.2434650000,22.2660400000 114.2435860000,22.2659580000 114.2437200000,22.2658920000 114.2439200000,22.2658210000 114.2441220000,22.2657760000 114.2442580000,22.2657640000 114.2443920000,22.2657650000 114.2445640000,22.2657840000 114.2446780000,22.2658060000 114.2450480000,22.2658850000 114.2451570000,22.2659060000 114.2452690000,22.2659240000 114.2453750000,22.2659370000 114.2454740000,22.2659430000 114.2456320000,22.2659460000 114.2457800000,22.2659400000 114.2460000000,22.2659200000 114.2461500000,22.2659000000 114.2462900000,22.2658700000 114.2465210000,22.2657970000 114.2465730000,22.2657960000 114.2466070000,22.2657940000 114.2466450000,22.2657990000 114.2466810000,22.2658070000 114.2467100000,22.2658190000 114.2467440000,22.2658410000 114.2467710000,22.2658670000 114.2467970000,22.2659020000 114.2468220000,22.2659450000 114.2468600000,22.2660630000 114.2468480000,22.2665550000 114.2468460000,22.2666590000 114.2468460000,22.2667430000 114.2469380000,22.2667420000 114.2470000000,22.2667410000 114.2470180000,22.2667400000 114.2470680000,22.2666990000 114.2471160000,22.2666970000 114.2474430000,22.2667080000 114.2475990000,22.2666980000 114.2477540000,22.2667160000 114.2478230000,22.2667010000 114.2480400000,22.2666500000 114.2494280000,22.2662880000 114.2495250000,22.2662610000 114.2496040000,22.2662350000 114.2496980000,22.2662030000 114.2497690000,22.2661770000 114.2498340000,22.2661510000 114.2498930000,22.2661260000 114.2499900000,22.2660790000 114.2501000000,22.2660200000 114.2501800000,22.2659800000 114.2502910000,22.2659150000 114.2503810000,22.2658590000 114.2504630000,22.2658080000 114.2507000000,22.2656300000 114.2510300000,22.2653900000 114.2510440000,22.2653780000 114.2512310000,22.2652240000 114.2513580000,22.2651160000 114.2514460000,22.2650310000 114.2514780000,22.2649990000 114.2515530000,22.2649270000 114.2516370000,22.2648430000 114.2517150000,22.2647630000 114.2518020000,22.2646640000 114.2518690000,22.2645750000 114.2519360000,22.2644730000 114.2519830000,22.2643880000 114.2520200000,22.2643080000 114.2520510000,22.2642220000 114.2520690000,22.2641590000 114.2520870000,22.2640590000 114.2520920000,22.2639300000 114.2520880000,22.2638460000 114.2520750000,22.2637580000 114.2520580000,22.2636850000 114.2520300000,22.2636060000 114.2519700000,22.2634800000 114.2518700000,22.2633400000 114.2517600000,22.2632000000 114.2516780000,22.2631020000 114.2514900000,22.2629200000 114.2513000000,22.2627600000 114.2511230000,22.2626400000 114.2510590000,22.2626010000 114.2510290000,22.2625820000 114.2509570000,22.2625430000 114.2507590000,22.2624500000 114.2506510000,22.2624100000 114.2505720000,22.2623880000 114.2504930000,22.2623730000 114.2504050000,22.2623650000 114.2503160000,22.2623630000 114.2502430000,22.2623670000 114.2501970000,22.2623720000 114.2501650000,22.2623750000 114.2500900000,22.2623880000 114.2500170000,22.2624070000 114.2499430000,22.2624320000 114.2498730000,22.2624610000 114.2498060000,22.2624940000 114.2497420000,22.2625300000 114.2496880000,22.2625670000 114.2496330000,22.2626120000 114.2495920000,22.2626490000 114.2495200000,22.2627260000 114.2494530000,22.2628080000 114.2493870000,22.2629030000 114.2490580000,22.2633780000 114.2488640000,22.2636700000 114.2486910000,22.2639140000 114.2486510000,22.2639690000 114.2485890000,22.2640520000 114.2485390000,22.2641120000 114.2484630000,22.2642030000 114.2482520000,22.2644350000 114.2481500000,22.2645390000 114.2479950000,22.2646900000 114.2478000000,22.2648700000 114.2477080000,22.2649560000 114.2475670000,22.2650840000 114.2474400000,22.2651860000 114.2473420000,22.2652610000 114.2472500000,22.2653250000 114.2471530000,22.2653880000 114.2470560000,22.2654430000 114.2469590000,22.2654930000 114.2468950000,22.2655250000 114.2468110000,22.2655690000 114.2467400000,22.2656020000 114.2465200000,22.2656900000 114.2463470000,22.2657440000 114.2462070000,22.2657810000 114.2460540000,22.2658140000 114.2459480000,22.2658310000 114.2457940000,22.2658440000 114.2457140000,22.2658470000 114.2456390000,22.2658500000 114.2455640000,22.2658500000 114.2454900000,22.2658460000 114.2453610000,22.2658340000 114.2452350000,22.2658200000 114.2450700000,22.2657900000 114.2449990000,22.2657750000 114.2447460000,22.2657200000 114.2447000000,22.2657100000 114.2445830000,22.2656860000 114.2444610000,22.2656650000 114.2443480000,22.2656500000 114.2442310000,22.2656440000 114.2441230000,22.2656460000 114.2440380000,22.2656630000 114.2438460000,22.2657250000 114.2437370000,22.2657690000 114.2436300000,22.2658190000 114.2435560000,22.2658600000 114.2434760000,22.2659120000 114.2434170000,22.2659560000 114.2433600000,22.2660040000 114.2432490000,22.2661100000 114.2431150000,22.2662910000 114.2426740000,22.2669910000 114.2420360000,22.2677890000 114.2417570000,22.2680890000 114.2416930000,22.2681530000 114.2415340000,22.2682790000 114.2413910000,22.2683650000 114.2410990000,22.2685190000 114.2408070000,22.2686470000 114.2398400000,22.2690690000 114.2397860000,22.2690900000 114.2395950000,22.2690920000 114.2394650000,22.2690060000 114.2392870000,22.2686790000 114.2391310000,22.2686130000 114.2389260000,22.2685970000 114.2388460000,22.2686320000 114.2386290000,22.2687430000 114.2385300000,22.2688420000 114.2384580000,22.2689600000 114.2384250000,22.2690920000 114.2384320000,22.2692400000 114.2385490000,22.2695210000 114.2388580000,22.2701210000 114.2389780000,22.2702620000 114.2390430000,22.2703170000 114.2391310000,22.2703750000 114.2391960000,22.2704060000 114.2392490000,22.2704240000 114.2393360000,22.2704470000 114.2394060000,22.2704510000 114.2394660000,22.2704570000 114.2395360000,22.2704540000 114.2396060000,22.2704430000 114.2396260000,22.2704370000 114.2396630000,22.2704250000 114.2400230000,22.2702520000 114.2401390000,22.2702080000 114.2401930000,22.2701860000 114.2402910000,22.2701490000 114.2403530000,22.2702650000 114.2403790000,22.2703150000 114.2406900000,22.2709730000 114.2408000000,22.2710900000 114.2408290000,22.2711600000 114.2410890000,22.2717740000 114.2412820000,22.2722380000 114.2414130000,22.2726530000 114.2414610000,22.2729170000 114.2414890000,22.2732080000 114.2414980000,22.2736650000 114.2414900000,22.2739670000 114.2414950000,22.2744050000 114.2414960000,22.2744460000 114.2414970000,22.2745570000 114.2414940000,22.2746370000 114.2414890000,22.2747380000 114.2414670000,22.2749260000 114.2414400000,22.2750960000 114.2414090000,22.2752090000 114.2413040000,22.2754630000 114.2411970000,22.2756480000 114.2411190000,22.2757630000 114.2410890000,22.2757990000 114.2410100000,22.2758940000 114.2409330000,22.2759870000 114.2408750000,22.2760570000 114.2407600000,22.2761960000 114.2405850000,22.2764070000 114.2404670000,22.2765800000 114.2403450000,22.2767240000 114.2402790000,22.2768180000 114.2402360000,22.2768320000 114.2402000000,22.2768570000 114.2401740000,22.2768910000 114.2401600000,22.2769310000 114.2401620000,22.2769770000 114.2401820000,22.2770200000 114.2402160000,22.2770550000 114.2402490000,22.2770720000 114.2402860000,22.2770800000 114.2403240000,22.2770790000 114.2403600000,22.2770690000 114.2404660000,22.2771050000 114.2404740000,22.2771180000 114.2406580000,22.2773630000 114.2405750000,22.2774450000 114.2405350000,22.2776080000 114.2405030000,22.2777410000 114.2405210000,22.2777830000 114.2405210000,22.2777830000 114.2405570000,22.2777950000 114.2406080000,22.2777950000 114.2406270000,22.2777810000 114.2406550000,22.2776390000 114.2406810000,22.2775110000 114.2406580000,22.2773630000 114.2404740000,22.2771180000 114.2404660000,22.2771050000 114.2404320000,22.2770030000 114.2404430000,22.2769650000 114.2404420000,22.2769250000 114.2404280000,22.2768880000 114.2404500000,22.2767780000 114.2404670000,22.2765800000 114.2405850000,22.2764070000 114.2407600000,22.2761960000 114.2408750000,22.2760570000 114.2409330000,22.2759870000 114.2410100000,22.2758940000 114.2410890000,22.2757990000 114.2411190000,22.2757630000 114.2411970000,22.2756480000 114.2413040000,22.2754630000 114.2414090000,22.2752090000 114.2414400000,22.2750960000 114.2414670000,22.2749260000 114.2414890000,22.2747380000 114.2414940000,22.2746370000 114.2414970000,22.2745570000 114.2414960000,22.2744460000 114.2414950000,22.2744050000 114.2414900000,22.2739670000 114.2414980000,22.2736650000 114.2414890000,22.2732080000 114.2414610000,22.2729170000 114.2414130000,22.2726530000 114.2412820000,22.2722380000 114.2410890000,22.2717740000 114.2408290000,22.2711600000 114.2408000000,22.2710900000 114.2407810000,22.2709370000 114.2405810000,22.2704850000 114.2404840000,22.2702790000 114.2404600000,22.2702290000 114.2404020000,22.2701060000 114.2403360000,22.2699710000 114.2401390000,22.2695720000 114.2401150000,22.2694940000 114.2401070000,22.2694150000 114.2401140000,22.2693430000 114.2401280000,22.2692880000 114.2401460000,22.2692430000 114.2401680000,22.2692020000 114.2402180000,22.2691350000 114.2403010000,22.2690550000 114.2403950000,22.2689720000 114.2409050000,22.2687450000 114.2413990000,22.2685270000 114.2414770000,22.2684870000 114.2415490000,22.2684420000 114.2416210000,22.2683920000 114.2417440000,22.2682910000 114.2418170000,22.2682180000 114.2423070000,22.2676280000 114.2426820000,22.2671710000 114.2427390000,22.2671000000 114.2428080000,22.2670000000 114.2431070000,22.2665200000 114.2431860000,22.2663800000 114.2432320000,22.2663050000 114.2432580000,22.2662660000 114.2433210000,22.2661860000 114.2434650000,22.2660400000 114.2435860000,22.2659580000 114.2437200000,22.2658920000 114.2439200000,22.2658210000 114.2441220000,22.2657760000 114.2442580000,22.2657640000 114.2443920000,22.2657650000 114.2445640000,22.2657840000 114.2446780000,22.2658060000 114.2450480000,22.2658850000 114.2451570000,22.2659060000 114.2452690000,22.2659240000 114.2453750000,22.2659370000 114.2454740000,22.2659430000 114.2456320000,22.2659460000 114.2457800000,22.2659400000 114.2460000000,22.2659200000 114.2461500000,22.2659000000 114.2462900000,22.2658700000 114.2465210000,22.2657970000 114.2465730000,22.2657960000 114.2466070000,22.2657940000 114.2466450000,22.2657990000 114.2466810000,22.2658070000 114.2467100000,22.2658190000 114.2467440000,22.2658410000 114.2467710000,22.2658670000 114.2467970000,22.2659020000 114.2468220000,22.2659450000 114.2468600000,22.2660630000 114.2468480000,22.2665550000 114.2468460000,22.2666590000 114.2468460000,22.2667430000 114.2469380000,22.2667420000 114.2470000000,22.2667410000 114.2470180000,22.2667400000 114.2470680000,22.2666990000 114.2471160000,22.2666970000 114.2474430000,22.2667080000 114.2475990000,22.2666980000 114.2477540000,22.2667160000 114.2478230000,22.2667010000 114.2480400000,22.2666500000 114.2494280000,22.2662880000 114.2495250000,22.2662610000 114.2496040000,22.2662350000 114.2496980000,22.2662030000 114.2497690000,22.2661770000 114.2498340000,22.2661510000 114.2498930000,22.2661260000 114.2499900000,22.2660790000 114.2501000000,22.2660200000 114.2501800000,22.2659800000 114.2502910000,22.2659150000 114.2503810000,22.2658590000 114.2504630000,22.2658080000 114.2507000000,22.2656300000 114.2510300000,22.2653900000 114.2510440000,22.2653780000 114.2512310000,22.2652240000 114.2513580000,22.2651160000 114.2514460000,22.2650310000 114.2514780000,22.2649990000 114.2515530000,22.2649270000 114.2516370000,22.2648430000 114.2517150000,22.2647630000 114.2518020000,22.2646640000 114.2518690000,22.2645750000 114.2519360000,22.2644730000 114.2519830000,22.2643880000 114.2520200000,22.2643080000 114.2520510000,22.2642220000 114.2520690000,22.2641590000 114.2520870000,22.2640590000 114.2520920000,22.2639300000 114.2520880000,22.2638460000 114.2520750000,22.2637580000 114.2520580000,22.2636850000 114.2520300000,22.2636060000 114.2519700000,22.2634800000 114.2518700000,22.2633400000 114.2517600000,22.2632000000 114.2516780000,22.2631020000 114.2514900000,22.2629200000 114.2513000000,22.2627600000 114.2511230000,22.2626400000 114.2510590000,22.2626010000 114.2510290000,22.2625820000 114.2509570000,22.2625430000 114.2507590000,22.2624500000 114.2506510000,22.2624100000 114.2505720000,22.2623880000 114.2504930000,22.2623730000 114.2504050000,22.2623650000 114.2503160000,22.2623630000 114.2502430000,22.2623670000 114.2502070000,22.2623710000 114.2501650000,22.2623750000 114.2500900000,22.2623880000 114.2500170000,22.2624070000 114.2499430000,22.2624320000 114.2498730000,22.2624610000 114.2498060000,22.2624940000 114.2497420000,22.2625300000 114.2496880000,22.2625670000 114.2496330000,22.2626120000 114.2495920000,22.2626490000 114.2495200000,22.2627260000 114.2494530000,22.2628080000 114.2493870000,22.2629030000 114.2490580000,22.2633780000 114.2488640000,22.2636700000 114.2486910000,22.2639140000 114.2486510000,22.2639690000 114.2485890000,22.2640520000 114.2485390000,22.2641120000 114.2484630000,22.2642030000 114.2482520000,22.2644350000 114.2481500000,22.2645390000 114.2479950000,22.2646900000 114.2478000000,22.2648700000 114.2477080000,22.2649560000 114.2475670000,22.2650840000 114.2474400000,22.2651860000 114.2473420000,22.2652610000 114.2472500000,22.2653250000 114.2471530000,22.2653880000 114.2470560000,22.2654430000 114.2469590000,22.2654930000 114.2468950000,22.2655250000 114.2468110000,22.2655690000 114.2467400000,22.2656020000 114.2465200000,22.2656900000 114.2463470000,22.2657440000 114.2462070000,22.2657810000 114.2460540000,22.2658140000 114.2459480000,22.2658310000 114.2457940000,22.2658440000 114.2457140000,22.2658470000 114.2456390000,22.2658500000 114.2455640000,22.2658500000 114.2454900000,22.2658460000 114.2453610000,22.2658340000 114.2452350000,22.2658200000 114.2450700000,22.2657900000 114.2449990000,22.2657750000 114.2447460000,22.2657200000 114.2447000000,22.2657100000 114.2445830000,22.2656860000 114.2444610000,22.2656650000 114.2443480000,22.2656500000 114.2442310000,22.2656440000 114.2441230000,22.2656460000 114.2440380000,22.2656630000 114.2432950000,22.2657930000 114.2432330000,22.2657930000 114.2430970000,22.2657930000 114.2428720000,22.2657590000 114.2427740000,22.2657300000 114.2426260000,22.2656880000 114.2421620000,22.2653560000 114.2417790000,22.2650770000 114.2414720000,22.2648500000 114.2408530000,22.2643850000 114.2407250000,22.2642900000 114.2403230000,22.2639950000 114.2399550000,22.2637210000 114.2396690000,22.2635200000 114.2396370000,22.2634960000 114.2395440000,22.2634350000 114.2393700000,22.2633300000 114.2392770000,22.2632900000 114.2391920000,22.2632610000 114.2390980000,22.2632350000 114.2389870000,22.2632100000 114.2388990000,22.2631950000 114.2388450000,22.2631900000 114.2387840000,22.2631890000 114.2385890000,22.2631970000 114.2382660000,22.2632180000 114.2381350000,22.2632220000 114.2380060000,22.2632190000 114.2379430000,22.2632090000 114.2378740000,22.2631960000 114.2378270000,22.2631830000 114.2377900000,22.2631510000 114.2377380000,22.2631200000 114.2376740000,22.2630890000 114.2376130000,22.2630670000 114.2375550000,22.2630490000 114.2375030000,22.2630380000 114.2374530000,22.2630320000 114.2374110000,22.2630320000 114.2373780000,22.2630350000 114.2373380000,22.2630440000 114.2373020000,22.2630550000 114.2372610000,22.2630750000 114.2372150000,22.2631020000 114.2371500000,22.2631500000 114.2371070000,22.2632200000 114.2370400000,22.2632600000 114.2369600000,22.2632900000 114.2368600000,22.2633100000 114.2362500000,22.2633490000 114.2361300000,22.2633630000 114.2360080000,22.2633880000 114.2359000000,22.2634200000 114.2357900000,22.2634600000 114.2357000000,22.2634980000 114.2356130000,22.2635390000 114.2355210000,22.2635900000 114.2354480000,22.2636370000 114.2353480000,22.2637080000 114.2350070000,22.2639710000 114.2348820000,22.2640680000 114.2346700000,22.2642320000 114.2343610000,22.2644700000 114.2343330000,22.2644910000 114.2342250000,22.2645750000 114.2340500000,22.2647300000 114.2338800000,22.2649000000 114.2337970000,22.2650270000 114.2337200000,22.2651800000 114.2336820000,22.2652800000 114.2336600000,22.2653700000 114.2336380000,22.2655800000 114.2334800000,22.2676540000 114.2334650000,22.2678440000 114.2334500000,22.2681750000 114.2334500000,22.2683000000 114.2335170000,22.2687950000 114.2335300000,22.2688900000 114.2335460000,22.2689920000 114.2336380000,22.2695840000 114.2336510000,22.2696850000 114.2336560000,22.2697710000 114.2336560000,22.2698530000 114.2336510000,22.2699360000 114.2336350000,22.2700560000 114.2335400000,22.2704700000 114.2335000000,22.2706100000 114.2334670000,22.2707050000 114.2334140000,22.2708060000 114.2333960000,22.2708320000 114.2333120000,22.2709560000 114.2332100000,22.2709100000 114.2331560000,22.2708730000 114.2331190000,22.2708200000 114.2330810000,22.2707430000 114.2330630000,22.2706840000 114.2330580000,22.2706400000 114.2330530000,22.2705570000 114.2330540000,22.2704850000 114.2330600000,22.2704070000 114.2330690000,22.2703350000 114.2330840000,22.2702480000 114.2331160000,22.2700920000 114.2331300000,22.2700000000 114.2331360000,22.2699440000 114.2331390000,22.2699000000 114.2331390000,22.2698560000 114.2331390000,22.2698000000 114.2331290000,22.2697000000 114.2330700000,22.2694600000 114.2330470000,22.2694220000 114.2327800000,22.2689800000 114.2327460000,22.2689360000 114.2323090000,22.2684050000 114.2322790000,22.2683600000 114.2322520000,22.2683140000 114.2322320000,22.2682700000 114.2322150000,22.2682200000 114.2322010000,22.2681700000 114.2321910000,22.2681270000 114.2321810000,22.2680750000 114.2321730000,22.2680090000 114.2321520000,22.2676180000 114.2321520000,22.2675430000 114.2321560000,22.2674780000 114.2321660000,22.2674020000 114.2322090000,22.2671800000 114.2322160000,22.2671240000 114.2322170000,22.2670620000 114.2322120000,22.2669990000 114.2322040000,22.2669500000 114.2321920000,22.2668970000 114.2321730000,22.2668380000 114.2319970000,22.2664470000 114.2319100000,22.2662640000 114.2316710000,22.2655960000 114.2315420000,22.2653350000 114.2311860000,22.2647990000 114.2308300000,22.2642600000 114.2306950000,22.2640590000 114.2303550000,22.2635010000 114.2301900000,22.2632300000 114.2299210000,22.2628090000 114.2298820000,22.2627520000 114.2298470000,22.2627090000 114.2298020000,22.2626620000 114.2297590000,22.2626220000 114.2297150000,22.2625860000 114.2296730000,22.2625570000 114.2296210000,22.2625250000 114.2295730000,22.2625000000 114.2295070000,22.2624740000 114.2283580000,22.2620930000 114.2282700000,22.2620670000 114.2281940000,22.2620470000 114.2281280000,22.2620340000 114.2280530000,22.2620250000 114.2279760000,22.2620210000 114.2278810000,22.2620200000 114.2278060000,22.2620240000 114.2277350000,22.2620330000 114.2276640000,22.2620460000 114.2275880000,22.2620640000 114.2275260000,22.2620840000 114.2274650000,22.2621080000 114.2274130000,22.2621320000 114.2273450000,22.2621670000 114.2272880000,22.2621990000 114.2272300000,22.2622370000 114.2271820000,22.2622730000 114.2271390000,22.2623090000 114.2270980000,22.2623500000 114.2270430000,22.2624110000 114.2269940000,22.2624700000 114.2268510000,22.2626570000 114.2265840000,22.2630070000 114.2265480000,22.2630470000 114.2265100000,22.2630820000 114.2264700000,22.2631130000 114.2264230000,22.2631420000 114.2263730000,22.2631630000 114.2263110000,22.2631830000 114.2262300000,22.2632000000 114.2261410000,22.2632070000 114.2260850000,22.2632050000 114.2257580000,22.2631780000 114.2256900000,22.2631680000 114.2256210000,22.2631500000 114.2255640000,22.2631290000 114.2255190000,22.2631050000 114.2254730000,22.2630700000 114.2254430000,22.2630380000 114.2254210000,22.2630050000 114.2254050000,22.2629760000 114.2253920000,22.2629380000 114.2253850000,22.2629020000 114.2253830000,22.2628650000 114.2253880000,22.2628140000 114.2254030000,22.2627600000 114.2254280000,22.2626970000 114.2254600000,22.2626400000 114.2256750000,22.2623400000 114.2257080000,22.2622870000 114.2257360000,22.2622300000 114.2257550000,22.2621640000 114.2257600000,22.2621000000 114.2257580000,22.2620580000 114.2257530000,22.2620190000 114.2257440000,22.2619780000 114.2257320000,22.2619440000 114.2257150000,22.2619110000 114.2256240000,22.2617470000 114.2256050000,22.2617030000 114.2255890000,22.2616570000 114.2255750000,22.2616090000 114.2255530000,22.2615110000 114.2255460000,22.2614630000 114.2255400000,22.2614120000 114.2255370000,22.2613560000 114.2255370000,22.2613080000 114.2255420000,22.2612520000 114.2256870000,22.2600360000 114.2256960000,22.2599340000 114.2257000000,22.2598490000 114.2257080000,22.2587350000 114.2257000000,22.2586310000 114.2256930000,22.2585890000 114.2256570000,22.2584290000 114.2256570000,22.2584290000 114.2256080000,22.2582650000 114.2256010000,22.2582310000 114.2255970000,22.2581970000 114.2255970000,22.2581620000 114.2256010000,22.2581230000 114.2256090000,22.2580940000 114.2256200000,22.2580680000 114.2256340000,22.2580420000 114.2256490000,22.2580190000 114.2256660000,22.2579970000 114.2256850000,22.2579780000 114.2257080000,22.2579580000 114.2257310000,22.2579420000 114.2257560000,22.2579270000 114.2257840000,22.2579140000 114.2258130000,22.2579030000 114.2258440000,22.2578950000 114.2258750000,22.2578910000 114.2259460000,22.2578910000 114.2261560000,22.2578990000 114.2263220000,22.2579020000 114.2265920000,22.2578920000 114.2267510000,22.2578800000 114.2271040000,22.2578380000 114.2272330000,22.2578190000 114.2275590000,22.2577540000 114.2279470000,22.2576530000 114.2280310000,22.2576260000 114.2280610000,22.2576140000 114.2280860000,22.2575970000 114.2281260000,22.2575560000 114.2281620000,22.2575070000 114.2281760000,22.2574720000 114.2282200000,22.2573630000 114.2282540000,22.2573120000 114.2282660000,22.2572950000 114.2282790000,22.2572780000 114.2283000000,22.2572370000 114.2283120000,22.2572200000 114.2283180000,22.2572000000 114.2283150000,22.2571790000 114.2284810000,22.2571410000 114.2285570000,22.2571260000 114.2286570000,22.2571060000 114.2287310000,22.2570830000 114.2287750000,22.2570660000 114.2288380000,22.2570380000 114.2288820000,22.2570140000 114.2289230000,22.2569910000 114.2289550000,22.2569710000 114.2291520000,22.2568340000 114.2293000000,22.2567310000 114.2294600000,22.2566200000 114.2295120000,22.2565870000 114.2295790000,22.2565550000 114.2296400000,22.2565300000 114.2297070000,22.2565090000 114.2299090000,22.2564580000 114.2299500000,22.2564450000 114.2299870000,22.2564310000 114.2300220000,22.2564140000 114.2300570000,22.2563950000 114.2301050000,22.2563590000 114.2301340000,22.2563300000 114.2301660000,22.2562900000 114.2301950000,22.2562510000 114.2302850000,22.2561180000 114.2303330000,22.2560540000 114.2303500000,22.2560260000 114.2304290000,22.2558970000 114.2304750000,22.2558240000 114.2305020000,22.2557630000 114.2305170000,22.2557140000 114.2305180000,22.2556840000 114.2305160000,22.2556350000 114.2304640000,22.2554500000 114.2304510000,22.2553840000 114.2304430000,22.2553270000 114.2304320000,22.2551920000 114.2304320000,22.2551320000 114.2304360000,22.2550680000 114.2304410000,22.2550120000 114.2304770000,22.2548160000 114.2304830000,22.2547640000 114.2304840000,22.2547030000 114.2304700000,22.2537790000 114.2304420000,22.2526560000 114.2304310000,22.2524630000 114.2304100000,22.2522310000 114.2304040000,22.2521820000 114.2303950000,22.2521280000 114.2303190000,22.2517130000 114.2303100000,22.2516520000 114.2303040000,22.2515910000 114.2303020000,22.2515520000 114.2303030000,22.2515100000 114.2303070000,22.2514600000 114.2303590000,22.2510690000 114.2303670000,22.2509810000 114.2303710000,22.2509030000 114.2303710000,22.2508100000 114.2303640000,22.2504480000 114.2303570000,22.2503410000 114.2303510000,22.2502850000 114.2303410000,22.2502190000 114.2303090000,22.2500540000 114.2302960000,22.2499980000 114.2301530000,22.2494790000 114.2301440000,22.2494400000 114.2301380000,22.2493940000 114.2301370000,22.2493630000 114.2301390000,22.2493290000 114.2301440000,22.2493030000 114.2301530000,22.2492750000 114.2301650000,22.2492450000 114.2301830000,22.2492090000 114.2302040000,22.2491750000 114.2302250000,22.2491490000 114.2302470000,22.2491260000 114.2302740000,22.2491030000 114.2303070000,22.2490790000 114.2303410000,22.2490590000 114.2303720000,22.2490440000 114.2304050000,22.2490320000 114.2304480000,22.2490200000 114.2305060000,22.2490070000 114.2306540000,22.2489810000 114.2307240000,22.2489660000 114.2307840000,22.2489510000 114.2308550000,22.2489310000 114.2309150000,22.2489100000 114.2309780000,22.2488860000 114.2310570000,22.2488500000 114.2314620000,22.2486540000 114.2315200000,22.2486290000 114.2315730000,22.2486080000 114.2316260000,22.2485900000 114.2316870000,22.2485730000 114.2317940000,22.2485460000 114.2318590000,22.2485330000 114.2319210000,22.2485230000 114.2324920000,22.2484500000 114.2325410000,22.2484410000 114.2325990000,22.2484250000 114.2326550000,22.2484060000 114.2327200000,22.2483790000 114.2327880000,22.2483460000 114.2328610000,22.2483060000 114.2329050000,22.2482770000 114.2329500000,22.2482450000 114.2329830000,22.2482190000 114.2333350000,22.2479230000 114.2333650000,22.2478950000 114.2333950000,22.2478650000 114.2334210000,22.2478350000 114.2334450000,22.2478050000 114.2334660000,22.2477720000 114.2334860000,22.2477330000 114.2335060000,22.2476880000 114.2335300000,22.2476320000 114.2335960000,22.2474530000 114.2336150000,22.2474150000 114.2336390000,22.2473740000 114.2336590000,22.2473420000 114.2336820000,22.2473110000 114.2337090000,22.2472800000 114.2337400000,22.2472470000 114.2337760000,22.2472130000 114.2338130000,22.2471840000 114.2338580000,22.2471500000 114.2339030000,22.2471190000 114.2340840000,22.2470030000 114.2341190000,22.2469790000 114.2341510000,22.2469540000 114.2341860000,22.2469230000 114.2342190000,22.2468900000 114.2342460000,22.2468600000 114.2342680000,22.2468280000 114.2342920000,22.2467860000 114.2343220000,22.2467270000 114.2343410000,22.2466830000 114.2343560000,22.2466450000 114.2343720000,22.2466000000 114.2345540000,22.2459330000 114.2345920000,22.2458080000 114.2348030000,22.2451500000 114.2348420000,22.2450500000 114.2348850000,22.2449580000 114.2349340000,22.2448730000 114.2349800000,22.2448070000 114.2350290000,22.2447430000 114.2350830000,22.2446790000 114.2351800000,22.2445700000 114.2352420000,22.2444930000 114.2352950000,22.2444160000 114.2353340000,22.2443480000 114.2353700000,22.2442730000 114.2354010000,22.2441950000 114.2354310000,22.2441010000 114.2354750000,22.2439500000 114.2354940000,22.2438970000 114.2355220000,22.2438280000 114.2355550000,22.2437600000 114.2356100000,22.2436720000 114.2356390000,22.2436330000 114.2356710000,22.2435950000 114.2357230000,22.2435420000 114.2357800000,22.2434990000 114.2358340000,22.2434710000 114.2359040000,22.2434460000 114.2359870000,22.2434340000 114.2360960000,22.2434320000 114.2365400000,22.2434270000 114.2366050000,22.2434310000 114.2366680000,22.2434460000 114.2367280000,22.2434740000 114.2367820000,22.2435100000 114.2369720000,22.2436500000 114.2370070000,22.2436740000 114.2370430000,22.2436930000 114.2370900000,22.2437090000 114.2371240000,22.2437150000 114.2371600000,22.2437170000 114.2372050000,22.2437120000 114.2372520000,22.2437000000 114.2372920000,22.2436840000 114.2373270000,22.2436650000 114.2373580000,22.2436420000 114.2373850000,22.2436150000 114.2374070000,22.2435860000 114.2374220000,22.2435600000 114.2374330000,22.2435340000 114.2374400000,22.2435100000 114.2374600000,22.2434290000 114.2374670000,22.2434040000 114.2374750000,22.2433790000 114.2374860000,22.2433510000 114.2374980000,22.2433240000 114.2375110000,22.2432980000 114.2375250000,22.2432750000 114.2375410000,22.2432540000 114.2375580000,22.2432340000 114.2375770000,22.2432140000 114.2375990000,22.2431940000 114.2376240000,22.2431750000 114.2376480000,22.2431590000 114.2376700000,22.2431470000 114.2377400000,22.2431160000 114.2377880000,22.2430920000 114.2378330000,22.2430660000 114.2378790000,22.2430370000 114.2379350000,22.2429970000 114.2379810000,22.2429610000 114.2380200000,22.2429270000 114.2380500000,22.2428990000 114.2380770000,22.2428700000 114.2381000000,22.2428400000 114.2381220000,22.2428070000 114.2381450000,22.2427690000 114.2381670000,22.2427280000 114.2381860000,22.2426870000 114.2382010000,22.2426460000 114.2382140000,22.2425960000 114.2382330000,22.2425100000 114.2382440000,22.2424630000 114.2382580000,22.2424110000 114.2382740000,22.2423590000 114.2382920000,22.2423080000 114.2383080000,22.2422690000 114.2383270000,22.2422270000 114.2383640000,22.2421480000 114.2383790000,22.2421100000 114.2383890000,22.2420810000 114.2383970000,22.2420560000 114.2384040000,22.2420290000 114.2384090000,22.2420000000 114.2384120000,22.2419710000 114.2384130000,22.2419400000 114.2384110000,22.2418980000 114.2384060000,22.2418650000 114.2383950000,22.2418300000 114.2383790000,22.2417940000 114.2383610000,22.2417620000 114.2383400000,22.2417330000 114.2383130000,22.2417030000 114.2382780000,22.2416730000 114.2382400000,22.2416460000 114.2381990000,22.2416220000 114.2381540000,22.2415990000 114.2380660000,22.2415590000 114.2380200000,22.2415360000 114.2379770000,22.2415110000 114.2379440000,22.2414880000 114.2379180000,22.2414660000 114.2378940000,22.2414430000 114.2378720000,22.2414170000 114.2378520000,22.2413890000 114.2378280000,22.2413500000 114.2378060000,22.2413110000 114.2377850000,22.2412710000 114.2377670000,22.2412300000 114.2376700000,22.2409900000 114.2376530000,22.2409450000 114.2376390000,22.2408970000 114.2376270000,22.2408390000 114.2376180000,22.2407790000 114.2376120000,22.2407210000 114.2376090000,22.2406630000 114.2376110000,22.2406000000 114.2376170000,22.2405350000 114.2376270000,22.2404650000 114.2376400000,22.2403980000 114.2376540000,22.2403380000 114.2376700000,22.2402770000 114.2376890000,22.2402140000 114.2377080000,22.2401640000 114.2377300000,22.2401110000 114.2377490000,22.2400700000 114.2377700000,22.2400300000 114.2382180000,22.2392350000 114.2382470000,22.2391710000 114.2382660000,22.2390980000 114.2382730000,22.2390460000 114.2382740000,22.2390030000 114.2382690000,22.2389540000 114.2382600000,22.2389100000 114.2382490000,22.2388680000 114.2380670000,22.2383120000 114.2380330000,22.2381970000 114.2380070000,22.2380970000 114.2379860000,22.2379920000 114.2379670000,22.2378910000 114.2379480000,22.2377180000 114.2379440000,22.2375720000 114.2379460000,22.2374640000 114.2379580000,22.2373000000 114.2379660000,22.2372320000 114.2379800000,22.2371290000 114.2379860000,22.2370840000 114.2380180000,22.2369660000 114.2380380000,22.2368940000 114.2381190000,22.2365600000 114.2381360000,22.2364900000 114.2382310000,22.2362330000 114.2383420000,22.2360070000 114.2385490000,22.2356780000 114.2389900000,22.2349770000 114.2391480000,22.2348000000 114.2392730000,22.2346690000 114.2394500000,22.2344990000 114.2395630000,22.2343820000 114.2395960000,22.2343400000 114.2396280000,22.2342920000 114.2396570000,22.2342460000 114.2396890000,22.2341860000 114.2397120000,22.2341320000 114.2397390000,22.2340700000 114.2398920000,22.2336730000 114.2402190000,22.2328540000 114.2402390000,22.2328000000 114.2402650000,22.2327140000 114.2402860000,22.2326250000 114.2403040000,22.2325250000 114.2403250000,22.2323820000 114.2403370000,22.2322640000 114.2403400000,22.2321990000 114.2403440000,22.2313590000 114.2403410000,22.2312940000 114.2403350000,22.2312310000 114.2403240000,22.2311580000 114.2403120000,22.2310880000 114.2402910000,22.2310090000 114.2402710000,22.2309450000 114.2402470000,22.2308830000 114.2402190000,22.2308240000 114.2401750000,22.2307430000 114.2401170000,22.2306510000 114.2400990000,22.2306250000 114.2400770000,22.2305970000 114.2400560000,22.2305730000 114.2400270000,22.2305450000 114.2398650000,22.2303980000 114.2398210000,22.2303560000 114.2397080000,22.2302420000 114.2396660000,22.2301960000 114.2396370000,22.2301590000 114.2396040000,22.2301160000 114.2395740000,22.2300710000 114.2395470000,22.2300260000 114.2395270000,22.2299870000 114.2395160000,22.2299620000 114.2395070000,22.2299370000 114.2394980000,22.2299080000 114.2394830000,22.2298520000 114.2394770000,22.2298160000 114.2394730000,22.2297820000 114.2394710000,22.2297460000 114.2394720000,22.2297010000 114.2394750000,22.2296540000 114.2394800000,22.2296220000 114.2394850000,22.2295880000 114.2394950000,22.2295430000 114.2395110000,22.2294780000 114.2395670000,22.2292790000 114.2395760000,22.2292400000 114.2395820000,22.2292030000 114.2395860000,22.2291620000 114.2395860000,22.2291130000 114.2395820000,22.2290630000 114.2395750000,22.2290190000 114.2395660000,22.2289750000 114.2395520000,22.2289270000 114.2395270000,22.2288620000 114.2395080000,22.2288210000 114.2394340000,22.2286860000 114.2394130000,22.2286430000 114.2393960000,22.2285980000 114.2393830000,22.2285510000 114.2393720000,22.2284990000 114.2393630000,22.2284410000 114.2393560000,22.2283800000 114.2393550000,22.2283210000 114.2393560000,22.2282740000 114.2393590000,22.2282300000 114.2393650000,22.2281850000 114.2393820000,22.2281210000 114.2397130000,22.2270900000 114.2397440000,22.2270010000 114.2398370000,22.2267430000 114.2399130000,22.2265520000 114.2400180000,22.2263430000 114.2400480000,22.2263010000 114.2402950000,22.2259520000 114.2405020000,22.2256660000 114.2405620000,22.2255840000 114.2408920000,22.2252430000 114.2409950000,22.2251670000 114.2412720000,22.2249650000 114.2415000000,22.2248140000 114.2417210000,22.2246680000 114.2422300000,22.2244580000 114.2425560000,22.2243630000 114.2427100000,22.2243510000 114.2428000000,22.2243530000 114.2429000000,22.2243610000 114.2430000000,22.2243750000 114.2431000000,22.2243950000 114.2432800000,22.2244600000 114.2433800000,22.2245100000 114.2434840000,22.2245700000 114.2435700000,22.2246300000 114.2437530000,22.2247980000 114.2439410000,22.2250540000 114.2445880000,22.2258870000 114.2446420000,22.2259530000 114.2448000000,22.2261350000 114.2448410000,22.2261810000 114.2450780000,22.2264340000 114.2451060000,22.2264650000 114.2451260000,22.2264890000 114.2451470000,22.2265190000 114.2451660000,22.2265490000 114.2451940000,22.2266000000 114.2452090000,22.2266230000 114.2452280000,22.2266470000 114.2452490000,22.2266710000 114.2452760000,22.2266980000 114.2453040000,22.2267210000 114.2453370000,22.2267430000 114.2453730000,22.2267620000 114.2454080000,22.2267790000 114.2456350000,22.2268650000 114.2456990000,22.2268920000 114.2457760000,22.2269270000 114.2458410000,22.2269630000 114.2459260000,22.2270210000 114.2459910000,22.2270730000 114.2460570000,22.2271280000 114.2466470000,22.2276930000 114.2467110000,22.2277580000 114.2467460000,22.2277980000 114.2467750000,22.2278390000 114.2468110000,22.2278960000 114.2468380000,22.2279490000 114.2468600000,22.2280050000 114.2468860000,22.2280810000 114.2468990000,22.2281340000 114.2469110000,22.2282030000 114.2469160000,22.2282660000 114.2469130000,22.2283120000 114.2469030000,22.2283690000 114.2468840000,22.2284200000 114.2468520000,22.2284710000 114.2468290000,22.2284980000 114.2468050000,22.2285210000 114.2467770000,22.2285420000 114.2467440000,22.2285620000 114.2467070000,22.2285810000 114.2466680000,22.2285950000 114.2466280000,22.2286050000 114.2465620000,22.2286170000 114.2465230000,22.2286260000 114.2464650000,22.2286440000 114.2464180000,22.2286620000 114.2463860000,22.2286780000 114.2463600000,22.2286950000 114.2463390000,22.2287130000 114.2463180000,22.2287330000 114.2462980000,22.2287580000 114.2462790000,22.2287850000 114.2462650000,22.2288110000 114.2462550000,22.2288350000 114.2462430000,22.2288670000 114.2462350000,22.2289010000 114.2462300000,22.2289370000 114.2462290000,22.2289710000 114.2462310000,22.2290110000 114.2462360000,22.2290480000 114.2462440000,22.2290800000 114.2462600000,22.2291240000 114.2462840000,22.2291730000 114.2464220000,22.2294250000 114.2464990000,22.2295780000 114.2465470000,22.2296860000 114.2465930000,22.2298060000 114.2466140000,22.2298700000 114.2466320000,22.2299390000 114.2467220000,22.2303880000 114.2468370000,22.2309670000 114.2468550000,22.2310360000 114.2468770000,22.2311040000 114.2468970000,22.2311550000 114.2469200000,22.2312030000 114.2469530000,22.2312610000 114.2469830000,22.2313070000 114.2470130000,22.2313510000 114.2470440000,22.2313900000 114.2470980000,22.2314550000 114.2471350000,22.2315030000 114.2471730000,22.2315580000 114.2472060000,22.2316100000 114.2472440000,22.2316750000 114.2472750000,22.2317380000 114.2473040000,22.2318100000 114.2473280000,22.2320000000 114.2473280000,22.2321290000 114.2473120000,22.2323440000 114.2473050000,22.2325060000 114.2473110000,22.2325500000 114.2473260000,22.2326580000 114.2474040000,22.2329650000 114.2475280000,22.2334440000 114.2476270000,22.2338380000 114.2476620000,22.2339750000 114.2478100000,22.2345490000 114.2479840000,22.2352870000 114.2481440000,22.2359660000 114.2482910000,22.2366290000 114.2483000000,22.2366580000 114.2484100000,22.2370180000 114.2484400000,22.2371010000 114.2484860000,22.2371820000 114.2485600000,22.2372590000 114.2485720000,22.2372700000 114.2485850000,22.2372780000 114.2486020000,22.2372840000 114.2486180000,22.2372880000 114.2486370000,22.2372820000 114.2486520000,22.2372750000 114.2486650000,22.2372660000 114.2486770000,22.2372550000 114.2486920000,22.2372360000 114.2487010000,22.2372180000 114.2487110000,22.2371720000 114.2487310000,22.2370320000 114.2487590000,22.2367820000 114.2487860000,22.2363630000 114.2488270000,22.2358590000 114.2488860000,22.2352600000 114.2488900000,22.2351550000 114.2489510000,22.2345580000 114.2489560000,22.2344130000 114.2489500000,22.2342260000 114.2488410000,22.2332240000 114.2488380000,22.2330950000 114.2488450000,22.2329560000 114.2488740000,22.2328070000 114.2489320000,22.2326420000 114.2490340000,22.2324320000 114.2491820000,22.2322210000 114.2492880000,22.2321170000 114.2505440000,22.2310660000 114.2508850000,22.2307850000 114.2510260000,22.2306630000 114.2511230000,22.2305710000 114.2512780000,22.2304120000 114.2513250000,22.2303490000 114.2513750000,22.2302810000 114.2514440000,22.2301520000 114.2516910000,22.2301900000 114.2520810000,22.2303110000 114.2521210000,22.2303110000 114.2521460000,22.2303050000 114.2521670000,22.2302880000 114.2521860000,22.2302580000 114.2522350000,22.2301370000 114.2522970000,22.2300570000 114.2523510000,22.2300430000 114.2524110000,22.2300360000 114.2525440000,22.2300590000 114.2526860000,22.2300840000 114.2528540000,22.2301210000 114.2529880000,22.2301510000 114.2530410000,22.2301610000 114.2530540000,22.2301620000 114.2531050000,22.2301670000 114.2531580000,22.2301700000 114.2531960000,22.2301640000 114.2532280000,22.2301560000 114.2532540000,22.2301360000 114.2532690000,22.2301130000 114.2533130000,22.2300120000 114.2533370000,22.2299880000 114.2533940000,22.2299620000 114.2534420000,22.2298980000 114.2534670000,22.2298650000 114.2534950000,22.2298150000 114.2535010000,22.2297890000 114.2535110000,22.2297430000 114.2535430000,22.2295490000 114.2536020000,22.2294510000 114.2538430000,22.2293040000 114.2541110000,22.2291750000 114.2543590000,22.2290990000 114.2544910000,22.2293540000 114.2545460000,22.2294160000 114.2547290000,22.2295190000 114.2548120000,22.2295450000 114.2548760000,22.2295520000 114.2549330000,22.2295380000 114.2550470000,22.2297370000</coordinates>
                </LineString>
                <ExtendedData>
                    <Data name="length">
                        <value>32255.92481543642</value>
                    </Data>
                    <Data name="duration">
                        <value>00:48:31</value>
                    </Data>
                </ExtendedData>
            </Placemark>
        </Document>
    </Document>
</kml>