<?xml version="1.0" encoding="UTF-8"?>
<kml xmlns="http://www.opengis.net/kml/2.2" xmlns:gx="http://www.google.com/kml/ext/2.2">
    <Document>
        <name>Route</name>
        <Folder>
            <name>Route Request</name>
            <Placemark>
                <Point>
                    <coordinates>114.0034314931,22.3713710268</coordinates>
                </Point>
                <ExtendedData>
                    <Data name="routingVisited">
                        <value>false</value>
                    </Data>
                </ExtendedData>
            </Placemark>
            <Placemark>
                <Point>
                    <coordinates>114.0191684545,22.3594642364</coordinates>
                </Point>
            </Placemark>
            <Placemark>
                <Point>
                    <coordinates>114.1086404841,22.3474889026</coordinates>
                </Point>
                <ExtendedData>
                    <Data name="routingVisited">
                        <value>false</value>
                    </Data>
                </ExtendedData>
            </Placemark>
            <Placemark>
                <Point>
                    <coordinates>114.1562146402,22.3357572652</coordinates>
                </Point>
            </Placemark>
            <Placemark>
                <address>Sun Mong House, 50-56, Mong Kok Road, Mong Kok, Yau Tsim Mong District, Kowloon, Hong Kong, 000000, China</address>
                <Point>
                    <coordinates>114.1709439374,22.3212961257</coordinates>
                </Point>
                <ExtendedData>
                    <Data name="suburb">
                        <value>Mong Kok</value>
                    </Data>
                    <Data name="city">
                        <value>Kowloon</value>
                    </Data>
                    <Data name="house_number">
                        <value>50-56</value>
                    </Data>
                    <Data name="road">
                        <value>Mong Kok Road</value>
                    </Data>
                    <Data name="city_district">
                        <value>Yau Tsim Mong District</value>
                    </Data>
                    <Data name="postcode">
                        <value>000000</value>
                    </Data>
                    <Data name="ISO3166-2-lvl3">
                        <value>CN-HK</value>
                    </Data>
                    <Data name="state">
                        <value>Hong Kong</value>
                    </Data>
                    <Data name="country">
                        <value>China</value>
                    </Data>
                    <Data name="building">
                        <value>Sun Mong House</value>
                    </Data>
                    <Data name="country_code">
                        <value>cn</value>
                    </Data>
                </ExtendedData>
            </Placemark>
            <Placemark>
                <address>Mong Kok East, 30, Luen Wan Street, Mong Kok, Yau Tsim Mong District, Kowloon, Hong Kong, 000000, China</address>
                <Point>
                    <coordinates>114.1721856731,22.3213967766</coordinates>
                </Point>
                <ExtendedData>
                    <Data name="suburb">
                        <value>Mong Kok</value>
                    </Data>
                    <Data name="city">
                        <value>Kowloon</value>
                    </Data>
                    <Data name="house_number">
                        <value>30</value>
                    </Data>
                    <Data name="road">
                        <value>Luen Wan Street</value>
                    </Data>
                    <Data name="city_district">
                        <value>Yau Tsim Mong District</value>
                    </Data>
                    <Data name="postcode">
                        <value>000000</value>
                    </Data>
                    <Data name="ISO3166-2-lvl3">
                        <value>CN-HK</value>
                    </Data>
                    <Data name="state">
                        <value>Hong Kong</value>
                    </Data>
                    <Data name="country">
                        <value>China</value>
                    </Data>
                    <Data name="railway">
                        <value>Mong Kok East</value>
                    </Data>
                    <Data name="country_code">
                        <value>cn</value>
                    </Data>
                </ExtendedData>
            </Placemark>
            <Placemark>
                <address>The Hong Kong Jockey Club, Nathan Road, Mong Kok, Yau Tsim Mong District, Kowloon, Hong Kong, 999077, China</address>
                <Point>
                    <coordinates>114.1680944302,22.3248888820</coordinates>
                </Point>
                <ExtendedData>
                    <Data name="suburb">
                        <value>Mong Kok</value>
                    </Data>
                    <Data name="city">
                        <value>Kowloon</value>
                    </Data>
                    <Data name="road">
                        <value>Nathan Road</value>
                    </Data>
                    <Data name="city_district">
                        <value>Yau Tsim Mong District</value>
                    </Data>
                    <Data name="postcode">
                        <value>999077</value>
                    </Data>
                    <Data name="ISO3166-2-lvl3">
                        <value>CN-HK</value>
                    </Data>
                    <Data name="shop">
                        <value>The Hong Kong Jockey Club</value>
                    </Data>
                    <Data name="state">
                        <value>Hong Kong</value>
                    </Data>
                    <Data name="country">
                        <value>China</value>
                    </Data>
                    <Data name="country_code">
                        <value>cn</value>
                    </Data>
                </ExtendedData>
            </Placemark>
            <Placemark>
                <Point>
                    <coordinates>114.1537643855,22.3371701429</coordinates>
                </Point>
            </Placemark>
            <Placemark>
                <Point>
                    <coordinates>114.0936555803,22.3445459024</coordinates>
                </Point>
            </Placemark>
            <Placemark>
                <Point>
                    <coordinates>114.0171684454,22.3632071735</coordinates>
                </Point>
            </Placemark>
            <Placemark>
                <Point>
                    <coordinates>114.0034314972,22.3713163853</coordinates>
                </Point>
                <ExtendedData>
                    <Data name="routingVisited">
                        <value>false</value>
                    </Data>
                </ExtendedData>
            </Placemark>
        </Folder>
        <Document>
            <name>55.1 km; 01:00 h (OSRM)</name>
            <Placemark>
                <name>Route</name>
                <LineString>
                    <coordinates>114.0035000000,22.3714050000 114.0035000000,22.3714050000 114.0034960000,22.3714230000 114.0034970000,22.3714430000 114.0035040000,22.3714600000 114.0035160000,22.3714750000 114.0035380000,22.3714940000 114.0035560000,22.3715140000 114.0035710000,22.3715350000 114.0035830000,22.3715590000 114.0035960000,22.3715930000 114.0036060000,22.3716320000 114.0036090000,22.3716720000 114.0035930000,22.3717670000 114.0035820000,22.3718320000 114.0035700000,22.3718930000 114.0035580000,22.3719450000 114.0035270000,22.3720700000 114.0034860000,22.3722400000 114.0034580000,22.3723530000 114.0033990000,22.3725750000 114.0033410000,22.3727540000 114.0032500000,22.3729790000 114.0030840000,22.3732940000 114.0029090000,22.3735580000 114.0028750000,22.3736030000 114.0027150000,22.3738140000 114.0026790000,22.3738620000 114.0025540000,22.3740260000 114.0023330000,22.3742740000 114.0021730000,22.3744540000 114.0014430000,22.3752620000 114.0013600000,22.3753340000 114.0012390000,22.3754090000 114.0010870000,22.3754950000 114.0008760000,22.3755730000 114.0006650000,22.3756360000 114.0004430000,22.3756750000 114.0002240000,22.3756910000 113.9999990000,22.3756690000 113.9997950000,22.3756500000 113.9997700000,22.3756470000 113.9993620000,22.3756010000 113.9992370000,22.3755890000 113.9991500000,22.3755680000 113.9990350000,22.3755110000 113.9989440000,22.3754610000 113.9988320000,22.3753940000 113.9988210000,22.3753760000 113.9987770000,22.3753390000 113.9987550000,22.3753280000 113.9987140000,22.3753170000 113.9986560000,22.3753200000 113.9986420000,22.3753230000 113.9986160000,22.3753340000 113.9984750000,22.3753250000 113.9983870000,22.3753000000 113.9979530000,22.3751700000 113.9978690000,22.3751420000 113.9977790000,22.3751080000 113.9976310000,22.3750490000 113.9973410000,22.3748850000 113.9972190000,22.3748160000 113.9972040000,22.3748060000 113.9970680000,22.3747070000 113.9967790000,22.3744870000 113.9966860000,22.3744100000 113.9965360000,22.3742800000 113.9964710000,22.3742240000 113.9963700000,22.3741150000 113.9963250000,22.3740400000 113.9962870000,22.3739490000 113.9962690000,22.3738860000 113.9962550000,22.3738070000 113.9962500000,22.3737370000 113.9962550000,22.3736410000 113.9962690000,22.3735260000 113.9962890000,22.3732670000 113.9962970000,22.3732380000 113.9963440000,22.3730290000 113.9963670000,22.3728910000 113.9963740000,22.3727850000 113.9963600000,22.3726930000 113.9963240000,22.3725630000 113.9962900000,22.3724760000 113.9962470000,22.3723900000 113.9961980000,22.3723110000 113.9961330000,22.3722270000 113.9960670000,22.3721520000 113.9959190000,22.3720040000 113.9958300000,22.3719060000 113.9956630000,22.3717160000 113.9955890000,22.3716440000 113.9955100000,22.3715810000 113.9954250000,22.3715240000 113.9953240000,22.3714580000 113.9952200000,22.3714080000 113.9949010000,22.3712980000 113.9947640000,22.3712510000 113.9946600000,22.3711930000 113.9944240000,22.3710620000 113.9942930000,22.3709840000 113.9944650000,22.3707250000 113.9947410000,22.3703070000 113.9947690000,22.3702630000 113.9951290000,22.3697690000 113.9953600000,22.3694410000 113.9955200000,22.3692370000 113.9955980000,22.3691030000 113.9957280000,22.3689060000 113.9958620000,22.3686990000 113.9960000000,22.3685070000 113.9960610000,22.3684390000 113.9961760000,22.3683090000 113.9963730000,22.3681480000 113.9964820000,22.3680850000 113.9966920000,22.3679820000 113.9967430000,22.3679950000 113.9967940000,22.3679850000 113.9968340000,22.3679530000 113.9968530000,22.3679080000 113.9969440000,22.3679020000 113.9970970000,22.3678790000 113.9972860000,22.3678760000 113.9974760000,22.3678890000 113.9974880000,22.3678900000 113.9976240000,22.3679190000 113.9981460000,22.3680370000 113.9982100000,22.3680480000 113.9984080000,22.3680830000 113.9984770000,22.3680900000 113.9986910000,22.3681100000 113.9988930000,22.3681180000 113.9992090000,22.3681080000 113.9993430000,22.3680950000 113.9995800000,22.3680410000 113.9996010000,22.3680350000 113.9998290000,22.3679710000 114.0000780000,22.3678860000 114.0004030000,22.3677350000 114.0005370000,22.3676590000 114.0006460000,22.3675850000 114.0016980000,22.3667000000 114.0018830000,22.3665730000 114.0020740000,22.3664640000 114.0023370000,22.3663780000 114.0023680000,22.3663860000 114.0024010000,22.3663860000 114.0024320000,22.3663780000 114.0024600000,22.3663630000 114.0024830000,22.3663410000 114.0026350000,22.3662780000 114.0027090000,22.3662580000 114.0027920000,22.3662360000 114.0029380000,22.3662240000 114.0029650000,22.3662210000 114.0029860000,22.3662190000 114.0030000000,22.3662190000 114.0030310000,22.3662170000 114.0030700000,22.3662150000 114.0031660000,22.3662090000 114.0033890000,22.3662030000 114.0037530000,22.3661920000 114.0041780000,22.3661680000 114.0046190000,22.3661530000 114.0049360000,22.3661420000 114.0051530000,22.3661520000 114.0052030000,22.3661540000 114.0054160000,22.3661690000 114.0060190000,22.3662670000 114.0064780000,22.3663480000 114.0069950000,22.3664550000 114.0076190000,22.3665490000 114.0079250000,22.3665660000 114.0082470000,22.3665670000 114.0085080000,22.3665640000 114.0088250000,22.3665380000 114.0089440000,22.3665200000 114.0095490000,22.3664390000 114.0106850000,22.3663280000 114.0108930000,22.3663050000 114.0112590000,22.3662710000 114.0115190000,22.3662300000 114.0118070000,22.3661440000 114.0120070000,22.3660680000 114.0120220000,22.3660620000 114.0122220000,22.3659720000 114.0123990000,22.3658760000 114.0126450000,22.3657120000 114.0128480000,22.3655450000 114.0130470000,22.3653580000 114.0131160000,22.3652800000 114.0131250000,22.3652700000 114.0132430000,22.3651090000 114.0133150000,22.3649880000 114.0134330000,22.3647410000 114.0135480000,22.3645510000 114.0136330000,22.3644740000 114.0136920000,22.3644470000 114.0138010000,22.3644160000 114.0138830000,22.3643800000 114.0139480000,22.3643470000 114.0144130000,22.3643360000 114.0145250000,22.3643250000 114.0146930000,22.3643030000 114.0147550000,22.3642870000 114.0148150000,22.3642690000 114.0148980000,22.3642430000 114.0150400000,22.3641920000 114.0153990000,22.3640330000 114.0155380000,22.3639650000 114.0156140000,22.3639110000 114.0156700000,22.3638790000 114.0158950000,22.3637970000 114.0160690000,22.3637330000 114.0161480000,22.3636970000 114.0162740000,22.3636410000 114.0163040000,22.3636280000 114.0163960000,22.3635930000 114.0166710000,22.3634620000 114.0167350000,22.3634220000 114.0167900000,22.3633890000 114.0168460000,22.3633670000 114.0168880000,22.3633490000 114.0169660000,22.3633130000 114.0170500000,22.3632840000 114.0171080000,22.3633050000 114.0171620000,22.3633180000 114.0171950000,22.3633150000 114.0172160000,22.3633120000 114.0173480000,22.3632970000 114.0175660000,22.3632720000 114.0176840000,22.3632460000 114.0177840000,22.3632300000 114.0178260000,22.3632290000 114.0180670000,22.3632170000 114.0182130000,22.3632070000 114.0183340000,22.3631860000 114.0185740000,22.3631160000 114.0187830000,22.3630250000 114.0189930000,22.3628570000 114.0191310000,22.3626820000 114.0192060000,22.3625540000 114.0192740000,22.3623920000 114.0193090000,22.3622770000 114.0193220000,22.3621790000 114.0193290000,22.3620660000 114.0193330000,22.3619120000 114.0193290000,22.3617630000 114.0192990000,22.3614720000 114.0192250000,22.3608620000 114.0191650000,22.3604050000 114.0191530000,22.3603160000 114.0191480000,22.3601670000 114.0191470000,22.3601420000 114.0191290000,22.3595230000 114.0191270000,22.3594650000 114.0191160000,22.3590720000 114.0191130000,22.3589580000 114.0191090000,22.3587210000 114.0191130000,22.3584790000 114.0191130000,22.3584150000 114.0191070000,22.3582510000 114.0191040000,22.3581520000 114.0191000000,22.3580880000 114.0190990000,22.3580460000 114.0191000000,22.3579720000 114.0190940000,22.3578280000 114.0190910000,22.3577500000 114.0190870000,22.3576710000 114.0190820000,22.3576100000 114.0191750000,22.3574800000 114.0192470000,22.3573720000 114.0193510000,22.3572800000 114.0195460000,22.3571480000 114.0198050000,22.3570110000 114.0204690000,22.3567540000 114.0210690000,22.3565460000 114.0221580000,22.3562410000 114.0231740000,22.3559800000 114.0240620000,22.3557960000 114.0248430000,22.3556850000 114.0255860000,22.3556220000 114.0263700000,22.3555880000 114.0270500000,22.3555910000 114.0284030000,22.3556820000 114.0292460000,22.3557580000 114.0295190000,22.3557740000 114.0301770000,22.3558570000 114.0307300000,22.3559570000 114.0313790000,22.3560980000 114.0314900000,22.3561290000 114.0317440000,22.3562050000 114.0323440000,22.3564100000 114.0329540000,22.3566450000 114.0333010000,22.3567870000 114.0334790000,22.3568610000 114.0335920000,22.3569400000 114.0337050000,22.3570410000 114.0338220000,22.3571660000 114.0338460000,22.3572040000 114.0338820000,22.3572330000 114.0339250000,22.3572480000 114.0339440000,22.3572480000 114.0339700000,22.3572490000 114.0340140000,22.3572370000 114.0342000000,22.3572620000 114.0342500000,22.3572750000 114.0346890000,22.3574520000 114.0349170000,22.3575320000 114.0351620000,22.3576220000 114.0354220000,22.3577140000 114.0355850000,22.3577660000 114.0359020000,22.3578670000 114.0362360000,22.3579550000 114.0367100000,22.3580810000 114.0370230000,22.3581440000 114.0374400000,22.3581930000 114.0380320000,22.3582920000 114.0382720000,22.3583520000 114.0384660000,22.3584170000 114.0388180000,22.3585590000 114.0390920000,22.3586960000 114.0393250000,22.3588340000 114.0395390000,22.3589820000 114.0397420000,22.3591450000 114.0401050000,22.3594570000 114.0404080000,22.3597110000 114.0405650000,22.3598390000 114.0410250000,22.3601490000 114.0410870000,22.3601870000 114.0415270000,22.3604080000 114.0418500000,22.3605610000 114.0423790000,22.3607890000 114.0425900000,22.3608730000 114.0427830000,22.3609490000 114.0434170000,22.3612050000 114.0436700000,22.3613130000 114.0436770000,22.3613170000 114.0437690000,22.3613510000 114.0438910000,22.3613980000 114.0439850000,22.3614290000 114.0440800000,22.3614600000 114.0441650000,22.3614850000 114.0442710000,22.3615110000 114.0443540000,22.3615320000 114.0444410000,22.3615510000 114.0445260000,22.3615690000 114.0446030000,22.3615810000 114.0446850000,22.3615910000 114.0447630000,22.3616000000 114.0448440000,22.3616070000 114.0449290000,22.3616090000 114.0450070000,22.3616090000 114.0450870000,22.3616060000 114.0451770000,22.3616000000 114.0452670000,22.3615920000 114.0453350000,22.3615890000 114.0453970000,22.3615890000 114.0454480000,22.3615930000 114.0454510000,22.3616030000 114.0454850000,22.3616500000 114.0455400000,22.3616850000 114.0456050000,22.3617010000 114.0456710000,22.3616960000 114.0457260000,22.3616730000 114.0457710000,22.3616360000 114.0458010000,22.3615880000 114.0460380000,22.3614700000 114.0461130000,22.3614420000 114.0463060000,22.3613690000 114.0465620000,22.3612900000 114.0468040000,22.3612260000 114.0471250000,22.3611620000 114.0473970000,22.3611290000 114.0475600000,22.3611220000 114.0477220000,22.3611230000 114.0480800000,22.3611440000 114.0483560000,22.3611840000 114.0486030000,22.3612320000 114.0488990000,22.3613170000 114.0491520000,22.3614170000 114.0496710000,22.3616640000 114.0500680000,22.3618680000 114.0503510000,22.3620120000 114.0505230000,22.3621270000 114.0507030000,22.3622380000 114.0510000000,22.3624370000 114.0516860000,22.3629420000 114.0519610000,22.3631050000 114.0523080000,22.3632390000 114.0526620000,22.3633290000 114.0533540000,22.3634470000 114.0535810000,22.3634890000 114.0537980000,22.3635520000 114.0539800000,22.3636240000 114.0541590000,22.3637110000 114.0544310000,22.3639080000 114.0547850000,22.3642150000 114.0548230000,22.3642600000 114.0548570000,22.3643050000 114.0548860000,22.3643500000 114.0549180000,22.3644120000 114.0549350000,22.3644850000 114.0549260000,22.3645380000 114.0549340000,22.3645910000 114.0549550000,22.3646360000 114.0549880000,22.3646740000 114.0550300000,22.3647030000 114.0550790000,22.3647210000 114.0551320000,22.3647260000 114.0552780000,22.3647890000 114.0553250000,22.3648120000 114.0553860000,22.3648470000 114.0554610000,22.3648940000 114.0556090000,22.3649920000 114.0558180000,22.3650910000 114.0561550000,22.3652260000 114.0563970000,22.3653190000 114.0567150000,22.3654430000 114.0567610000,22.3654610000 114.0569760000,22.3655440000 114.0570370000,22.3655720000 114.0571430000,22.3656200000 114.0574860000,22.3657760000 114.0577730000,22.3659210000 114.0581190000,22.3661440000 114.0583740000,22.3663480000 114.0588580000,22.3667740000 114.0590040000,22.3668930000 114.0590720000,22.3669470000 114.0593470000,22.3671760000 114.0595440000,22.3673520000 114.0597990000,22.3675460000 114.0598590000,22.3675860000 114.0599370000,22.3676270000 114.0600450000,22.3676750000 114.0601310000,22.3677080000 114.0602160000,22.3677320000 114.0603160000,22.3677460000 114.0604140000,22.3677510000 114.0606500000,22.3677490000 114.0609040000,22.3677260000 114.0609300000,22.3677230000 114.0610350000,22.3677120000 114.0611960000,22.3676960000 114.0613740000,22.3676800000 114.0614210000,22.3676760000 114.0614830000,22.3676710000 114.0615970000,22.3676610000 114.0617510000,22.3676460000 114.0618830000,22.3676330000 114.0620460000,22.3676170000 114.0621040000,22.3676100000 114.0622720000,22.3675810000 114.0623940000,22.3675550000 114.0624500000,22.3675380000 114.0626060000,22.3675200000 114.0626650000,22.3675190000 114.0627040000,22.3675230000 114.0627450000,22.3675390000 114.0628630000,22.3675740000 114.0629000000,22.3676450000 114.0629460000,22.3677340000 114.0629580000,22.3677570000 114.0629750000,22.3678270000 114.0629810000,22.3678580000 114.0629910000,22.3679260000 114.0629890000,22.3680230000 114.0629800000,22.3680800000 114.0629650000,22.3681280000 114.0629400000,22.3681780000 114.0629030000,22.3682340000 114.0628460000,22.3682980000 114.0627530000,22.3683800000 114.0626760000,22.3684060000 114.0626230000,22.3684410000 114.0625660000,22.3684850000 114.0625400000,22.3685040000 114.0624730000,22.3685440000 114.0624400000,22.3685790000 114.0624230000,22.3686060000 114.0624180000,22.3686240000 114.0624680000,22.3687710000 114.0626560000,22.3692600000 114.0626650000,22.3692950000 114.0626720000,22.3693340000 114.0626740000,22.3693770000 114.0626630000,22.3694500000 114.0626610000,22.3695270000 114.0626430000,22.3695570000 114.0626110000,22.3695950000 114.0625820000,22.3696280000 114.0625510000,22.3696570000 114.0625230000,22.3696790000 114.0625020000,22.3696940000 114.0624780000,22.3697120000 114.0623350000,22.3697250000 114.0622860000,22.3697240000 114.0622470000,22.3697220000 114.0622170000,22.3697120000 114.0621850000,22.3697040000 114.0621430000,22.3696760000 114.0621140000,22.3696440000 114.0620900000,22.3696120000 114.0620750000,22.3695700000 114.0620720000,22.3695450000 114.0620740000,22.3695200000 114.0620890000,22.3694760000 114.0621200000,22.3694250000 114.0621520000,22.3693980000 114.0621730000,22.3693770000 114.0622350000,22.3693160000 114.0623140000,22.3692370000 114.0623750000,22.3692180000 114.0624550000,22.3691900000 114.0625360000,22.3691580000 114.0626010000,22.3691300000 114.0626870000,22.3690920000 114.0627830000,22.3690470000 114.0628770000,22.3690010000 114.0629490000,22.3689630000 114.0630430000,22.3689030000 114.0631140000,22.3688560000 114.0631660000,22.3688190000 114.0632140000,22.3687790000 114.0634370000,22.3685800000 114.0635470000,22.3684740000 114.0635950000,22.3684280000 114.0639180000,22.3681160000 114.0639400000,22.3680960000 114.0641560000,22.3678990000 114.0641910000,22.3678680000 114.0643960000,22.3676910000 114.0644250000,22.3676670000 114.0646170000,22.3675080000 114.0646670000,22.3674690000 114.0648380000,22.3673370000 114.0648700000,22.3673140000 114.0650050000,22.3672140000 114.0651470000,22.3671100000 114.0653100000,22.3669990000 114.0657350000,22.3667320000 114.0658230000,22.3666820000 114.0659240000,22.3666260000 114.0660270000,22.3665700000 114.0661140000,22.3665280000 114.0662030000,22.3664860000 114.0662980000,22.3664430000 114.0664020000,22.3663980000 114.0665110000,22.3663540000 114.0666100000,22.3663160000 114.0667360000,22.3662720000 114.0669050000,22.3662110000 114.0671390000,22.3661370000 114.0674450000,22.3660520000 114.0675790000,22.3660220000 114.0677510000,22.3659850000 114.0679550000,22.3659490000 114.0682280000,22.3659400000 114.0684140000,22.3659340000 114.0685790000,22.3659300000 114.0687380000,22.3659310000 114.0688900000,22.3659360000 114.0690160000,22.3659460000 114.0692040000,22.3659730000 114.0693390000,22.3659940000 114.0694480000,22.3660210000 114.0695540000,22.3660520000 114.0697280000,22.3661110000 114.0698940000,22.3661750000 114.0700580000,22.3662530000 114.0702120000,22.3663320000 114.0703140000,22.3663970000 114.0704980000,22.3665350000 114.0706040000,22.3666200000 114.0707270000,22.3667360000 114.0708080000,22.3668180000 114.0708690000,22.3668880000 114.0709570000,22.3669970000 114.0710290000,22.3670950000 114.0710970000,22.3671930000 114.0711990000,22.3673540000 114.0712880000,22.3675060000 114.0713820000,22.3676850000 114.0716450000,22.3682360000 114.0718270000,22.3685870000 114.0718880000,22.3686990000 114.0720350000,22.3689500000 114.0720950000,22.3690390000 114.0721830000,22.3691580000 114.0722580000,22.3692520000 114.0723450000,22.3693470000 114.0724880000,22.3695010000 114.0725760000,22.3695870000 114.0726400000,22.3696420000 114.0727900000,22.3697620000 114.0729520000,22.3698800000 114.0730970000,22.3699720000 114.0732570000,22.3700640000 114.0733910000,22.3701300000 114.0735200000,22.3701850000 114.0736530000,22.3702370000 114.0737620000,22.3702770000 114.0739020000,22.3703190000 114.0740270000,22.3703540000 114.0741600000,22.3703850000 114.0743040000,22.3704150000 114.0744220000,22.3704330000 114.0745360000,22.3704440000 114.0746600000,22.3704510000 114.0747970000,22.3704570000 114.0749660000,22.3704640000 114.0750920000,22.3704620000 114.0752150000,22.3704550000 114.0753480000,22.3704410000 114.0754540000,22.3704260000 114.0755880000,22.3704010000 114.0757150000,22.3703720000 114.0758300000,22.3703410000 114.0759420000,22.3703050000 114.0760430000,22.3702640000 114.0761350000,22.3702220000 114.0762960000,22.3701400000 114.0764180000,22.3700680000 114.0765290000,22.3699980000 114.0766140000,22.3699370000 114.0766860000,22.3698790000 114.0768140000,22.3697670000 114.0769220000,22.3696510000 114.0771440000,22.3693840000 114.0772610000,22.3691990000 114.0773470000,22.3690030000 114.0774170000,22.3688460000 114.0774760000,22.3687230000 114.0777440000,22.3681000000 114.0779760000,22.3676890000 114.0785560000,22.3666650000 114.0786410000,22.3665060000 114.0786820000,22.3664280000 114.0789710000,22.3658810000 114.0795610000,22.3647620000 114.0819460000,22.3602400000 114.0820270000,22.3600740000 114.0821430000,22.3598350000 114.0822250000,22.3596680000 114.0824180000,22.3592640000 114.0824780000,22.3591470000 114.0826310000,22.3588550000 114.0828450000,22.3584440000 114.0829940000,22.3581230000 114.0832370000,22.3576620000 114.0832720000,22.3575970000 114.0833190000,22.3575060000 114.0833470000,22.3574550000 114.0834000000,22.3573590000 114.0838930000,22.3564690000 114.0842340000,22.3558540000 114.0845770000,22.3553400000 114.0847250000,22.3551320000 114.0849950000,22.3547760000 114.0850380000,22.3547210000 114.0852940000,22.3543780000 114.0853390000,22.3543180000 114.0853880000,22.3542500000 114.0856200000,22.3538980000 114.0859400000,22.3533550000 114.0860880000,22.3530600000 114.0861420000,22.3529420000 114.0861880000,22.3528400000 114.0863450000,22.3524750000 114.0864690000,22.3521870000 114.0865310000,22.3520200000 114.0865960000,22.3518460000 114.0868600000,22.3510520000 114.0869210000,22.3508770000 114.0869360000,22.3508280000 114.0869950000,22.3506510000 114.0870280000,22.3505540000 114.0871700000,22.3501460000 114.0871840000,22.3501050000 114.0873720000,22.3493900000 114.0873850000,22.3493210000 114.0874730000,22.3488690000 114.0874870000,22.3487930000 114.0875280000,22.3486700000 114.0876060000,22.3484580000 114.0876470000,22.3483500000 114.0877000000,22.3482120000 114.0878300000,22.3479380000 114.0879940000,22.3476390000 114.0881250000,22.3474620000 114.0882400000,22.3473590000 114.0883470000,22.3472640000 114.0885020000,22.3471250000 114.0885890000,22.3470470000 114.0891520000,22.3465960000 114.0892520000,22.3465380000 114.0893170000,22.3465010000 114.0894580000,22.3464220000 114.0895440000,22.3463710000 114.0896600000,22.3463030000 114.0898570000,22.3462060000 114.0904080000,22.3459230000 114.0909510000,22.3456540000 114.0913290000,22.3454850000 114.0917140000,22.3453370000 114.0921490000,22.3451970000 114.0926200000,22.3450830000 114.0931040000,22.3449910000 114.0933720000,22.3449670000 114.0939110000,22.3449370000 114.0941740000,22.3449370000 114.0952440000,22.3449500000 114.0957200000,22.3449460000 114.1004000000,22.3449930000 114.1010700000,22.3450180000 114.1014000000,22.3450400000 114.1017300000,22.3450680000 114.1020600000,22.3451030000 114.1023900000,22.3451480000 114.1030400000,22.3452500000 114.1033000000,22.3453000000 114.1035300000,22.3453500000 114.1037300000,22.3453950000 114.1038810000,22.3454310000 114.1040300000,22.3454700000 114.1042020000,22.3455180000 114.1043800000,22.3455700000 114.1046900000,22.3456680000 114.1049680000,22.3457620000 114.1051600000,22.3458300000 114.1053500000,22.3459000000 114.1056800000,22.3460270000 114.1060000000,22.3461600000 114.1066070000,22.3464420000 114.1086360000,22.3474950000 114.1092280000,22.3478020000 114.1094000000,22.3478900000 114.1094990000,22.3479370000 114.1095990000,22.3479820000 114.1098100000,22.3480700000 114.1100000000,22.3481490000 114.1103700000,22.3483000000 114.1107080000,22.3484390000 114.1112560000,22.3486440000 114.1114010000,22.3486980000 114.1121940000,22.3489990000 114.1150360000,22.3500680000 114.1152660000,22.3501660000 114.1155460000,22.3503070000 114.1158280000,22.3504570000 114.1160890000,22.3506120000 114.1163380000,22.3507780000 114.1166890000,22.3510310000 114.1170420000,22.3512980000 114.1174180000,22.3515670000 114.1177500000,22.3517760000 114.1179500000,22.3518880000 114.1181630000,22.3519900000 114.1185390000,22.3521520000 114.1187440000,22.3522270000 114.1189890000,22.3523010000 114.1192310000,22.3523660000 114.1195060000,22.3524250000 114.1197310000,22.3524620000 114.1199660000,22.3524930000 114.1203430000,22.3525160000 114.1207100000,22.3525140000 114.1211680000,22.3524720000 114.1214580000,22.3524280000 114.1216780000,22.3523900000 114.1217840000,22.3523650000 114.1219810000,22.3522960000 114.1220880000,22.3522570000 114.1221670000,22.3522230000 114.1226290000,22.3520200000 114.1228980000,22.3518990000 114.1232400000,22.3516400000 114.1234320000,22.3514950000 114.1237280000,22.3512190000 114.1239480000,22.3509410000 114.1241480000,22.3506360000 114.1243000000,22.3503120000 114.1244440000,22.3499020000 114.1244990000,22.3496360000 114.1245500000,22.3491470000 114.1245370000,22.3484120000 114.1245330000,22.3480180000 114.1245490000,22.3476170000 114.1246060000,22.3472410000 114.1246110000,22.3472070000 114.1246230000,22.3471590000 114.1246360000,22.3471070000 114.1246480000,22.3470550000 114.1246730000,22.3469520000 114.1247110000,22.3468180000 114.1247390000,22.3467160000 114.1247610000,22.3466370000 114.1247850000,22.3465690000 114.1248130000,22.3464960000 114.1248340000,22.3464420000 114.1249030000,22.3462770000 114.1250230000,22.3459890000 114.1251600000,22.3457430000 114.1252280000,22.3456200000 114.1254330000,22.3453410000 114.1256160000,22.3450810000 114.1258790000,22.3448160000 114.1260740000,22.3446340000 114.1262650000,22.3444920000 114.1264800000,22.3443300000 114.1269240000,22.3440300000 114.1270200000,22.3439790000 114.1271090000,22.3439320000 114.1271840000,22.3438920000 114.1272820000,22.3438400000 114.1276470000,22.3436840000 114.1278970000,22.3435720000 114.1281270000,22.3434690000 114.1283770000,22.3433460000 114.1286560000,22.3432050000 114.1289710000,22.3430190000 114.1291870000,22.3428750000 114.1294020000,22.3427320000 114.1295670000,22.3426040000 114.1297310000,22.3424680000 114.1298900000,22.3423150000 114.1301370000,22.3420730000 114.1303630000,22.3417950000 114.1304050000,22.3417270000 114.1304940000,22.3415860000 114.1306050000,22.3414080000 114.1306680000,22.3413080000 114.1307450000,22.3411650000 114.1307910000,22.3410810000 114.1308490000,22.3409740000 114.1310190000,22.3406270000 114.1311190000,22.3404140000 114.1311910000,22.3402610000 114.1314770000,22.3396800000 114.1315870000,22.3394560000 114.1316710000,22.3392680000 114.1316840000,22.3392360000 114.1318380000,22.3388760000 114.1319550000,22.3386180000 114.1320070000,22.3385160000 114.1320500000,22.3384340000 114.1322000000,22.3381400000 114.1324040000,22.3378060000 114.1326480000,22.3374240000 114.1328610000,22.3371230000 114.1331790000,22.3367280000 114.1333570000,22.3365230000 114.1336230000,22.3362450000 114.1337460000,22.3361190000 114.1343320000,22.3356020000 114.1345140000,22.3354620000 114.1346460000,22.3353620000 114.1349080000,22.3351570000 114.1351140000,22.3350120000 114.1353150000,22.3348710000 114.1354560000,22.3347710000 114.1355370000,22.3347190000 114.1357120000,22.3346060000 114.1360310000,22.3344250000 114.1363260000,22.3342690000 114.1366140000,22.3341310000 114.1369430000,22.3339880000 114.1373830000,22.3338160000 114.1378110000,22.3336600000 114.1395900000,22.3330030000 114.1398300000,22.3329510000 114.1403410000,22.3328320000 114.1404170000,22.3328110000 114.1407680000,22.3327140000 114.1409930000,22.3326420000 114.1411400000,22.3325900000 114.1413060000,22.3325270000 114.1415830000,22.3324020000 114.1418830000,22.3322730000 114.1420750000,22.3322320000 114.1421380000,22.3322180000 114.1421860000,22.3322100000 114.1422330000,22.3322010000 114.1423370000,22.3321900000 114.1424530000,22.3321850000 114.1425990000,22.3321900000 114.1426410000,22.3321930000 114.1427320000,22.3322040000 114.1428060000,22.3322160000 114.1429040000,22.3322400000 114.1430560000,22.3322860000 114.1431060000,22.3323040000 114.1431930000,22.3323400000 114.1432510000,22.3323670000 114.1433030000,22.3323940000 114.1433750000,22.3324360000 114.1434340000,22.3324720000 114.1434870000,22.3325070000 114.1435450000,22.3325510000 114.1436150000,22.3326120000 114.1437050000,22.3326950000 114.1437860000,22.3327830000 114.1438640000,22.3328800000 114.1439140000,22.3329560000 114.1439630000,22.3330380000 114.1439910000,22.3330920000 114.1440180000,22.3331500000 114.1440440000,22.3332140000 114.1440820000,22.3333210000 114.1441540000,22.3335670000 114.1441960000,22.3336920000 114.1442220000,22.3337580000 114.1443930000,22.3341280000 114.1445810000,22.3347860000 114.1446050000,22.3349870000 114.1446110000,22.3350350000 114.1446220000,22.3351220000 114.1446280000,22.3352080000 114.1449170000,22.3352050000 114.1449620000,22.3352010000 114.1450660000,22.3351780000 114.1451550000,22.3351410000 114.1452580000,22.3350790000 114.1453370000,22.3350240000 114.1454080000,22.3349590000 114.1454810000,22.3348830000 114.1455420000,22.3347980000 114.1456020000,22.3346870000 114.1456570000,22.3345710000 114.1458220000,22.3342410000 114.1459790000,22.3339290000 114.1460550000,22.3338310000 114.1461030000,22.3337680000 114.1461350000,22.3337260000 114.1462960000,22.3335700000 114.1464380000,22.3334530000 114.1465740000,22.3333320000 114.1466840000,22.3332530000 114.1470990000,22.3329550000 114.1474150000,22.3327140000 114.1475740000,22.3325920000 114.1476740000,22.3325120000 114.1476990000,22.3324920000 114.1480190000,22.3322390000 114.1480630000,22.3322040000 114.1481440000,22.3321400000 114.1484870000,22.3318780000 114.1485200000,22.3318540000 114.1487080000,22.3317170000 114.1487750000,22.3318410000 114.1490650000,22.3322920000 114.1491970000,22.3324960000 114.1495270000,22.3329250000 114.1496600000,22.3330930000 114.1498610000,22.3333490000 114.1499210000,22.3334230000 114.1500090000,22.3335310000 114.1500930000,22.3336210000 114.1501190000,22.3336490000 114.1501350000,22.3336660000 114.1501580000,22.3336910000 114.1503820000,22.3339310000 114.1504050000,22.3339560000 114.1504190000,22.3339770000 114.1505350000,22.3341480000 114.1506810000,22.3342710000 114.1507430000,22.3343240000 114.1507740000,22.3343490000 114.1508230000,22.3343580000 114.1508700000,22.3344190000 114.1509400000,22.3345090000 114.1513970000,22.3350540000 114.1515600000,22.3352220000 114.1515980000,22.3352590000 114.1516460000,22.3352990000 114.1517110000,22.3353580000 114.1518130000,22.3354580000 114.1518680000,22.3355200000 114.1518990000,22.3355480000 114.1521710000,22.3358650000 114.1523340000,22.3360600000 114.1530630000,22.3368570000 114.1531820000,22.3370270000 114.1533990000,22.3372420000 114.1534300000,22.3372800000 114.1535550000,22.3374290000 114.1536440000,22.3375310000 114.1537460000,22.3374520000 114.1539090000,22.3373250000 114.1544210000,22.3369270000 114.1549550000,22.3365120000 114.1552880000,22.3362530000 114.1553260000,22.3362240000 114.1556940000,22.3359400000 114.1557410000,22.3359040000 114.1558470000,22.3358220000 114.1559330000,22.3357560000 114.1560980000,22.3356280000 114.1562810000,22.3354860000 114.1563140000,22.3354610000 114.1564090000,22.3353880000 114.1566870000,22.3351740000 114.1568080000,22.3350800000 114.1571400000,22.3348230000 114.1572250000,22.3347580000 114.1572980000,22.3347010000 114.1574030000,22.3346150000 114.1575920000,22.3344660000 114.1582930000,22.3339220000 114.1586360000,22.3336510000 114.1591120000,22.3332800000 114.1591530000,22.3332470000 114.1592260000,22.3331900000 114.1595490000,22.3329390000 114.1595930000,22.3329040000 114.1596560000,22.3328550000 114.1598020000,22.3327430000 114.1600840000,22.3325260000 114.1603360000,22.3323300000 114.1603510000,22.3323180000 114.1603690000,22.3323040000 114.1605440000,22.3321660000 114.1606160000,22.3321110000 114.1608450000,22.3319370000 114.1608810000,22.3319110000 114.1609770000,22.3318360000 114.1610660000,22.3317690000 114.1611900000,22.3316720000 114.1612160000,22.3316520000 114.1617520000,22.3312370000 114.1617890000,22.3312080000 114.1618810000,22.3311370000 114.1621840000,22.3308960000 114.1622060000,22.3308790000 114.1622910000,22.3308110000 114.1623940000,22.3307290000 114.1625100000,22.3306380000 114.1625910000,22.3305750000 114.1626820000,22.3305050000 114.1627100000,22.3304840000 114.1627630000,22.3304440000 114.1631440000,22.3301520000 114.1632110000,22.3301010000 114.1634510000,22.3299220000 114.1635040000,22.3298820000 114.1636520000,22.3297700000 114.1638180000,22.3296400000 114.1638950000,22.3295810000 114.1645560000,22.3290730000 114.1648340000,22.3288610000 114.1648790000,22.3288240000 114.1652130000,22.3285560000 114.1652350000,22.3285390000 114.1653000000,22.3284880000 114.1653860000,22.3284180000 114.1656100000,22.3282370000 114.1657080000,22.3281580000 114.1657970000,22.3280850000 114.1658310000,22.3280580000 114.1658990000,22.3280350000 114.1660510000,22.3279160000 114.1662660000,22.3277480000 114.1669240000,22.3272440000 114.1669840000,22.3272070000 114.1670160000,22.3271940000 114.1670600000,22.3271750000 114.1671390000,22.3271420000 114.1672000000,22.3271150000 114.1673030000,22.3270630000 114.1674430000,22.3269670000 114.1675730000,22.3268670000 114.1676800000,22.3267770000 114.1676970000,22.3267300000 114.1677070000,22.3267080000 114.1677240000,22.3266890000 114.1677370000,22.3266760000 114.1677710000,22.3266480000 114.1678200000,22.3266240000 114.1678910000,22.3265240000 114.1679130000,22.3264820000 114.1679560000,22.3263890000 114.1679690000,22.3263510000 114.1679810000,22.3263140000 114.1680030000,22.3262340000 114.1680940000,22.3258220000 114.1681120000,22.3257430000 114.1681640000,22.3255030000 114.1681880000,22.3253890000 114.1682160000,22.3252530000 114.1682260000,22.3252060000 114.1682340000,22.3251710000 114.1682380000,22.3251420000 114.1682620000,22.3249920000 114.1683000000,22.3248060000 114.1683140000,22.3247360000 114.1683310000,22.3246630000 114.1683480000,22.3245810000 114.1683660000,22.3245000000 114.1683740000,22.3244550000 114.1684010000,22.3243960000 114.1684140000,22.3243440000 114.1684430000,22.3242190000 114.1684490000,22.3241900000 114.1684600000,22.3241330000 114.1684750000,22.3240600000 114.1684970000,22.3239670000 114.1684910000,22.3239090000 114.1684970000,22.3238880000 114.1685080000,22.3238270000 114.1685680000,22.3235450000 114.1685800000,22.3234860000 114.1686040000,22.3233720000 114.1686350000,22.3232270000 114.1686590000,22.3231130000 114.1687020000,22.3229210000 114.1687200000,22.3228230000 114.1687320000,22.3227660000 114.1687860000,22.3224820000 114.1688690000,22.3220630000 114.1689430000,22.3216740000 114.1689770000,22.3214710000 114.1689940000,22.3213860000 114.1690500000,22.3210910000 114.1690590000,22.3210510000 114.1690710000,22.3209960000 114.1690790000,22.3209570000 114.1690900000,22.3209050000 114.1691070000,22.3208330000 114.1691930000,22.3208490000 114.1692930000,22.3208660000 114.1695650000,22.3209200000 114.1696490000,22.3209710000 114.1697810000,22.3210000000 114.1699670000,22.3210330000 114.1701880000,22.3210730000 114.1702910000,22.3210910000 114.1703360000,22.3210990000 114.1705710000,22.3211410000 114.1706130000,22.3211490000 114.1707940000,22.3211810000 114.1709450000,22.3212080000 114.1709620000,22.3212110000 114.1711620000,22.3212480000 114.1712000000,22.3212540000 114.1712840000,22.3212700000 114.1713820000,22.3212870000 114.1714010000,22.3211890000 114.1714190000,22.3211040000 114.1715850000,22.3203030000 114.1716130000,22.3201580000 114.1716500000,22.3199830000 114.1716590000,22.3199440000 114.1716780000,22.3198540000 114.1716880000,22.3198050000 114.1723150000,22.3199280000 114.1724730000,22.3199590000 114.1725920000,22.3199820000 114.1726100000,22.3201910000 114.1725960000,22.3203310000 114.1725950000,22.3203400000 114.1725720000,22.3204570000 114.1723950000,22.3209710000 114.1723060000,22.3211950000 114.1722710000,22.3212860000 114.1722230000,22.3214090000 114.1719810000,22.3220280000 114.1719570000,22.3221000000 114.1719470000,22.3221440000 114.1719120000,22.3224080000 114.1718960000,22.3224780000 114.1718520000,22.3225120000 114.1718390000,22.3225210000 114.1717890000,22.3225310000 114.1717770000,22.3225340000 114.1717190000,22.3225240000 114.1714550000,22.3224780000 114.1712260000,22.3224390000 114.1711460000,22.3224250000 114.1712190000,22.3220720000 114.1713350000,22.3215120000 114.1713690000,22.3213450000 114.1713820000,22.3212870000 114.1714010000,22.3211890000 114.1714190000,22.3211040000 114.1715850000,22.3203030000 114.1716130000,22.3201580000 114.1716500000,22.3199830000 114.1716590000,22.3199440000 114.1716780000,22.3198540000 114.1716880000,22.3198050000 114.1717120000,22.3197000000 114.1716360000,22.3196880000 114.1715140000,22.3196660000 114.1710860000,22.3195900000 114.1709030000,22.3195590000 114.1708930000,22.3195570000 114.1708050000,22.3195410000 114.1707540000,22.3195320000 114.1706820000,22.3195190000 114.1706690000,22.3195160000 114.1705260000,22.3194920000 114.1703930000,22.3194670000 114.1702460000,22.3194430000 114.1702260000,22.3194390000 114.1701140000,22.3194200000 114.1699770000,22.3193950000 114.1699280000,22.3193930000 114.1698850000,22.3193890000 114.1696920000,22.3193570000 114.1695810000,22.3193390000 114.1695360000,22.3193310000 114.1694290000,22.3193120000 114.1693200000,22.3192930000 114.1693020000,22.3193700000 114.1692890000,22.3194330000 114.1692790000,22.3194820000 114.1692420000,22.3196620000 114.1692390000,22.3196750000 114.1692070000,22.3198340000 114.1691870000,22.3199350000 114.1691800000,22.3199710000 114.1691580000,22.3200810000 114.1691290000,22.3202290000 114.1690920000,22.3203780000 114.1690610000,22.3205360000 114.1690530000,22.3205760000 114.1690440000,22.3206130000 114.1690380000,22.3206440000 114.1690220000,22.3207200000 114.1690010000,22.3208190000 114.1689870000,22.3208860000 114.1689750000,22.3209440000 114.1689680000,22.3209790000 114.1689040000,22.3212910000 114.1688670000,22.3214650000 114.1688500000,22.3215570000 114.1688360000,22.3216670000 114.1688220000,22.3217400000 114.1688180000,22.3217570000 114.1688000000,22.3218500000 114.1687620000,22.3220450000 114.1687450000,22.3221210000 114.1687000000,22.3223350000 114.1686570000,22.3225350000 114.1686130000,22.3227430000 114.1685560000,22.3230110000 114.1684610000,22.3234510000 114.1683840000,22.3238070000 114.1683710000,22.3238680000 114.1683670000,22.3238880000 114.1683550000,22.3239430000 114.1683360000,22.3240360000 114.1683220000,22.3241080000 114.1683100000,22.3241680000 114.1682050000,22.3246610000 114.1681640000,22.3248990000 114.1681250000,22.3251250000 114.1681210000,22.3251580000 114.1681170000,22.3251830000 114.1681040000,22.3252400000 114.1680500000,22.3254910000 114.1680200000,22.3256280000 114.1680020000,22.3257120000 114.1679910000,22.3257640000 114.1679720000,22.3258500000 114.1679500000,22.3259520000 114.1679450000,22.3259740000 114.1678810000,22.3262720000 114.1678700000,22.3262930000 114.1678600000,22.3263190000 114.1678310000,22.3263800000 114.1677910000,22.3264340000 114.1677440000,22.3264890000 114.1676510000,22.3265740000 114.1676010000,22.3265960000 114.1675660000,22.3266180000 114.1675290000,22.3266450000 114.1675080000,22.3266590000 114.1674070000,22.3267300000 114.1670260000,22.3270030000 114.1669830000,22.3270340000 114.1669290000,22.3270740000 114.1662280000,22.3276050000 114.1661300000,22.3276790000 114.1659480000,22.3278180000 114.1657080000,22.3280060000 114.1656290000,22.3280670000 114.1656070000,22.3280840000 114.1653940000,22.3282510000 114.1653360000,22.3282960000 114.1652950000,22.3283280000 114.1652170000,22.3283940000 114.1648780000,22.3286680000 114.1648190000,22.3287160000 114.1648060000,22.3287260000 114.1644780000,22.3289900000 114.1639060000,22.3294180000 114.1638840000,22.3294340000 114.1637310000,22.3295540000 114.1635750000,22.3296810000 114.1635020000,22.3297380000 114.1631550000,22.3300000000 114.1630810000,22.3300580000 114.1630050000,22.3301180000 114.1629490000,22.3301610000 114.1626790000,22.3303700000 114.1623970000,22.3305890000 114.1623600000,22.3306180000 114.1621770000,22.3307600000 114.1621400000,22.3307880000 114.1618040000,22.3310490000 114.1617140000,22.3311190000 114.1616030000,22.3312060000 114.1615370000,22.3312570000 114.1614790000,22.3313010000 114.1613580000,22.3313950000 114.1611430000,22.3315550000 114.1611080000,22.3315800000 114.1609830000,22.3316740000 114.1608900000,22.3317470000 114.1607990000,22.3318150000 114.1607810000,22.3318300000 114.1604790000,22.3320650000 114.1602090000,22.3322800000 114.1600360000,22.3324040000 114.1598990000,22.3325110000 114.1598130000,22.3325770000 114.1596280000,22.3327220000 114.1594010000,22.3328990000 114.1591190000,22.3331180000 114.1591050000,22.3331290000 114.1590660000,22.3331600000 114.1588810000,22.3333040000 114.1588370000,22.3333380000 114.1585540000,22.3335580000 114.1584870000,22.3336100000 114.1583050000,22.3337520000 114.1580690000,22.3339340000 114.1576580000,22.3342510000 114.1574770000,22.3343960000 114.1574310000,22.3344320000 114.1573110000,22.3345220000 114.1572090000,22.3346010000 114.1570950000,22.3346930000 114.1566940000,22.3350050000 114.1565560000,22.3351120000 114.1563140000,22.3353000000 114.1562730000,22.3353310000 114.1559420000,22.3355880000 114.1558360000,22.3356710000 114.1557120000,22.3357670000 114.1555890000,22.3358630000 114.1554290000,22.3359870000 114.1552420000,22.3361320000 114.1551940000,22.3361690000 114.1551030000,22.3362410000 114.1543540000,22.3368140000 114.1543130000,22.3368460000 114.1538210000,22.3372230000 114.1538210000,22.3372230000 114.1537860000,22.3372510000 114.1536520000,22.3373560000 114.1535670000,22.3372660000 114.1533580000,22.3370430000 114.1532560000,22.3369820000 114.1531510000,22.3369150000 114.1530630000,22.3368570000 114.1523340000,22.3360600000 114.1521710000,22.3358650000 114.1518990000,22.3355480000 114.1518680000,22.3355200000 114.1518130000,22.3354580000 114.1517110000,22.3353580000 114.1516460000,22.3352990000 114.1515980000,22.3352590000 114.1515600000,22.3352220000 114.1513970000,22.3350540000 114.1509400000,22.3345090000 114.1508700000,22.3344190000 114.1508230000,22.3343580000 114.1508220000,22.3343110000 114.1507950000,22.3342870000 114.1507040000,22.3341960000 114.1506090000,22.3339690000 114.1505350000,22.3338840000 114.1504980000,22.3338410000 114.1503340000,22.3336540000 114.1502760000,22.3335930000 114.1502620000,22.3335780000 114.1502480000,22.3335640000 114.1502180000,22.3335330000 114.1501340000,22.3334450000 114.1500390000,22.3333370000 114.1499790000,22.3332720000 114.1498720000,22.3331530000 114.1498160000,22.3330910000 114.1497520000,22.3330190000 114.1496220000,22.3328600000 114.1493050000,22.3324440000 114.1490240000,22.3319790000 114.1489470000,22.3318590000 114.1489230000,22.3318210000 114.1488350000,22.3316290000 114.1487910000,22.3315260000 114.1486470000,22.3316010000 114.1484740000,22.3317260000 114.1481510000,22.3319750000 114.1479770000,22.3321140000 114.1476590000,22.3323760000 114.1476230000,22.3324050000 114.1475990000,22.3324260000 114.1475000000,22.3325080000 114.1471880000,22.3327510000 114.1470390000,22.3328660000 114.1466180000,22.3331790000 114.1465070000,22.3332610000 114.1463760000,22.3333590000 114.1462120000,22.3334830000 114.1460390000,22.3336410000 114.1459570000,22.3337560000 114.1459040000,22.3338430000 114.1458160000,22.3340190000 114.1457630000,22.3341290000 114.1457230000,22.3342110000 114.1456460000,22.3343680000 114.1455590000,22.3345480000 114.1454750000,22.3346610000 114.1454290000,22.3347400000 114.1453740000,22.3348220000 114.1453020000,22.3348950000 114.1452190000,22.3349660000 114.1451390000,22.3349860000 114.1450610000,22.3349980000 114.1450040000,22.3349950000 114.1449630000,22.3349830000 114.1449280000,22.3349680000 114.1448990000,22.3349470000 114.1448660000,22.3349170000 114.1448360000,22.3348790000 114.1448140000,22.3348400000 114.1447990000,22.3347920000 114.1447910000,22.3347410000 114.1447810000,22.3343800000 114.1447730000,22.3341950000 114.1447610000,22.3340150000 114.1446870000,22.3332730000 114.1446770000,22.3331360000 114.1446730000,22.3330050000 114.1446820000,22.3328400000 114.1446900000,22.3327600000 114.1447870000,22.3321680000 114.1448340000,22.3317610000 114.1448440000,22.3316660000 114.1448300000,22.3314700000 114.1447910000,22.3312660000 114.1447360000,22.3310880000 114.1446590000,22.3309180000 114.1445690000,22.3307660000 114.1444760000,22.3306320000 114.1444200000,22.3305770000 114.1442970000,22.3304740000 114.1441560000,22.3303830000 114.1439620000,22.3303490000 114.1439030000,22.3303420000 114.1438220000,22.3303390000 114.1437290000,22.3303430000 114.1435570000,22.3303870000 114.1434620000,22.3304270000 114.1433290000,22.3305200000 114.1432240000,22.3306090000 114.1430330000,22.3307920000 114.1428590000,22.3309590000 114.1426810000,22.3311130000 114.1425350000,22.3312390000 114.1423740000,22.3314190000 114.1423210000,22.3314690000 114.1422550000,22.3315260000 114.1421820000,22.3315830000 114.1418620000,22.3317710000 114.1416420000,22.3318950000 114.1412300000,22.3320430000 114.1409980000,22.3321260000 114.1407930000,22.3322060000 114.1406230000,22.3322820000 114.1403190000,22.3324240000 114.1401900000,22.3324920000 114.1395720000,22.3328080000 114.1394970000,22.3328500000 114.1385640000,22.3332330000 114.1378030000,22.3335180000 114.1373210000,22.3337010000 114.1368860000,22.3338730000 114.1365640000,22.3340150000 114.1362710000,22.3341510000 114.1359690000,22.3343040000 114.1356310000,22.3344910000 114.1354440000,22.3346060000 114.1353440000,22.3346670000 114.1352220000,22.3347460000 114.1350140000,22.3348820000 114.1348000000,22.3350240000 114.1344480000,22.3352610000 114.1342910000,22.3353690000 114.1341900000,22.3354590000 114.1338720000,22.3357390000 114.1334860000,22.3361210000 114.1332200000,22.3364150000 114.1330340000,22.3366250000 114.1327260000,22.3370270000 114.1325120000,22.3373330000 114.1322740000,22.3377130000 114.1321960000,22.3378480000 114.1320510000,22.3380930000 114.1318960000,22.3383900000 114.1318580000,22.3384640000 114.1316890000,22.3387910000 114.1313190000,22.3395860000 114.1310380000,22.3402110000 114.1309620000,22.3403700000 114.1308660000,22.3405680000 114.1307020000,22.3409030000 114.1306300000,22.3410380000 114.1305920000,22.3411100000 114.1305250000,22.3412340000 114.1304660000,22.3413420000 114.1303470000,22.3415350000 114.1302580000,22.3416670000 114.1301950000,22.3417640000 114.1300900000,22.3418930000 114.1300170000,22.3419770000 114.1299130000,22.3420940000 114.1297960000,22.3422120000 114.1296700000,22.3423320000 114.1295520000,22.3424400000 114.1294840000,22.3425000000 114.1293200000,22.3426370000 114.1291160000,22.3427790000 114.1289430000,22.3428890000 114.1287970000,22.3429780000 114.1286030000,22.3430850000 114.1283130000,22.3432270000 114.1281970000,22.3432800000 114.1280870000,22.3433250000 114.1278230000,22.3434330000 114.1275370000,22.3435510000 114.1272190000,22.3436900000 114.1270920000,22.3437490000 114.1269950000,22.3437970000 114.1269170000,22.3438390000 114.1268020000,22.3439050000 114.1265700000,22.3440470000 114.1263600000,22.3441870000 114.1261980000,22.3443040000 114.1260630000,22.3444120000 114.1259430000,22.3445150000 114.1257850000,22.3446620000 114.1256620000,22.3447850000 114.1254920000,22.3449680000 114.1252790000,22.3452360000 114.1251700000,22.3453840000 114.1250580000,22.3455550000 114.1249770000,22.3456920000 114.1248460000,22.3459330000 114.1246780000,22.3462410000 114.1246340000,22.3464060000 114.1246200000,22.3464560000 114.1246030000,22.3465190000 114.1245820000,22.3465970000 114.1245630000,22.3466700000 114.1245300000,22.3467900000 114.1244960000,22.3469180000 114.1244670000,22.3470260000 114.1244530000,22.3470760000 114.1244430000,22.3471290000 114.1244350000,22.3471890000 114.1244300000,22.3472230000 114.1243930000,22.3475460000 114.1243650000,22.3479040000 114.1243660000,22.3480910000 114.1243750000,22.3483980000 114.1243700000,22.3487140000 114.1243510000,22.3491910000 114.1242990000,22.3496090000 114.1241960000,22.3499950000 114.1240680000,22.3503030000 114.1239290000,22.3506140000 114.1237360000,22.3509000000 114.1236170000,22.3510480000 114.1233060000,22.3513820000 114.1231200000,22.3515280000 114.1228140000,22.3517660000 114.1226590000,22.3518510000 114.1221170000,22.3521330000 114.1220390000,22.3521610000 114.1219330000,22.3521910000 114.1217460000,22.3522390000 114.1216430000,22.3522680000 114.1214310000,22.3523020000 114.1211410000,22.3523410000 114.1207110000,22.3523730000 114.1203330000,22.3523730000 114.1199880000,22.3523650000 114.1194960000,22.3522790000 114.1191870000,22.3522180000 114.1188760000,22.3521210000 114.1185250000,22.3519850000 114.1181990000,22.3518490000 114.1179480000,22.3517290000 114.1175950000,22.3515240000 114.1171200000,22.3512030000 114.1167670000,22.3509350000 114.1163940000,22.3506770000 114.1161560000,22.3505160000 114.1158850000,22.3503530000 114.1156120000,22.3502090000 114.1153200000,22.3500660000 114.1151020000,22.3499700000 114.1122350000,22.3488850000 114.1118310000,22.3487140000 114.1114850000,22.3485670000 114.1110020000,22.3483410000 114.1108420000,22.3482640000 114.1067700000,22.3461380000 114.1065040000,22.3460130000 114.1062830000,22.3459150000 114.1060100000,22.3457980000 114.1057500000,22.3456900000 114.1055200000,22.3456000000 114.1053160000,22.3455250000 114.1050600000,22.3454400000 114.1048010000,22.3453580000 114.1045000000,22.3452660000 114.1042000000,22.3451750000 114.1039000000,22.3450920000 114.1036000000,22.3450220000 114.1033000000,22.3449580000 114.1030000000,22.3449000000 114.1026000000,22.3448350000 114.1020600000,22.3447660000 114.1017660000,22.3447330000 114.1014700000,22.3447070000 114.1011840000,22.3446860000 114.1009000000,22.3446750000 114.1003400000,22.3446570000 114.0957200000,22.3446110000 114.0956240000,22.3446120000 114.0943500000,22.3446090000 114.0939100000,22.3446010000 114.0937600000,22.3445980000 114.0936560000,22.3445980000 114.0932450000,22.3446000000 114.0929810000,22.3446070000 114.0927640000,22.3446250000 114.0924930000,22.3446550000 114.0921460000,22.3447160000 114.0920330000,22.3447350000 114.0918930000,22.3447670000 114.0917140000,22.3448180000 114.0915110000,22.3448750000 114.0912240000,22.3449820000 114.0909570000,22.3450960000 114.0906820000,22.3452200000 114.0903900000,22.3453580000 114.0901100000,22.3454820000 114.0897870000,22.3456310000 114.0895330000,22.3457580000 114.0892480000,22.3459070000 114.0889450000,22.3460940000 114.0886130000,22.3463450000 114.0883940000,22.3465310000 114.0882570000,22.3466630000 114.0880450000,22.3468980000 114.0879860000,22.3469680000 114.0878280000,22.3471710000 114.0875680000,22.3475740000 114.0873750000,22.3479670000 114.0872760000,22.3482430000 114.0872380000,22.3483480000 114.0871240000,22.3487340000 114.0871080000,22.3487870000 114.0868960000,22.3496110000 114.0868320000,22.3498440000 114.0866600000,22.3504700000 114.0866270000,22.3505780000 114.0865800000,22.3507360000 114.0865590000,22.3508010000 114.0865030000,22.3509750000 114.0863930000,22.3512790000 114.0863000000,22.3514870000 114.0861080000,22.3518650000 114.0858040000,22.3524010000 114.0854560000,22.3530980000 114.0852300000,22.3536390000 114.0850680000,22.3539900000 114.0847650000,22.3545370000 114.0846630000,22.3547200000 114.0846330000,22.3547730000 114.0843870000,22.3552250000 114.0842560000,22.3554610000 114.0840650000,22.3558200000 114.0836150000,22.3566400000 114.0832550000,22.3573150000 114.0832000000,22.3574180000 114.0831760000,22.3574620000 114.0831280000,22.3575540000 114.0825590000,22.3586130000 114.0823180000,22.3590690000 114.0822550000,22.3591920000 114.0820450000,22.3596010000 114.0819540000,22.3597770000 114.0818340000,22.3600100000 114.0817620000,22.3601520000 114.0784610000,22.3663210000 114.0784070000,22.3664220000 114.0783190000,22.3665850000 114.0778380000,22.3674460000 114.0777330000,22.3676290000 114.0774930000,22.3680440000 114.0771150000,22.3685220000 114.0769440000,22.3687240000 114.0768820000,22.3687940000 114.0768430000,22.3688370000 114.0767960000,22.3688980000 114.0766750000,22.3690490000 114.0765690000,22.3691550000 114.0764450000,22.3692670000 114.0762830000,22.3693720000 114.0761330000,22.3694550000 114.0759740000,22.3695300000 114.0758290000,22.3695890000 114.0756530000,22.3696490000 114.0754980000,22.3696850000 114.0753420000,22.3697170000 114.0751120000,22.3697470000 114.0749580000,22.3697630000 114.0747710000,22.3697650000 114.0746060000,22.3697570000 114.0744340000,22.3697350000 114.0743160000,22.3697160000 114.0741930000,22.3696910000 114.0740830000,22.3696630000 114.0739830000,22.3696330000 114.0738040000,22.3695680000 114.0736820000,22.3695170000 114.0735620000,22.3694590000 114.0734180000,22.3693790000 114.0733130000,22.3693130000 114.0732020000,22.3692330000 114.0728820000,22.3689540000 114.0725720000,22.3685980000 114.0722640000,22.3681810000 114.0718940000,22.3676870000 114.0714030000,22.3669150000 114.0711850000,22.3666650000 114.0710860000,22.3665620000 114.0709540000,22.3664440000 114.0708660000,22.3663690000 114.0707990000,22.3663180000 114.0706200000,22.3661940000 114.0704570000,22.3660970000 114.0703630000,22.3660450000 114.0702380000,22.3659830000 114.0700660000,22.3659140000 114.0699510000,22.3658690000 114.0698460000,22.3658360000 114.0697560000,22.3658130000 114.0696430000,22.3657860000 114.0694980000,22.3657550000 114.0693700000,22.3657360000 114.0692070000,22.3657190000 114.0689620000,22.3657080000 114.0687620000,22.3657060000 114.0685260000,22.3657150000 114.0681280000,22.3657530000 114.0678130000,22.3658050000 114.0676050000,22.3658450000 114.0674350000,22.3658830000 114.0671900000,22.3659470000 114.0668570000,22.3660470000 114.0666910000,22.3661040000 114.0665120000,22.3661740000 114.0661470000,22.3663330000 114.0659060000,22.3664620000 114.0656580000,22.3666060000 114.0653800000,22.3667690000 114.0653520000,22.3667890000 114.0652190000,22.3668780000 114.0650430000,22.3670050000 114.0649160000,22.3670900000 114.0647640000,22.3671960000 114.0647360000,22.3672180000 114.0645690000,22.3673500000 114.0645210000,22.3673890000 114.0643290000,22.3675450000 114.0642940000,22.3675740000 114.0640850000,22.3677550000 114.0640520000,22.3677850000 114.0638280000,22.3679900000 114.0638120000,22.3680060000 114.0634750000,22.3683340000 114.0634180000,22.3683890000 114.0632940000,22.3685010000 114.0631820000,22.3685920000 114.0631120000,22.3686450000 114.0630530000,22.3686880000 114.0630120000,22.3687160000 114.0629490000,22.3687580000 114.0628440000,22.3688230000 114.0626800000,22.3689090000 114.0625690000,22.3689370000 114.0624090000,22.3689740000 114.0622560000,22.3690070000 114.0620640000,22.3690490000 114.0619500000,22.3690680000 114.0618470000,22.3690780000 114.0616370000,22.3690850000 114.0614020000,22.3690810000 114.0613070000,22.3690730000 114.0612170000,22.3690510000 114.0611720000,22.3690260000 114.0611430000,22.3689990000 114.0611200000,22.3689700000 114.0611020000,22.3689290000 114.0610950000,22.3688910000 114.0610970000,22.3688370000 114.0611050000,22.3687920000 114.0611230000,22.3687490000 114.0611430000,22.3687140000 114.0612540000,22.3686690000 114.0613160000,22.3686670000 114.0614170000,22.3686960000 114.0615270000,22.3687250000 114.0616560000,22.3687400000 114.0617890000,22.3687300000 114.0619380000,22.3687020000 114.0620690000,22.3686800000 114.0621760000,22.3686600000 114.0623260000,22.3686460000 114.0624180000,22.3686240000 114.0625680000,22.3685730000 114.0626460000,22.3685330000 114.0627280000,22.3684510000 114.0627530000,22.3683800000 114.0628460000,22.3682980000 114.0629030000,22.3682340000 114.0629400000,22.3681780000 114.0629650000,22.3681280000 114.0629800000,22.3680800000 114.0629890000,22.3680230000 114.0629910000,22.3679260000 114.0629810000,22.3678580000 114.0629750000,22.3678270000 114.0629580000,22.3677570000 114.0629460000,22.3677340000 114.0629000000,22.3676450000 114.0628630000,22.3675740000 114.0628510000,22.3674760000 114.0628320000,22.3674450000 114.0627960000,22.3673830000 114.0627460000,22.3673060000 114.0626840000,22.3673370000 114.0625580000,22.3673860000 114.0624200000,22.3674420000 114.0623660000,22.3674620000 114.0622600000,22.3674990000 114.0620960000,22.3675260000 114.0620690000,22.3675310000 114.0620290000,22.3675330000 114.0614940000,22.3675830000 114.0610720000,22.3676220000 114.0608800000,22.3676390000 114.0605230000,22.3676710000 114.0604110000,22.3676730000 114.0603220000,22.3676650000 114.0602350000,22.3676520000 114.0601370000,22.3676250000 114.0600560000,22.3675970000 114.0599640000,22.3675530000 114.0598860000,22.3675090000 114.0597950000,22.3674440000 114.0596100000,22.3672980000 114.0594020000,22.3671160000 114.0591610000,22.3669130000 114.0589380000,22.3667290000 114.0585120000,22.3663670000 114.0584010000,22.3662790000 114.0582140000,22.3661360000 114.0580460000,22.3660160000 114.0577800000,22.3658350000 114.0575550000,22.3657040000 114.0572970000,22.3655780000 114.0567270000,22.3653450000 114.0566930000,22.3653310000 114.0564070000,22.3652120000 114.0561990000,22.3651410000 114.0559430000,22.3650380000 114.0558650000,22.3650040000 114.0558040000,22.3649750000 114.0556780000,22.3649080000 114.0555850000,22.3648540000 114.0555480000,22.3648290000 114.0555120000,22.3648030000 114.0554640000,22.3647640000 114.0554220000,22.3647230000 114.0553930000,22.3646830000 114.0553730000,22.3646420000 114.0553550000,22.3646070000 114.0553260000,22.3645480000 114.0553240000,22.3645020000 114.0553110000,22.3644680000 114.0552780000,22.3644190000 114.0552310000,22.3643820000 114.0551730000,22.3643600000 114.0551110000,22.3643560000 114.0550430000,22.3643310000 114.0550010000,22.3642970000 114.0549760000,22.3642720000 114.0549080000,22.3642000000 114.0548720000,22.3641660000 114.0548330000,22.3641290000 114.0546450000,22.3639630000 114.0545120000,22.3638510000 114.0544220000,22.3637800000 114.0543370000,22.3637200000 114.0542320000,22.3636490000 114.0541460000,22.3636010000 114.0540230000,22.3635380000 114.0538470000,22.3634670000 114.0537490000,22.3634300000 114.0536090000,22.3633900000 114.0533250000,22.3633260000 114.0530810000,22.3632890000 114.0526290000,22.3632010000 114.0524140000,22.3631440000 114.0522610000,22.3630920000 114.0520260000,22.3629990000 114.0517730000,22.3628650000 114.0515750000,22.3627410000 114.0513610000,22.3625850000 114.0512270000,22.3624870000 114.0507370000,22.3621530000 114.0504020000,22.3619460000 114.0501270000,22.3617900000 114.0491910000,22.3613410000 114.0489110000,22.3612290000 114.0486330000,22.3611440000 114.0483640000,22.3610810000 114.0481040000,22.3610380000 114.0477180000,22.3610150000 114.0476660000,22.3610170000 114.0474900000,22.3610210000 114.0471140000,22.3610590000 114.0469320000,22.3610920000 114.0466430000,22.3611640000 114.0463590000,22.3612510000 114.0459810000,22.3613790000 114.0458570000,22.3613880000 114.0457390000,22.3613820000 114.0456900000,22.3613570000 114.0456340000,22.3613450000 114.0455770000,22.3613500000 114.0455440000,22.3613620000 114.0455240000,22.3613690000 114.0454800000,22.3614020000 114.0453880000,22.3614520000 114.0452790000,22.3614860000 114.0451150000,22.3615000000 114.0449200000,22.3614990000 114.0447550000,22.3614830000 114.0445860000,22.3614650000 114.0444230000,22.3614320000 114.0443040000,22.3614050000 114.0437790000,22.3612200000 114.0435340000,22.3611290000 114.0430350000,22.3609250000 114.0424390000,22.3606820000 114.0418800000,22.3604350000 114.0416090000,22.3603190000 114.0412680000,22.3601410000 114.0409760000,22.3599760000 114.0406930000,22.3598040000 114.0404950000,22.3596380000 114.0401800000,22.3593780000 114.0398240000,22.3590860000 114.0396230000,22.3589240000 114.0394010000,22.3587720000 114.0392240000,22.3586550000 114.0391560000,22.3586170000 114.0389130000,22.3585010000 114.0385230000,22.3583290000 114.0384840000,22.3583160000 114.0383130000,22.3582610000 114.0379990000,22.3581870000 114.0377830000,22.3581480000 114.0376040000,22.3581210000 114.0372430000,22.3580760000 114.0369910000,22.3580440000 114.0368540000,22.3580200000 114.0367250000,22.3579890000 114.0362630000,22.3578690000 114.0357620000,22.3577240000 114.0354600000,22.3576220000 114.0352120000,22.3575320000 114.0342400000,22.3571350000 114.0340600000,22.3570430000 114.0340220000,22.3570130000 114.0339760000,22.3569970000 114.0339260000,22.3569970000 114.0337030000,22.3568430000 114.0336300000,22.3567950000 114.0333380000,22.3566680000 114.0330680000,22.3565550000 114.0329020000,22.3564880000 114.0324740000,22.3563230000 114.0319860000,22.3561700000 114.0314430000,22.3560220000 114.0304150000,22.3558150000 114.0301520000,22.3557690000 114.0295720000,22.3557030000 114.0292610000,22.3556730000 114.0283940000,22.3555960000 114.0276810000,22.3555360000 114.0270900000,22.3555130000 114.0263750000,22.3554930000 114.0256410000,22.3555320000 114.0248410000,22.3555930000 114.0240480000,22.3557140000 114.0231650000,22.3558800000 114.0221190000,22.3561530000 114.0210470000,22.3564490000 114.0200410000,22.3568120000 114.0196390000,22.3569790000 114.0193410000,22.3571750000 114.0191920000,22.3572770000 114.0190650000,22.3573570000 114.0187720000,22.3574680000 114.0187130000,22.3575050000 114.0186700000,22.3575560000 114.0186470000,22.3576180000 114.0186440000,22.3576660000 114.0186530000,22.3577130000 114.0186740000,22.3577570000 114.0187050000,22.3577950000 114.0187450000,22.3578260000 114.0187910000,22.3578470000 114.0188160000,22.3578540000 114.0188410000,22.3578590000 114.0188850000,22.3578560000 114.0189390000,22.3578980000 114.0190120000,22.3579680000 114.0190990000,22.3580460000 114.0191000000,22.3580880000 114.0191040000,22.3581520000 114.0191070000,22.3582510000 114.0191130000,22.3584150000 114.0191130000,22.3584790000 114.0191090000,22.3587210000 114.0191130000,22.3589580000 114.0191160000,22.3590720000 114.0191290000,22.3595230000 114.0191470000,22.3601420000 114.0191480000,22.3601670000 114.0191530000,22.3603160000 114.0191650000,22.3604050000 114.0192250000,22.3608620000 114.0192990000,22.3614720000 114.0193290000,22.3617630000 114.0193330000,22.3619120000 114.0193290000,22.3620660000 114.0193220000,22.3621790000 114.0193090000,22.3622770000 114.0192740000,22.3623920000 114.0192060000,22.3625540000 114.0191310000,22.3626820000 114.0189930000,22.3628570000 114.0187830000,22.3630250000 114.0185740000,22.3631160000 114.0183340000,22.3631860000 114.0182130000,22.3632070000 114.0180670000,22.3632170000 114.0178260000,22.3632290000 114.0177840000,22.3632300000 114.0176930000,22.3632170000 114.0175880000,22.3632030000 114.0174860000,22.3632030000 114.0174110000,22.3631960000 114.0173000000,22.3631800000 114.0172000000,22.3631800000 114.0171640000,22.3631850000 114.0171630000,22.3631850000 114.0171360000,22.3631910000 114.0170000000,22.3632700000 114.0169660000,22.3633130000 114.0168880000,22.3633490000 114.0168460000,22.3633670000 114.0167900000,22.3633890000 114.0167240000,22.3633920000 114.0166460000,22.3633980000 114.0163880000,22.3635170000 114.0163350000,22.3635410000 114.0162750000,22.3635660000 114.0162490000,22.3635780000 114.0161300000,22.3636240000 114.0160410000,22.3636650000 114.0158810000,22.3637580000 114.0156700000,22.3638790000 114.0156140000,22.3639110000 114.0155380000,22.3639650000 114.0153990000,22.3640330000 114.0150400000,22.3641920000 114.0148980000,22.3642430000 114.0148150000,22.3642690000 114.0147550000,22.3642870000 114.0146930000,22.3643030000 114.0145250000,22.3643250000 114.0144130000,22.3643360000 114.0139480000,22.3643470000 114.0139150000,22.3643110000 114.0138960000,22.3642920000 114.0138330000,22.3642540000 114.0137770000,22.3642260000 114.0137600000,22.3641810000 114.0137260000,22.3641300000 114.0136800000,22.3640910000 114.0136160000,22.3640660000 114.0135600000,22.3640580000 114.0134940000,22.3640670000 114.0134390000,22.3640940000 114.0133940000,22.3641340000 114.0133610000,22.3641890000 114.0133460000,22.3642480000 114.0133440000,22.3642770000 114.0133460000,22.3643060000 114.0133560000,22.3643460000 114.0133740000,22.3643830000 114.0134010000,22.3644160000 114.0133890000,22.3645730000 114.0133560000,22.3646830000 114.0133100000,22.3647730000 114.0131640000,22.3650330000 114.0130490000,22.3651830000 114.0130430000,22.3651890000 114.0129450000,22.3653000000 114.0127680000,22.3654720000 114.0125950000,22.3656150000 114.0125340000,22.3656670000 114.0123390000,22.3657990000 114.0120210000,22.3659610000 114.0120130000,22.3659640000 114.0117650000,22.3660470000 114.0115310000,22.3661290000 114.0113920000,22.3661560000 114.0112340000,22.3661700000 114.0108180000,22.3662160000 114.0106810000,22.3662310000 114.0094720000,22.3663510000 114.0089990000,22.3664010000 114.0087960000,22.3664210000 114.0082360000,22.3664600000 114.0079270000,22.3664600000 114.0076440000,22.3664420000 114.0075170000,22.3664280000 114.0073270000,22.3664060000 114.0070170000,22.3663530000 114.0059740000,22.3661630000 114.0055380000,22.3660920000 114.0052380000,22.3660580000 114.0049560000,22.3660450000 114.0031600000,22.3661020000 114.0030550000,22.3661050000 114.0030320000,22.3661060000 114.0030180000,22.3661060000 114.0029940000,22.3661090000 114.0029760000,22.3661110000 114.0029520000,22.3661140000 114.0029270000,22.3661170000 114.0027730000,22.3661360000 114.0026470000,22.3661510000 114.0024620000,22.3661830000 114.0024300000,22.3661660000 114.0023930000,22.3661590000 114.0023570000,22.3661620000 114.0023220000,22.3661740000 114.0022900000,22.3662000000 114.0022680000,22.3662350000 114.0020900000,22.3663510000 114.0018700000,22.3664710000 114.0017000000,22.3665730000 114.0010080000,22.3671700000 114.0005800000,22.3675080000 114.0003070000,22.3676700000 114.0000530000,22.3677860000 113.9996260000,22.3679200000 113.9995690000,22.3679330000 113.9994150000,22.3679660000 113.9992090000,22.3679910000 113.9990930000,22.3679970000 113.9987140000,22.3680140000 113.9984620000,22.3679880000 113.9976760000,22.3678260000 113.9975330000,22.3677970000 113.9975090000,22.3677940000 113.9973460000,22.3677790000 113.9971860000,22.3677830000 113.9969740000,22.3678000000 113.9969070000,22.3678050000 113.9968100000,22.3678160000 113.9967740000,22.3678000000 113.9967350000,22.3677970000 113.9966810000,22.3678170000 113.9966460000,22.3678600000 113.9966030000,22.3679050000 113.9965550000,22.3679370000 113.9964300000,22.3680010000 113.9962930000,22.3680900000 113.9962090000,22.3681520000 113.9960900000,22.3682590000 113.9959140000,22.3684630000 113.9957790000,22.3686430000 113.9956290000,22.3688570000 113.9955150000,22.3690230000 113.9954130000,22.3691760000 113.9950330000,22.3697240000 113.9946920000,22.3702150000 113.9941920000,22.3709230000 113.9942930000,22.3709840000 113.9944240000,22.3710620000 113.9946600000,22.3711930000 113.9947640000,22.3712510000 113.9949010000,22.3712980000 113.9952200000,22.3714080000 113.9953240000,22.3714580000 113.9954250000,22.3715240000 113.9955100000,22.3715810000 113.9955890000,22.3716440000 113.9956630000,22.3717160000 113.9958300000,22.3719060000 113.9959190000,22.3720040000 113.9960670000,22.3721520000 113.9961330000,22.3722270000 113.9961980000,22.3723110000 113.9962470000,22.3723900000 113.9962900000,22.3724760000 113.9963240000,22.3725630000 113.9963600000,22.3726930000 113.9963740000,22.3727850000 113.9963670000,22.3728910000 113.9963440000,22.3730290000 113.9962970000,22.3732380000 113.9962890000,22.3732670000 113.9962030000,22.3734870000 113.9961840000,22.3735840000 113.9961690000,22.3736800000 113.9961620000,22.3737880000 113.9961620000,22.3738980000 113.9961680000,22.3740040000 113.9961840000,22.3740890000 113.9962050000,22.3741600000 113.9962300000,22.3742240000 113.9962720000,22.3743070000 113.9963340000,22.3743970000 113.9964030000,22.3744760000 113.9964710000,22.3745390000 113.9965760000,22.3746210000 113.9969180000,22.3748790000 113.9970000000,22.3749420000 113.9971340000,22.3750260000 113.9973960000,22.3751300000 113.9978150000,22.3752590000 113.9982320000,22.3753880000 113.9983200000,22.3754160000 113.9984090000,22.3754520000 113.9984670000,22.3754840000 113.9985500000,22.3755280000 113.9985650000,22.3755510000 113.9985840000,22.3755710000 113.9986060000,22.3755860000 113.9986310000,22.3755990000 113.9986570000,22.3756060000 113.9986850000,22.3756090000 113.9987160000,22.3756080000 113.9987460000,22.3756010000 113.9987820000,22.3755840000 113.9987930000,22.3755760000 113.9988090000,22.3755620000 113.9988740000,22.3755600000 113.9990290000,22.3755610000 113.9991500000,22.3755680000 113.9992370000,22.3755890000 113.9993620000,22.3756010000 113.9997700000,22.3756470000 113.9997950000,22.3756500000 113.9999990000,22.3756690000 114.0002240000,22.3756910000 114.0004430000,22.3756750000 114.0006650000,22.3756360000 114.0008760000,22.3755730000 114.0010870000,22.3754950000 114.0012390000,22.3754090000 114.0013600000,22.3753340000 114.0014430000,22.3752620000 114.0021730000,22.3744540000 114.0023330000,22.3742740000 114.0025540000,22.3740260000 114.0026790000,22.3738620000 114.0027150000,22.3738140000 114.0028750000,22.3736030000 114.0029090000,22.3735580000 114.0030840000,22.3732940000 114.0032500000,22.3729790000 114.0033410000,22.3727540000 114.0033990000,22.3725750000 114.0034580000,22.3723530000 114.0034860000,22.3722400000 114.0035270000,22.3720700000 114.0035580000,22.3719450000 114.0035700000,22.3718930000 114.0035820000,22.3718320000 114.0035930000,22.3717670000 114.0036090000,22.3716720000 114.0036390000,22.3714340000 114.0036370000,22.3714150000 114.0036300000,22.3713980000 114.0036180000,22.3713820000 114.0036020000,22.3713710000 114.0035830000,22.3713640000 114.0035630000,22.3713630000 114.0035430000,22.3713670000 114.0035250000,22.3713760000 114.0035100000,22.3713890000</coordinates>
                </LineString>
                <ExtendedData>
                    <Data name="duration">
                        <value>01:00:33</value>
                    </Data>
                    <Data name="length">
                        <value>55136.63456270959</value>
                    </Data>
                </ExtendedData>
            </Placemark>
        </Document>
    </Document>
</kml>