<?xml version="1.0" encoding="UTF-8"?>
<kml xmlns="http://www.opengis.net/kml/2.2" xmlns:gx="http://www.google.com/kml/ext/2.2">
    <Document>
        <name>Route</name>
        <Folder>
            <name>Route Request</name>
            <Placemark>
                <address>Block 13, Shung King Street, Whampoa Garden Bauhinia Mansions, Hung Hom, Kowloon City District, Kowloon, Hong Kong, KINGSFIELD MANSION LEVEL B, PRC</address>
                <Point>
                    <coordinates>114.1979188592,22.3511728286</coordinates>
                </Point>
                <ExtendedData>
                    <Data name="country">
                        <value>PRC</value>
                    </Data>
                    <Data name="county">
                        <value>Kowloon City District</value>
                    </Data>
                    <Data name="postcode">
                        <value>KINGSFIELD MANSION LEVEL B</value>
                    </Data>
                    <Data name="region">
                        <value>Kowloon</value>
                    </Data>
                    <Data name="state">
                        <value>Hong Kong</value>
                    </Data>
                    <Data name="building">
                        <value>Block 13</value>
                    </Data>
                    <Data name="routingVisited">
                        <value>false</value>
                    </Data>
                    <Data name="country_code">
                        <value>cn</value>
                    </Data>
                    <Data name="road">
                        <value>Shung King Street</value>
                    </Data>
                    <Data name="residential">
                        <value>Whampoa Garden Bauhinia Mansions</value>
                    </Data>
                    <Data name="suburb">
                        <value>Hung Hom</value>
                    </Data>
                </ExtendedData>
            </Placemark>
            <Placemark>
                <address>Stewards Pooi Tun Secondary School, 162, Hammer Hill Road, Fung Wong, Ngau Chi Wan, Lion Rock Upper Village, Wong Tai Sin District, Hong Kong, 350, PRC</address>
                <Point>
                    <coordinates>114.2078152715,22.3401668672</coordinates>
                </Point>
                <ExtendedData>
                    <Data name="country">
                        <value>PRC</value>
                    </Data>
                    <Data name="county">
                        <value>Wong Tai Sin District</value>
                    </Data>
                    <Data name="house_number">
                        <value>162</value>
                    </Data>
                    <Data name="postcode">
                        <value>350</value>
                    </Data>
                    <Data name="school">
                        <value>Stewards Pooi Tun Secondary School</value>
                    </Data>
                    <Data name="country_code">
                        <value>cn</value>
                    </Data>
                    <Data name="neighbourhood">
                        <value>Fung Wong</value>
                    </Data>
                    <Data name="road">
                        <value>Hammer Hill Road</value>
                    </Data>
                    <Data name="hamlet">
                        <value>Lion Rock Upper Village</value>
                    </Data>
                    <Data name="suburb">
                        <value>Ngau Chi Wan</value>
                    </Data>
                </ExtendedData>
            </Placemark>
            <Placemark>
                <address>Fung Tak Road, Fung Wong, Wong Tai Sin, Lion Rock Upper Village, Wong Tai Sin District, Hong Kong, STTL 531, PRC</address>
                <Point>
                    <coordinates>114.1994404790,22.3430216738</coordinates>
                </Point>
                <ExtendedData>
                    <Data name="country">
                        <value>PRC</value>
                    </Data>
                    <Data name="county">
                        <value>Wong Tai Sin District</value>
                    </Data>
                    <Data name="postcode">
                        <value>STTL 531</value>
                    </Data>
                    <Data name="country_code">
                        <value>cn</value>
                    </Data>
                    <Data name="neighbourhood">
                        <value>Fung Wong</value>
                    </Data>
                    <Data name="road">
                        <value>Fung Tak Road</value>
                    </Data>
                    <Data name="hamlet">
                        <value>Lion Rock Upper Village</value>
                    </Data>
                    <Data name="suburb">
                        <value>Wong Tai Sin</value>
                    </Data>
                </ExtendedData>
            </Placemark>
            <Placemark>
                <address>Yee On court Block C, Argyle Street, Ho Man Tin, Kowloon, Kowloon City District, Hong Kong, KIL 3348, PRC</address>
                <Point>
                    <coordinates>114.1760937118,22.3203891050</coordinates>
                </Point>
                <ExtendedData>
                    <Data name="country">
                        <value>PRC</value>
                    </Data>
                    <Data name="county">
                        <value>Kowloon City District</value>
                    </Data>
                    <Data name="postcode">
                        <value>KIL 3348</value>
                    </Data>
                    <Data name="city">
                        <value>Kowloon</value>
                    </Data>
                    <Data name="country_code">
                        <value>cn</value>
                    </Data>
                    <Data name="road">
                        <value>Argyle Street</value>
                    </Data>
                    <Data name="suburb">
                        <value>Ho Man Tin</value>
                    </Data>
                    <Data name="address29">
                        <value>Yee On court Block C</value>
                    </Data>
                </ExtendedData>
            </Placemark>
            <Placemark>
                <address>HSBC Centre Tower 1, Sham Mong Road, Tai Kok Tsui, Yau Tsim Mong District, Hong Kong, KIL 3348, PRC</address>
                <Point>
                    <coordinates>114.1564252941,22.3199084913</coordinates>
                </Point>
                <ExtendedData>
                    <Data name="country">
                        <value>PRC</value>
                    </Data>
                    <Data name="county">
                        <value>Yau Tsim Mong District</value>
                    </Data>
                    <Data name="postcode">
                        <value>KIL 3348</value>
                    </Data>
                    <Data name="building">
                        <value>HSBC Centre Tower 1</value>
                    </Data>
                    <Data name="routingVisited">
                        <value>false</value>
                    </Data>
                    <Data name="country_code">
                        <value>cn</value>
                    </Data>
                    <Data name="road">
                        <value>Sham Mong Road</value>
                    </Data>
                    <Data name="suburb">
                        <value>Tai Kok Tsui</value>
                    </Data>
                </ExtendedData>
            </Placemark>
            <Placemark>
                <address>Tung Chung Waterfront Road, Sha Lo Wan, Tung Chung, Islands District, Hong Kong, 000000, PRC</address>
                <Point>
                    <coordinates>113.9390814863,22.2916606819</coordinates>
                </Point>
                <ExtendedData>
                    <Data name="country">
                        <value>PRC</value>
                    </Data>
                    <Data name="county">
                        <value>Islands District</value>
                    </Data>
                    <Data name="postcode">
                        <value>000000</value>
                    </Data>
                    <Data name="country_code">
                        <value>cn</value>
                    </Data>
                    <Data name="town">
                        <value>Tung Chung</value>
                    </Data>
                    <Data name="road">
                        <value>Tung Chung Waterfront Road</value>
                    </Data>
                    <Data name="suburb">
                        <value>Sha Lo Wan</value>
                    </Data>
                </ExtendedData>
            </Placemark>
            <Placemark>
                <address>Citygate Outlets, North Lantau Highway, Citygate, Sha Lo Wan, Tung Chung, Islands District, Hong Kong, 000000, PRC</address>
                <Point>
                    <coordinates>113.9415658261,22.2899902774</coordinates>
                </Point>
                <ExtendedData>
                    <Data name="country">
                        <value>PRC</value>
                    </Data>
                    <Data name="county">
                        <value>Islands District</value>
                    </Data>
                    <Data name="postcode">
                        <value>000000</value>
                    </Data>
                    <Data name="mall">
                        <value>Citygate Outlets</value>
                    </Data>
                    <Data name="commercial">
                        <value>Citygate</value>
                    </Data>
                    <Data name="country_code">
                        <value>cn</value>
                    </Data>
                    <Data name="town">
                        <value>Tung Chung</value>
                    </Data>
                    <Data name="road">
                        <value>North Lantau Highway</value>
                    </Data>
                    <Data name="suburb">
                        <value>Sha Lo Wan</value>
                    </Data>
                </ExtendedData>
            </Placemark>
            <Placemark>
                <address>YMCA of Hong Kong Christian College, Chung Yat Street, Sha Lo Wan, Lung Tseng Tau, Islands District, Hong Kong, 000000, PRC</address>
                <Point>
                    <coordinates>113.9319020980,22.2762122003</coordinates>
                </Point>
                <ExtendedData>
                    <Data name="country">
                        <value>PRC</value>
                    </Data>
                    <Data name="county">
                        <value>Islands District</value>
                    </Data>
                    <Data name="postcode">
                        <value>000000</value>
                    </Data>
                    <Data name="school">
                        <value>YMCA of Hong Kong Christian College</value>
                    </Data>
                    <Data name="country_code">
                        <value>cn</value>
                    </Data>
                    <Data name="road">
                        <value>Chung Yat Street</value>
                    </Data>
                    <Data name="hamlet">
                        <value>Lung Tseng Tau</value>
                    </Data>
                    <Data name="suburb">
                        <value>Sha Lo Wan</value>
                    </Data>
                </ExtendedData>
            </Placemark>
            <Placemark>
                <address>Shun Tung Road, Sha Lo Wan, Tung Chung, Islands District, Hong Kong, 000000, PRC</address>
                <Point>
                    <coordinates>113.9371326932,22.2898984843</coordinates>
                </Point>
                <ExtendedData>
                    <Data name="country">
                        <value>PRC</value>
                    </Data>
                    <Data name="county">
                        <value>Islands District</value>
                    </Data>
                    <Data name="postcode">
                        <value>000000</value>
                    </Data>
                    <Data name="country_code">
                        <value>cn</value>
                    </Data>
                    <Data name="town">
                        <value>Tung Chung</value>
                    </Data>
                    <Data name="road">
                        <value>Shun Tung Road</value>
                    </Data>
                    <Data name="suburb">
                        <value>Sha Lo Wan</value>
                    </Data>
                </ExtendedData>
            </Placemark>
            <Placemark>
                <address>HSBC Centre Tower 1, Sham Mong Road, Tai Kok Tsui, Yau Tsim Mong District, Hong Kong, KIL 3348, PRC</address>
                <Point>
                    <coordinates>114.1568388421,22.3185424746</coordinates>
                </Point>
                <ExtendedData>
                    <Data name="country">
                        <value>PRC</value>
                    </Data>
                    <Data name="county">
                        <value>Yau Tsim Mong District</value>
                    </Data>
                    <Data name="postcode">
                        <value>KIL 3348</value>
                    </Data>
                    <Data name="building">
                        <value>HSBC Centre Tower 1</value>
                    </Data>
                    <Data name="routingVisited">
                        <value>false</value>
                    </Data>
                    <Data name="country_code">
                        <value>cn</value>
                    </Data>
                    <Data name="road">
                        <value>Sham Mong Road</value>
                    </Data>
                    <Data name="suburb">
                        <value>Tai Kok Tsui</value>
                    </Data>
                </ExtendedData>
            </Placemark>
            <Placemark>
                <address>Kowloon Hospital, Argyle Street, Ma Tau Wai, Kowloon, Kowloon City District, Hong Kong, KIL 3348, PRC</address>
                <Point>
                    <coordinates>114.1800748475,22.3225691523</coordinates>
                </Point>
                <ExtendedData>
                    <Data name="country">
                        <value>PRC</value>
                    </Data>
                    <Data name="county">
                        <value>Kowloon City District</value>
                    </Data>
                    <Data name="postcode">
                        <value>KIL 3348</value>
                    </Data>
                    <Data name="city">
                        <value>Kowloon</value>
                    </Data>
                    <Data name="country_code">
                        <value>cn</value>
                    </Data>
                    <Data name="hospital">
                        <value>Kowloon Hospital</value>
                    </Data>
                    <Data name="road">
                        <value>Argyle Street</value>
                    </Data>
                    <Data name="suburb">
                        <value>Ma Tau Wai</value>
                    </Data>
                </ExtendedData>
            </Placemark>
            <Placemark>
                <address>Block 1, Fung Tak Road, Fung Wong, Diamond Hill, Lion Rock Upper Village, Wong Tai Sin District, Hong Kong, 350, PRC</address>
                <Point>
                    <coordinates>114.2028822127,22.3419145397</coordinates>
                </Point>
                <ExtendedData>
                    <Data name="country">
                        <value>PRC</value>
                    </Data>
                    <Data name="county">
                        <value>Wong Tai Sin District</value>
                    </Data>
                    <Data name="postcode">
                        <value>350</value>
                    </Data>
                    <Data name="building">
                        <value>Block 1</value>
                    </Data>
                    <Data name="country_code">
                        <value>cn</value>
                    </Data>
                    <Data name="neighbourhood">
                        <value>Fung Wong</value>
                    </Data>
                    <Data name="road">
                        <value>Fung Tak Road</value>
                    </Data>
                    <Data name="hamlet">
                        <value>Lion Rock Upper Village</value>
                    </Data>
                    <Data name="suburb">
                        <value>Diamond Hill</value>
                    </Data>
                </ExtendedData>
            </Placemark>
            <Placemark>
                <address>Diamond Hill No.2 Fresh Water Service Reservoir, Tate's Cairn Tunnel, Fung Wong, Diamond Hill, Wong Tai Sin District, Hong Kong, DD193 1132, PRC</address>
                <Point>
                    <coordinates>114.2071107348,22.3444651537</coordinates>
                </Point>
                <ExtendedData>
                    <Data name="country">
                        <value>PRC</value>
                    </Data>
                    <Data name="county">
                        <value>Wong Tai Sin District</value>
                    </Data>
                    <Data name="water">
                        <value>Diamond Hill No.2 Fresh Water Service Reservoir</value>
                    </Data>
                    <Data name="postcode">
                        <value>DD193 1132</value>
                    </Data>
                    <Data name="country_code">
                        <value>cn</value>
                    </Data>
                    <Data name="neighbourhood">
                        <value>Fung Wong</value>
                    </Data>
                    <Data name="road">
                        <value>Tate's Cairn Tunnel</value>
                    </Data>
                    <Data name="suburb">
                        <value>Diamond Hill</value>
                    </Data>
                </ExtendedData>
            </Placemark>
            <Placemark>
                <address>Tsz Wan Shan (North) Bus Terminus, Tsz Wan Shan Road, Fung Wong, Tsz Wan Shan, Lion Rock Upper Village, Wong Tai Sin District, Hong Kong, STTL 531, PRC</address>
                <Point>
                    <coordinates>114.1978908534,22.3511298527</coordinates>
                </Point>
                <ExtendedData>
                    <Data name="country">
                        <value>PRC</value>
                    </Data>
                    <Data name="county">
                        <value>Wong Tai Sin District</value>
                    </Data>
                    <Data name="postcode">
                        <value>STTL 531</value>
                    </Data>
                    <Data name="country_code">
                        <value>cn</value>
                    </Data>
                    <Data name="neighbourhood">
                        <value>Fung Wong</value>
                    </Data>
                    <Data name="road">
                        <value>Tsz Wan Shan Road</value>
                    </Data>
                    <Data name="bus_station">
                        <value>Tsz Wan Shan (North) Bus Terminus</value>
                    </Data>
                    <Data name="hamlet">
                        <value>Lion Rock Upper Village</value>
                    </Data>
                    <Data name="suburb">
                        <value>Tsz Wan Shan</value>
                    </Data>
                </ExtendedData>
            </Placemark>
        </Folder>
        <Document>
            <name>80.3 km; 01:21 h (OSRM)</name>
            <Placemark>
                <name>Route</name>
                <LineString>
                    <coordinates>114.1982930000,22.3511250000 114.1983200000,22.3511260000 114.1983450000,22.3511150000 114.1983670000,22.3510990000 114.1984700000,22.3509640000 114.1984940000,22.3509220000 114.1985030000,22.3508960000 114.1985090000,22.3508810000 114.1985200000,22.3508500000 114.1985850000,22.3508580000 114.1987230000,22.3508600000 114.1988380000,22.3508580000 114.1989970000,22.3508410000 114.1991120000,22.3508190000 114.1992340000,22.3507830000 114.1993260000,22.3507520000 114.1995240000,22.3506860000 114.1997020000,22.3506260000 114.2002380000,22.3504360000 114.2008990000,22.3502140000 114.2010780000,22.3501410000 114.2011720000,22.3500940000 114.2013140000,22.3500090000 114.2014490000,22.3499250000 114.2015140000,22.3498750000 114.2016470000,22.3497710000 114.2018400000,22.3495940000 114.2019150000,22.3494920000 114.2019650000,22.3494250000 114.2022180000,22.3489760000 114.2022430000,22.3489310000 114.2023590000,22.3488140000 114.2024750000,22.3487320000 114.2025700000,22.3486910000 114.2026900000,22.3486620000 114.2028470000,22.3486390000 114.2029450000,22.3486310000 114.2030250000,22.3486250000 114.2031160000,22.3486200000 114.2037050000,22.3485870000 114.2038760000,22.3485580000 114.2039950000,22.3485080000 114.2040690000,22.3484520000 114.2041290000,22.3483910000 114.2041590000,22.3483360000 114.2041890000,22.3482690000 114.2042080000,22.3481810000 114.2042120000,22.3480790000 114.2042100000,22.3479220000 114.2042090000,22.3478650000 114.2041950000,22.3471140000 114.2041860000,22.3467970000 114.2041780000,22.3465270000 114.2044160000,22.3465140000 114.2046360000,22.3464810000 114.2048710000,22.3464360000 114.2050490000,22.3463790000 114.2051070000,22.3463610000 114.2052410000,22.3463130000 114.2055300000,22.3461710000 114.2057620000,22.3460210000 114.2058200000,22.3459750000 114.2059310000,22.3458970000 114.2060640000,22.3457850000 114.2060910000,22.3457580000 114.2062100000,22.3456410000 114.2063620000,22.3454900000 114.2064590000,22.3453860000 114.2066270000,22.3452070000 114.2073910000,22.3443900000 114.2074690000,22.3442240000 114.2075410000,22.3439950000 114.2075530000,22.3439510000 114.2077420000,22.3433450000 114.2078160000,22.3431150000 114.2082190000,22.3419620000 114.2084490000,22.3412860000 114.2084670000,22.3412070000 114.2084710000,22.3411120000 114.2084430000,22.3409130000 114.2084150000,22.3408330000 114.2083760000,22.3407400000 114.2083100000,22.3406450000 114.2082160000,22.3405480000 114.2078380000,22.3402100000 114.2078040000,22.3401770000 114.2077810000,22.3401550000 114.2076760000,22.3400570000 114.2076500000,22.3400330000 114.2073050000,22.3397050000 114.2071180000,22.3395270000 114.2070130000,22.3394360000 114.2068320000,22.3392770000 114.2067660000,22.3392230000 114.2067100000,22.3391780000 114.2066470000,22.3391330000 114.2066330000,22.3390720000 114.2066030000,22.3390160000 114.2065580000,22.3389700000 114.2065010000,22.3389360000 114.2064370000,22.3389180000 114.2063930000,22.3389140000 114.2063500000,22.3389180000 114.2063080000,22.3389280000 114.2062670000,22.3389460000 114.2062300000,22.3389700000 114.2061980000,22.3390000000 114.2061710000,22.3390370000 114.2061520000,22.3390780000 114.2061420000,22.3391280000 114.2061100000,22.3392290000 114.2060930000,22.3392980000 114.2060470000,22.3393770000 114.2060220000,22.3394210000 114.2059740000,22.3394970000 114.2058570000,22.3395460000 114.2057310000,22.3395670000 114.2057020000,22.3395670000 114.2054560000,22.3395740000 114.2052370000,22.3395990000 114.2051070000,22.3396540000 114.2047300000,22.3398400000 114.2044050000,22.3400080000 114.2043860000,22.3400200000 114.2043130000,22.3400580000 114.2042690000,22.3400820000 114.2042440000,22.3400960000 114.2041880000,22.3401270000 114.2041030000,22.3401740000 114.2037670000,22.3403580000 114.2036320000,22.3404410000 114.2035720000,22.3404770000 114.2035550000,22.3404890000 114.2035000000,22.3405260000 114.2033830000,22.3406050000 114.2032200000,22.3407590000 114.2030710000,22.3409370000 114.2028400000,22.3413580000 114.2028020000,22.3414280000 114.2026220000,22.3417790000 114.2023430000,22.3421160000 114.2020470000,22.3423410000 114.2019250000,22.3424170000 114.2018000000,22.3424880000 114.2016590000,22.3425640000 114.2013990000,22.3426820000 114.2012620000,22.3427440000 114.2011430000,22.3427980000 114.2010300000,22.3428490000 114.2009470000,22.3428780000 114.2008290000,22.3429130000 114.2007500000,22.3429330000 114.2006410000,22.3429170000 114.2005970000,22.3429220000 114.2005370000,22.3429300000 114.2001330000,22.3429870000 114.1996060000,22.3430550000 114.1994450000,22.3430690000 114.1994310000,22.3430700000 114.1988700000,22.3431370000 114.1987620000,22.3431470000 114.1987270000,22.3429030000 114.1987010000,22.3427100000 114.1986660000,22.3424270000 114.1986590000,22.3423670000 114.1986030000,22.3419990000 114.1985520000,22.3417490000 114.1984780000,22.3413780000 114.1984540000,22.3412310000 114.1983690000,22.3407230000 114.1983600000,22.3406690000 114.1983480000,22.3406000000 114.1983010000,22.3403150000 114.1982510000,22.3399810000 114.1982290000,22.3399050000 114.1981920000,22.3398030000 114.1981670000,22.3397400000 114.1981550000,22.3397090000 114.1981410000,22.3396760000 114.1980810000,22.3395780000 114.1980270000,22.3395080000 114.1979800000,22.3394570000 114.1979220000,22.3393900000 114.1978450000,22.3393250000 114.1977750000,22.3392790000 114.1976990000,22.3392400000 114.1975850000,22.3391860000 114.1975540000,22.3391760000 114.1974720000,22.3391480000 114.1973890000,22.3391190000 114.1972680000,22.3390730000 114.1971200000,22.3390080000 114.1969800000,22.3389460000 114.1967950000,22.3388550000 114.1966320000,22.3387500000 114.1964470000,22.3385870000 114.1963700000,22.3385120000 114.1963420000,22.3384870000 114.1962150000,22.3383450000 114.1961570000,22.3382690000 114.1960600000,22.3381330000 114.1959220000,22.3379310000 114.1956350000,22.3375440000 114.1955640000,22.3374510000 114.1954280000,22.3372700000 114.1951100000,22.3368070000 114.1945680000,22.3360810000 114.1944680000,22.3359390000 114.1943580000,22.3356990000 114.1942710000,22.3354080000 114.1942490000,22.3352550000 114.1942230000,22.3349580000 114.1942400000,22.3348190000 114.1942750000,22.3347110000 114.1942990000,22.3346490000 114.1943540000,22.3345570000 114.1943910000,22.3345020000 114.1945290000,22.3343370000 114.1945660000,22.3342920000 114.1948730000,22.3339880000 114.1950320000,22.3338380000 114.1951560000,22.3337200000 114.1952040000,22.3336790000 114.1955010000,22.3334050000 114.1957370000,22.3332070000 114.1958140000,22.3331480000 114.1958940000,22.3330930000 114.1959590000,22.3330520000 114.1960120000,22.3330230000 114.1960620000,22.3329980000 114.1961320000,22.3329670000 114.1961960000,22.3329430000 114.1965230000,22.3328400000 114.1965860000,22.3328180000 114.1966380000,22.3327960000 114.1966830000,22.3327710000 114.1967260000,22.3327410000 114.1967680000,22.3327000000 114.1968080000,22.3326480000 114.1968350000,22.3325950000 114.1968530000,22.3325390000 114.1968620000,22.3324840000 114.1968620000,22.3324280000 114.1968510000,22.3323730000 114.1968350000,22.3323270000 114.1968120000,22.3322810000 114.1967870000,22.3322460000 114.1967580000,22.3322140000 114.1967250000,22.3321850000 114.1966880000,22.3321600000 114.1966490000,22.3321390000 114.1965910000,22.3321150000 114.1965090000,22.3320900000 114.1963830000,22.3320570000 114.1961340000,22.3320070000 114.1960020000,22.3319440000 114.1959150000,22.3318900000 114.1957720000,22.3317670000 114.1956350000,22.3316390000 114.1948560000,22.3308760000 114.1947900000,22.3308060000 114.1944840000,22.3303150000 114.1939700000,22.3297920000 114.1935610000,22.3296050000 114.1925230000,22.3285870000 114.1920260000,22.3281690000 114.1918290000,22.3281020000 114.1916780000,22.3280460000 114.1914620000,22.3279620000 114.1912830000,22.3278740000 114.1909700000,22.3277410000 114.1902070000,22.3274390000 114.1899720000,22.3273500000 114.1897400000,22.3272550000 114.1895120000,22.3271520000 114.1892870000,22.3270440000 114.1890660000,22.3269280000 114.1883780000,22.3265610000 114.1882680000,22.3264990000 114.1878620000,22.3261910000 114.1870200000,22.3256960000 114.1869820000,22.3256750000 114.1868760000,22.3256130000 114.1858660000,22.3250030000 114.1858250000,22.3249790000 114.1856710000,22.3248940000 114.1856170000,22.3248670000 114.1855990000,22.3248580000 114.1855560000,22.3248380000 114.1853300000,22.3247310000 114.1853160000,22.3247240000 114.1853050000,22.3247190000 114.1849810000,22.3245700000 114.1847230000,22.3244510000 114.1846980000,22.3244400000 114.1839430000,22.3240920000 114.1839120000,22.3240780000 114.1838670000,22.3240560000 114.1837310000,22.3239890000 114.1828980000,22.3235990000 114.1827120000,22.3235120000 114.1823360000,22.3233350000 114.1820900000,22.3232210000 114.1815900000,22.3229930000 114.1815470000,22.3229730000 114.1814480000,22.3229260000 114.1809750000,22.3227280000 114.1806330000,22.3225870000 114.1803990000,22.3224450000 114.1803000000,22.3223870000 114.1801870000,22.3223350000 114.1799160000,22.3222110000 114.1798430000,22.3221800000 114.1796380000,22.3220910000 114.1796150000,22.3220810000 114.1795560000,22.3220550000 114.1793570000,22.3219690000 114.1792870000,22.3219390000 114.1792070000,22.3219020000 114.1791970000,22.3218980000 114.1791750000,22.3218880000 114.1790320000,22.3218270000 114.1790220000,22.3218240000 114.1790130000,22.3218200000 114.1789340000,22.3217850000 114.1787160000,22.3216880000 114.1786360000,22.3216530000 114.1784240000,22.3215590000 114.1784090000,22.3215520000 114.1783980000,22.3215460000 114.1783090000,22.3215010000 114.1781860000,22.3214260000 114.1781380000,22.3213970000 114.1781180000,22.3213850000 114.1776790000,22.3211730000 114.1773860000,22.3210320000 114.1772780000,22.3209830000 114.1771380000,22.3209250000 114.1770030000,22.3208810000 114.1768030000,22.3207990000 114.1767440000,22.3207780000 114.1761420000,22.3205150000 114.1760880000,22.3204970000 114.1760550000,22.3204860000 114.1760210000,22.3204740000 114.1759430000,22.3204540000 114.1758570000,22.3204310000 114.1757780000,22.3204140000 114.1756830000,22.3203940000 114.1755750000,22.3203730000 114.1754280000,22.3203580000 114.1752450000,22.3203480000 114.1750540000,22.3203090000 114.1748840000,22.3202820000 114.1748270000,22.3202710000 114.1747010000,22.3202460000 114.1746390000,22.3202330000 114.1744050000,22.3201870000 114.1742340000,22.3201530000 114.1740720000,22.3201210000 114.1738950000,22.3200820000 114.1738170000,22.3200660000 114.1737590000,22.3200560000 114.1736200000,22.3200320000 114.1734590000,22.3200050000 114.1732160000,22.3199630000 114.1728670000,22.3199030000 114.1727540000,22.3198820000 114.1726230000,22.3198550000 114.1722390000,22.3197810000 114.1722280000,22.3197790000 114.1717560000,22.3197080000 114.1717120000,22.3197000000 114.1716360000,22.3196880000 114.1715140000,22.3196660000 114.1710860000,22.3195900000 114.1708990000,22.3195590000 114.1708050000,22.3195410000 114.1707540000,22.3195320000 114.1706770000,22.3195180000 114.1705260000,22.3194920000 114.1703930000,22.3194670000 114.1702460000,22.3194430000 114.1702260000,22.3194390000 114.1701140000,22.3194200000 114.1699770000,22.3193950000 114.1699280000,22.3193930000 114.1698850000,22.3193890000 114.1696920000,22.3193570000 114.1695810000,22.3193390000 114.1695360000,22.3193310000 114.1694290000,22.3193120000 114.1693200000,22.3192930000 114.1692430000,22.3192790000 114.1688230000,22.3192090000 114.1687900000,22.3192030000 114.1687160000,22.3191900000 114.1685700000,22.3191660000 114.1683980000,22.3191380000 114.1682790000,22.3191210000 114.1682250000,22.3191130000 114.1681320000,22.3190940000 114.1680250000,22.3190690000 114.1678410000,22.3190360000 114.1677880000,22.3190280000 114.1676800000,22.3190060000 114.1675610000,22.3189840000 114.1671990000,22.3189160000 114.1669890000,22.3188770000 114.1667760000,22.3188370000 114.1666260000,22.3188090000 114.1662740000,22.3187430000 114.1662220000,22.3187350000 114.1660610000,22.3187120000 114.1654080000,22.3186880000 114.1652930000,22.3186840000 114.1649530000,22.3186700000 114.1646960000,22.3186640000 114.1642870000,22.3186450000 114.1641230000,22.3186310000 114.1639600000,22.3186090000 114.1637720000,22.3185630000 114.1636480000,22.3185360000 114.1635180000,22.3184940000 114.1634340000,22.3184590000 114.1633990000,22.3184440000 114.1633210000,22.3184080000 114.1631290000,22.3183110000 114.1630450000,22.3182690000 114.1629550000,22.3181870000 114.1628890000,22.3181590000 114.1627870000,22.3181390000 114.1624900000,22.3180800000 114.1622920000,22.3180820000 114.1621530000,22.3180450000 114.1615040000,22.3178130000 114.1609530000,22.3176240000 114.1606000000,22.3175150000 114.1604580000,22.3174610000 114.1603760000,22.3174380000 114.1602650000,22.3174130000 114.1598760000,22.3173460000 114.1594480000,22.3173210000 114.1587180000,22.3173110000 114.1581900000,22.3173120000 114.1571410000,22.3173320000 114.1570750000,22.3173130000 114.1569920000,22.3172830000 114.1569780000,22.3172490000 114.1569570000,22.3172180000 114.1569100000,22.3171760000 114.1568510000,22.3171490000 114.1567850000,22.3171400000 114.1567140000,22.3171530000 114.1566540000,22.3171840000 114.1566040000,22.3172370000 114.1565780000,22.3173040000 114.1565790000,22.3173740000 114.1566060000,22.3174400000 114.1566570000,22.3174920000 114.1566890000,22.3175850000 114.1567020000,22.3176500000 114.1567060000,22.3177460000 114.1567190000,22.3181860000 114.1567260000,22.3185230000 114.1567110000,22.3187810000 114.1566780000,22.3189670000 114.1566330000,22.3191450000 114.1565970000,22.3192670000 114.1565680000,22.3193640000 114.1565240000,22.3195560000 114.1565050000,22.3197080000 114.1565050000,22.3198570000 114.1565070000,22.3199050000 114.1565090000,22.3199400000 114.1565180000,22.3200140000 114.1565300000,22.3200730000 114.1565550000,22.3201970000 114.1565780000,22.3202850000 114.1566100000,22.3203630000 114.1566570000,22.3204570000 114.1567480000,22.3205970000 114.1568010000,22.3206800000 114.1568940000,22.3208090000 114.1570160000,22.3209600000 114.1570950000,22.3210540000 114.1571800000,22.3211350000 114.1572720000,22.3212120000 114.1572960000,22.3212350000 114.1573190000,22.3212650000 114.1573460000,22.3213070000 114.1573750000,22.3213600000 114.1574070000,22.3214190000 114.1574570000,22.3214980000 114.1574590000,22.3215110000 114.1574620000,22.3215230000 114.1574050000,22.3216360000 114.1573690000,22.3217040000 114.1573350000,22.3217600000 114.1570710000,22.3221380000 114.1568260000,22.3224820000 114.1565620000,22.3228450000 114.1564340000,22.3230640000 114.1563350000,22.3232210000 114.1560320000,22.3235840000 114.1557220000,22.3239550000 114.1555090000,22.3242060000 114.1550130000,22.3246980000 114.1549550000,22.3247560000 114.1548720000,22.3248380000 114.1548330000,22.3248770000 114.1547880000,22.3249220000 114.1546490000,22.3250360000 114.1545260000,22.3251040000 114.1544890000,22.3251250000 114.1534280000,22.3259320000 114.1530330000,22.3262600000 114.1527240000,22.3265660000 114.1522310000,22.3270260000 114.1519620000,22.3272490000 114.1514500000,22.3276420000 114.1502230000,22.3283500000 114.1500160000,22.3284690000 114.1494760000,22.3287240000 114.1489530000,22.3289840000 114.1484040000,22.3292370000 114.1483030000,22.3292830000 114.1481830000,22.3293360000 114.1480360000,22.3294020000 114.1476850000,22.3295300000 114.1474490000,22.3296140000 114.1469750000,22.3297740000 114.1465430000,22.3299330000 114.1462970000,22.3300340000 114.1460480000,22.3301530000 114.1450650000,22.3305600000 114.1450030000,22.3305820000 114.1446570000,22.3307020000 114.1440650000,22.3309030000 114.1429760000,22.3313260000 114.1422520000,22.3316700000 114.1419530000,22.3317870000 114.1416420000,22.3318950000 114.1409980000,22.3321260000 114.1407930000,22.3322060000 114.1406230000,22.3322820000 114.1403190000,22.3324240000 114.1401900000,22.3324920000 114.1395720000,22.3328080000 114.1394970000,22.3328500000 114.1385640000,22.3332330000 114.1378030000,22.3335180000 114.1373210000,22.3337010000 114.1368860000,22.3338730000 114.1365640000,22.3340150000 114.1362710000,22.3341510000 114.1359690000,22.3343040000 114.1356310000,22.3344910000 114.1354440000,22.3346060000 114.1353440000,22.3346670000 114.1352220000,22.3347460000 114.1350140000,22.3348820000 114.1348000000,22.3350240000 114.1344480000,22.3352610000 114.1342910000,22.3353690000 114.1341900000,22.3354590000 114.1338720000,22.3357390000 114.1334860000,22.3361210000 114.1332200000,22.3364150000 114.1330340000,22.3366250000 114.1327260000,22.3370270000 114.1325120000,22.3373330000 114.1322740000,22.3377130000 114.1321960000,22.3378480000 114.1320510000,22.3380930000 114.1318960000,22.3383900000 114.1318580000,22.3384640000 114.1316890000,22.3387910000 114.1313190000,22.3395860000 114.1310380000,22.3402110000 114.1309620000,22.3403700000 114.1308660000,22.3405680000 114.1307020000,22.3409030000 114.1306300000,22.3410380000 114.1305920000,22.3411100000 114.1305250000,22.3412340000 114.1304660000,22.3413420000 114.1303470000,22.3415350000 114.1302580000,22.3416670000 114.1301950000,22.3417640000 114.1300900000,22.3418930000 114.1300170000,22.3419770000 114.1299130000,22.3420940000 114.1297960000,22.3422120000 114.1296700000,22.3423320000 114.1295520000,22.3424400000 114.1294840000,22.3425000000 114.1293200000,22.3426370000 114.1291160000,22.3427790000 114.1289430000,22.3428890000 114.1287970000,22.3429780000 114.1286030000,22.3430850000 114.1283130000,22.3432270000 114.1281970000,22.3432800000 114.1280870000,22.3433250000 114.1278230000,22.3434330000 114.1275370000,22.3435510000 114.1272190000,22.3436900000 114.1270920000,22.3437490000 114.1269950000,22.3437970000 114.1269170000,22.3438390000 114.1268020000,22.3439050000 114.1265700000,22.3440470000 114.1263600000,22.3441870000 114.1261980000,22.3443040000 114.1260630000,22.3444120000 114.1259430000,22.3445150000 114.1257850000,22.3446620000 114.1256620000,22.3447850000 114.1254920000,22.3449680000 114.1252790000,22.3452360000 114.1251700000,22.3453840000 114.1250580000,22.3455550000 114.1249770000,22.3456920000 114.1248460000,22.3459330000 114.1246780000,22.3462410000 114.1246340000,22.3464060000 114.1246200000,22.3464560000 114.1246030000,22.3465190000 114.1245820000,22.3465970000 114.1245630000,22.3466700000 114.1245300000,22.3467900000 114.1244960000,22.3469180000 114.1244670000,22.3470260000 114.1244530000,22.3470760000 114.1244430000,22.3471290000 114.1244350000,22.3471890000 114.1244300000,22.3472230000 114.1243930000,22.3475460000 114.1243650000,22.3479040000 114.1243660000,22.3480910000 114.1243750000,22.3483980000 114.1243700000,22.3487140000 114.1243510000,22.3491910000 114.1242990000,22.3496090000 114.1241960000,22.3499950000 114.1240680000,22.3503030000 114.1239290000,22.3506140000 114.1237360000,22.3509000000 114.1236170000,22.3510480000 114.1233060000,22.3513820000 114.1231200000,22.3515280000 114.1228140000,22.3517660000 114.1226590000,22.3518510000 114.1221170000,22.3521330000 114.1220390000,22.3521610000 114.1219330000,22.3521910000 114.1217460000,22.3522390000 114.1216430000,22.3522680000 114.1214310000,22.3523020000 114.1211410000,22.3523410000 114.1207110000,22.3523730000 114.1203330000,22.3523730000 114.1199880000,22.3523650000 114.1194960000,22.3522790000 114.1191870000,22.3522180000 114.1188760000,22.3521210000 114.1185250000,22.3519850000 114.1181990000,22.3518490000 114.1179480000,22.3517290000 114.1175950000,22.3515240000 114.1171200000,22.3512030000 114.1167670000,22.3509350000 114.1163940000,22.3506770000 114.1161560000,22.3505160000 114.1158850000,22.3503530000 114.1156120000,22.3502090000 114.1153200000,22.3500660000 114.1151020000,22.3499700000 114.1122350000,22.3488850000 114.1118310000,22.3487140000 114.1114850000,22.3485670000 114.1110020000,22.3483410000 114.1108420000,22.3482640000 114.1067700000,22.3461380000 114.1065040000,22.3460130000 114.1062830000,22.3459150000 114.1060100000,22.3457980000 114.1057500000,22.3456900000 114.1055200000,22.3456000000 114.1053160000,22.3455250000 114.1050600000,22.3454400000 114.1048010000,22.3453580000 114.1045000000,22.3452660000 114.1042000000,22.3451750000 114.1039000000,22.3450920000 114.1036000000,22.3450220000 114.1033000000,22.3449580000 114.1030000000,22.3449000000 114.1026000000,22.3448350000 114.1020600000,22.3447660000 114.1017660000,22.3447330000 114.1014700000,22.3447070000 114.1011840000,22.3446860000 114.1009000000,22.3446750000 114.1003400000,22.3446570000 114.0957200000,22.3446110000 114.0956240000,22.3446120000 114.0943500000,22.3446090000 114.0939100000,22.3446010000 114.0937600000,22.3445980000 114.0932450000,22.3446000000 114.0929810000,22.3446070000 114.0927640000,22.3446250000 114.0924930000,22.3446550000 114.0921460000,22.3447160000 114.0920330000,22.3447350000 114.0918930000,22.3447670000 114.0917140000,22.3448180000 114.0915110000,22.3448750000 114.0912240000,22.3449820000 114.0909570000,22.3450960000 114.0906820000,22.3452200000 114.0903900000,22.3453580000 114.0901100000,22.3454820000 114.0897870000,22.3456310000 114.0895330000,22.3457580000 114.0892480000,22.3459070000 114.0889450000,22.3460940000 114.0886130000,22.3463450000 114.0883940000,22.3465310000 114.0882570000,22.3466630000 114.0880450000,22.3468980000 114.0879860000,22.3469680000 114.0878280000,22.3471710000 114.0875680000,22.3475740000 114.0873750000,22.3479670000 114.0872760000,22.3482430000 114.0872380000,22.3483480000 114.0871240000,22.3487340000 114.0871080000,22.3487870000 114.0868960000,22.3496110000 114.0868320000,22.3498440000 114.0866190000,22.3502770000 114.0865140000,22.3505780000 114.0864640000,22.3507710000 114.0863940000,22.3509560000 114.0862570000,22.3512780000 114.0861410000,22.3515520000 114.0860220000,22.3517890000 114.0857070000,22.3523180000 114.0855970000,22.3524720000 114.0854710000,22.3526420000 114.0852780000,22.3528730000 114.0849660000,22.3532110000 114.0847170000,22.3533980000 114.0845590000,22.3534770000 114.0844630000,22.3535180000 114.0842130000,22.3535980000 114.0840930000,22.3536130000 114.0839280000,22.3536290000 114.0836580000,22.3536570000 114.0833990000,22.3536200000 114.0831290000,22.3535650000 114.0828470000,22.3534940000 114.0825320000,22.3534100000 114.0822730000,22.3533410000 114.0802360000,22.3527440000 114.0726090000,22.3506460000 114.0675450000,22.3492370000 114.0659400000,22.3487900000 114.0628910000,22.3479420000 114.0621920000,22.3477430000 114.0617970000,22.3476210000 114.0613990000,22.3474890000 114.0610110000,22.3473460000 114.0606270000,22.3471880000 114.0602360000,22.3470150000 114.0598750000,22.3468400000 114.0595140000,22.3466480000 114.0591600000,22.3464470000 114.0588470000,22.3462540000 114.0585430000,22.3460600000 114.0525500000,22.3421550000 114.0519850000,22.3418020000 114.0517420000,22.3416520000 114.0514980000,22.3415220000 114.0511970000,22.3413840000 114.0509050000,22.3412690000 114.0504640000,22.3411370000 114.0501150000,22.3410650000 114.0496320000,22.3409870000 114.0488040000,22.3409060000 114.0482030000,22.3408520000 114.0472620000,22.3407500000 114.0466410000,22.3406480000 114.0460530000,22.3405040000 114.0457980000,22.3404300000 114.0455720000,22.3403470000 114.0453930000,22.3402800000 114.0452960000,22.3402370000 114.0452310000,22.3402090000 114.0451410000,22.3401610000 114.0450850000,22.3401310000 114.0449720000,22.3400670000 114.0446520000,22.3398810000 114.0440850000,22.3395510000 114.0433240000,22.3391420000 114.0432120000,22.3390820000 114.0404540000,22.3378310000 114.0398910000,22.3375530000 114.0396970000,22.3374650000 114.0396100000,22.3374260000 114.0393150000,22.3373090000 114.0392240000,22.3372790000 114.0389280000,22.3371800000 114.0384940000,22.3370620000 114.0380500000,22.3369760000 114.0375410000,22.3368690000 114.0371470000,22.3367950000 114.0367080000,22.3366840000 114.0364270000,22.3366160000 114.0362160000,22.3365560000 114.0357730000,22.3363950000 114.0352720000,22.3361990000 114.0347280000,22.3359460000 114.0342840000,22.3357050000 114.0339040000,22.3354760000 114.0333950000,22.3351300000 114.0328830000,22.3347400000 114.0324360000,22.3343470000 114.0313330000,22.3332900000 114.0310680000,22.3330150000 114.0309200000,22.3328440000 114.0307240000,22.3326390000 114.0301970000,22.3321170000 114.0299260000,22.3318720000 114.0292680000,22.3312440000 114.0272370000,22.3293250000 114.0265500000,22.3286660000 114.0257940000,22.3279360000 114.0255110000,22.3276600000 114.0251350000,22.3273220000 114.0247420000,22.3270050000 114.0243000000,22.3266910000 114.0239930000,22.3264980000 114.0238300000,22.3264040000 114.0237490000,22.3263580000 114.0235970000,22.3262700000 114.0230920000,22.3260010000 114.0226320000,22.3257790000 114.0218850000,22.3254810000 114.0213490000,22.3253080000 114.0208470000,22.3251460000 114.0203250000,22.3250340000 114.0198930000,22.3249550000 114.0194430000,22.3248980000 114.0189510000,22.3248540000 114.0184850000,22.3248340000 114.0179330000,22.3248360000 114.0157300000,22.3249950000 114.0151520000,22.3250270000 114.0146290000,22.3250370000 114.0140400000,22.3250260000 114.0134390000,22.3249840000 114.0129530000,22.3249290000 114.0125170000,22.3248670000 114.0120450000,22.3247740000 114.0110200000,22.3245160000 114.0104500000,22.3243350000 114.0099940000,22.3241710000 114.0092210000,22.3238440000 114.0030460000,22.3210970000 114.0022110000,22.3207110000 114.0018700000,22.3205380000 114.0015450000,22.3203740000 114.0012450000,22.3202230000 114.0009200000,22.3200340000 114.0006410000,22.3198590000 114.0004230000,22.3197030000 114.0001470000,22.3195040000 113.9998380000,22.3192620000 113.9994860000,22.3189590000 113.9992090000,22.3186870000 113.9989500000,22.3184190000 113.9985960000,22.3180270000 113.9983040000,22.3176570000 113.9980380000,22.3172630000 113.9980000000,22.3172060000 113.9977570000,22.3168210000 113.9977160000,22.3167520000 113.9974960000,22.3163870000 113.9973020000,22.3160790000 113.9971020000,22.3157770000 113.9968930000,22.3154780000 113.9966240000,22.3151180000 113.9964650000,22.3149000000 113.9961560000,22.3145280000 113.9959240000,22.3142630000 113.9957120000,22.3140280000 113.9954890000,22.3137910000 113.9951690000,22.3134730000 113.9951210000,22.3134260000 113.9949860000,22.3133030000 113.9948160000,22.3131480000 113.9945760000,22.3129470000 113.9944550000,22.3128470000 113.9940660000,22.3125250000 113.9937300000,22.3122730000 113.9936770000,22.3122350000 113.9933570000,22.3120010000 113.9929640000,22.3117410000 113.9926010000,22.3115140000 113.9889850000,22.3094370000 113.9877960000,22.3087560000 113.9860440000,22.3076980000 113.9856810000,22.3074790000 113.9851170000,22.3071400000 113.9850420000,22.3070920000 113.9840910000,22.3064780000 113.9818600000,22.3050900000 113.9804410000,22.3041820000 113.9802420000,22.3040600000 113.9802060000,22.3040380000 113.9795070000,22.3036070000 113.9786170000,22.3030810000 113.9785000000,22.3030110000 113.9778760000,22.3026570000 113.9777710000,22.3025970000 113.9769330000,22.3021450000 113.9766060000,22.3019810000 113.9757470000,22.3015510000 113.9746960000,22.3010220000 113.9737440000,22.3005560000 113.9731390000,22.3002800000 113.9722740000,22.2999010000 113.9715800000,22.2996450000 113.9710390000,22.2994730000 113.9705160000,22.2993110000 113.9698770000,22.2991360000 113.9689750000,22.2989320000 113.9680470000,22.2986900000 113.9677470000,22.2986190000 113.9621910000,22.2973990000 113.9609300000,22.2971350000 113.9603210000,22.2969830000 113.9595720000,22.2967670000 113.9587890000,22.2964930000 113.9582960000,22.2962940000 113.9578120000,22.2960870000 113.9572830000,22.2958390000 113.9567450000,22.2955430000 113.9560790000,22.2951570000 113.9558210000,22.2949960000 113.9555750000,22.2948250000 113.9552750000,22.2946020000 113.9549650000,22.2943560000 113.9546260000,22.2940770000 113.9542590000,22.2937580000 113.9538700000,22.2934090000 113.9535270000,22.2930740000 113.9532730000,22.2927990000 113.9528750000,22.2923800000 113.9523830000,22.2918530000 113.9521350000,22.2916130000 113.9518830000,22.2913840000 113.9515220000,22.2910870000 113.9512400000,22.2908870000 113.9510840000,22.2907630000 113.9504990000,22.2904060000 113.9500840000,22.2901790000 113.9496380000,22.2899900000 113.9491880000,22.2898330000 113.9487170000,22.2896800000 113.9483130000,22.2895790000 113.9478750000,22.2894950000 113.9474000000,22.2894160000 113.9468720000,22.2893630000 113.9463440000,22.2893450000 113.9459210000,22.2893440000 113.9454980000,22.2893540000 113.9448930000,22.2894100000 113.9445070000,22.2894660000 113.9439680000,22.2895710000 113.9434870000,22.2896900000 113.9431440000,22.2897990000 113.9427810000,22.2899170000 113.9424830000,22.2899690000 113.9422260000,22.2900560000 113.9418050000,22.2902430000 113.9415320000,22.2903660000 113.9413420000,22.2904550000 113.9409860000,22.2906380000 113.9406290000,22.2908420000 113.9399640000,22.2912490000 113.9396760000,22.2914320000 113.9394140000,22.2916240000 113.9393070000,22.2917030000 113.9391580000,22.2917440000 113.9390810000,22.2917440000 113.9390120000,22.2917440000 113.9389150000,22.2917200000 113.9387790000,22.2916500000 113.9374960000,22.2905190000 113.9373860000,22.2903880000 113.9374080000,22.2903140000 113.9373990000,22.2902370000 113.9373620000,22.2901680000 113.9373010000,22.2901160000 113.9372640000,22.2900050000 113.9372550000,22.2899000000 113.9372670000,22.2896300000 113.9372890000,22.2894130000 113.9373230000,22.2891550000 113.9374170000,22.2888560000 113.9375010000,22.2887010000 113.9376430000,22.2885260000 113.9377600000,22.2884110000 113.9378810000,22.2883220000 113.9379820000,22.2882650000 113.9380630000,22.2882210000 113.9381260000,22.2882950000 113.9383680000,22.2885550000 113.9387100000,22.2890850000 113.9388680000,22.2893200000 113.9389850000,22.2894960000 113.9390110000,22.2895360000 113.9390790000,22.2896370000 113.9391960000,22.2898230000 113.9392910000,22.2899620000 113.9393240000,22.2900150000 113.9394650000,22.2902320000 113.9395090000,22.2902940000 113.9395340000,22.2903310000 113.9395700000,22.2903710000 113.9395930000,22.2903960000 113.9396720000,22.2904650000 113.9397700000,22.2905160000 113.9398080000,22.2905290000 113.9399300000,22.2905690000 113.9401140000,22.2905760000 113.9402670000,22.2905720000 113.9404650000,22.2905420000 113.9405920000,22.2904960000 113.9406830000,22.2904550000 113.9407460000,22.2904270000 113.9408850000,22.2903640000 113.9409490000,22.2903350000 113.9412780000,22.2901550000 113.9414300000,22.2900740000 113.9415340000,22.2900070000 113.9415640000,22.2899880000 113.9417370000,22.2898780000 113.9418400000,22.2897480000 113.9419690000,22.2895410000 113.9419950000,22.2894660000 113.9420130000,22.2893830000 113.9420210000,22.2892620000 113.9420280000,22.2891510000 113.9420100000,22.2890430000 113.9419870000,22.2889860000 113.9418970000,22.2888050000 113.9417840000,22.2886370000 113.9416580000,22.2884390000 113.9416520000,22.2883400000 113.9416280000,22.2883060000 113.9415920000,22.2882550000 113.9415230000,22.2881520000 113.9414730000,22.2881240000 113.9414280000,22.2880950000 113.9413870000,22.2880620000 113.9413560000,22.2880290000 113.9412970000,22.2879360000 113.9412690000,22.2878870000 113.9408400000,22.2871780000 113.9406700000,22.2869000000 113.9406670000,22.2868940000 113.9406630000,22.2868880000 113.9406380000,22.2868470000 113.9405790000,22.2867540000 113.9406780000,22.2866830000 113.9407990000,22.2865950000 113.9410460000,22.2863750000 113.9411890000,22.2862470000 113.9413470000,22.2861070000 113.9422270000,22.2853510000 113.9424560000,22.2851500000 113.9426310000,22.2849950000 113.9427920000,22.2848550000 113.9428610000,22.2847950000 113.9430750000,22.2846220000 113.9430010000,22.2845210000 113.9428900000,22.2843640000 113.9421870000,22.2834260000 113.9411130000,22.2820340000 113.9407820000,22.2816540000 113.9402550000,22.2811520000 113.9401890000,22.2810940000 113.9400960000,22.2810140000 113.9399520000,22.2808870000 113.9398320000,22.2807870000 113.9397370000,22.2807080000 113.9396200000,22.2806140000 113.9395600000,22.2805760000 113.9394730000,22.2805200000 113.9394480000,22.2805040000 113.9388650000,22.2801320000 113.9384710000,22.2799150000 113.9380080000,22.2796840000 113.9373830000,22.2794500000 113.9368500000,22.2793030000 113.9362590000,22.2791900000 113.9354330000,22.2790410000 113.9345640000,22.2788980000 113.9339020000,22.2787750000 113.9332370000,22.2786510000 113.9323850000,22.2785050000 113.9319310000,22.2784270000 113.9318830000,22.2784120000 113.9318320000,22.2783770000 113.9317860000,22.2783360000 113.9318050000,22.2780610000 113.9318150000,22.2779220000 113.9318190000,22.2778390000 113.9318240000,22.2776210000 113.9318270000,22.2774810000 113.9318260000,22.2774190000 113.9318250000,22.2773080000 113.9318250000,22.2771980000 113.9317450000,22.2769140000 113.9316230000,22.2766580000 113.9315240000,22.2765240000 113.9315110000,22.2765070000 113.9315000000,22.2764760000 113.9315100000,22.2764320000 113.9315290000,22.2763890000 113.9315820000,22.2763490000 113.9317550000,22.2762600000 113.9318980000,22.2762030000 113.9321420000,22.2761040000 113.9322610000,22.2760540000 113.9322840000,22.2761060000 113.9323720000,22.2762040000 113.9323820000,22.2762450000 113.9323980000,22.2762610000 113.9324540000,22.2762820000 113.9324850000,22.2762840000 113.9325240000,22.2762710000 113.9324850000,22.2762400000 113.9324170000,22.2762130000 113.9323720000,22.2762040000 113.9322840000,22.2761060000 113.9322610000,22.2760540000 113.9321420000,22.2761040000 113.9317550000,22.2762600000 113.9315820000,22.2763490000 113.9315290000,22.2763890000 113.9315100000,22.2764320000 113.9315000000,22.2764760000 113.9315110000,22.2765070000 113.9315240000,22.2765240000 113.9316230000,22.2766580000 113.9317450000,22.2769140000 113.9318250000,22.2771980000 113.9318250000,22.2773080000 113.9318260000,22.2774190000 113.9318270000,22.2774810000 113.9318240000,22.2776210000 113.9318190000,22.2778390000 113.9318150000,22.2779220000 113.9318050000,22.2780610000 113.9317860000,22.2783360000 113.9317770000,22.2783920000 113.9317890000,22.2784680000 113.9317960000,22.2784830000 113.9318140000,22.2785170000 113.9318220000,22.2785290000 113.9318320000,22.2785370000 113.9318430000,22.2785420000 113.9318890000,22.2785620000 113.9332250000,22.2788160000 113.9345390000,22.2790670000 113.9361600000,22.2794230000 113.9362040000,22.2794320000 113.9367490000,22.2795550000 113.9367880000,22.2795670000 113.9372890000,22.2797250000 113.9379040000,22.2799520000 113.9383410000,22.2801570000 113.9387900000,22.2804000000 113.9393080000,22.2807390000 113.9393290000,22.2807540000 113.9394470000,22.2808290000 113.9395590000,22.2809180000 113.9396490000,22.2809900000 113.9397410000,22.2810670000 113.9399000000,22.2812000000 113.9400260000,22.2813050000 113.9401560000,22.2814150000 113.9405520000,22.2818280000 113.9413830000,22.2828880000 113.9422960000,22.2840520000 113.9426160000,22.2844860000 113.9426270000,22.2845950000 113.9426340000,22.2846900000 113.9426190000,22.2847490000 113.9425890000,22.2848520000 113.9421240000,22.2852550000 113.9419330000,22.2854300000 113.9413330000,22.2859620000 113.9413100000,22.2859820000 113.9412550000,22.2860270000 113.9412170000,22.2860560000 113.9409510000,22.2862620000 113.9406670000,22.2864940000 113.9405970000,22.2865450000 113.9405760000,22.2865600000 113.9405400000,22.2865840000 113.9404880000,22.2866190000 113.9396930000,22.2871010000 113.9392550000,22.2873310000 113.9387340000,22.2876320000 113.9383310000,22.2878860000 113.9382980000,22.2879080000 113.9382960000,22.2879100000 113.9381970000,22.2879670000 113.9380800000,22.2880430000 113.9379720000,22.2881060000 113.9377330000,22.2882640000 113.9375620000,22.2884380000 113.9374300000,22.2886140000 113.9373740000,22.2887190000 113.9372930000,22.2888810000 113.9372440000,22.2890120000 113.9372080000,22.2891280000 113.9371890000,22.2893020000 113.9371720000,22.2895390000 113.9371140000,22.2898950000 113.9370960000,22.2900050000 113.9370440000,22.2901210000 113.9369990000,22.2901590000 113.9369670000,22.2902070000 113.9369460000,22.2902780000 113.9369530000,22.2903510000 113.9369860000,22.2904170000 113.9370410000,22.2904700000 113.9371370000,22.2905080000 113.9372410000,22.2905030000 113.9372790000,22.2905270000 113.9373390000,22.2905510000 113.9374250000,22.2906060000 113.9375620000,22.2907170000 113.9380770000,22.2912020000 113.9388980000,22.2920150000 113.9390490000,22.2921390000 113.9394550000,22.2925230000 113.9395750000,22.2925730000 113.9395920000,22.2925760000 113.9396650000,22.2925760000 113.9397220000,22.2925680000 113.9398140000,22.2924820000 113.9398330000,22.2923850000 113.9398500000,22.2923110000 113.9398990000,22.2922490000 113.9399320000,22.2921680000 113.9400020000,22.2920170000 113.9400780000,22.2918790000 113.9401750000,22.2917680000 113.9402830000,22.2916700000 113.9403450000,22.2916180000 113.9405030000,22.2914960000 113.9408170000,22.2912790000 113.9412480000,22.2909950000 113.9414840000,22.2908480000 113.9417500000,22.2906860000 113.9421160000,22.2904900000 113.9424990000,22.2902950000 113.9427230000,22.2901940000 113.9432890000,22.2899710000 113.9440050000,22.2897220000 113.9445240000,22.2896210000 113.9449220000,22.2895610000 113.9455030000,22.2895030000 113.9459200000,22.2894860000 113.9463230000,22.2894810000 113.9468520000,22.2894990000 113.9473740000,22.2895500000 113.9478450000,22.2896190000 113.9482740000,22.2897030000 113.9486710000,22.2898030000 113.9491390000,22.2899470000 113.9495790000,22.2901040000 113.9500170000,22.2902940000 113.9504160000,22.2905100000 113.9508250000,22.2907660000 113.9511440000,22.2909890000 113.9514100000,22.2911870000 113.9517590000,22.2914840000 113.9520180000,22.2917120000 113.9522680000,22.2919420000 113.9527780000,22.2924680000 113.9531720000,22.2928820000 113.9534390000,22.2931600000 113.9537750000,22.2935030000 113.9541670000,22.2938580000 113.9545370000,22.2941730000 113.9548740000,22.2944520000 113.9552060000,22.2947120000 113.9554890000,22.2949220000 113.9557400000,22.2950960000 113.9560230000,22.2952790000 113.9566790000,22.2956560000 113.9572090000,22.2959450000 113.9577490000,22.2961950000 113.9582250000,22.2964030000 113.9587420000,22.2966140000 113.9595180000,22.2968860000 113.9602780000,22.2971090000 113.9608980000,22.2972520000 113.9649120000,22.2981400000 113.9677100000,22.2987600000 113.9680060000,22.2988330000 113.9689400000,22.2990560000 113.9698420000,22.2992600000 113.9704600000,22.2994310000 113.9709990000,22.2995910000 113.9715350000,22.2997640000 113.9722070000,22.3000200000 113.9730740000,22.3003880000 113.9743050000,22.3009830000 113.9751620000,22.3014060000 113.9756680000,22.3016600000 113.9765470000,22.3020970000 113.9768670000,22.3022560000 113.9777920000,22.3027660000 113.9778330000,22.3027900000 113.9781750000,22.3029810000 113.9784290000,22.3031240000 113.9785320000,22.3031850000 113.9794260000,22.3037130000 113.9799170000,22.3040230000 113.9800750000,22.3041220000 113.9816160000,22.3050930000 113.9843200000,22.3067900000 113.9849640000,22.3071960000 113.9850400000,22.3072450000 113.9856060000,22.3075890000 113.9877310000,22.3088640000 113.9889150000,22.3095420000 113.9925320000,22.3116130000 113.9928940000,22.3118400000 113.9932800000,22.3121080000 113.9935900000,22.3123250000 113.9936540000,22.3123690000 113.9939850000,22.3126240000 113.9943640000,22.3129400000 113.9944820000,22.3130400000 113.9947170000,22.3132380000 113.9948820000,22.3133840000 113.9950160000,22.3135030000 113.9950710000,22.3135560000 113.9953880000,22.3138680000 113.9956090000,22.3141060000 113.9958140000,22.3143200000 113.9960710000,22.3146170000 113.9963520000,22.3149690000 113.9965180000,22.3151920000 113.9967760000,22.3155490000 113.9969850000,22.3158460000 113.9971800000,22.3161470000 113.9973750000,22.3164580000 113.9975970000,22.3168140000 113.9976390000,22.3168830000 113.9978800000,22.3172650000 113.9979170000,22.3173200000 113.9981960000,22.3177340000 113.9984880000,22.3181120000 113.9988430000,22.3185050000 113.9990980000,22.3187760000 113.9994070000,22.3190820000 114.0000590000,22.3196040000 114.0003390000,22.3198090000 114.0005530000,22.3199570000 114.0008490000,22.3201550000 114.0011770000,22.3203390000 114.0014940000,22.3205080000 114.0018710000,22.3206920000 114.0022100000,22.3208580000 114.0029710000,22.3212190000 114.0094760000,22.3241070000 114.0099360000,22.3243000000 114.0104040000,22.3244760000 114.0109520000,22.3246520000 114.0120140000,22.3249200000 114.0125020000,22.3250130000 114.0129320000,22.3250750000 114.0134220000,22.3251330000 114.0140090000,22.3251710000 114.0146250000,22.3251850000 114.0151410000,22.3251750000 114.0157440000,22.3251400000 114.0179320000,22.3249830000 114.0184860000,22.3249840000 114.0189250000,22.3250100000 114.0194170000,22.3250510000 114.0198900000,22.3251030000 114.0202650000,22.3251710000 114.0207940000,22.3252890000 114.0213080000,22.3254290000 114.0218170000,22.3256010000 114.0225660000,22.3258960000 114.0230280000,22.3261070000 114.0235650000,22.3263960000 114.0237450000,22.3265060000 114.0238250000,22.3265550000 114.0239050000,22.3266040000 114.0242030000,22.3267940000 114.0243490000,22.3268920000 114.0246170000,22.3270780000 114.0247720000,22.3271940000 114.0254040000,22.3277460000 114.0260390000,22.3283460000 114.0264750000,22.3287670000 114.0282150000,22.3304640000 114.0298050000,22.3319760000 114.0304390000,22.3325750000 114.0308620000,22.3329980000 114.0312130000,22.3333890000 114.0317050000,22.3338540000 114.0323360000,22.3344360000 114.0327820000,22.3348390000 114.0333080000,22.3352490000 114.0338440000,22.3355960000 114.0342190000,22.3358170000 114.0344620000,22.3359510000 114.0347660000,22.3361070000 114.0350550000,22.3362460000 114.0353690000,22.3363980000 114.0363300000,22.3367570000 114.0366680000,22.3368420000 114.0370670000,22.3369350000 114.0375160000,22.3370150000 114.0380120000,22.3371160000 114.0384510000,22.3372100000 114.0388380000,22.3373170000 114.0392890000,22.3374640000 114.0397330000,22.3376370000 114.0403480000,22.3379370000 114.0409590000,22.3382530000 114.0429330000,22.3394340000 114.0430990000,22.3395140000 114.0438770000,22.3398890000 114.0444670000,22.3401500000 114.0448700000,22.3403100000 114.0450310000,22.3403730000 114.0451330000,22.3404040000 114.0452000000,22.3404250000 114.0452020000,22.3404260000 114.0457530000,22.3405940000 114.0460570000,22.3406770000 114.0466800000,22.3408170000 114.0473730000,22.3409100000 114.0482450000,22.3409950000 114.0487620000,22.3410670000 114.0496140000,22.3411750000 114.0500720000,22.3412490000 114.0504120000,22.3413120000 114.0508330000,22.3414360000 114.0511730000,22.3415610000 114.0514230000,22.3416710000 114.0516610000,22.3417990000 114.0518850000,22.3419290000 114.0520460000,22.3420240000 114.0524520000,22.3422840000 114.0584460000,22.3461890000 114.0587520000,22.3463840000 114.0590690000,22.3465800000 114.0594270000,22.3467830000 114.0597930000,22.3469780000 114.0601590000,22.3471560000 114.0605560000,22.3473310000 114.0609450000,22.3474910000 114.0613390000,22.3476360000 114.0617410000,22.3477700000 114.0621400000,22.3478920000 114.0628380000,22.3480920000 114.0785450000,22.3524280000 114.0800560000,22.3528590000 114.0806780000,22.3530320000 114.0814770000,22.3532650000 114.0816040000,22.3532920000 114.0817210000,22.3533120000 114.0825170000,22.3535330000 114.0828120000,22.3536060000 114.0830890000,22.3536680000 114.0833790000,22.3537220000 114.0836560000,22.3537580000 114.0838530000,22.3537790000 114.0840840000,22.3537810000 114.0843130000,22.3537680000 114.0845380000,22.3537330000 114.0846670000,22.3537130000 114.0847690000,22.3536900000 114.0848720000,22.3536620000 114.0849580000,22.3536350000 114.0850390000,22.3536080000 114.0851290000,22.3535780000 114.0852740000,22.3535130000 114.0855330000,22.3533870000 114.0857800000,22.3532700000 114.0860230000,22.3531440000 114.0862540000,22.3529910000 114.0863520000,22.3529080000 114.0864480000,22.3528090000 114.0865400000,22.3526940000 114.0866790000,22.3524530000 114.0867420000,22.3522850000 114.0868130000,22.3520210000 114.0869000000,22.3515320000 114.0869390000,22.3512990000 114.0869880000,22.3510740000 114.0870970000,22.3506830000 114.0871110000,22.3505910000 114.0871300000,22.3504650000 114.0871770000,22.3501490000 114.0871840000,22.3501050000 114.0873720000,22.3493900000 114.0873850000,22.3493210000 114.0874730000,22.3488690000 114.0874870000,22.3487930000 114.0875280000,22.3486700000 114.0876060000,22.3484580000 114.0876470000,22.3483500000 114.0877000000,22.3482120000 114.0878300000,22.3479380000 114.0879940000,22.3476390000 114.0881250000,22.3474620000 114.0882400000,22.3473590000 114.0883470000,22.3472640000 114.0885020000,22.3471250000 114.0885890000,22.3470470000 114.0891520000,22.3465960000 114.0892520000,22.3465380000 114.0893170000,22.3465010000 114.0894580000,22.3464220000 114.0895440000,22.3463710000 114.0896600000,22.3463030000 114.0898570000,22.3462060000 114.0904080000,22.3459230000 114.0909510000,22.3456540000 114.0913290000,22.3454850000 114.0917140000,22.3453370000 114.0921490000,22.3451970000 114.0926200000,22.3450830000 114.0931040000,22.3449910000 114.0933720000,22.3449670000 114.0939110000,22.3449370000 114.0941740000,22.3449370000 114.0952440000,22.3449500000 114.0957200000,22.3449460000 114.1004000000,22.3449930000 114.1010700000,22.3450180000 114.1014000000,22.3450400000 114.1017300000,22.3450680000 114.1020600000,22.3451030000 114.1023900000,22.3451480000 114.1030400000,22.3452500000 114.1033000000,22.3453000000 114.1035300000,22.3453500000 114.1037300000,22.3453950000 114.1038810000,22.3454310000 114.1040300000,22.3454700000 114.1042020000,22.3455180000 114.1043800000,22.3455700000 114.1046900000,22.3456680000 114.1049680000,22.3457620000 114.1051600000,22.3458300000 114.1053500000,22.3459000000 114.1056800000,22.3460270000 114.1060000000,22.3461600000 114.1066070000,22.3464420000 114.1092280000,22.3478020000 114.1094000000,22.3478900000 114.1094990000,22.3479370000 114.1095990000,22.3479820000 114.1098100000,22.3480700000 114.1100000000,22.3481490000 114.1103700000,22.3483000000 114.1107080000,22.3484390000 114.1112560000,22.3486440000 114.1114010000,22.3486980000 114.1121940000,22.3489990000 114.1150360000,22.3500680000 114.1152660000,22.3501660000 114.1155460000,22.3503070000 114.1158280000,22.3504570000 114.1160890000,22.3506120000 114.1163380000,22.3507780000 114.1166890000,22.3510310000 114.1170420000,22.3512980000 114.1174180000,22.3515670000 114.1177500000,22.3517760000 114.1179500000,22.3518880000 114.1181630000,22.3519900000 114.1185390000,22.3521520000 114.1187440000,22.3522270000 114.1189890000,22.3523010000 114.1192310000,22.3523660000 114.1195060000,22.3524250000 114.1197310000,22.3524620000 114.1199660000,22.3524930000 114.1203430000,22.3525160000 114.1207100000,22.3525140000 114.1211680000,22.3524720000 114.1214580000,22.3524280000 114.1216780000,22.3523900000 114.1217840000,22.3523650000 114.1219810000,22.3522960000 114.1220880000,22.3522570000 114.1221670000,22.3522230000 114.1226290000,22.3520200000 114.1228980000,22.3518990000 114.1232400000,22.3516400000 114.1234320000,22.3514950000 114.1237280000,22.3512190000 114.1239480000,22.3509410000 114.1241480000,22.3506360000 114.1243000000,22.3503120000 114.1244440000,22.3499020000 114.1244990000,22.3496360000 114.1245500000,22.3491470000 114.1245370000,22.3484120000 114.1245330000,22.3480180000 114.1245490000,22.3476170000 114.1246060000,22.3472410000 114.1246110000,22.3472070000 114.1246230000,22.3471590000 114.1246360000,22.3471070000 114.1246480000,22.3470550000 114.1246730000,22.3469520000 114.1247110000,22.3468180000 114.1247390000,22.3467160000 114.1247610000,22.3466370000 114.1247850000,22.3465690000 114.1248130000,22.3464960000 114.1248340000,22.3464420000 114.1249030000,22.3462770000 114.1250230000,22.3459890000 114.1251600000,22.3457430000 114.1252280000,22.3456200000 114.1254330000,22.3453410000 114.1256160000,22.3450810000 114.1258790000,22.3448160000 114.1260740000,22.3446340000 114.1262650000,22.3444920000 114.1264800000,22.3443300000 114.1269240000,22.3440300000 114.1270200000,22.3439790000 114.1271090000,22.3439320000 114.1271840000,22.3438920000 114.1272820000,22.3438400000 114.1276470000,22.3436840000 114.1278970000,22.3435720000 114.1281270000,22.3434690000 114.1283770000,22.3433460000 114.1286560000,22.3432050000 114.1289710000,22.3430190000 114.1291870000,22.3428750000 114.1294020000,22.3427320000 114.1295670000,22.3426040000 114.1297310000,22.3424680000 114.1298900000,22.3423150000 114.1301370000,22.3420730000 114.1303630000,22.3417950000 114.1304050000,22.3417270000 114.1304940000,22.3415860000 114.1306050000,22.3414080000 114.1306680000,22.3413080000 114.1307450000,22.3411650000 114.1307910000,22.3410810000 114.1308490000,22.3409740000 114.1310190000,22.3406270000 114.1311190000,22.3404140000 114.1311910000,22.3402610000 114.1314770000,22.3396800000 114.1315870000,22.3394560000 114.1316710000,22.3392680000 114.1316840000,22.3392360000 114.1318380000,22.3388760000 114.1319550000,22.3386180000 114.1320070000,22.3385160000 114.1320500000,22.3384340000 114.1322000000,22.3381400000 114.1324040000,22.3378060000 114.1326480000,22.3374240000 114.1328610000,22.3371230000 114.1331790000,22.3367280000 114.1333570000,22.3365230000 114.1336230000,22.3362450000 114.1337460000,22.3361190000 114.1343320000,22.3356020000 114.1345050000,22.3354580000 114.1346320000,22.3353540000 114.1349080000,22.3351570000 114.1351140000,22.3350120000 114.1353150000,22.3348710000 114.1354560000,22.3347710000 114.1355370000,22.3347190000 114.1357120000,22.3346060000 114.1360310000,22.3344250000 114.1363260000,22.3342690000 114.1366140000,22.3341310000 114.1369430000,22.3339880000 114.1373830000,22.3338160000 114.1378110000,22.3336600000 114.1395900000,22.3330030000 114.1398300000,22.3329510000 114.1403410000,22.3328320000 114.1404170000,22.3328110000 114.1407680000,22.3327140000 114.1409930000,22.3326420000 114.1411400000,22.3325900000 114.1413060000,22.3325270000 114.1415590000,22.3324200000 114.1417200000,22.3323290000 114.1420600000,22.3321900000 114.1421160000,22.3321670000 114.1424750000,22.3320140000 114.1441310000,22.3314010000 114.1444610000,22.3312770000 114.1445550000,22.3312370000 114.1452410000,22.3309720000 114.1463780000,22.3305080000 114.1469190000,22.3303140000 114.1473950000,22.3301400000 114.1478570000,22.3299480000 114.1485500000,22.3297040000 114.1490120000,22.3295020000 114.1497570000,22.3291370000 114.1501000000,22.3289550000 114.1503960000,22.3287860000 114.1507410000,22.3285760000 114.1520550000,22.3277150000 114.1526590000,22.3272860000 114.1531820000,22.3269000000 114.1537150000,22.3264900000 114.1539540000,22.3262910000 114.1542690000,22.3260350000 114.1546560000,22.3256860000 114.1550120000,22.3253750000 114.1552850000,22.3251110000 114.1556570000,22.3247580000 114.1560600000,22.3243000000 114.1567060000,22.3235550000 114.1567520000,22.3235150000 114.1569030000,22.3233830000 114.1569720000,22.3233230000 114.1572730000,22.3230010000 114.1574360000,22.3228130000 114.1576530000,22.3225520000 114.1580220000,22.3221070000 114.1580680000,22.3220630000 114.1581700000,22.3219870000 114.1582200000,22.3219810000 114.1582590000,22.3219700000 114.1583160000,22.3219400000 114.1583570000,22.3219130000 114.1583970000,22.3218760000 114.1584140000,22.3218570000 114.1584410000,22.3218140000 114.1584650000,22.3217670000 114.1584820000,22.3217270000 114.1584940000,22.3216870000 114.1584960000,22.3216570000 114.1584930000,22.3216280000 114.1584500000,22.3215380000 114.1584210000,22.3214930000 114.1583760000,22.3214320000 114.1583260000,22.3213770000 114.1582680000,22.3213240000 114.1582230000,22.3212850000 114.1581720000,22.3212500000 114.1581150000,22.3212190000 114.1580530000,22.3211960000 114.1579720000,22.3211750000 114.1578790000,22.3211570000 114.1578560000,22.3211540000 114.1578100000,22.3211500000 114.1577590000,22.3211490000 114.1576940000,22.3211590000 114.1576770000,22.3211640000 114.1576610000,22.3211710000 114.1575900000,22.3211630000 114.1575140000,22.3211520000 114.1574230000,22.3211420000 114.1573210000,22.3211060000 114.1572090000,22.3210340000 114.1570940000,22.3209220000 114.1569690000,22.3207790000 114.1569080000,22.3207080000 114.1568580000,22.3206500000 114.1568170000,22.3205700000 114.1567450000,22.3204290000 114.1566950000,22.3203330000 114.1566500000,22.3201960000 114.1566010000,22.3200100000 114.1565880000,22.3199060000 114.1565880000,22.3198580000 114.1565930000,22.3197090000 114.1566130000,22.3195830000 114.1566440000,22.3194280000 114.1566810000,22.3192890000 114.1567160000,22.3191610000 114.1567510000,22.3190020000 114.1567850000,22.3187920000 114.1567900000,22.3187140000 114.1568000000,22.3185440000 114.1568000000,22.3185410000 114.1568060000,22.3183010000 114.1568040000,22.3182010000 114.1568030000,22.3181780000 114.1567980000,22.3177600000 114.1567990000,22.3177020000 114.1568050000,22.3176480000 114.1568180000,22.3175930000 114.1568430000,22.3175270000 114.1568900000,22.3175100000 114.1569300000,22.3174830000 114.1570690000,22.3174430000 114.1571390000,22.3174440000 114.1579100000,22.3174380000 114.1581800000,22.3174250000 114.1585600000,22.3174030000 114.1587100000,22.3174000000 114.1594410000,22.3173960000 114.1598620000,22.3174440000 114.1602280000,22.3175040000 114.1603370000,22.3175340000 114.1605870000,22.3176100000 114.1609180000,22.3176960000 114.1614630000,22.3178940000 114.1618970000,22.3180710000 114.1619690000,22.3181200000 114.1620620000,22.3181970000 114.1621140000,22.3182630000 114.1621480000,22.3183170000 114.1621740000,22.3183570000 114.1622710000,22.3184730000 114.1622710000,22.3185320000 114.1622790000,22.3185900000 114.1622950000,22.3186470000 114.1623190000,22.3187010000 114.1623490000,22.3187530000 114.1623860000,22.3188000000 114.1624300000,22.3188430000 114.1624780000,22.3188800000 114.1625320000,22.3189120000 114.1625890000,22.3189370000 114.1626490000,22.3189560000 114.1627110000,22.3189670000 114.1627750000,22.3189710000 114.1628380000,22.3189680000 114.1629430000,22.3189030000 114.1630570000,22.3188130000 114.1632460000,22.3187440000 114.1633040000,22.3187260000 114.1633650000,22.3187200000 114.1634950000,22.3187230000 114.1637400000,22.3187300000 114.1644730000,22.3187520000 114.1651210000,22.3187700000 114.1652530000,22.3187740000 114.1654870000,22.3187810000 114.1654560000,22.3189430000 114.1652330000,22.3200960000 114.1656100000,22.3201580000 114.1656460000,22.3201660000 114.1657600000,22.3201830000 114.1659070000,22.3202160000 114.1659160000,22.3202170000 114.1659660000,22.3202600000 114.1659910000,22.3202650000 114.1660560000,22.3202780000 114.1661590000,22.3202940000 114.1663640000,22.3203240000 114.1667410000,22.3203920000 114.1669000000,22.3204200000 114.1672280000,22.3204820000 114.1672690000,22.3204890000 114.1673590000,22.3205500000 114.1676930000,22.3206100000 114.1677170000,22.3206140000 114.1677920000,22.3206260000 114.1679060000,22.3206450000 114.1680890000,22.3206760000 114.1682360000,22.3207000000 114.1683060000,22.3207120000 114.1683320000,22.3207160000 114.1684150000,22.3207300000 114.1684760000,22.3207390000 114.1686900000,22.3207710000 114.1688560000,22.3207970000 114.1688960000,22.3208030000 114.1690010000,22.3208190000 114.1691070000,22.3208330000 114.1691930000,22.3208490000 114.1692930000,22.3208660000 114.1695650000,22.3209200000 114.1696760000,22.3208810000 114.1696830000,22.3208300000 114.1697390000,22.3205510000 114.1697660000,22.3204200000 114.1697770000,22.3203660000 114.1698170000,22.3202010000 114.1698560000,22.3200280000 114.1699060000,22.3197850000 114.1699200000,22.3197130000 114.1699510000,22.3196460000 114.1699680000,22.3195820000 114.1699770000,22.3195490000 114.1700030000,22.3195240000 114.1700350000,22.3195080000 114.1700710000,22.3195020000 114.1701000000,22.3195070000 114.1705470000,22.3195840000 114.1709810000,22.3196700000 114.1710810000,22.3196890000 114.1714280000,22.3197560000 114.1714900000,22.3197670000 114.1715990000,22.3197880000 114.1716880000,22.3198050000 114.1724730000,22.3199590000 114.1725920000,22.3199820000 114.1727390000,22.3200050000 114.1732990000,22.3200840000 114.1736340000,22.3201460000 114.1737730000,22.3201700000 114.1737960000,22.3201740000 114.1738780000,22.3201890000 114.1740500000,22.3202220000 114.1742060000,22.3202510000 114.1743330000,22.3202760000 114.1746660000,22.3203390000 114.1746920000,22.3203440000 114.1752490000,22.3204490000 114.1755390000,22.3205300000 114.1758230000,22.3206020000 114.1761360000,22.3207140000 114.1765690000,22.3208790000 114.1769270000,22.3210150000 114.1771050000,22.3210840000 114.1771560000,22.3211090000 114.1772210000,22.3211420000 114.1774330000,22.3212670000 114.1775490000,22.3213340000 114.1775770000,22.3213490000 114.1776990000,22.3214010000 114.1779370000,22.3215210000 114.1779910000,22.3215490000 114.1781930000,22.3216490000 114.1782500000,22.3216760000 114.1783730000,22.3217350000 114.1787630000,22.3219110000 114.1788620000,22.3219530000 114.1789390000,22.3219850000 114.1789510000,22.3219900000 114.1789780000,22.3220020000 114.1790500000,22.3220330000 114.1790870000,22.3220490000 114.1791120000,22.3220590000 114.1791270000,22.3220660000 114.1791980000,22.3220960000 114.1792570000,22.3221230000 114.1794580000,22.3222170000 114.1795210000,22.3222460000 114.1795620000,22.3222660000 114.1797600000,22.3223630000 114.1798060000,22.3223850000 114.1800870000,22.3225220000 114.1800990000,22.3225280000 114.1801850000,22.3225700000 114.1805470000,22.3226810000 114.1814350000,22.3230860000 114.1814730000,22.3231040000 114.1832080000,22.3239020000 114.1834150000,22.3239950000 114.1835540000,22.3240580000 114.1836020000,22.3240800000 114.1836640000,22.3241070000 114.1838870000,22.3242090000 114.1843340000,22.3244210000 114.1850040000,22.3247160000 114.1854710000,22.3249280000 114.1855090000,22.3249450000 114.1856430000,22.3250130000 114.1857740000,22.3250880000 114.1859310000,22.3251820000 114.1861450000,22.3253030000 114.1867510000,22.3256670000 114.1868280000,22.3257130000 114.1869240000,22.3257690000 114.1870380000,22.3258360000 114.1871470000,22.3259010000 114.1872550000,22.3259640000 114.1874720000,22.3260910000 114.1876580000,22.3261930000 114.1876840000,22.3262100000 114.1877950000,22.3262780000 114.1882680000,22.3264990000 114.1883780000,22.3265610000 114.1890660000,22.3269280000 114.1892870000,22.3270440000 114.1895120000,22.3271520000 114.1897400000,22.3272550000 114.1899720000,22.3273500000 114.1902070000,22.3274390000 114.1909700000,22.3277410000 114.1911940000,22.3278860000 114.1913320000,22.3279760000 114.1914350000,22.3280580000 114.1915460000,22.3281250000 114.1915900000,22.3282210000 114.1917150000,22.3283260000 114.1918480000,22.3284390000 114.1919310000,22.3285090000 114.1920190000,22.3285830000 114.1920990000,22.3286510000 114.1921880000,22.3287260000 114.1922850000,22.3288080000 114.1923800000,22.3288890000 114.1924150000,22.3289200000 114.1924530000,22.3289530000 114.1925510000,22.3290440000 114.1927360000,22.3292140000 114.1927920000,22.3292650000 114.1928850000,22.3293380000 114.1929200000,22.3293720000 114.1942640000,22.3306620000 114.1954070000,22.3318070000 114.1955660000,22.3319550000 114.1957650000,22.3321480000 114.1958980000,22.3323650000 114.1959370000,22.3324700000 114.1959610000,22.3325950000 114.1959430000,22.3327310000 114.1958640000,22.3328640000 114.1958060000,22.3329410000 114.1957900000,22.3329540000 114.1956700000,22.3330610000 114.1954750000,22.3332880000 114.1952930000,22.3334800000 114.1951930000,22.3335700000 114.1950430000,22.3337240000 114.1948560000,22.3338960000 114.1948280000,22.3339260000 114.1945280000,22.3342050000 114.1943770000,22.3343610000 114.1942740000,22.3344870000 114.1941950000,22.3346080000 114.1941370000,22.3347970000 114.1941160000,22.3349350000 114.1941360000,22.3352300000 114.1941680000,22.3354240000 114.1942660000,22.3357100000 114.1943850000,22.3359610000 114.1944990000,22.3361490000 114.1950150000,22.3368680000 114.1950630000,22.3369330000 114.1952420000,22.3371760000 114.1959800000,22.3381780000 114.1961240000,22.3383740000 114.1962030000,22.3384700000 114.1962630000,22.3385410000 114.1963140000,22.3386120000 114.1963920000,22.3386740000 114.1965520000,22.3388160000 114.1968120000,22.3389870000 114.1969970000,22.3390780000 114.1971700000,22.3391460000 114.1973870000,22.3392250000 114.1974900000,22.3392610000 114.1975960000,22.3393060000 114.1977100000,22.3393840000 114.1977880000,22.3394510000 114.1978280000,22.3394930000 114.1978620000,22.3395300000 114.1979070000,22.3395780000 114.1979640000,22.3396500000 114.1979970000,22.3396930000 114.1980380000,22.3397650000 114.1980660000,22.3398230000 114.1981090000,22.3399530000 114.1981470000,22.3401050000 114.1982180000,22.3405930000 114.1982210000,22.3406150000 114.1982320000,22.3406880000 114.1983260000,22.3412300000 114.1983620000,22.3414140000 114.1984290000,22.3417740000 114.1984530000,22.3419030000 114.1984930000,22.3421160000 114.1985120000,22.3422230000 114.1985150000,22.3422430000 114.1985230000,22.3422880000 114.1985210000,22.3424130000 114.1985440000,22.3426340000 114.1985820000,22.3428480000 114.1986130000,22.3430310000 114.1986380000,22.3431710000 114.1986780000,22.3432480000 114.1987770000,22.3432330000 114.1988860000,22.3432200000 114.1997560000,22.3431150000 114.2001490000,22.3430680000 114.2005430000,22.3430070000 114.2006090000,22.3429940000 114.2006510000,22.3429840000 114.2007500000,22.3429330000 114.2008290000,22.3429130000 114.2009470000,22.3428780000 114.2010300000,22.3428490000 114.2011430000,22.3427980000 114.2012620000,22.3427440000 114.2013990000,22.3426820000 114.2016590000,22.3425640000 114.2018000000,22.3424880000 114.2019250000,22.3424170000 114.2020470000,22.3423410000 114.2023430000,22.3421160000 114.2026220000,22.3417790000 114.2026220000,22.3417790000 114.2028020000,22.3414280000 114.2028400000,22.3413580000 114.2030710000,22.3409370000 114.2032200000,22.3407590000 114.2033830000,22.3406050000 114.2035000000,22.3405260000 114.2035550000,22.3404890000 114.2035720000,22.3404770000 114.2036320000,22.3404410000 114.2037670000,22.3403580000 114.2041030000,22.3401740000 114.2041880000,22.3401270000 114.2042440000,22.3400960000 114.2042690000,22.3400820000 114.2043130000,22.3400580000 114.2043860000,22.3400200000 114.2044050000,22.3400080000 114.2047300000,22.3398400000 114.2051070000,22.3396540000 114.2052370000,22.3395990000 114.2054560000,22.3395740000 114.2057020000,22.3395670000 114.2057310000,22.3395670000 114.2058570000,22.3395460000 114.2059740000,22.3394970000 114.2062360000,22.3394050000 114.2063600000,22.3393810000 114.2064270000,22.3393810000 114.2064910000,22.3393650000 114.2066510000,22.3393410000 114.2067290000,22.3393430000 114.2068020000,22.3393580000 114.2068810000,22.3393820000 114.2070130000,22.3394360000 114.2071180000,22.3395270000 114.2073050000,22.3397050000 114.2076500000,22.3400330000 114.2076760000,22.3400570000 114.2077810000,22.3401550000 114.2078380000,22.3402100000 114.2082160000,22.3405480000 114.2083100000,22.3406450000 114.2083760000,22.3407400000 114.2084150000,22.3408330000 114.2084430000,22.3409130000 114.2084710000,22.3411120000 114.2084670000,22.3412070000 114.2084490000,22.3412860000 114.2082190000,22.3419620000 114.2078160000,22.3431150000 114.2077420000,22.3433450000 114.2075530000,22.3439510000 114.2075410000,22.3439950000 114.2074690000,22.3442240000 114.2073910000,22.3443900000 114.2072310000,22.3445610000 114.2066270000,22.3452070000 114.2064590000,22.3453860000 114.2063620000,22.3454900000 114.2062100000,22.3456410000 114.2060910000,22.3457580000 114.2060640000,22.3457850000 114.2059310000,22.3458970000 114.2058200000,22.3459750000 114.2057620000,22.3460210000 114.2055300000,22.3461710000 114.2052410000,22.3463130000 114.2051070000,22.3463610000 114.2050490000,22.3463790000 114.2048710000,22.3464360000 114.2046360000,22.3464810000 114.2044160000,22.3465140000 114.2041780000,22.3465270000 114.2041860000,22.3467970000 114.2041950000,22.3471140000 114.2042090000,22.3478650000 114.2042100000,22.3479220000 114.2042120000,22.3480790000 114.2042080000,22.3481810000 114.2041890000,22.3482690000 114.2041590000,22.3483360000 114.2041290000,22.3483910000 114.2040690000,22.3484520000 114.2039950000,22.3485080000 114.2038760000,22.3485580000 114.2037050000,22.3485870000 114.2031160000,22.3486200000 114.2030250000,22.3486250000 114.2029450000,22.3486310000 114.2028470000,22.3486390000 114.2026900000,22.3486620000 114.2025700000,22.3486910000 114.2024750000,22.3487320000 114.2023590000,22.3488140000 114.2022430000,22.3489310000 114.2022180000,22.3489760000 114.2019650000,22.3494250000 114.2019150000,22.3494920000 114.2018400000,22.3495940000 114.2016470000,22.3497710000 114.2015140000,22.3498750000 114.2014490000,22.3499250000 114.2013140000,22.3500090000 114.2011720000,22.3500940000 114.2010780000,22.3501410000 114.2008990000,22.3502140000 114.2002380000,22.3504360000 114.1997020000,22.3506260000 114.1995240000,22.3506860000 114.1993260000,22.3507520000 114.1992340000,22.3507830000 114.1991120000,22.3508190000 114.1989970000,22.3508410000 114.1988380000,22.3508580000 114.1987230000,22.3508600000 114.1985850000,22.3508580000 114.1985200000,22.3508500000 114.1985090000,22.3508810000 114.1985030000,22.3508960000 114.1984940000,22.3509220000 114.1984700000,22.3509640000 114.1983670000,22.3510990000 114.1983450000,22.3511150000 114.1983200000,22.3511260000 114.1982930000,22.3511250000</coordinates>
                </LineString>
                <ExtendedData>
                    <Data name="duration">
                        <value>01:21:49</value>
                    </Data>
                    <Data name="length">
                        <value>80340.69507837684</value>
                    </Data>
                </ExtendedData>
            </Placemark>
        </Document>
    </Document>
</kml>