<?xml version="1.0" encoding="UTF-8"?>
<kml xmlns="http://www.opengis.net/kml/2.2" xmlns:gx="http://www.google.com/kml/ext/2.2">
    <Document>
        <name>Route</name>
        <Folder>
            <name>Route Request</name>
            <Placemark>
                <Point>
                    <coordinates>114.2026633561,22.2935705602</coordinates>
                </Point>
                <ExtendedData>
                    <Data name="routingVisited">
                        <value>false</value>
                    </Data>
                </ExtendedData>
            </Placemark>
            <Placemark>
                <Point>
                    <coordinates>114.1903618846,22.2808376462</coordinates>
                </Point>
            </Placemark>
            <Placemark>
                <Point>
                    <coordinates>114.1686400741,22.2806318092</coordinates>
                </Point>
            </Placemark>
            <Placemark>
                <Point>
                    <coordinates>114.1539835393,22.2867569354</coordinates>
                </Point>
                <ExtendedData>
                    <Data name="routingVisited">
                        <value>false</value>
                    </Data>
                </ExtendedData>
            </Placemark>
            <Placemark>
                <Point>
                    <coordinates>113.9390356145,22.2916277241</coordinates>
                </Point>
            </Placemark>
            <Placemark>
                <Point>
                    <coordinates>113.9417669689,22.2897017085</coordinates>
                </Point>
            </Placemark>
            <Placemark>
                <Point>
                    <coordinates>113.9543206404,22.2971849668</coordinates>
                </Point>
                <ExtendedData>
                    <Data name="routingVisited">
                        <value>false</value>
                    </Data>
                </ExtendedData>
            </Placemark>
            <Placemark>
                <Point>
                    <coordinates>113.9383290570,22.2878453192</coordinates>
                </Point>
            </Placemark>
            <Placemark>
                <Point>
                    <coordinates>113.9397737700,22.2924542161</coordinates>
                </Point>
            </Placemark>
            <Placemark>
                <Point>
                    <coordinates>114.1575142180,22.2870735179</coordinates>
                </Point>
            </Placemark>
            <Placemark>
                <Point>
                    <coordinates>114.1908016074,22.2815347860</coordinates>
                </Point>
                <ExtendedData>
                    <Data name="routingVisited">
                        <value>false</value>
                    </Data>
                </ExtendedData>
            </Placemark>
            <Placemark>
                <Point>
                    <coordinates>114.2026338282,22.2935705631</coordinates>
                </Point>
                <ExtendedData>
                    <Data name="routingVisited">
                        <value>false</value>
                    </Data>
                </ExtendedData>
            </Placemark>
        </Folder>
        <Document>
            <name>88.4 km; 01:28 h (OSRM)</name>
            <Placemark>
                <name>Route</name>
                <LineString>
                    <coordinates>114.2026750000,22.2935730000 114.2027040000,22.2933930000 114.2027200000,22.2933250000 114.2027490000,22.2932050000 114.2028040000,22.2929760000 114.2028370000,22.2928520000 114.2028710000,22.2927080000 114.2029400000,22.2924080000 114.2029510000,22.2923660000 114.2017700000,22.2921010000 114.2015200000,22.2920470000 114.2015810000,22.2917950000 114.2016300000,22.2915690000 114.2016420000,22.2915140000 114.2016510000,22.2914830000 114.2016590000,22.2914590000 114.2016760000,22.2913940000 114.2013020000,22.2913170000 114.2009440000,22.2912410000 114.2006030000,22.2911730000 114.2004610000,22.2911450000 114.2003230000,22.2911150000 114.1998350000,22.2910140000 114.1995200000,22.2909490000 114.1995030000,22.2909460000 114.1993870000,22.2909220000 114.1993660000,22.2909170000 114.1991330000,22.2908660000 114.1990800000,22.2908550000 114.1990180000,22.2908420000 114.1989490000,22.2908270000 114.1988950000,22.2908150000 114.1987320000,22.2907840000 114.1982720000,22.2906850000 114.1976010000,22.2905490000 114.1970670000,22.2904410000 114.1968590000,22.2904120000 114.1966180000,22.2903630000 114.1957510000,22.2901850000 114.1955490000,22.2901400000 114.1954640000,22.2901190000 114.1953600000,22.2900850000 114.1952220000,22.2900220000 114.1951230000,22.2899600000 114.1950440000,22.2899000000 114.1949620000,22.2898250000 114.1947570000,22.2895830000 114.1947000000,22.2895280000 114.1946360000,22.2894580000 114.1946050000,22.2894080000 114.1945520000,22.2893250000 114.1944580000,22.2892190000 114.1944490000,22.2892090000 114.1944390000,22.2891980000 114.1944310000,22.2891880000 114.1944220000,22.2891790000 114.1943110000,22.2890520000 114.1942340000,22.2889650000 114.1938690000,22.2885610000 114.1936620000,22.2883330000 114.1934520000,22.2880920000 114.1933680000,22.2879940000 114.1931870000,22.2877770000 114.1931400000,22.2877070000 114.1930830000,22.2875960000 114.1930400000,22.2875240000 114.1930100000,22.2874730000 114.1929920000,22.2874380000 114.1929790000,22.2873990000 114.1929710000,22.2873680000 114.1929650000,22.2873310000 114.1929640000,22.2872300000 114.1929580000,22.2871670000 114.1929510000,22.2870700000 114.1929490000,22.2870230000 114.1929500000,22.2869690000 114.1929670000,22.2869200000 114.1929810000,22.2868530000 114.1929890000,22.2866020000 114.1929910000,22.2865540000 114.1929920000,22.2864730000 114.1929930000,22.2862060000 114.1930170000,22.2859230000 114.1930040000,22.2858080000 114.1930030000,22.2856770000 114.1929920000,22.2854960000 114.1929890000,22.2853700000 114.1929770000,22.2853080000 114.1928810000,22.2847740000 114.1928040000,22.2843680000 114.1927660000,22.2841910000 114.1926440000,22.2836020000 114.1926200000,22.2835040000 114.1925970000,22.2834320000 114.1925410000,22.2832850000 114.1924650000,22.2831050000 114.1923930000,22.2829500000 114.1923570000,22.2828710000 114.1922150000,22.2825790000 114.1921440000,22.2824650000 114.1920560000,22.2823530000 114.1920140000,22.2823010000 114.1919750000,22.2822570000 114.1919140000,22.2821900000 114.1918890000,22.2821650000 114.1918560000,22.2821370000 114.1917750000,22.2820740000 114.1917060000,22.2820260000 114.1914710000,22.2818590000 114.1914570000,22.2818500000 114.1913330000,22.2817660000 114.1909050000,22.2814850000 114.1908100000,22.2814230000 114.1903820000,22.2811300000 114.1902180000,22.2810180000 114.1896480000,22.2806270000 114.1895030000,22.2805270000 114.1894430000,22.2804860000 114.1889260000,22.2801340000 114.1886970000,22.2799780000 114.1881330000,22.2796030000 114.1879860000,22.2795050000 114.1876680000,22.2792970000 114.1873360000,22.2791450000 114.1871790000,22.2790800000 114.1870900000,22.2789780000 114.1870800000,22.2789670000 114.1870450000,22.2789320000 114.1870060000,22.2789070000 114.1869460000,22.2788910000 114.1868830000,22.2788930000 114.1867940000,22.2789080000 114.1867160000,22.2789210000 114.1865680000,22.2789460000 114.1861070000,22.2790250000 114.1861610000,22.2791860000 114.1861900000,22.2792680000 114.1862480000,22.2794200000 114.1862420000,22.2794610000 114.1862440000,22.2794910000 114.1862430000,22.2795070000 114.1862420000,22.2795230000 114.1862410000,22.2795370000 114.1862400000,22.2795470000 114.1862270000,22.2795730000 114.1862100000,22.2795890000 114.1861330000,22.2796120000 114.1860520000,22.2796370000 114.1858420000,22.2797090000 114.1858320000,22.2797120000 114.1857710000,22.2797330000 114.1856780000,22.2797610000 114.1856460000,22.2797710000 114.1856080000,22.2797830000 114.1853450000,22.2798660000 114.1852000000,22.2799160000 114.1851500000,22.2799340000 114.1850260000,22.2799750000 114.1849490000,22.2800010000 114.1848440000,22.2800330000 114.1847680000,22.2800530000 114.1847390000,22.2800630000 114.1846980000,22.2800710000 114.1846090000,22.2800780000 114.1845810000,22.2800800000 114.1845160000,22.2800800000 114.1845030000,22.2800800000 114.1844370000,22.2800790000 114.1843470000,22.2800580000 114.1843210000,22.2800570000 114.1842610000,22.2800550000 114.1839810000,22.2800420000 114.1837640000,22.2800350000 114.1832760000,22.2800250000 114.1832390000,22.2800200000 114.1831920000,22.2800150000 114.1831290000,22.2799950000 114.1827730000,22.2798790000 114.1827270000,22.2798620000 114.1826770000,22.2798440000 114.1825420000,22.2797920000 114.1824620000,22.2797630000 114.1818000000,22.2795160000 114.1814500000,22.2793820000 114.1813610000,22.2793470000 114.1811760000,22.2792750000 114.1810330000,22.2792200000 114.1810170000,22.2792150000 114.1806970000,22.2790960000 114.1802340000,22.2789270000 114.1800860000,22.2788740000 114.1798540000,22.2787900000 114.1798050000,22.2787730000 114.1796440000,22.2787190000 114.1796170000,22.2787090000 114.1795370000,22.2786870000 114.1795030000,22.2786770000 114.1794280000,22.2786550000 114.1785530000,22.2783790000 114.1781550000,22.2782560000 114.1779750000,22.2782030000 114.1774830000,22.2780630000 114.1773930000,22.2780380000 114.1771600000,22.2779710000 114.1770250000,22.2779450000 114.1769650000,22.2779390000 114.1767940000,22.2779240000 114.1766400000,22.2779070000 114.1764980000,22.2778920000 114.1763840000,22.2778790000 114.1763600000,22.2778760000 114.1763350000,22.2778740000 114.1754740000,22.2777860000 114.1748870000,22.2777290000 114.1747750000,22.2777180000 114.1747610000,22.2778310000 114.1747450000,22.2779530000 114.1747120000,22.2781910000 114.1746750000,22.2782210000 114.1746730000,22.2782360000 114.1746630000,22.2783120000 114.1746520000,22.2783860000 114.1746400000,22.2784730000 114.1746350000,22.2785260000 114.1746560000,22.2786230000 114.1745930000,22.2790840000 114.1745270000,22.2793930000 114.1744630000,22.2796840000 114.1744520000,22.2797590000 114.1744000000,22.2801880000 114.1743560000,22.2805270000 114.1743150000,22.2805600000 114.1743030000,22.2806790000 114.1742920000,22.2808160000 114.1742850000,22.2809080000 114.1742710000,22.2811470000 114.1742680000,22.2811900000 114.1742650000,22.2812450000 114.1742640000,22.2812750000 114.1742640000,22.2812880000 114.1742630000,22.2813070000 114.1742620000,22.2813310000 114.1742620000,22.2813390000 114.1742550000,22.2814440000 114.1742640000,22.2816770000 114.1741080000,22.2817070000 114.1736700000,22.2816810000 114.1734350000,22.2816410000 114.1724550000,22.2815880000 114.1721550000,22.2815700000 114.1720940000,22.2815660000 114.1719210000,22.2815550000 114.1717900000,22.2815430000 114.1716170000,22.2815210000 114.1714790000,22.2815030000 114.1713370000,22.2814710000 114.1712020000,22.2814360000 114.1710690000,22.2813900000 114.1709370000,22.2813030000 114.1708910000,22.2812520000 114.1708270000,22.2811740000 114.1707630000,22.2810750000 114.1707370000,22.2809820000 114.1707360000,22.2809030000 114.1707470000,22.2808770000 114.1707660000,22.2808320000 114.1708100000,22.2807930000 114.1708380000,22.2807430000 114.1708440000,22.2806870000 114.1708320000,22.2806280000 114.1707930000,22.2805790000 114.1707150000,22.2805230000 114.1706730000,22.2805140000 114.1706320000,22.2805140000 114.1705700000,22.2805320000 114.1705190000,22.2805670000 114.1704830000,22.2806170000 114.1704680000,22.2806750000 114.1704730000,22.2807310000 114.1704360000,22.2807930000 114.1703650000,22.2808370000 114.1702780000,22.2808610000 114.1701930000,22.2808700000 114.1700890000,22.2808750000 114.1699980000,22.2808680000 114.1698200000,22.2808530000 114.1695710000,22.2808320000 114.1693680000,22.2807780000 114.1690580000,22.2807330000 114.1687700000,22.2806940000 114.1686320000,22.2806600000 114.1685530000,22.2806400000 114.1684440000,22.2805700000 114.1683580000,22.2804780000 114.1683000000,22.2803680000 114.1682200000,22.2800200000 114.1681800000,22.2799200000 114.1681400000,22.2798500000 114.1680800000,22.2797700000 114.1679900000,22.2796900000 114.1678870000,22.2796300000 114.1677700000,22.2795900000 114.1676500000,22.2795700000 114.1670590000,22.2794910000 114.1665540000,22.2794390000 114.1663440000,22.2794280000 114.1661720000,22.2794520000 114.1659300000,22.2794660000 114.1657430000,22.2794980000 114.1655310000,22.2795640000 114.1653260000,22.2796530000 114.1649120000,22.2799240000 114.1644990000,22.2802180000 114.1641330000,22.2804780000 114.1638310000,22.2806870000 114.1632240000,22.2810830000 114.1629730000,22.2812310000 114.1627020000,22.2813580000 114.1626040000,22.2813960000 114.1624290000,22.2814520000 114.1621710000,22.2815280000 114.1619320000,22.2815920000 114.1617650000,22.2816350000 114.1614070000,22.2817270000 114.1612190000,22.2817730000 114.1610040000,22.2818260000 114.1608800000,22.2818560000 114.1604890000,22.2819560000 114.1602690000,22.2820190000 114.1601700000,22.2820480000 114.1600580000,22.2820810000 114.1600020000,22.2820980000 114.1599460000,22.2821140000 114.1596100000,22.2822570000 114.1589650000,22.2825150000 114.1587780000,22.2825970000 114.1585440000,22.2827100000 114.1583720000,22.2828110000 114.1581740000,22.2829540000 114.1578920000,22.2831820000 114.1577880000,22.2832750000 114.1577280000,22.2833330000 114.1576310000,22.2834310000 114.1575110000,22.2835640000 114.1573510000,22.2837460000 114.1572820000,22.2838190000 114.1571950000,22.2839070000 114.1571260000,22.2839930000 114.1570630000,22.2840670000 114.1570030000,22.2841210000 114.1569650000,22.2841690000 114.1567160000,22.2844880000 114.1566630000,22.2845700000 114.1565970000,22.2846560000 114.1565100000,22.2847670000 114.1564190000,22.2848940000 114.1564090000,22.2849430000 114.1563960000,22.2850070000 114.1563680000,22.2851270000 114.1562680000,22.2854010000 114.1562140000,22.2854810000 114.1561210000,22.2855970000 114.1560010000,22.2856950000 114.1559040000,22.2857520000 114.1557730000,22.2858120000 114.1556040000,22.2858860000 114.1553510000,22.2860110000 114.1551820000,22.2860970000 114.1549540000,22.2862190000 114.1548210000,22.2862810000 114.1545600000,22.2864390000 114.1542300000,22.2866280000 114.1540070000,22.2867360000 114.1539790000,22.2867450000 114.1538170000,22.2867980000 114.1537610000,22.2868120000 114.1536980000,22.2868290000 114.1536370000,22.2868450000 114.1535320000,22.2868760000 114.1533220000,22.2869390000 114.1532130000,22.2869840000 114.1529020000,22.2870700000 114.1526480000,22.2871460000 114.1525440000,22.2871770000 114.1523260000,22.2872420000 114.1510010000,22.2876360000 114.1507380000,22.2877100000 114.1504730000,22.2877840000 114.1501090000,22.2878870000 114.1498740000,22.2879470000 114.1485800000,22.2882650000 114.1481560000,22.2883830000 114.1478070000,22.2884500000 114.1465420000,22.2885710000 114.1458940000,22.2886340000 114.1452760000,22.2886290000 114.1452130000,22.2886340000 114.1449270000,22.2886610000 114.1435020000,22.2887960000 114.1430480000,22.2888500000 114.1422200000,22.2888420000 114.1416660000,22.2887810000 114.1412930000,22.2887900000 114.1412010000,22.2888100000 114.1409970000,22.2888550000 114.1408690000,22.2889080000 114.1407200000,22.2890200000 114.1406560000,22.2890990000 114.1405580000,22.2892100000 114.1404990000,22.2893200000 114.1404760000,22.2893800000 114.1404580000,22.2894500000 114.1404460000,22.2895300000 114.1404410000,22.2896200000 114.1404500000,22.2897300000 114.1404650000,22.2898130000 114.1404810000,22.2898690000 114.1405020000,22.2899200000 114.1405240000,22.2899600000 114.1405640000,22.2900210000 114.1406100000,22.2900800000 114.1406710000,22.2901470000 114.1407340000,22.2902000000 114.1408080000,22.2902500000 114.1409000000,22.2903000000 114.1410020000,22.2903380000 114.1411080000,22.2903630000 114.1411900000,22.2903750000 114.1412800000,22.2903800000 114.1413500000,22.2903740000 114.1414300000,22.2903610000 114.1415000000,22.2903450000 114.1415900000,22.2903200000 114.1416500000,22.2903000000 114.1417800000,22.2902500000 114.1419540000,22.2901670000 114.1421210000,22.2900710000 114.1422900000,22.2899700000 114.1424600000,22.2898600000 114.1425830000,22.2897820000 114.1427100000,22.2897090000 114.1428220000,22.2896550000 114.1429370000,22.2896050000 114.1430450000,22.2895600000 114.1431500000,22.2895200000 114.1433550000,22.2894500000 114.1435680000,22.2893930000 114.1437650000,22.2893560000 114.1440120000,22.2893250000 114.1442860000,22.2893080000 114.1445240000,22.2893150000 114.1448120000,22.2893420000 114.1450480000,22.2893840000 114.1452690000,22.2894390000 114.1454680000,22.2895020000 114.1455790000,22.2895470000 114.1458640000,22.2897120000 114.1461270000,22.2899050000 114.1463680000,22.2901390000 114.1554730000,22.2999560000 114.1558600000,22.3003730000 114.1565980000,22.3012370000 114.1572490000,22.3020230000 114.1575930000,22.3024530000 114.1584030000,22.3034320000 114.1584690000,22.3035120000 114.1585150000,22.3035780000 114.1587960000,22.3039740000 114.1590500000,22.3043470000 114.1593030000,22.3046920000 114.1595210000,22.3049930000 114.1598430000,22.3055210000 114.1600550000,22.3059020000 114.1602070000,22.3062040000 114.1604750000,22.3067300000 114.1606170000,22.3070380000 114.1607670000,22.3073780000 114.1609030000,22.3077770000 114.1610810000,22.3081630000 114.1611240000,22.3082720000 114.1611510000,22.3083590000 114.1611690000,22.3084180000 114.1612440000,22.3086610000 114.1613700000,22.3093040000 114.1614650000,22.3098320000 114.1614950000,22.3100760000 114.1615260000,22.3103950000 114.1615390000,22.3106280000 114.1615570000,22.3111090000 114.1615500000,22.3115460000 114.1615310000,22.3120660000 114.1615120000,22.3123440000 114.1614680000,22.3127020000 114.1613990000,22.3130790000 114.1612700000,22.3136940000 114.1611770000,22.3140650000 114.1610690000,22.3144060000 114.1606690000,22.3154690000 114.1605850000,22.3156680000 114.1603970000,22.3161240000 114.1602390000,22.3165010000 114.1601630000,22.3166960000 114.1595970000,22.3181420000 114.1594260000,22.3185310000 114.1592030000,22.3190150000 114.1590080000,22.3194180000 114.1587420000,22.3199420000 114.1583530000,22.3206340000 114.1580280000,22.3211960000 114.1578120000,22.3215320000 114.1575490000,22.3219090000 114.1572310000,22.3223570000 114.1568960000,22.3228060000 114.1566210000,22.3231540000 114.1563410000,22.3235090000 114.1560360000,22.3238490000 114.1557920000,22.3241230000 114.1553950000,22.3245530000 114.1550540000,22.3249040000 114.1547300000,22.3252310000 114.1543620000,22.3255780000 114.1540020000,22.3258970000 114.1535900000,22.3262530000 114.1531170000,22.3266270000 114.1527770000,22.3268800000 114.1522560000,22.3272720000 114.1518220000,22.3275630000 114.1514760000,22.3277850000 114.1512290000,22.3279450000 114.1504710000,22.3283960000 114.1499850000,22.3286710000 114.1496200000,22.3288590000 114.1490590000,22.3291340000 114.1489510000,22.3291850000 114.1486060000,22.3293440000 114.1478890000,22.3296390000 114.1475170000,22.3297910000 114.1471780000,22.3299180000 114.1464480000,22.3302230000 114.1463850000,22.3302470000 114.1454820000,22.3305840000 114.1452560000,22.3306640000 114.1445070000,22.3309320000 114.1438590000,22.3311530000 114.1436130000,22.3312480000 114.1429310000,22.3315740000 114.1428530000,22.3316050000 114.1412890000,22.3322090000 114.1405410000,22.3324930000 114.1403740000,22.3325580000 114.1395880000,22.3328230000 114.1394970000,22.3328500000 114.1385640000,22.3332330000 114.1378030000,22.3335180000 114.1373210000,22.3337010000 114.1368860000,22.3338730000 114.1365640000,22.3340150000 114.1362710000,22.3341510000 114.1359690000,22.3343040000 114.1356310000,22.3344910000 114.1354440000,22.3346060000 114.1353440000,22.3346670000 114.1352220000,22.3347460000 114.1350140000,22.3348820000 114.1348000000,22.3350240000 114.1344480000,22.3352610000 114.1342910000,22.3353690000 114.1341900000,22.3354590000 114.1338720000,22.3357390000 114.1334860000,22.3361210000 114.1332200000,22.3364150000 114.1330340000,22.3366250000 114.1327260000,22.3370270000 114.1325120000,22.3373330000 114.1322740000,22.3377130000 114.1321960000,22.3378480000 114.1320510000,22.3380930000 114.1318960000,22.3383900000 114.1318580000,22.3384640000 114.1316890000,22.3387910000 114.1313190000,22.3395860000 114.1310380000,22.3402110000 114.1309620000,22.3403700000 114.1308660000,22.3405680000 114.1307020000,22.3409030000 114.1306300000,22.3410380000 114.1305920000,22.3411100000 114.1305250000,22.3412340000 114.1304660000,22.3413420000 114.1303470000,22.3415350000 114.1302580000,22.3416670000 114.1301950000,22.3417640000 114.1300900000,22.3418930000 114.1300170000,22.3419770000 114.1299130000,22.3420940000 114.1297960000,22.3422120000 114.1296700000,22.3423320000 114.1295520000,22.3424400000 114.1294840000,22.3425000000 114.1293200000,22.3426370000 114.1291160000,22.3427790000 114.1289430000,22.3428890000 114.1287970000,22.3429780000 114.1286030000,22.3430850000 114.1283130000,22.3432270000 114.1281970000,22.3432800000 114.1280870000,22.3433250000 114.1278230000,22.3434330000 114.1275370000,22.3435510000 114.1272190000,22.3436900000 114.1270920000,22.3437490000 114.1269950000,22.3437970000 114.1269170000,22.3438390000 114.1268020000,22.3439050000 114.1265700000,22.3440470000 114.1263600000,22.3441870000 114.1261980000,22.3443040000 114.1260630000,22.3444120000 114.1259430000,22.3445150000 114.1257850000,22.3446620000 114.1256620000,22.3447850000 114.1254920000,22.3449680000 114.1252790000,22.3452360000 114.1251700000,22.3453840000 114.1250580000,22.3455550000 114.1249770000,22.3456920000 114.1248460000,22.3459330000 114.1246780000,22.3462410000 114.1246340000,22.3464060000 114.1246200000,22.3464560000 114.1246030000,22.3465190000 114.1245820000,22.3465970000 114.1245630000,22.3466700000 114.1245300000,22.3467900000 114.1244960000,22.3469180000 114.1244670000,22.3470260000 114.1244530000,22.3470760000 114.1244430000,22.3471290000 114.1244350000,22.3471890000 114.1244300000,22.3472230000 114.1243930000,22.3475460000 114.1243650000,22.3479040000 114.1243660000,22.3480910000 114.1243750000,22.3483980000 114.1243700000,22.3487140000 114.1243510000,22.3491910000 114.1242990000,22.3496090000 114.1241960000,22.3499950000 114.1240680000,22.3503030000 114.1239290000,22.3506140000 114.1237360000,22.3509000000 114.1236170000,22.3510480000 114.1233060000,22.3513820000 114.1231200000,22.3515280000 114.1228140000,22.3517660000 114.1226590000,22.3518510000 114.1221170000,22.3521330000 114.1220390000,22.3521610000 114.1219330000,22.3521910000 114.1217460000,22.3522390000 114.1216430000,22.3522680000 114.1214310000,22.3523020000 114.1211410000,22.3523410000 114.1207110000,22.3523730000 114.1203330000,22.3523730000 114.1199880000,22.3523650000 114.1194960000,22.3522790000 114.1191870000,22.3522180000 114.1188760000,22.3521210000 114.1185250000,22.3519850000 114.1181990000,22.3518490000 114.1179480000,22.3517290000 114.1175950000,22.3515240000 114.1171200000,22.3512030000 114.1167670000,22.3509350000 114.1163940000,22.3506770000 114.1161560000,22.3505160000 114.1158850000,22.3503530000 114.1156120000,22.3502090000 114.1153200000,22.3500660000 114.1151020000,22.3499700000 114.1122350000,22.3488850000 114.1118310000,22.3487140000 114.1114850000,22.3485670000 114.1110020000,22.3483410000 114.1108420000,22.3482640000 114.1067700000,22.3461380000 114.1065040000,22.3460130000 114.1062830000,22.3459150000 114.1060100000,22.3457980000 114.1057500000,22.3456900000 114.1055200000,22.3456000000 114.1053160000,22.3455250000 114.1050600000,22.3454400000 114.1048010000,22.3453580000 114.1045000000,22.3452660000 114.1042000000,22.3451750000 114.1039000000,22.3450920000 114.1036000000,22.3450220000 114.1033000000,22.3449580000 114.1030000000,22.3449000000 114.1026000000,22.3448350000 114.1020600000,22.3447660000 114.1017660000,22.3447330000 114.1014700000,22.3447070000 114.1011840000,22.3446860000 114.1009000000,22.3446750000 114.1003400000,22.3446570000 114.0957200000,22.3446110000 114.0956240000,22.3446120000 114.0943500000,22.3446090000 114.0939100000,22.3446010000 114.0937600000,22.3445980000 114.0932450000,22.3446000000 114.0929810000,22.3446070000 114.0927640000,22.3446250000 114.0924930000,22.3446550000 114.0921460000,22.3447160000 114.0920330000,22.3447350000 114.0918930000,22.3447670000 114.0917140000,22.3448180000 114.0915110000,22.3448750000 114.0912240000,22.3449820000 114.0909570000,22.3450960000 114.0906820000,22.3452200000 114.0903900000,22.3453580000 114.0901100000,22.3454820000 114.0897870000,22.3456310000 114.0895330000,22.3457580000 114.0892480000,22.3459070000 114.0889450000,22.3460940000 114.0886130000,22.3463450000 114.0883940000,22.3465310000 114.0882570000,22.3466630000 114.0880450000,22.3468980000 114.0879860000,22.3469680000 114.0878280000,22.3471710000 114.0875680000,22.3475740000 114.0873750000,22.3479670000 114.0872760000,22.3482430000 114.0872380000,22.3483480000 114.0871240000,22.3487340000 114.0871080000,22.3487870000 114.0868960000,22.3496110000 114.0868320000,22.3498440000 114.0866190000,22.3502770000 114.0865140000,22.3505780000 114.0864640000,22.3507710000 114.0863940000,22.3509560000 114.0862570000,22.3512780000 114.0861410000,22.3515520000 114.0860220000,22.3517890000 114.0857070000,22.3523180000 114.0855970000,22.3524720000 114.0854710000,22.3526420000 114.0852780000,22.3528730000 114.0849660000,22.3532110000 114.0847170000,22.3533980000 114.0845590000,22.3534770000 114.0844630000,22.3535180000 114.0842130000,22.3535980000 114.0840930000,22.3536130000 114.0839280000,22.3536290000 114.0836580000,22.3536570000 114.0833990000,22.3536200000 114.0831290000,22.3535650000 114.0828470000,22.3534940000 114.0825320000,22.3534100000 114.0822730000,22.3533410000 114.0802360000,22.3527440000 114.0726090000,22.3506460000 114.0675450000,22.3492370000 114.0659400000,22.3487900000 114.0628910000,22.3479420000 114.0621920000,22.3477430000 114.0617970000,22.3476210000 114.0613990000,22.3474890000 114.0610110000,22.3473460000 114.0606270000,22.3471880000 114.0602360000,22.3470150000 114.0598750000,22.3468400000 114.0595140000,22.3466480000 114.0591600000,22.3464470000 114.0588470000,22.3462540000 114.0585430000,22.3460600000 114.0525500000,22.3421550000 114.0519850000,22.3418020000 114.0517420000,22.3416520000 114.0514980000,22.3415220000 114.0511970000,22.3413840000 114.0509050000,22.3412690000 114.0504640000,22.3411370000 114.0501150000,22.3410650000 114.0496320000,22.3409870000 114.0488040000,22.3409060000 114.0482030000,22.3408520000 114.0472620000,22.3407500000 114.0466410000,22.3406480000 114.0460530000,22.3405040000 114.0457980000,22.3404300000 114.0455720000,22.3403470000 114.0453930000,22.3402800000 114.0452960000,22.3402370000 114.0452310000,22.3402090000 114.0451410000,22.3401610000 114.0450850000,22.3401310000 114.0449720000,22.3400670000 114.0446520000,22.3398810000 114.0440850000,22.3395510000 114.0433240000,22.3391420000 114.0432120000,22.3390820000 114.0404540000,22.3378310000 114.0398910000,22.3375530000 114.0396970000,22.3374650000 114.0396100000,22.3374260000 114.0393150000,22.3373090000 114.0392240000,22.3372790000 114.0389280000,22.3371800000 114.0384940000,22.3370620000 114.0380500000,22.3369760000 114.0375410000,22.3368690000 114.0371470000,22.3367950000 114.0367080000,22.3366840000 114.0364270000,22.3366160000 114.0362160000,22.3365560000 114.0357730000,22.3363950000 114.0352720000,22.3361990000 114.0347280000,22.3359460000 114.0342840000,22.3357050000 114.0339040000,22.3354760000 114.0333950000,22.3351300000 114.0328830000,22.3347400000 114.0324360000,22.3343470000 114.0313330000,22.3332900000 114.0310680000,22.3330150000 114.0309200000,22.3328440000 114.0307240000,22.3326390000 114.0301970000,22.3321170000 114.0299260000,22.3318720000 114.0292680000,22.3312440000 114.0272370000,22.3293250000 114.0265500000,22.3286660000 114.0257940000,22.3279360000 114.0255110000,22.3276600000 114.0251350000,22.3273220000 114.0247420000,22.3270050000 114.0243000000,22.3266910000 114.0239930000,22.3264980000 114.0238300000,22.3264040000 114.0237490000,22.3263580000 114.0235970000,22.3262700000 114.0230920000,22.3260010000 114.0226320000,22.3257790000 114.0218850000,22.3254810000 114.0213490000,22.3253080000 114.0208470000,22.3251460000 114.0203250000,22.3250340000 114.0198930000,22.3249550000 114.0194430000,22.3248980000 114.0189510000,22.3248540000 114.0184850000,22.3248340000 114.0179330000,22.3248360000 114.0157300000,22.3249950000 114.0151520000,22.3250270000 114.0146290000,22.3250370000 114.0140400000,22.3250260000 114.0134390000,22.3249840000 114.0129530000,22.3249290000 114.0125170000,22.3248670000 114.0120450000,22.3247740000 114.0110200000,22.3245160000 114.0104500000,22.3243350000 114.0099940000,22.3241710000 114.0092210000,22.3238440000 114.0030460000,22.3210970000 114.0022110000,22.3207110000 114.0018700000,22.3205380000 114.0015450000,22.3203740000 114.0012450000,22.3202230000 114.0009200000,22.3200340000 114.0006410000,22.3198590000 114.0004230000,22.3197030000 114.0001470000,22.3195040000 113.9998380000,22.3192620000 113.9994860000,22.3189590000 113.9992090000,22.3186870000 113.9989500000,22.3184190000 113.9985960000,22.3180270000 113.9983040000,22.3176570000 113.9980380000,22.3172630000 113.9980000000,22.3172060000 113.9977570000,22.3168210000 113.9977160000,22.3167520000 113.9974960000,22.3163870000 113.9973020000,22.3160790000 113.9971020000,22.3157770000 113.9968930000,22.3154780000 113.9966240000,22.3151180000 113.9964650000,22.3149000000 113.9961560000,22.3145280000 113.9959240000,22.3142630000 113.9957120000,22.3140280000 113.9954890000,22.3137910000 113.9951690000,22.3134730000 113.9951210000,22.3134260000 113.9949860000,22.3133030000 113.9948160000,22.3131480000 113.9945760000,22.3129470000 113.9944550000,22.3128470000 113.9940660000,22.3125250000 113.9937300000,22.3122730000 113.9936770000,22.3122350000 113.9933570000,22.3120010000 113.9929640000,22.3117410000 113.9926010000,22.3115140000 113.9889850000,22.3094370000 113.9877960000,22.3087560000 113.9860440000,22.3076980000 113.9856810000,22.3074790000 113.9851170000,22.3071400000 113.9850420000,22.3070920000 113.9840910000,22.3064780000 113.9818600000,22.3050900000 113.9804410000,22.3041820000 113.9802420000,22.3040600000 113.9802060000,22.3040380000 113.9795070000,22.3036070000 113.9786170000,22.3030810000 113.9785000000,22.3030110000 113.9778760000,22.3026570000 113.9777710000,22.3025970000 113.9769330000,22.3021450000 113.9766060000,22.3019810000 113.9757470000,22.3015510000 113.9746960000,22.3010220000 113.9737440000,22.3005560000 113.9731390000,22.3002800000 113.9722740000,22.2999010000 113.9715800000,22.2996450000 113.9710390000,22.2994730000 113.9705160000,22.2993110000 113.9698770000,22.2991360000 113.9689750000,22.2989320000 113.9680470000,22.2986900000 113.9677470000,22.2986190000 113.9621910000,22.2973990000 113.9609300000,22.2971350000 113.9603210000,22.2969830000 113.9595720000,22.2967670000 113.9587890000,22.2964930000 113.9582960000,22.2962940000 113.9578120000,22.2960870000 113.9572830000,22.2958390000 113.9567450000,22.2955430000 113.9560790000,22.2951570000 113.9558210000,22.2949960000 113.9555750000,22.2948250000 113.9552750000,22.2946020000 113.9549650000,22.2943560000 113.9546260000,22.2940770000 113.9542590000,22.2937580000 113.9538700000,22.2934090000 113.9535270000,22.2930740000 113.9532730000,22.2927990000 113.9528750000,22.2923800000 113.9523830000,22.2918530000 113.9521350000,22.2916130000 113.9518830000,22.2913840000 113.9515220000,22.2910870000 113.9512400000,22.2908870000 113.9510840000,22.2907630000 113.9504990000,22.2904060000 113.9500840000,22.2901790000 113.9496380000,22.2899900000 113.9491880000,22.2898330000 113.9487170000,22.2896800000 113.9483130000,22.2895790000 113.9478750000,22.2894950000 113.9474000000,22.2894160000 113.9468720000,22.2893630000 113.9463440000,22.2893450000 113.9459210000,22.2893440000 113.9454980000,22.2893540000 113.9448930000,22.2894100000 113.9445070000,22.2894660000 113.9439680000,22.2895710000 113.9434870000,22.2896900000 113.9431440000,22.2897990000 113.9427810000,22.2899170000 113.9424830000,22.2899690000 113.9422260000,22.2900560000 113.9418050000,22.2902430000 113.9415320000,22.2903660000 113.9413420000,22.2904550000 113.9409860000,22.2906380000 113.9406290000,22.2908420000 113.9399640000,22.2912490000 113.9396760000,22.2914320000 113.9394140000,22.2916240000 113.9393070000,22.2917030000 113.9391580000,22.2917440000 113.9390360000,22.2917440000 113.9390120000,22.2917440000 113.9389150000,22.2917200000 113.9387790000,22.2916500000 113.9374960000,22.2905190000 113.9373860000,22.2903880000 113.9374080000,22.2903140000 113.9373990000,22.2902370000 113.9373620000,22.2901680000 113.9373010000,22.2901160000 113.9372640000,22.2900050000 113.9372550000,22.2899000000 113.9372670000,22.2896300000 113.9372890000,22.2894130000 113.9373230000,22.2891550000 113.9374170000,22.2888560000 113.9375010000,22.2887010000 113.9376430000,22.2885260000 113.9377600000,22.2884110000 113.9378810000,22.2883220000 113.9379820000,22.2882650000 113.9380630000,22.2882210000 113.9381260000,22.2882950000 113.9383680000,22.2885550000 113.9387100000,22.2890850000 113.9388680000,22.2893200000 113.9389850000,22.2894960000 113.9390110000,22.2895360000 113.9390790000,22.2896370000 113.9391960000,22.2898230000 113.9392910000,22.2899620000 113.9393240000,22.2900150000 113.9394650000,22.2902320000 113.9395090000,22.2902940000 113.9395340000,22.2903310000 113.9395700000,22.2903710000 113.9395930000,22.2903960000 113.9396720000,22.2904650000 113.9397700000,22.2905160000 113.9398080000,22.2905290000 113.9399300000,22.2905690000 113.9401140000,22.2905760000 113.9402670000,22.2905720000 113.9404650000,22.2905420000 113.9405920000,22.2904960000 113.9406830000,22.2904550000 113.9407460000,22.2904270000 113.9408850000,22.2903640000 113.9409490000,22.2903350000 113.9412780000,22.2901550000 113.9414300000,22.2900740000 113.9415340000,22.2900070000 113.9417370000,22.2898780000 113.9418400000,22.2897480000 113.9418430000,22.2897430000 113.9419690000,22.2895410000 113.9419950000,22.2894660000 113.9420130000,22.2893830000 113.9420210000,22.2892620000 113.9420280000,22.2891510000 113.9420100000,22.2890430000 113.9419870000,22.2889860000 113.9418970000,22.2888050000 113.9417840000,22.2886370000 113.9416580000,22.2884390000 113.9416520000,22.2883400000 113.9416280000,22.2883060000 113.9415920000,22.2882550000 113.9415230000,22.2881520000 113.9414730000,22.2881240000 113.9414280000,22.2880950000 113.9413870000,22.2880620000 113.9413560000,22.2880290000 113.9412970000,22.2879360000 113.9412690000,22.2878870000 113.9408400000,22.2871780000 113.9406700000,22.2869000000 113.9406670000,22.2868940000 113.9406630000,22.2868880000 113.9406380000,22.2868470000 113.9405790000,22.2867540000 113.9406780000,22.2866830000 113.9407990000,22.2865950000 113.9410460000,22.2863750000 113.9411890000,22.2862470000 113.9413470000,22.2861070000 113.9422270000,22.2853510000 113.9424560000,22.2851500000 113.9426310000,22.2849950000 113.9427590000,22.2849830000 113.9428930000,22.2849880000 113.9429550000,22.2849990000 113.9430670000,22.2850520000 113.9443340000,22.2866850000 113.9448980000,22.2873290000 113.9454390000,22.2878560000 113.9457130000,22.2880990000 113.9459710000,22.2882970000 113.9462280000,22.2884880000 113.9465110000,22.2886470000 113.9468550000,22.2888030000 113.9469890000,22.2889120000 113.9470800000,22.2890400000 113.9470980000,22.2890800000 113.9471330000,22.2891580000 113.9471220000,22.2891810000 113.9471020000,22.2892670000 113.9470430000,22.2896870000 113.9470710000,22.2898320000 113.9471280000,22.2899450000 113.9471740000,22.2900180000 113.9471840000,22.2900340000 113.9472090000,22.2900790000 113.9472640000,22.2901770000 113.9473170000,22.2904010000 113.9473150000,22.2905370000 113.9473000000,22.2906860000 113.9471510000,22.2918230000 113.9468380000,22.2937930000 113.9468290000,22.2938610000 113.9468100000,22.2939970000 113.9468000000,22.2941000000 113.9469180000,22.2941110000 113.9470790000,22.2941320000 113.9483760000,22.2942930000 113.9488000000,22.2943500000 113.9494260000,22.2944220000 113.9494600000,22.2944260000 113.9495120000,22.2944320000 113.9498880000,22.2944760000 113.9504960000,22.2945520000 113.9506040000,22.2945650000 113.9507180000,22.2945780000 113.9508570000,22.2945960000 113.9508850000,22.2945990000 113.9509490000,22.2946060000 113.9510320000,22.2946160000 113.9519480000,22.2947260000 113.9519900000,22.2947310000 113.9520020000,22.2947320000 113.9520470000,22.2947370000 113.9521540000,22.2947500000 113.9521420000,22.2948370000 113.9521360000,22.2948830000 113.9521210000,22.2949950000 113.9518650000,22.2965100000 113.9518500000,22.2966010000 113.9518480000,22.2966860000 113.9518600000,22.2967650000 113.9518760000,22.2968090000 113.9519000000,22.2968560000 113.9519360000,22.2969130000 113.9519910000,22.2969690000 113.9520530000,22.2970110000 113.9521240000,22.2970480000 113.9521940000,22.2970680000 113.9522860000,22.2970840000 113.9526390000,22.2971140000 113.9526600000,22.2971160000 113.9527940000,22.2971270000 113.9533750000,22.2971670000 113.9535540000,22.2971790000 113.9536390000,22.2971850000 113.9537940000,22.2971750000 113.9538990000,22.2971680000 113.9539880000,22.2971230000 113.9540490000,22.2970780000 113.9540490000,22.2970780000 113.9539880000,22.2971230000 113.9538990000,22.2971680000 113.9537940000,22.2971750000 113.9536390000,22.2971850000 113.9535540000,22.2971790000 113.9533750000,22.2971670000 113.9527940000,22.2971270000 113.9526600000,22.2971160000 113.9526390000,22.2971140000 113.9522860000,22.2970840000 113.9521940000,22.2970680000 113.9521240000,22.2970480000 113.9520530000,22.2970110000 113.9519910000,22.2969690000 113.9519360000,22.2969130000 113.9519000000,22.2968560000 113.9518760000,22.2968090000 113.9518600000,22.2967650000 113.9518480000,22.2966860000 113.9518500000,22.2966010000 113.9518650000,22.2965100000 113.9521210000,22.2949950000 113.9521360000,22.2948830000 113.9521420000,22.2948370000 113.9521540000,22.2947500000 113.9521670000,22.2946490000 113.9520210000,22.2946320000 113.9520070000,22.2946300000 113.9508960000,22.2944910000 113.9506130000,22.2944560000 113.9505100000,22.2944450000 113.9495320000,22.2943060000 113.9494770000,22.2942980000 113.9494390000,22.2942930000 113.9471400000,22.2939970000 113.9470950000,22.2939890000 113.9469330000,22.2939670000 113.9469430000,22.2939320000 113.9471800000,22.2924460000 113.9472190000,22.2921650000 113.9472680000,22.2918230000 113.9474220000,22.2907060000 113.9474540000,22.2905410000 113.9475130000,22.2903620000 113.9475700000,22.2902410000 113.9476140000,22.2901730000 113.9476530000,22.2901300000 113.9476650000,22.2901190000 113.9476980000,22.2900900000 113.9477890000,22.2900480000 113.9478420000,22.2900160000 113.9478750000,22.2899800000 113.9479390000,22.2898370000 113.9479690000,22.2897430000 113.9480140000,22.2893540000 113.9480130000,22.2892710000 113.9479930000,22.2891350000 113.9479700000,22.2891000000 113.9479060000,22.2890280000 113.9478580000,22.2889750000 113.9477730000,22.2889250000 113.9476440000,22.2888850000 113.9474730000,22.2888850000 113.9473000000,22.2888610000 113.9471210000,22.2888010000 113.9468060000,22.2886520000 113.9464960000,22.2884660000 113.9460400000,22.2880690000 113.9455270000,22.2875680000 113.9446370000,22.2865750000 113.9442630000,22.2861290000 113.9435060000,22.2851730000 113.9431480000,22.2847190000 113.9430750000,22.2846220000 113.9430010000,22.2845210000 113.9427820000,22.2846930000 113.9425890000,22.2848520000 113.9421240000,22.2852550000 113.9419330000,22.2854300000 113.9413330000,22.2859620000 113.9413100000,22.2859820000 113.9412550000,22.2860270000 113.9412170000,22.2860560000 113.9409510000,22.2862620000 113.9406670000,22.2864940000 113.9405970000,22.2865450000 113.9405760000,22.2865600000 113.9405400000,22.2865840000 113.9404880000,22.2866190000 113.9396930000,22.2871010000 113.9392550000,22.2873310000 113.9387340000,22.2876320000 113.9383500000,22.2878740000 113.9383310000,22.2878860000 113.9382980000,22.2879080000 113.9382960000,22.2879100000 113.9381970000,22.2879670000 113.9380800000,22.2880430000 113.9379720000,22.2881060000 113.9377330000,22.2882640000 113.9375620000,22.2884380000 113.9374300000,22.2886140000 113.9373740000,22.2887190000 113.9372930000,22.2888810000 113.9372440000,22.2890120000 113.9372080000,22.2891280000 113.9371890000,22.2893020000 113.9371720000,22.2895390000 113.9370960000,22.2900050000 113.9370440000,22.2901210000 113.9369990000,22.2901590000 113.9369670000,22.2902070000 113.9369460000,22.2902780000 113.9369530000,22.2903510000 113.9369860000,22.2904170000 113.9370410000,22.2904700000 113.9371370000,22.2905080000 113.9372410000,22.2905030000 113.9372790000,22.2905270000 113.9373390000,22.2905510000 113.9374250000,22.2906060000 113.9375620000,22.2907170000 113.9380770000,22.2912020000 113.9388980000,22.2920150000 113.9390490000,22.2921390000 113.9394550000,22.2925230000 113.9395750000,22.2925730000 113.9395920000,22.2925760000 113.9396650000,22.2925760000 113.9397220000,22.2925680000 113.9398140000,22.2924820000 113.9398180000,22.2924610000 113.9398330000,22.2923850000 113.9398500000,22.2923110000 113.9398990000,22.2922490000 113.9399320000,22.2921680000 113.9400020000,22.2920170000 113.9400780000,22.2918790000 113.9401750000,22.2917680000 113.9402830000,22.2916700000 113.9403450000,22.2916180000 113.9405030000,22.2914960000 113.9408170000,22.2912790000 113.9412480000,22.2909950000 113.9414840000,22.2908480000 113.9417500000,22.2906860000 113.9421160000,22.2904900000 113.9424990000,22.2902950000 113.9427230000,22.2901940000 113.9432890000,22.2899710000 113.9440050000,22.2897220000 113.9445240000,22.2896210000 113.9449220000,22.2895610000 113.9455030000,22.2895030000 113.9459200000,22.2894860000 113.9463230000,22.2894810000 113.9468520000,22.2894990000 113.9473740000,22.2895500000 113.9478450000,22.2896190000 113.9482740000,22.2897030000 113.9486710000,22.2898030000 113.9491390000,22.2899470000 113.9495790000,22.2901040000 113.9500170000,22.2902940000 113.9504160000,22.2905100000 113.9508250000,22.2907660000 113.9511440000,22.2909890000 113.9514100000,22.2911870000 113.9517590000,22.2914840000 113.9520180000,22.2917120000 113.9522680000,22.2919420000 113.9527780000,22.2924680000 113.9531720000,22.2928820000 113.9534390000,22.2931600000 113.9537750000,22.2935030000 113.9541670000,22.2938580000 113.9545370000,22.2941730000 113.9548740000,22.2944520000 113.9552060000,22.2947120000 113.9554890000,22.2949220000 113.9557400000,22.2950960000 113.9560230000,22.2952790000 113.9566790000,22.2956560000 113.9572090000,22.2959450000 113.9577490000,22.2961950000 113.9582250000,22.2964030000 113.9587420000,22.2966140000 113.9595180000,22.2968860000 113.9602780000,22.2971090000 113.9608980000,22.2972520000 113.9649120000,22.2981400000 113.9677100000,22.2987600000 113.9680060000,22.2988330000 113.9689400000,22.2990560000 113.9698420000,22.2992600000 113.9704600000,22.2994310000 113.9709990000,22.2995910000 113.9715350000,22.2997640000 113.9722070000,22.3000200000 113.9730740000,22.3003880000 113.9743050000,22.3009830000 113.9751620000,22.3014060000 113.9756680000,22.3016600000 113.9765470000,22.3020970000 113.9768670000,22.3022560000 113.9777920000,22.3027660000 113.9778330000,22.3027900000 113.9781750000,22.3029810000 113.9784290000,22.3031240000 113.9785320000,22.3031850000 113.9794260000,22.3037130000 113.9799170000,22.3040230000 113.9800750000,22.3041220000 113.9816160000,22.3050930000 113.9843200000,22.3067900000 113.9849640000,22.3071960000 113.9850400000,22.3072450000 113.9856060000,22.3075890000 113.9877310000,22.3088640000 113.9889150000,22.3095420000 113.9925320000,22.3116130000 113.9928940000,22.3118400000 113.9932800000,22.3121080000 113.9935900000,22.3123250000 113.9936540000,22.3123690000 113.9939850000,22.3126240000 113.9943640000,22.3129400000 113.9944820000,22.3130400000 113.9947170000,22.3132380000 113.9948820000,22.3133840000 113.9950160000,22.3135030000 113.9950710000,22.3135560000 113.9953880000,22.3138680000 113.9956090000,22.3141060000 113.9958140000,22.3143200000 113.9960710000,22.3146170000 113.9963520000,22.3149690000 113.9965180000,22.3151920000 113.9967760000,22.3155490000 113.9969850000,22.3158460000 113.9971800000,22.3161470000 113.9973750000,22.3164580000 113.9975970000,22.3168140000 113.9976390000,22.3168830000 113.9978800000,22.3172650000 113.9979170000,22.3173200000 113.9981960000,22.3177340000 113.9984880000,22.3181120000 113.9988430000,22.3185050000 113.9990980000,22.3187760000 113.9994070000,22.3190820000 114.0000590000,22.3196040000 114.0003390000,22.3198090000 114.0005530000,22.3199570000 114.0008490000,22.3201550000 114.0011770000,22.3203390000 114.0014940000,22.3205080000 114.0018710000,22.3206920000 114.0022100000,22.3208580000 114.0029710000,22.3212190000 114.0094760000,22.3241070000 114.0099360000,22.3243000000 114.0104040000,22.3244760000 114.0109520000,22.3246520000 114.0120140000,22.3249200000 114.0125020000,22.3250130000 114.0129320000,22.3250750000 114.0134220000,22.3251330000 114.0140090000,22.3251710000 114.0146250000,22.3251850000 114.0151410000,22.3251750000 114.0157440000,22.3251400000 114.0179320000,22.3249830000 114.0184860000,22.3249840000 114.0189250000,22.3250100000 114.0194170000,22.3250510000 114.0198900000,22.3251030000 114.0202650000,22.3251710000 114.0207940000,22.3252890000 114.0213080000,22.3254290000 114.0218170000,22.3256010000 114.0225660000,22.3258960000 114.0230280000,22.3261070000 114.0235650000,22.3263960000 114.0237450000,22.3265060000 114.0238250000,22.3265550000 114.0239050000,22.3266040000 114.0242030000,22.3267940000 114.0243490000,22.3268920000 114.0246170000,22.3270780000 114.0247720000,22.3271940000 114.0254040000,22.3277460000 114.0260390000,22.3283460000 114.0264750000,22.3287670000 114.0282150000,22.3304640000 114.0298050000,22.3319760000 114.0304390000,22.3325750000 114.0308620000,22.3329980000 114.0312130000,22.3333890000 114.0317050000,22.3338540000 114.0323360000,22.3344360000 114.0327820000,22.3348390000 114.0333080000,22.3352490000 114.0338440000,22.3355960000 114.0342190000,22.3358170000 114.0344620000,22.3359510000 114.0347660000,22.3361070000 114.0350550000,22.3362460000 114.0353690000,22.3363980000 114.0363300000,22.3367570000 114.0366680000,22.3368420000 114.0370670000,22.3369350000 114.0375160000,22.3370150000 114.0380120000,22.3371160000 114.0384510000,22.3372100000 114.0388380000,22.3373170000 114.0392890000,22.3374640000 114.0397330000,22.3376370000 114.0403480000,22.3379370000 114.0409590000,22.3382530000 114.0429330000,22.3394340000 114.0430990000,22.3395140000 114.0438770000,22.3398890000 114.0444670000,22.3401500000 114.0448700000,22.3403100000 114.0450310000,22.3403730000 114.0451330000,22.3404040000 114.0452000000,22.3404250000 114.0452020000,22.3404260000 114.0457530000,22.3405940000 114.0460570000,22.3406770000 114.0466800000,22.3408170000 114.0473730000,22.3409100000 114.0482450000,22.3409950000 114.0487620000,22.3410670000 114.0496140000,22.3411750000 114.0500720000,22.3412490000 114.0504120000,22.3413120000 114.0508330000,22.3414360000 114.0511730000,22.3415610000 114.0514230000,22.3416710000 114.0516610000,22.3417990000 114.0518850000,22.3419290000 114.0520460000,22.3420240000 114.0524520000,22.3422840000 114.0584460000,22.3461890000 114.0587520000,22.3463840000 114.0590690000,22.3465800000 114.0594270000,22.3467830000 114.0597930000,22.3469780000 114.0601590000,22.3471560000 114.0605560000,22.3473310000 114.0609450000,22.3474910000 114.0613390000,22.3476360000 114.0617410000,22.3477700000 114.0621400000,22.3478920000 114.0628380000,22.3480920000 114.0785450000,22.3524280000 114.0800560000,22.3528590000 114.0806780000,22.3530320000 114.0814770000,22.3532650000 114.0816040000,22.3532920000 114.0817210000,22.3533120000 114.0825170000,22.3535330000 114.0828120000,22.3536060000 114.0830890000,22.3536680000 114.0833790000,22.3537220000 114.0836560000,22.3537580000 114.0838530000,22.3537790000 114.0840840000,22.3537810000 114.0843130000,22.3537680000 114.0845380000,22.3537330000 114.0846670000,22.3537130000 114.0847690000,22.3536900000 114.0848720000,22.3536620000 114.0849580000,22.3536350000 114.0850390000,22.3536080000 114.0851290000,22.3535780000 114.0852740000,22.3535130000 114.0855330000,22.3533870000 114.0857800000,22.3532700000 114.0860230000,22.3531440000 114.0862540000,22.3529910000 114.0863520000,22.3529080000 114.0864480000,22.3528090000 114.0865400000,22.3526940000 114.0866790000,22.3524530000 114.0867420000,22.3522850000 114.0868130000,22.3520210000 114.0869000000,22.3515320000 114.0869390000,22.3512990000 114.0869880000,22.3510740000 114.0870970000,22.3506830000 114.0871110000,22.3505910000 114.0871300000,22.3504650000 114.0871770000,22.3501490000 114.0871840000,22.3501050000 114.0873720000,22.3493900000 114.0873850000,22.3493210000 114.0874730000,22.3488690000 114.0874870000,22.3487930000 114.0875280000,22.3486700000 114.0876060000,22.3484580000 114.0876470000,22.3483500000 114.0877000000,22.3482120000 114.0878300000,22.3479380000 114.0879940000,22.3476390000 114.0881250000,22.3474620000 114.0882400000,22.3473590000 114.0883470000,22.3472640000 114.0885020000,22.3471250000 114.0885890000,22.3470470000 114.0891520000,22.3465960000 114.0892520000,22.3465380000 114.0893170000,22.3465010000 114.0894580000,22.3464220000 114.0895440000,22.3463710000 114.0896600000,22.3463030000 114.0898570000,22.3462060000 114.0904080000,22.3459230000 114.0909510000,22.3456540000 114.0913290000,22.3454850000 114.0917140000,22.3453370000 114.0921490000,22.3451970000 114.0926200000,22.3450830000 114.0931040000,22.3449910000 114.0933720000,22.3449670000 114.0939110000,22.3449370000 114.0941740000,22.3449370000 114.0952440000,22.3449500000 114.0957200000,22.3449460000 114.1004000000,22.3449930000 114.1010700000,22.3450180000 114.1014000000,22.3450400000 114.1017300000,22.3450680000 114.1020600000,22.3451030000 114.1023900000,22.3451480000 114.1030400000,22.3452500000 114.1033000000,22.3453000000 114.1035300000,22.3453500000 114.1037300000,22.3453950000 114.1038810000,22.3454310000 114.1040300000,22.3454700000 114.1042020000,22.3455180000 114.1043800000,22.3455700000 114.1046900000,22.3456680000 114.1049680000,22.3457620000 114.1051600000,22.3458300000 114.1053500000,22.3459000000 114.1056800000,22.3460270000 114.1060000000,22.3461600000 114.1066070000,22.3464420000 114.1092280000,22.3478020000 114.1094000000,22.3478900000 114.1094990000,22.3479370000 114.1095990000,22.3479820000 114.1098100000,22.3480700000 114.1100000000,22.3481490000 114.1103700000,22.3483000000 114.1107080000,22.3484390000 114.1112560000,22.3486440000 114.1114010000,22.3486980000 114.1121940000,22.3489990000 114.1150360000,22.3500680000 114.1152660000,22.3501660000 114.1155460000,22.3503070000 114.1158280000,22.3504570000 114.1160890000,22.3506120000 114.1163380000,22.3507780000 114.1166890000,22.3510310000 114.1170420000,22.3512980000 114.1174180000,22.3515670000 114.1177500000,22.3517760000 114.1179500000,22.3518880000 114.1181630000,22.3519900000 114.1185390000,22.3521520000 114.1187440000,22.3522270000 114.1189890000,22.3523010000 114.1192310000,22.3523660000 114.1195060000,22.3524250000 114.1197310000,22.3524620000 114.1199660000,22.3524930000 114.1203430000,22.3525160000 114.1207100000,22.3525140000 114.1211680000,22.3524720000 114.1214580000,22.3524280000 114.1216780000,22.3523900000 114.1217840000,22.3523650000 114.1219810000,22.3522960000 114.1220880000,22.3522570000 114.1221670000,22.3522230000 114.1226290000,22.3520200000 114.1228980000,22.3518990000 114.1232400000,22.3516400000 114.1234320000,22.3514950000 114.1237280000,22.3512190000 114.1239480000,22.3509410000 114.1241480000,22.3506360000 114.1243000000,22.3503120000 114.1244440000,22.3499020000 114.1244990000,22.3496360000 114.1245500000,22.3491470000 114.1245370000,22.3484120000 114.1245330000,22.3480180000 114.1245490000,22.3476170000 114.1246060000,22.3472410000 114.1246110000,22.3472070000 114.1246230000,22.3471590000 114.1246360000,22.3471070000 114.1246480000,22.3470550000 114.1246730000,22.3469520000 114.1247110000,22.3468180000 114.1247390000,22.3467160000 114.1247610000,22.3466370000 114.1247850000,22.3465690000 114.1248130000,22.3464960000 114.1248340000,22.3464420000 114.1249030000,22.3462770000 114.1250230000,22.3459890000 114.1251600000,22.3457430000 114.1252280000,22.3456200000 114.1254330000,22.3453410000 114.1256160000,22.3450810000 114.1258790000,22.3448160000 114.1260740000,22.3446340000 114.1262650000,22.3444920000 114.1264800000,22.3443300000 114.1269240000,22.3440300000 114.1270200000,22.3439790000 114.1271090000,22.3439320000 114.1271840000,22.3438920000 114.1272820000,22.3438400000 114.1276470000,22.3436840000 114.1278970000,22.3435720000 114.1281270000,22.3434690000 114.1283770000,22.3433460000 114.1286560000,22.3432050000 114.1289710000,22.3430190000 114.1291870000,22.3428750000 114.1294020000,22.3427320000 114.1295670000,22.3426040000 114.1297310000,22.3424680000 114.1298900000,22.3423150000 114.1301370000,22.3420730000 114.1303630000,22.3417950000 114.1304050000,22.3417270000 114.1304940000,22.3415860000 114.1306050000,22.3414080000 114.1306680000,22.3413080000 114.1307450000,22.3411650000 114.1307910000,22.3410810000 114.1308490000,22.3409740000 114.1310190000,22.3406270000 114.1311190000,22.3404140000 114.1311910000,22.3402610000 114.1314770000,22.3396800000 114.1315870000,22.3394560000 114.1316710000,22.3392680000 114.1316840000,22.3392360000 114.1318380000,22.3388760000 114.1319550000,22.3386180000 114.1320070000,22.3385160000 114.1320500000,22.3384340000 114.1322000000,22.3381400000 114.1324040000,22.3378060000 114.1326480000,22.3374240000 114.1328610000,22.3371230000 114.1331790000,22.3367280000 114.1333570000,22.3365230000 114.1336230000,22.3362450000 114.1337460000,22.3361190000 114.1343320000,22.3356020000 114.1345050000,22.3354580000 114.1346320000,22.3353540000 114.1349080000,22.3351570000 114.1351140000,22.3350120000 114.1353150000,22.3348710000 114.1354560000,22.3347710000 114.1355370000,22.3347190000 114.1357120000,22.3346060000 114.1360310000,22.3344250000 114.1363260000,22.3342690000 114.1366140000,22.3341310000 114.1369430000,22.3339880000 114.1373830000,22.3338160000 114.1378110000,22.3336600000 114.1395900000,22.3330030000 114.1403040000,22.3327090000 114.1403630000,22.3326870000 114.1413360000,22.3323200000 114.1417340000,22.3321710000 114.1428990000,22.3317170000 114.1429790000,22.3316830000 114.1439300000,22.3312840000 114.1442400000,22.3311570000 114.1453050000,22.3307780000 114.1455120000,22.3307010000 114.1464210000,22.3303510000 114.1464970000,22.3303220000 114.1472530000,22.3300310000 114.1479270000,22.3297640000 114.1486470000,22.3294550000 114.1490060000,22.3292880000 114.1491000000,22.3292440000 114.1496580000,22.3289770000 114.1500510000,22.3287860000 114.1505450000,22.3285160000 114.1512720000,22.3280540000 114.1515440000,22.3278800000 114.1518840000,22.3276670000 114.1522940000,22.3273890000 114.1528420000,22.3269960000 114.1532080000,22.3267150000 114.1536570000,22.3263590000 114.1540770000,22.3260070000 114.1544350000,22.3256710000 114.1547960000,22.3253360000 114.1551400000,22.3249960000 114.1554890000,22.3246310000 114.1556770000,22.3244380000 114.1558850000,22.3242120000 114.1561370000,22.3239280000 114.1564520000,22.3235770000 114.1567130000,22.3232530000 114.1569820000,22.3229170000 114.1573320000,22.3224540000 114.1576600000,22.3219910000 114.1579160000,22.3216230000 114.1581500000,22.3212580000 114.1584730000,22.3206990000 114.1588490000,22.3199810000 114.1591160000,22.3194600000 114.1593190000,22.3190490000 114.1595390000,22.3185730000 114.1597120000,22.3181800000 114.1603290000,22.3167100000 114.1605310000,22.3162300000 114.1608300000,22.3155880000 114.1610290000,22.3150940000 114.1612400000,22.3145370000 114.1613060000,22.3142740000 114.1613610000,22.3139650000 114.1614070000,22.3137140000 114.1615260000,22.3131120000 114.1616050000,22.3127250000 114.1616500000,22.3123490000 114.1616650000,22.3120670000 114.1616820000,22.3115320000 114.1616810000,22.3111110000 114.1616640000,22.3106220000 114.1616100000,22.3099200000 114.1615780000,22.3096370000 114.1615490000,22.3094110000 114.1614960000,22.3091360000 114.1614770000,22.3090510000 114.1613740000,22.3086420000 114.1612890000,22.3082350000 114.1612110000,22.3079410000 114.1610650000,22.3074870000 114.1609840000,22.3072940000 114.1608400000,22.3069860000 114.1606820000,22.3066440000 114.1606230000,22.3065180000 114.1604320000,22.3061120000 114.1599960000,22.3053330000 114.1590510000,22.3036860000 114.1588780000,22.3033830000 114.1588570000,22.3033570000 114.1588150000,22.3033040000 114.1587650000,22.3032300000 114.1587600000,22.3032220000 114.1584390000,22.3028540000 114.1582710000,22.3026750000 114.1580860000,22.3025020000 114.1578670000,22.3023060000 114.1576670000,22.3021240000 114.1573610000,22.3018450000 114.1567000000,22.3011550000 114.1561410000,22.3005100000 114.1464940000,22.2900780000 114.1462210000,22.2898010000 114.1459290000,22.2895720000 114.1457120000,22.2894580000 114.1454790000,22.2893590000 114.1451900000,22.2892710000 114.1448220000,22.2891980000 114.1445760000,22.2891710000 114.1443140000,22.2891600000 114.1441010000,22.2891710000 114.1438140000,22.2892030000 114.1435560000,22.2892500000 114.1432940000,22.2893100000 114.1431250000,22.2893610000 114.1429260000,22.2894330000 114.1426500000,22.2895640000 114.1423940000,22.2897200000 114.1419940000,22.2899800000 114.1417810000,22.2901180000 114.1416500000,22.2901830000 114.1414900000,22.2902400000 114.1413710000,22.2902560000 114.1412800000,22.2902620000 114.1411800000,22.2902580000 114.1411000000,22.2902450000 114.1410100000,22.2902200000 114.1409380000,22.2901920000 114.1408610000,22.2901480000 114.1407890000,22.2900920000 114.1407280000,22.2900300000 114.1406720000,22.2899600000 114.1406300000,22.2898900000 114.1405990000,22.2898220000 114.1405740000,22.2897400000 114.1405610000,22.2896700000 114.1405570000,22.2896100000 114.1405690000,22.2895400000 114.1405990000,22.2894240000 114.1406340000,22.2893400000 114.1406820000,22.2892580000 114.1407510000,22.2891720000 114.1408220000,22.2891010000 114.1409100000,22.2890440000 114.1409860000,22.2890020000 114.1410680000,22.2889750000 114.1411560000,22.2889570000 114.1412580000,22.2889480000 114.1413780000,22.2889490000 114.1415010000,22.2889600000 114.1417360000,22.2889960000 114.1420890000,22.2890700000 114.1422550000,22.2891060000 114.1424150000,22.2891400000 114.1425610000,22.2891520000 114.1426760000,22.2891570000 114.1428260000,22.2891440000 114.1440380000,22.2890280000 114.1443150000,22.2889960000 114.1445880000,22.2889820000 114.1448880000,22.2889780000 114.1453200000,22.2889810000 114.1462600000,22.2889950000 114.1465430000,22.2890000000 114.1467390000,22.2889870000 114.1469680000,22.2889480000 114.1472330000,22.2888840000 114.1474670000,22.2888000000 114.1486240000,22.2883850000 114.1488300000,22.2883290000 114.1499140000,22.2880400000 114.1501420000,22.2879790000 114.1504980000,22.2878820000 114.1507790000,22.2878060000 114.1510020000,22.2877460000 114.1523620000,22.2873640000 114.1525760000,22.2873040000 114.1526930000,22.2872720000 114.1529490000,22.2871970000 114.1532590000,22.2871120000 114.1535440000,22.2870580000 114.1537620000,22.2870270000 114.1539430000,22.2870220000 114.1542390000,22.2870290000 114.1545900000,22.2870690000 114.1547690000,22.2870860000 114.1550790000,22.2871180000 114.1551710000,22.2871270000 114.1554140000,22.2871900000 114.1556060000,22.2872210000 114.1558210000,22.2872480000 114.1560500000,22.2872760000 114.1562700000,22.2873000000 114.1564200000,22.2873110000 114.1566800000,22.2873160000 114.1568800000,22.2873000000 114.1571770000,22.2872590000 114.1573320000,22.2871980000 114.1574710000,22.2871430000 114.1575350000,22.2871170000 114.1576000000,22.2870900000 114.1578350000,22.2869890000 114.1578930000,22.2869450000 114.1579600000,22.2868930000 114.1580200000,22.2868470000 114.1581320000,22.2867620000 114.1585550000,22.2865150000 114.1586590000,22.2864510000 114.1590830000,22.2861850000 114.1601100000,22.2855380000 114.1603830000,22.2853670000 114.1613200000,22.2848360000 114.1631300000,22.2838110000 114.1638350000,22.2834740000 114.1641470000,22.2833390000 114.1644930000,22.2832060000 114.1651340000,22.2829870000 114.1656200000,22.2828430000 114.1661460000,22.2827110000 114.1665970000,22.2826160000 114.1670640000,22.2825310000 114.1677350000,22.2824530000 114.1680670000,22.2824220000 114.1684300000,22.2823990000 114.1690810000,22.2823640000 114.1697510000,22.2823630000 114.1700250000,22.2823730000 114.1702530000,22.2823870000 114.1704380000,22.2824080000 114.1705550000,22.2824250000 114.1706740000,22.2824490000 114.1708100000,22.2824760000 114.1708840000,22.2824970000 114.1709570000,22.2825220000 114.1710650000,22.2825690000 114.1711650000,22.2826210000 114.1712500000,22.2826720000 114.1713390000,22.2827390000 114.1714300000,22.2828130000 114.1715500000,22.2829300000 114.1716430000,22.2830380000 114.1718180000,22.2832790000 114.1718900000,22.2833700000 114.1719490000,22.2834280000 114.1720220000,22.2834870000 114.1720860000,22.2835290000 114.1721490000,22.2835630000 114.1722050000,22.2835890000 114.1722660000,22.2836150000 114.1723530000,22.2836410000 114.1724500000,22.2836600000 114.1728130000,22.2836850000 114.1729660000,22.2836960000 114.1730140000,22.2836990000 114.1732090000,22.2837130000 114.1736400000,22.2837420000 114.1739290000,22.2837630000 114.1739710000,22.2837660000 114.1740380000,22.2837700000 114.1740500000,22.2837810000 114.1740670000,22.2837900000 114.1740840000,22.2837950000 114.1741020000,22.2837960000 114.1741210000,22.2837930000 114.1741370000,22.2837860000 114.1741510000,22.2837760000 114.1741630000,22.2837620000 114.1741700000,22.2837480000 114.1741740000,22.2837320000 114.1741730000,22.2837140000 114.1741670000,22.2836950000 114.1741570000,22.2836800000 114.1742230000,22.2828600000 114.1742320000,22.2828080000 114.1742300000,22.2827590000 114.1742350000,22.2826710000 114.1742670000,22.2825990000 114.1742940000,22.2825290000 114.1743140000,22.2824700000 114.1743240000,22.2824160000 114.1743290000,22.2823720000 114.1743280000,22.2823220000 114.1743340000,22.2822180000 114.1743930000,22.2820870000 114.1743930000,22.2819590000 114.1744000000,22.2818880000 114.1744080000,22.2817280000 114.1744290000,22.2815670000 114.1744490000,22.2814900000 114.1744550000,22.2814220000 114.1744580000,22.2813460000 114.1744650000,22.2811950000 114.1744930000,22.2809170000 114.1745050000,22.2808180000 114.1745150000,22.2806930000 114.1745300000,22.2805750000 114.1745050000,22.2805400000 114.1745360000,22.2802040000 114.1745950000,22.2797520000 114.1745990000,22.2796730000 114.1745920000,22.2793950000 114.1745930000,22.2790840000 114.1746560000,22.2786230000 114.1746960000,22.2785270000 114.1747020000,22.2784880000 114.1747150000,22.2783930000 114.1747260000,22.2783190000 114.1747360000,22.2782420000 114.1747380000,22.2782260000 114.1747120000,22.2781910000 114.1747450000,22.2779530000 114.1747610000,22.2778310000 114.1749650000,22.2778510000 114.1753690000,22.2778920000 114.1760850000,22.2779650000 114.1766260000,22.2780200000 114.1768130000,22.2780390000 114.1770770000,22.2781010000 114.1779220000,22.2783530000 114.1780270000,22.2783840000 114.1787880000,22.2785990000 114.1789170000,22.2786380000 114.1794800000,22.2788040000 114.1795100000,22.2788140000 114.1796990000,22.2788750000 114.1798290000,22.2789260000 114.1804030000,22.2791380000 114.1806000000,22.2792100000 114.1810590000,22.2793860000 114.1811240000,22.2794100000 114.1811380000,22.2794150000 114.1813180000,22.2794790000 114.1814110000,22.2795130000 114.1819580000,22.2797130000 114.1824900000,22.2799070000 114.1826760000,22.2799770000 114.1827180000,22.2799930000 114.1830170000,22.2801060000 114.1830290000,22.2801110000 114.1830550000,22.2801200000 114.1831080000,22.2801390000 114.1831670000,22.2801490000 114.1832310000,22.2801550000 114.1832730000,22.2801560000 114.1833330000,22.2801580000 114.1842570000,22.2801810000 114.1843190000,22.2801820000 114.1843560000,22.2801830000 114.1844280000,22.2801840000 114.1845770000,22.2801860000 114.1845980000,22.2801860000 114.1846230000,22.2801840000 114.1846840000,22.2801740000 114.1847820000,22.2801540000 114.1848040000,22.2801520000 114.1848330000,22.2801460000 114.1849070000,22.2801240000 114.1849770000,22.2801000000 114.1850730000,22.2800710000 114.1855430000,22.2799270000 114.1856270000,22.2799110000 114.1856990000,22.2798870000 114.1857230000,22.2798790000 114.1858170000,22.2798480000 114.1858820000,22.2798270000 114.1858960000,22.2798220000 114.1860330000,22.2797770000 114.1861760000,22.2797330000 114.1861930000,22.2797280000 114.1863660000,22.2796810000 114.1869210000,22.2795140000 114.1869570000,22.2795040000 114.1871390000,22.2794510000 114.1872990000,22.2794630000 114.1874440000,22.2794810000 114.1876100000,22.2795380000 114.1878280000,22.2796260000 114.1880330000,22.2797400000 114.1883320000,22.2799260000 114.1886080000,22.2801090000 114.1888300000,22.2802620000 114.1894050000,22.2806560000 114.1896180000,22.2808030000 114.1907300000,22.2815450000 114.1907710000,22.2815730000 114.1908350000,22.2816170000 114.1909610000,22.2817060000 114.1912010000,22.2818720000 114.1912280000,22.2818910000 114.1912890000,22.2819310000 114.1912600000,22.2819980000 114.1912580000,22.2820770000 114.1912390000,22.2824800000 114.1912380000,22.2825130000 114.1912340000,22.2826040000 114.1912320000,22.2826720000 114.1912310000,22.2826750000 114.1912210000,22.2829090000 114.1912180000,22.2829940000 114.1911980000,22.2833720000 114.1911780000,22.2837530000 114.1911770000,22.2838100000 114.1911730000,22.2839760000 114.1911610000,22.2841510000 114.1911100000,22.2844320000 114.1910580000,22.2846940000 114.1910490000,22.2847270000 114.1910130000,22.2848320000 114.1909610000,22.2849540000 114.1908720000,22.2851040000 114.1908460000,22.2851400000 114.1907870000,22.2852170000 114.1907860000,22.2852330000 114.1907810000,22.2852540000 114.1907650000,22.2852860000 114.1907360000,22.2853280000 114.1907190000,22.2853570000 114.1907090000,22.2853880000 114.1907070000,22.2854080000 114.1907090000,22.2854270000 114.1907230000,22.2854500000 114.1909330000,22.2855920000 114.1909780000,22.2856210000 114.1910630000,22.2856790000 114.1910790000,22.2856890000 114.1913500000,22.2858720000 114.1914040000,22.2859080000 114.1914310000,22.2859190000 114.1914760000,22.2859510000 114.1915150000,22.2859880000 114.1915440000,22.2860340000 114.1915590000,22.2860840000 114.1915600000,22.2861370000 114.1915280000,22.2866830000 114.1915220000,22.2867600000 114.1915280000,22.2868370000 114.1915470000,22.2869120000 114.1915770000,22.2869840000 114.1916140000,22.2870460000 114.1916730000,22.2871190000 114.1918540000,22.2873200000 114.1918710000,22.2873390000 114.1919360000,22.2874170000 114.1919990000,22.2874960000 114.1921490000,22.2876610000 114.1928470000,22.2884230000 114.1932230000,22.2888410000 114.1935690000,22.2892020000 114.1935820000,22.2892150000 114.1936850000,22.2893290000 114.1940390000,22.2897420000 114.1940690000,22.2897750000 114.1941340000,22.2898450000 114.1948160000,22.2906000000 114.1948400000,22.2906260000 114.1950170000,22.2908170000 114.1951340000,22.2909430000 114.1952500000,22.2910400000 114.1953390000,22.2910970000 114.1955040000,22.2911690000 114.1955250000,22.2911790000 114.1960580000,22.2914110000 114.1963320000,22.2915170000 114.1963580000,22.2915290000 114.1965580000,22.2915780000 114.1967070000,22.2916090000 114.1967440000,22.2916160000 114.1971080000,22.2916850000 114.1984160000,22.2919430000 114.1984600000,22.2919510000 114.1985700000,22.2919730000 114.1987650000,22.2920130000 114.1988570000,22.2920320000 114.1989210000,22.2920450000 114.1998850000,22.2922530000 114.1999400000,22.2922630000 114.2000440000,22.2922820000 114.2001400000,22.2923020000 114.2008440000,22.2924500000 114.2013940000,22.2925660000 114.2023880000,22.2927630000 114.2028370000,22.2928520000 114.2028040000,22.2929760000 114.2027490000,22.2932050000 114.2027200000,22.2933250000 114.2027040000,22.2933930000 114.2026740000,22.2935770000</coordinates>
                </LineString>
                <ExtendedData>
                    <Data name="duration">
                        <value>01:28:23</value>
                    </Data>
                    <Data name="length">
                        <value>88367.31604989593</value>
                    </Data>
                </ExtendedData>
            </Placemark>
        </Document>
    </Document>
</kml>