<?xml version="1.0" encoding="UTF-8"?>
<kml xmlns="http://www.opengis.net/kml/2.2" xmlns:gx="http://www.google.com/kml/ext/2.2">
    <Document>
        <name>Route</name>
        <Folder>
            <name>Route Request</name>
            <Placemark>
                <Point>
                    <coordinates>114.2026633561,22.2935705602</coordinates>
                </Point>
                <ExtendedData>
                    <Data name="routingVisited">
                        <value>false</value>
                    </Data>
                </ExtendedData>
            </Placemark>
            <Placemark>
                <Point>
                    <coordinates>114.1903618846,22.2808376462</coordinates>
                </Point>
            </Placemark>
            <Placemark>
                <address>42-48, Leighton Road, Lee Gardens Hill, Causeway Bay, Wan Chai District, Hong Kong Island, Hong Kong, 000000, China</address>
                <Point>
                    <coordinates>114.1835338957,22.2775289258</coordinates>
                </Point>
                <ExtendedData>
                    <Data name="road">
                        <value>Leighton Road</value>
                    </Data>
                    <Data name="state">
                        <value>Hong Kong</value>
                    </Data>
                    <Data name="neighbourhood">
                        <value>Lee Gardens Hill</value>
                    </Data>
                    <Data name="city">
                        <value>Hong Kong Island</value>
                    </Data>
                    <Data name="country_code">
                        <value>cn</value>
                    </Data>
                    <Data name="house_number">
                        <value>42-48</value>
                    </Data>
                    <Data name="city_district">
                        <value>Wan Chai District</value>
                    </Data>
                    <Data name="suburb">
                        <value>Causeway Bay</value>
                    </Data>
                    <Data name="ISO3166-2-lvl3">
                        <value>CN-HK</value>
                    </Data>
                    <Data name="country">
                        <value>China</value>
                    </Data>
                    <Data name="postcode">
                        <value>000000</value>
                    </Data>
                </ExtendedData>
            </Placemark>
            <Placemark>
                <address>Cupping room wan chai, Swatow Street, Wan Chai South, Wan Chai, Wan Chai District, Hong Kong Island, Hong Kong, China</address>
                <Point>
                    <coordinates>114.1718420818,22.2762734415</coordinates>
                </Point>
                <ExtendedData>
                    <Data name="road">
                        <value>Swatow Street</value>
                    </Data>
                    <Data name="state">
                        <value>Hong Kong</value>
                    </Data>
                    <Data name="quarter">
                        <value>Wan Chai South</value>
                    </Data>
                    <Data name="city">
                        <value>Hong Kong Island</value>
                    </Data>
                    <Data name="country_code">
                        <value>cn</value>
                    </Data>
                    <Data name="amenity">
                        <value>Cupping room wan chai</value>
                    </Data>
                    <Data name="city_district">
                        <value>Wan Chai District</value>
                    </Data>
                    <Data name="suburb">
                        <value>Wan Chai</value>
                    </Data>
                    <Data name="ISO3166-2-lvl3">
                        <value>CN-HK</value>
                    </Data>
                    <Data name="country">
                        <value>China</value>
                    </Data>
                </ExtendedData>
            </Placemark>
            <Placemark>
                <address>Connaught Road Central, Government Hill, Central District, Central and Western District, Hong Kong Island, Hong Kong, China</address>
                <Point>
                    <coordinates>114.1577662249,22.2832815776</coordinates>
                </Point>
                <ExtendedData>
                    <Data name="road">
                        <value>Connaught Road Central</value>
                    </Data>
                    <Data name="state">
                        <value>Hong Kong</value>
                    </Data>
                    <Data name="neighbourhood">
                        <value>Government Hill</value>
                    </Data>
                    <Data name="borough">
                        <value>Central District</value>
                    </Data>
                    <Data name="city">
                        <value>Hong Kong Island</value>
                    </Data>
                    <Data name="country_code">
                        <value>cn</value>
                    </Data>
                    <Data name="city_district">
                        <value>Central and Western District</value>
                    </Data>
                    <Data name="ISO3166-2-lvl3">
                        <value>CN-HK</value>
                    </Data>
                    <Data name="country">
                        <value>China</value>
                    </Data>
                </ExtendedData>
            </Placemark>
            <Placemark>
                <Point>
                    <coordinates>114.1539835393,22.2867569354</coordinates>
                </Point>
                <ExtendedData>
                    <Data name="routingVisited">
                        <value>false</value>
                    </Data>
                </ExtendedData>
            </Placemark>
            <Placemark>
                <Point>
                    <coordinates>114.1023495140,22.3442957755</coordinates>
                </Point>
            </Placemark>
            <Placemark>
                <Point>
                    <coordinates>113.9244479739,22.2949640181</coordinates>
                </Point>
            </Placemark>
            <Placemark>
                <Point>
                    <coordinates>113.9319556453,22.2954650290</coordinates>
                </Point>
            </Placemark>
            <Placemark>
                <Point>
                    <coordinates>113.9360655328,22.3131339921</coordinates>
                </Point>
            </Placemark>
            <Placemark>
                <Point>
                    <coordinates>113.9407653777,22.3204855706</coordinates>
                </Point>
            </Placemark>
            <Placemark>
                <Point>
                    <coordinates>113.9360698596,22.3131361400</coordinates>
                </Point>
                <ExtendedData>
                    <Data name="routingVisited">
                        <value>false</value>
                    </Data>
                </ExtendedData>
            </Placemark>
            <Placemark>
                <Point>
                    <coordinates>113.9262866098,22.2935243570</coordinates>
                </Point>
            </Placemark>
            <Placemark>
                <Point>
                    <coordinates>113.9261975533,22.2958192849</coordinates>
                </Point>
                <ExtendedData>
                    <Data name="routingVisited">
                        <value>false</value>
                    </Data>
                </ExtendedData>
            </Placemark>
            <Placemark>
                <Point>
                    <coordinates>114.1578214900,22.2869833276</coordinates>
                </Point>
                <ExtendedData>
                    <Data name="routingVisited">
                        <value>false</value>
                    </Data>
                </ExtendedData>
            </Placemark>
            <Placemark>
                <Point>
                    <coordinates>114.1908016074,22.2815347860</coordinates>
                </Point>
                <ExtendedData>
                    <Data name="routingVisited">
                        <value>false</value>
                    </Data>
                </ExtendedData>
            </Placemark>
            <Placemark>
                <Point>
                    <coordinates>114.2026338282,22.2935705631</coordinates>
                </Point>
                <ExtendedData>
                    <Data name="routingVisited">
                        <value>false</value>
                    </Data>
                </ExtendedData>
            </Placemark>
        </Folder>
        <Document>
            <name>98.4 km; 01:46 h (OSRM)</name>
            <Placemark>
                <name>Route</name>
                <LineString>
                    <coordinates>114.2026660000,22.2935720000 114.2027080000,22.2933940000 114.2027240000,22.2933250000 114.2027530000,22.2932060000 114.2028080000,22.2929770000 114.2028370000,22.2928520000 114.2037650000,22.2930550000 114.2038670000,22.2930770000 114.2040090000,22.2931060000 114.2040940000,22.2931020000 114.2041260000,22.2930980000 114.2041660000,22.2930940000 114.2042730000,22.2930730000 114.2043390000,22.2930540000 114.2043960000,22.2930400000 114.2044240000,22.2930320000 114.2044470000,22.2930260000 114.2044750000,22.2930160000 114.2048000000,22.2929270000 114.2048470000,22.2929140000 114.2049510000,22.2928860000 114.2050520000,22.2928610000 114.2050020000,22.2927020000 114.2049710000,22.2926350000 114.2049330000,22.2925690000 114.2048770000,22.2924860000 114.2048290000,22.2924210000 114.2046890000,22.2922390000 114.2046080000,22.2921450000 114.2045710000,22.2920880000 114.2045560000,22.2920590000 114.2045120000,22.2919470000 114.2043640000,22.2919390000 114.2042950000,22.2919310000 114.2040150000,22.2918710000 114.2038270000,22.2918310000 114.2035030000,22.2917660000 114.2033670000,22.2917390000 114.2033410000,22.2917340000 114.2033240000,22.2917310000 114.2033040000,22.2917270000 114.2032910000,22.2917240000 114.2031770000,22.2917010000 114.2031080000,22.2916870000 114.2027420000,22.2916130000 114.2025740000,22.2915780000 114.2023540000,22.2915320000 114.2023230000,22.2915260000 114.2021560000,22.2914910000 114.2021070000,22.2914810000 114.2017780000,22.2914140000 114.2016760000,22.2913940000 114.2013020000,22.2913170000 114.2009440000,22.2912410000 114.2006030000,22.2911730000 114.2004610000,22.2911450000 114.2003230000,22.2911150000 114.1998350000,22.2910140000 114.1995200000,22.2909490000 114.1995030000,22.2909460000 114.1993870000,22.2909220000 114.1993660000,22.2909170000 114.1991330000,22.2908660000 114.1991220000,22.2908640000 114.1990180000,22.2908420000 114.1989490000,22.2908270000 114.1988950000,22.2908150000 114.1987320000,22.2907840000 114.1982720000,22.2906850000 114.1976010000,22.2905490000 114.1970670000,22.2904410000 114.1968590000,22.2904120000 114.1966180000,22.2903630000 114.1965740000,22.2903540000 114.1958210000,22.2902000000 114.1958000000,22.2901950000 114.1957510000,22.2901850000 114.1955490000,22.2901400000 114.1954640000,22.2901190000 114.1954350000,22.2901090000 114.1953600000,22.2900850000 114.1952220000,22.2900220000 114.1951230000,22.2899600000 114.1950440000,22.2899000000 114.1949620000,22.2898250000 114.1947570000,22.2895830000 114.1947000000,22.2895280000 114.1946360000,22.2894580000 114.1946050000,22.2894080000 114.1945520000,22.2893250000 114.1944580000,22.2892190000 114.1944490000,22.2892090000 114.1944390000,22.2891980000 114.1944310000,22.2891880000 114.1944220000,22.2891790000 114.1943110000,22.2890520000 114.1942340000,22.2889650000 114.1938690000,22.2885610000 114.1936620000,22.2883330000 114.1934520000,22.2880920000 114.1933680000,22.2879940000 114.1932260000,22.2878210000 114.1931440000,22.2877040000 114.1930900000,22.2875930000 114.1930560000,22.2875150000 114.1930250000,22.2874440000 114.1930080000,22.2873910000 114.1929920000,22.2873240000 114.1929780000,22.2872280000 114.1929710000,22.2871600000 114.1929670000,22.2870700000 114.1929680000,22.2870230000 114.1929650000,22.2869900000 114.1929670000,22.2869200000 114.1929810000,22.2868530000 114.1929890000,22.2866020000 114.1929910000,22.2865540000 114.1929920000,22.2864730000 114.1930010000,22.2862070000 114.1930060000,22.2859650000 114.1930080000,22.2858200000 114.1930070000,22.2855770000 114.1930010000,22.2854810000 114.1929890000,22.2853700000 114.1929770000,22.2853080000 114.1928810000,22.2847740000 114.1928040000,22.2843680000 114.1927660000,22.2841910000 114.1926440000,22.2836020000 114.1926200000,22.2835040000 114.1925970000,22.2834320000 114.1925410000,22.2832850000 114.1924650000,22.2831050000 114.1923930000,22.2829500000 114.1923570000,22.2828710000 114.1922150000,22.2825790000 114.1921440000,22.2824650000 114.1920560000,22.2823530000 114.1920140000,22.2823010000 114.1919750000,22.2822570000 114.1919140000,22.2821900000 114.1918890000,22.2821650000 114.1918560000,22.2821370000 114.1917750000,22.2820740000 114.1917060000,22.2820260000 114.1914710000,22.2818590000 114.1914570000,22.2818500000 114.1913330000,22.2817660000 114.1909050000,22.2814850000 114.1908100000,22.2814230000 114.1903820000,22.2811300000 114.1902180000,22.2810180000 114.1896480000,22.2806270000 114.1895030000,22.2805270000 114.1894430000,22.2804860000 114.1889260000,22.2801340000 114.1886970000,22.2799780000 114.1881330000,22.2796030000 114.1879860000,22.2795050000 114.1878300000,22.2794030000 114.1876680000,22.2792970000 114.1873360000,22.2791450000 114.1872690000,22.2790210000 114.1872290000,22.2789720000 114.1870950000,22.2788060000 114.1870360000,22.2787430000 114.1868840000,22.2785920000 114.1867550000,22.2784640000 114.1864490000,22.2781620000 114.1862270000,22.2779420000 114.1861410000,22.2778640000 114.1860680000,22.2777980000 114.1856940000,22.2774040000 114.1855020000,22.2772050000 114.1854710000,22.2771870000 114.1854420000,22.2771750000 114.1854170000,22.2771650000 114.1853500000,22.2771380000 114.1852850000,22.2771300000 114.1852150000,22.2771350000 114.1851850000,22.2771450000 114.1850660000,22.2771850000 114.1849380000,22.2772470000 114.1847980000,22.2773200000 114.1846050000,22.2774220000 114.1845360000,22.2774590000 114.1841430000,22.2776660000 114.1840350000,22.2777240000 114.1839010000,22.2777860000 114.1837810000,22.2778120000 114.1836580000,22.2777930000 114.1836000000,22.2777800000 114.1835170000,22.2777570000 114.1834680000,22.2777370000 114.1834230000,22.2777140000 114.1833440000,22.2776730000 114.1829150000,22.2773850000 114.1828620000,22.2773500000 114.1827770000,22.2772990000 114.1825700000,22.2771750000 114.1824620000,22.2771370000 114.1823440000,22.2770920000 114.1822050000,22.2770340000 114.1821890000,22.2770280000 114.1821690000,22.2769850000 114.1821280000,22.2769680000 114.1820870000,22.2769520000 114.1820400000,22.2769620000 114.1819820000,22.2769380000 114.1819350000,22.2769180000 114.1819010000,22.2768720000 114.1814400000,22.2766880000 114.1813090000,22.2766350000 114.1808880000,22.2764620000 114.1806750000,22.2764120000 114.1805530000,22.2764010000 114.1804540000,22.2764340000 114.1804480000,22.2764380000 114.1803560000,22.2765080000 114.1803200000,22.2765610000 114.1801600000,22.2770820000 114.1800050000,22.2774170000 114.1799050000,22.2776350000 114.1798500000,22.2778070000 114.1798370000,22.2778190000 114.1797650000,22.2778730000 114.1796750000,22.2779120000 114.1796560000,22.2779210000 114.1795920000,22.2779340000 114.1794990000,22.2779380000 114.1794030000,22.2779310000 114.1790440000,22.2778480000 114.1789760000,22.2778330000 114.1788690000,22.2778180000 114.1786010000,22.2778130000 114.1784710000,22.2778020000 114.1783830000,22.2777900000 114.1783490000,22.2777850000 114.1783100000,22.2777760000 114.1781990000,22.2777380000 114.1780990000,22.2776860000 114.1779960000,22.2776210000 114.1778980000,22.2775310000 114.1777860000,22.2774480000 114.1776460000,22.2773630000 114.1776160000,22.2773500000 114.1773670000,22.2772330000 114.1769530000,22.2770600000 114.1766360000,22.2769140000 114.1766010000,22.2769020000 114.1765520000,22.2768900000 114.1764990000,22.2768810000 114.1763760000,22.2768700000 114.1758030000,22.2768090000 114.1754660000,22.2767830000 114.1754210000,22.2767790000 114.1753760000,22.2767760000 114.1752400000,22.2767640000 114.1751730000,22.2767600000 114.1751320000,22.2767630000 114.1750780000,22.2767660000 114.1750510000,22.2767550000 114.1750280000,22.2767480000 114.1750080000,22.2767410000 114.1749820000,22.2767330000 114.1749610000,22.2767300000 114.1749440000,22.2767290000 114.1748860000,22.2767220000 114.1748760000,22.2767210000 114.1748640000,22.2767190000 114.1748480000,22.2767170000 114.1748320000,22.2767150000 114.1748210000,22.2767140000 114.1747900000,22.2767100000 114.1747520000,22.2767050000 114.1746630000,22.2766940000 114.1744190000,22.2766660000 114.1740100000,22.2766230000 114.1735910000,22.2765750000 114.1734640000,22.2765600000 114.1733570000,22.2765480000 114.1733210000,22.2765440000 114.1731720000,22.2765270000 114.1728000000,22.2764900000 114.1724830000,22.2764590000 114.1722400000,22.2764350000 114.1719330000,22.2764000000 114.1719390000,22.2763530000 114.1719380000,22.2762920000 114.1719160000,22.2762470000 114.1716700000,22.2757360000 114.1715130000,22.2754280000 114.1716700000,22.2757360000 114.1719140000,22.2762430000 114.1719160000,22.2762470000 114.1719380000,22.2762920000 114.1719390000,22.2763530000 114.1719330000,22.2764000000 114.1717400000,22.2763790000 114.1716540000,22.2763750000 114.1716110000,22.2763740000 114.1716050000,22.2763900000 114.1715960000,22.2764150000 114.1715820000,22.2764370000 114.1715680000,22.2764560000 114.1715480000,22.2764860000 114.1715320000,22.2765070000 114.1715220000,22.2765350000 114.1715190000,22.2765580000 114.1715600000,22.2770260000 114.1715920000,22.2773720000 114.1715940000,22.2773970000 114.1716020000,22.2774820000 114.1716220000,22.2775890000 114.1716310000,22.2776810000 114.1716490000,22.2778640000 114.1716580000,22.2779830000 114.1716600000,22.2780110000 114.1716660000,22.2780820000 114.1716740000,22.2781550000 114.1716820000,22.2782290000 114.1716890000,22.2782800000 114.1717110000,22.2784400000 114.1717210000,22.2785150000 114.1717240000,22.2785420000 114.1717300000,22.2786030000 114.1717340000,22.2786550000 114.1717350000,22.2786760000 114.1717570000,22.2789850000 114.1717610000,22.2790480000 114.1716390000,22.2790530000 114.1712320000,22.2790850000 114.1709310000,22.2791100000 114.1704380000,22.2791510000 114.1702470000,22.2791720000 114.1700260000,22.2793060000 114.1695590000,22.2793430000 114.1693990000,22.2793690000 114.1690260000,22.2794500000 114.1688970000,22.2794650000 114.1687260000,22.2795050000 114.1686570000,22.2795190000 114.1685610000,22.2795380000 114.1683340000,22.2795780000 114.1681730000,22.2795890000 114.1680620000,22.2795580000 114.1679690000,22.2795330000 114.1678780000,22.2795210000 114.1677650000,22.2795040000 114.1674090000,22.2794490000 114.1672060000,22.2794170000 114.1669640000,22.2793880000 114.1666330000,22.2793610000 114.1665480000,22.2793540000 114.1664120000,22.2793710000 114.1663450000,22.2793740000 114.1661350000,22.2794450000 114.1660530000,22.2794540000 114.1659300000,22.2794660000 114.1657430000,22.2794980000 114.1655310000,22.2795640000 114.1653260000,22.2796530000 114.1649120000,22.2799240000 114.1644970000,22.2801990000 114.1644040000,22.2802570000 114.1642250000,22.2803930000 114.1640590000,22.2805170000 114.1638310000,22.2806870000 114.1632240000,22.2810830000 114.1629860000,22.2812120000 114.1629160000,22.2812320000 114.1627190000,22.2812780000 114.1626100000,22.2813120000 114.1624320000,22.2813680000 114.1623800000,22.2813820000 114.1623190000,22.2813990000 114.1622000000,22.2814480000 114.1619970000,22.2815320000 114.1618950000,22.2815840000 114.1616370000,22.2816570000 114.1614330000,22.2817120000 114.1608800000,22.2818560000 114.1604890000,22.2819560000 114.1602690000,22.2820190000 114.1601700000,22.2820480000 114.1600580000,22.2820810000 114.1600020000,22.2820980000 114.1597900000,22.2821590000 114.1596410000,22.2822440000 114.1589650000,22.2825150000 114.1587780000,22.2825970000 114.1585440000,22.2827100000 114.1583720000,22.2828110000 114.1581740000,22.2829540000 114.1578920000,22.2831820000 114.1577880000,22.2832750000 114.1577740000,22.2832890000 114.1577280000,22.2833330000 114.1576310000,22.2834310000 114.1575640000,22.2835070000 114.1574590000,22.2836200000 114.1573560000,22.2837130000 114.1572720000,22.2837890000 114.1572170000,22.2838640000 114.1571750000,22.2839280000 114.1571260000,22.2839930000 114.1570630000,22.2840670000 114.1570030000,22.2841210000 114.1569650000,22.2841690000 114.1569080000,22.2842420000 114.1567160000,22.2844880000 114.1566630000,22.2845700000 114.1565970000,22.2846560000 114.1565100000,22.2847670000 114.1564190000,22.2848940000 114.1563950000,22.2849480000 114.1563710000,22.2850090000 114.1563480000,22.2850770000 114.1563080000,22.2852050000 114.1562810000,22.2852770000 114.1562610000,22.2853250000 114.1562230000,22.2853940000 114.1561800000,22.2854570000 114.1561320000,22.2855170000 114.1560890000,22.2855640000 114.1560390000,22.2856120000 114.1559870000,22.2856560000 114.1559340000,22.2856940000 114.1558750000,22.2857320000 114.1558270000,22.2857590000 114.1557580000,22.2857950000 114.1556820000,22.2858300000 114.1553360000,22.2859780000 114.1551380000,22.2860610000 114.1549190000,22.2861650000 114.1547930000,22.2862200000 114.1545310000,22.2863710000 114.1541970000,22.2865650000 114.1540350000,22.2866520000 114.1539490000,22.2866930000 114.1539120000,22.2867100000 114.1538060000,22.2867570000 114.1537180000,22.2867940000 114.1536290000,22.2868280000 114.1535140000,22.2868710000 114.1533220000,22.2869390000 114.1532130000,22.2869840000 114.1529020000,22.2870700000 114.1526480000,22.2871460000 114.1525440000,22.2871770000 114.1523260000,22.2872420000 114.1518070000,22.2873960000 114.1510010000,22.2876360000 114.1507380000,22.2877100000 114.1504730000,22.2877840000 114.1500380000,22.2879030000 114.1496450000,22.2880000000 114.1488010000,22.2882260000 114.1483480000,22.2883170000 114.1482760000,22.2883440000 114.1481130000,22.2883980000 114.1480310000,22.2884120000 114.1477010000,22.2884540000 114.1464610000,22.2885810000 114.1463690000,22.2885890000 114.1458940000,22.2886340000 114.1452760000,22.2886290000 114.1452130000,22.2886340000 114.1449270000,22.2886610000 114.1431340000,22.2888430000 114.1429290000,22.2888530000 114.1427240000,22.2888580000 114.1425180000,22.2888600000 114.1421640000,22.2888570000 114.1416570000,22.2888120000 114.1415230000,22.2888160000 114.1414030000,22.2888230000 114.1412830000,22.2888350000 114.1411630000,22.2888530000 114.1410450000,22.2888770000 114.1409610000,22.2889020000 114.1408800000,22.2889360000 114.1408030000,22.2889780000 114.1407310000,22.2890280000 114.1406660000,22.2890840000 114.1406080000,22.2891460000 114.1405570000,22.2892140000 114.1405140000,22.2892860000 114.1404800000,22.2893620000 114.1404550000,22.2894410000 114.1404400000,22.2895230000 114.1404340000,22.2896050000 114.1404370000,22.2896870000 114.1404500000,22.2897690000 114.1404730000,22.2898490000 114.1405040000,22.2899260000 114.1405450000,22.2899990000 114.1405940000,22.2900680000 114.1406500000,22.2901320000 114.1407140000,22.2901900000 114.1407840000,22.2902410000 114.1408590000,22.2902850000 114.1409420000,22.2903220000 114.1410290000,22.2903500000 114.1411190000,22.2903700000 114.1412100000,22.2903810000 114.1413020000,22.2903830000 114.1413940000,22.2903760000 114.1414840000,22.2903600000 114.1415720000,22.2903350000 114.1416570000,22.2903020000 114.1417490000,22.2902570000 114.1421090000,22.2900830000 114.1422010000,22.2900160000 114.1424570000,22.2898400000 114.1427260000,22.2896770000 114.1428510000,22.2896110000 114.1429780000,22.2895520000 114.1430950000,22.2895030000 114.1432150000,22.2894610000 114.1433370000,22.2894270000 114.1435660000,22.2893660000 114.1437070000,22.2893400000 114.1438090000,22.2893220000 114.1440550000,22.2892960000 114.1443030000,22.2892900000 114.1445500000,22.2893020000 114.1447950000,22.2893330000 114.1450370000,22.2893840000 114.1452730000,22.2894520000 114.1455020000,22.2895390000 114.1457230000,22.2896420000 114.1459340000,22.2897630000 114.1461330000,22.2898990000 114.1463680000,22.2901390000 114.1554730000,22.2999560000 114.1558600000,22.3003730000 114.1566150000,22.3012230000 114.1568940000,22.3015430000 114.1571420000,22.3018730000 114.1572490000,22.3020230000 114.1575930000,22.3024530000 114.1584030000,22.3034320000 114.1584690000,22.3035120000 114.1585150000,22.3035780000 114.1586210000,22.3037060000 114.1589420000,22.3041780000 114.1591530000,22.3044940000 114.1594820000,22.3050270000 114.1595880000,22.3051940000 114.1596600000,22.3053210000 114.1597240000,22.3054210000 114.1598150000,22.3055560000 114.1598920000,22.3056880000 114.1600100000,22.3058790000 114.1600740000,22.3059830000 114.1602070000,22.3062040000 114.1604750000,22.3067300000 114.1605520000,22.3068960000 114.1606170000,22.3070380000 114.1607670000,22.3073780000 114.1609030000,22.3077770000 114.1610160000,22.3080220000 114.1610810000,22.3081630000 114.1611240000,22.3082720000 114.1611510000,22.3083590000 114.1611690000,22.3084180000 114.1612440000,22.3086610000 114.1613700000,22.3093040000 114.1614650000,22.3098320000 114.1614950000,22.3100760000 114.1615180000,22.3103170000 114.1615390000,22.3107290000 114.1615440000,22.3108280000 114.1615570000,22.3111090000 114.1615500000,22.3115460000 114.1615310000,22.3120660000 114.1615120000,22.3123440000 114.1614680000,22.3127020000 114.1613990000,22.3130790000 114.1612700000,22.3136940000 114.1612220000,22.3138820000 114.1611790000,22.3140080000 114.1611490000,22.3140940000 114.1610750000,22.3143060000 114.1610470000,22.3143880000 114.1610120000,22.3144870000 114.1609700000,22.3146090000 114.1608720000,22.3148930000 114.1608170000,22.3150540000 114.1607220000,22.3152950000 114.1606600000,22.3154510000 114.1605320000,22.3157770000 114.1604310000,22.3160340000 114.1604020000,22.3161020000 114.1602320000,22.3165050000 114.1601490000,22.3167130000 114.1600170000,22.3170510000 114.1599140000,22.3172960000 114.1597820000,22.3176120000 114.1595720000,22.3181370000 114.1594170000,22.3185250000 114.1592550000,22.3188970000 114.1592030000,22.3190150000 114.1590080000,22.3194180000 114.1587420000,22.3199420000 114.1583530000,22.3206340000 114.1580280000,22.3211960000 114.1578120000,22.3215320000 114.1575490000,22.3219090000 114.1572310000,22.3223570000 114.1568960000,22.3228060000 114.1566210000,22.3231540000 114.1563410000,22.3235090000 114.1560360000,22.3238490000 114.1557920000,22.3241230000 114.1553950000,22.3245530000 114.1550540000,22.3249040000 114.1547300000,22.3252310000 114.1543620000,22.3255780000 114.1540020000,22.3258970000 114.1535900000,22.3262530000 114.1531170000,22.3266270000 114.1527770000,22.3268800000 114.1522560000,22.3272720000 114.1518220000,22.3275630000 114.1514760000,22.3277850000 114.1512290000,22.3279450000 114.1504710000,22.3283960000 114.1499850000,22.3286710000 114.1496200000,22.3288590000 114.1490590000,22.3291340000 114.1489510000,22.3291850000 114.1486060000,22.3293440000 114.1478890000,22.3296390000 114.1475170000,22.3297910000 114.1471780000,22.3299180000 114.1464480000,22.3302230000 114.1463850000,22.3302470000 114.1454820000,22.3305840000 114.1452560000,22.3306640000 114.1445070000,22.3309320000 114.1438590000,22.3311530000 114.1436130000,22.3312480000 114.1429310000,22.3315740000 114.1428530000,22.3316050000 114.1412890000,22.3322090000 114.1405410000,22.3324930000 114.1403740000,22.3325580000 114.1395880000,22.3328230000 114.1394970000,22.3328500000 114.1385640000,22.3332330000 114.1378030000,22.3335180000 114.1373210000,22.3337010000 114.1368860000,22.3338730000 114.1365640000,22.3340150000 114.1362710000,22.3341510000 114.1359690000,22.3343040000 114.1356310000,22.3344910000 114.1354440000,22.3346060000 114.1353440000,22.3346670000 114.1352220000,22.3347460000 114.1350140000,22.3348820000 114.1348000000,22.3350240000 114.1344480000,22.3352610000 114.1342910000,22.3353690000 114.1341900000,22.3354590000 114.1338720000,22.3357390000 114.1334860000,22.3361210000 114.1332200000,22.3364150000 114.1330340000,22.3366250000 114.1327260000,22.3370270000 114.1325120000,22.3373330000 114.1322740000,22.3377130000 114.1321960000,22.3378480000 114.1320510000,22.3380930000 114.1318960000,22.3383900000 114.1318580000,22.3384640000 114.1316890000,22.3387910000 114.1313190000,22.3395860000 114.1310380000,22.3402110000 114.1309620000,22.3403700000 114.1308660000,22.3405680000 114.1307020000,22.3409030000 114.1306300000,22.3410380000 114.1305920000,22.3411100000 114.1305250000,22.3412340000 114.1304660000,22.3413420000 114.1303470000,22.3415350000 114.1302580000,22.3416670000 114.1301950000,22.3417640000 114.1300900000,22.3418930000 114.1300170000,22.3419770000 114.1299130000,22.3420940000 114.1297960000,22.3422120000 114.1296700000,22.3423320000 114.1295520000,22.3424400000 114.1294840000,22.3425000000 114.1293200000,22.3426370000 114.1291160000,22.3427790000 114.1289430000,22.3428890000 114.1287970000,22.3429780000 114.1286030000,22.3430850000 114.1283130000,22.3432270000 114.1281970000,22.3432800000 114.1280870000,22.3433250000 114.1278230000,22.3434330000 114.1275370000,22.3435510000 114.1272190000,22.3436900000 114.1270920000,22.3437490000 114.1269950000,22.3437970000 114.1269170000,22.3438390000 114.1268020000,22.3439050000 114.1265700000,22.3440470000 114.1263600000,22.3441870000 114.1261980000,22.3443040000 114.1260630000,22.3444120000 114.1259430000,22.3445150000 114.1257850000,22.3446620000 114.1256620000,22.3447850000 114.1254920000,22.3449680000 114.1252790000,22.3452360000 114.1251700000,22.3453840000 114.1250580000,22.3455550000 114.1249770000,22.3456920000 114.1248460000,22.3459330000 114.1246780000,22.3462410000 114.1246340000,22.3464060000 114.1246200000,22.3464560000 114.1246030000,22.3465190000 114.1245820000,22.3465970000 114.1245630000,22.3466700000 114.1245300000,22.3467900000 114.1244960000,22.3469180000 114.1244670000,22.3470260000 114.1244530000,22.3470760000 114.1244430000,22.3471290000 114.1244350000,22.3471890000 114.1244300000,22.3472230000 114.1243930000,22.3475460000 114.1243650000,22.3479040000 114.1243660000,22.3480910000 114.1243750000,22.3483980000 114.1243700000,22.3487140000 114.1243510000,22.3491910000 114.1242990000,22.3496090000 114.1241960000,22.3499950000 114.1240680000,22.3503030000 114.1239290000,22.3506140000 114.1237360000,22.3509000000 114.1236170000,22.3510480000 114.1233060000,22.3513820000 114.1231200000,22.3515280000 114.1228140000,22.3517660000 114.1226590000,22.3518510000 114.1221170000,22.3521330000 114.1220390000,22.3521610000 114.1219330000,22.3521910000 114.1217460000,22.3522390000 114.1216430000,22.3522680000 114.1214310000,22.3523020000 114.1211410000,22.3523410000 114.1207110000,22.3523730000 114.1203330000,22.3523730000 114.1199880000,22.3523650000 114.1194960000,22.3522790000 114.1191870000,22.3522180000 114.1188760000,22.3521210000 114.1185250000,22.3519850000 114.1181990000,22.3518490000 114.1179480000,22.3517290000 114.1175950000,22.3515240000 114.1171200000,22.3512030000 114.1167670000,22.3509350000 114.1163940000,22.3506770000 114.1161560000,22.3505160000 114.1158850000,22.3503530000 114.1156120000,22.3502090000 114.1153200000,22.3500660000 114.1151020000,22.3499700000 114.1122350000,22.3488850000 114.1118310000,22.3487140000 114.1114850000,22.3485670000 114.1110020000,22.3483410000 114.1108420000,22.3482640000 114.1067700000,22.3461380000 114.1065040000,22.3460130000 114.1062830000,22.3459150000 114.1060100000,22.3457980000 114.1057500000,22.3456900000 114.1055200000,22.3456000000 114.1053160000,22.3455250000 114.1050600000,22.3454400000 114.1048010000,22.3453580000 114.1045000000,22.3452660000 114.1042000000,22.3451750000 114.1039000000,22.3450920000 114.1036000000,22.3450220000 114.1033000000,22.3449580000 114.1030000000,22.3449000000 114.1026000000,22.3448350000 114.1022760000,22.3447940000 114.1020600000,22.3447660000 114.1017660000,22.3447330000 114.1014700000,22.3447070000 114.1011840000,22.3446860000 114.1009000000,22.3446750000 114.1003400000,22.3446570000 114.0957200000,22.3446110000 114.0956240000,22.3446120000 114.0943500000,22.3446090000 114.0939100000,22.3446010000 114.0937600000,22.3445980000 114.0932450000,22.3446000000 114.0929810000,22.3446070000 114.0927640000,22.3446250000 114.0924930000,22.3446550000 114.0921460000,22.3447160000 114.0920330000,22.3447350000 114.0918930000,22.3447670000 114.0917140000,22.3448180000 114.0915110000,22.3448750000 114.0912240000,22.3449820000 114.0909570000,22.3450960000 114.0906820000,22.3452200000 114.0903900000,22.3453580000 114.0901100000,22.3454820000 114.0897870000,22.3456310000 114.0895330000,22.3457580000 114.0892480000,22.3459070000 114.0889450000,22.3460940000 114.0886130000,22.3463450000 114.0883940000,22.3465310000 114.0882570000,22.3466630000 114.0880450000,22.3468980000 114.0879860000,22.3469680000 114.0878280000,22.3471710000 114.0875680000,22.3475740000 114.0873750000,22.3479670000 114.0872760000,22.3482430000 114.0872380000,22.3483480000 114.0871240000,22.3487340000 114.0871080000,22.3487870000 114.0868960000,22.3496110000 114.0868320000,22.3498440000 114.0866190000,22.3502770000 114.0865140000,22.3505780000 114.0864640000,22.3507710000 114.0863940000,22.3509560000 114.0862570000,22.3512780000 114.0861410000,22.3515520000 114.0860220000,22.3517890000 114.0857070000,22.3523180000 114.0855970000,22.3524720000 114.0855230000,22.3525730000 114.0852780000,22.3528730000 114.0851340000,22.3530300000 114.0849600000,22.3531950000 114.0848770000,22.3532660000 114.0847880000,22.3533230000 114.0846600000,22.3534170000 114.0844490000,22.3535240000 114.0843040000,22.3535790000 114.0841700000,22.3536220000 114.0840860000,22.3536490000 114.0839790000,22.3536510000 114.0838550000,22.3536480000 114.0837140000,22.3536450000 114.0835060000,22.3536230000 114.0834460000,22.3536160000 114.0831830000,22.3535730000 114.0828470000,22.3534940000 114.0825320000,22.3534100000 114.0824270000,22.3533780000 114.0823180000,22.3533460000 114.0822340000,22.3533150000 114.0820610000,22.3532540000 114.0818980000,22.3532060000 114.0817580000,22.3531650000 114.0816090000,22.3531210000 114.0805210000,22.3528160000 114.0797960000,22.3526170000 114.0797070000,22.3525930000 114.0726090000,22.3506460000 114.0675450000,22.3492370000 114.0659400000,22.3487900000 114.0628910000,22.3479420000 114.0621920000,22.3477430000 114.0617970000,22.3476210000 114.0613990000,22.3474890000 114.0610110000,22.3473460000 114.0606270000,22.3471880000 114.0602360000,22.3470150000 114.0598750000,22.3468400000 114.0595140000,22.3466480000 114.0591600000,22.3464470000 114.0588470000,22.3462540000 114.0585430000,22.3460600000 114.0525500000,22.3421550000 114.0519850000,22.3418020000 114.0517420000,22.3416520000 114.0514980000,22.3415220000 114.0511970000,22.3413840000 114.0509050000,22.3412690000 114.0504640000,22.3411370000 114.0501150000,22.3410650000 114.0496320000,22.3409870000 114.0488040000,22.3409060000 114.0482030000,22.3408520000 114.0472620000,22.3407500000 114.0466410000,22.3406480000 114.0460530000,22.3405040000 114.0457980000,22.3404300000 114.0455720000,22.3403470000 114.0453930000,22.3402800000 114.0452960000,22.3402370000 114.0452310000,22.3402090000 114.0451410000,22.3401610000 114.0450850000,22.3401310000 114.0449720000,22.3400670000 114.0446520000,22.3398810000 114.0440850000,22.3395510000 114.0433240000,22.3391420000 114.0432120000,22.3390820000 114.0407570000,22.3379700000 114.0398910000,22.3375530000 114.0396970000,22.3374650000 114.0396100000,22.3374260000 114.0393150000,22.3373090000 114.0392240000,22.3372790000 114.0389280000,22.3371800000 114.0384940000,22.3370620000 114.0380500000,22.3369760000 114.0375410000,22.3368690000 114.0371470000,22.3367950000 114.0367080000,22.3366840000 114.0364270000,22.3366160000 114.0362160000,22.3365560000 114.0357730000,22.3363950000 114.0352720000,22.3361990000 114.0347280000,22.3359460000 114.0342840000,22.3357050000 114.0339040000,22.3354760000 114.0333950000,22.3351300000 114.0328830000,22.3347400000 114.0324360000,22.3343470000 114.0313330000,22.3332900000 114.0310680000,22.3330150000 114.0309200000,22.3328440000 114.0307240000,22.3326390000 114.0301970000,22.3321170000 114.0299260000,22.3318720000 114.0295010000,22.3314770000 114.0272370000,22.3293250000 114.0265500000,22.3286660000 114.0257940000,22.3279360000 114.0255110000,22.3276600000 114.0251350000,22.3273220000 114.0247420000,22.3270050000 114.0243000000,22.3266910000 114.0239930000,22.3264980000 114.0238300000,22.3264040000 114.0237490000,22.3263580000 114.0235970000,22.3262700000 114.0230920000,22.3260010000 114.0226320000,22.3257790000 114.0218850000,22.3254810000 114.0213490000,22.3253080000 114.0208470000,22.3251460000 114.0203250000,22.3250340000 114.0198930000,22.3249550000 114.0194430000,22.3248980000 114.0189510000,22.3248540000 114.0184850000,22.3248340000 114.0179330000,22.3248360000 114.0157300000,22.3249950000 114.0151520000,22.3250270000 114.0146290000,22.3250370000 114.0140400000,22.3250260000 114.0134390000,22.3249840000 114.0129530000,22.3249290000 114.0125170000,22.3248670000 114.0120450000,22.3247740000 114.0110200000,22.3245160000 114.0104500000,22.3243350000 114.0099940000,22.3241710000 114.0092210000,22.3238440000 114.0030460000,22.3210970000 114.0022110000,22.3207110000 114.0018700000,22.3205380000 114.0015450000,22.3203740000 114.0012450000,22.3202230000 114.0009200000,22.3200340000 114.0006410000,22.3198590000 114.0004230000,22.3197030000 114.0001470000,22.3195040000 113.9998380000,22.3192620000 113.9994860000,22.3189590000 113.9992090000,22.3186870000 113.9989500000,22.3184190000 113.9985960000,22.3180270000 113.9983040000,22.3176570000 113.9980380000,22.3172630000 113.9980000000,22.3172060000 113.9977570000,22.3168210000 113.9977160000,22.3167520000 113.9974960000,22.3163870000 113.9973020000,22.3160790000 113.9971020000,22.3157770000 113.9968930000,22.3154780000 113.9966240000,22.3151180000 113.9964650000,22.3149000000 113.9961560000,22.3145280000 113.9959240000,22.3142630000 113.9957120000,22.3140280000 113.9954890000,22.3137910000 113.9951690000,22.3134730000 113.9951210000,22.3134260000 113.9949860000,22.3133030000 113.9948160000,22.3131480000 113.9945760000,22.3129470000 113.9944550000,22.3128470000 113.9940660000,22.3125250000 113.9937300000,22.3122730000 113.9936770000,22.3122350000 113.9933570000,22.3120010000 113.9929640000,22.3117410000 113.9926010000,22.3115140000 113.9889850000,22.3094370000 113.9877960000,22.3087560000 113.9860440000,22.3076980000 113.9856810000,22.3074790000 113.9851170000,22.3071400000 113.9850420000,22.3070920000 113.9840910000,22.3064780000 113.9818600000,22.3050900000 113.9804410000,22.3041820000 113.9802420000,22.3040600000 113.9802060000,22.3040380000 113.9795070000,22.3036070000 113.9786170000,22.3030810000 113.9785000000,22.3030110000 113.9778760000,22.3026570000 113.9777710000,22.3025970000 113.9769330000,22.3021450000 113.9766060000,22.3019810000 113.9757470000,22.3015510000 113.9746960000,22.3010220000 113.9737440000,22.3005560000 113.9731390000,22.3002800000 113.9722740000,22.2999010000 113.9715800000,22.2996450000 113.9710390000,22.2994730000 113.9705160000,22.2993110000 113.9698770000,22.2991360000 113.9689750000,22.2989320000 113.9680210000,22.2986970000 113.9677270000,22.2986300000 113.9617660000,22.2973000000 113.9607320000,22.2970690000 113.9604070000,22.2969920000 113.9601340000,22.2969210000 113.9598210000,22.2968340000 113.9595620000,22.2967560000 113.9591520000,22.2966210000 113.9587870000,22.2964900000 113.9583360000,22.2963120000 113.9578120000,22.2960840000 113.9572880000,22.2958300000 113.9567450000,22.2955430000 113.9561030000,22.2951590000 113.9557700000,22.2949390000 113.9553550000,22.2946500000 113.9550840000,22.2944500000 113.9548820000,22.2942940000 113.9545540000,22.2940310000 113.9542330000,22.2937510000 113.9538700000,22.2934090000 113.9535270000,22.2930740000 113.9532730000,22.2927990000 113.9528750000,22.2923800000 113.9523830000,22.2918530000 113.9521350000,22.2916130000 113.9518830000,22.2913840000 113.9515220000,22.2910870000 113.9512400000,22.2908870000 113.9510840000,22.2907630000 113.9504990000,22.2904060000 113.9500840000,22.2901790000 113.9496380000,22.2899900000 113.9491880000,22.2898330000 113.9487170000,22.2896800000 113.9483130000,22.2895790000 113.9478750000,22.2894950000 113.9474000000,22.2894160000 113.9468720000,22.2893630000 113.9463440000,22.2893450000 113.9459210000,22.2893440000 113.9454980000,22.2893540000 113.9448930000,22.2894100000 113.9445070000,22.2894660000 113.9439680000,22.2895710000 113.9434870000,22.2896900000 113.9431440000,22.2897990000 113.9427810000,22.2899170000 113.9422880000,22.2901140000 113.9418790000,22.2903000000 113.9417000000,22.2903820000 113.9413010000,22.2906010000 113.9409940000,22.2907830000 113.9406600000,22.2910100000 113.9403680000,22.2912140000 113.9400220000,22.2914810000 113.9396740000,22.2917880000 113.9396060000,22.2918480000 113.9395580000,22.2918910000 113.9393630000,22.2920630000 113.9387640000,22.2926780000 113.9384520000,22.2930200000 113.9381460000,22.2933970000 113.9378070000,22.2938530000 113.9374290000,22.2944040000 113.9371020000,22.2949530000 113.9370700000,22.2950050000 113.9370460000,22.2950450000 113.9368940000,22.2953000000 113.9368460000,22.2953830000 113.9367820000,22.2954940000 113.9364110000,22.2961470000 113.9361290000,22.2966590000 113.9357700000,22.2971250000 113.9355660000,22.2974950000 113.9354230000,22.2977910000 113.9353890000,22.2978720000 113.9352530000,22.2982470000 113.9351900000,22.2984760000 113.9351310000,22.2987160000 113.9351020000,22.2988070000 113.9350740000,22.2988840000 113.9350440000,22.2989480000 113.9350140000,22.2990000000 113.9349810000,22.2990480000 113.9349290000,22.2991140000 113.9348730000,22.2991720000 113.9348050000,22.2992300000 113.9347330000,22.2992790000 113.9346700000,22.2993160000 113.9346070000,22.2993450000 113.9345300000,22.2993760000 113.9344540000,22.2994000000 113.9343670000,22.2994180000 113.9342910000,22.2994290000 113.9342180000,22.2994340000 113.9341280000,22.2994340000 113.9340490000,22.2994280000 113.9339910000,22.2994170000 113.9339110000,22.2993970000 113.9338320000,22.2993690000 113.9337570000,22.2993350000 113.9336260000,22.2992640000 113.9335160000,22.2991980000 113.9333940000,22.2991150000 113.9332290000,22.2989910000 113.9331910000,22.2989560000 113.9331580000,22.2989130000 113.9331420000,22.2988700000 113.9331310000,22.2988150000 113.9331210000,22.2987450000 113.9330930000,22.2986640000 113.9330590000,22.2986020000 113.9330120000,22.2985480000 113.9329590000,22.2985040000 113.9329130000,22.2984770000 113.9328650000,22.2984560000 113.9328130000,22.2984400000 113.9327510000,22.2984290000 113.9326920000,22.2984240000 113.9325660000,22.2983600000 113.9324610000,22.2982880000 113.9323640000,22.2982130000 113.9323040000,22.2981480000 113.9322480000,22.2980790000 113.9321940000,22.2980150000 113.9321260000,22.2979400000 113.9319540000,22.2977910000 113.9318760000,22.2977230000 113.9317180000,22.2975950000 113.9313860000,22.2973830000 113.9312380000,22.2972950000 113.9311720000,22.2972700000 113.9308760000,22.2971590000 113.9305820000,22.2970510000 113.9303410000,22.2969880000 113.9299790000,22.2968890000 113.9292390000,22.2966760000 113.9287810000,22.2965330000 113.9287480000,22.2965230000 113.9286820000,22.2965010000 113.9286510000,22.2964910000 113.9280560000,22.2962960000 113.9278260000,22.2962310000 113.9275690000,22.2961520000 113.9274870000,22.2961040000 113.9274320000,22.2960620000 113.9273730000,22.2960070000 113.9273560000,22.2959260000 113.9273180000,22.2958510000 113.9272520000,22.2957800000 113.9271670000,22.2957300000 113.9270700000,22.2957030000 113.9269690000,22.2957030000 113.9268490000,22.2957400000 113.9266960000,22.2956690000 113.9259650000,22.2954530000 113.9244440000,22.2949760000 113.9241820000,22.2948940000 113.9233200000,22.2946040000 113.9231730000,22.2947420000 113.9226170000,22.2945670000 113.9222840000,22.2944830000 113.9221610000,22.2944600000 113.9220590000,22.2944290000 113.9219930000,22.2943860000 113.9219210000,22.2943400000 113.9219290000,22.2942620000 113.9219630000,22.2941580000 113.9220090000,22.2940580000 113.9221340000,22.2939260000 113.9222460000,22.2938380000 113.9224130000,22.2937720000 113.9226780000,22.2936690000 113.9231680000,22.2935210000 113.9239310000,22.2932910000 113.9240530000,22.2932540000 113.9243100000,22.2932020000 113.9246990000,22.2931400000 113.9248830000,22.2931690000 113.9249620000,22.2931870000 113.9250240000,22.2932090000 113.9250550000,22.2932390000 113.9251190000,22.2933160000 113.9251560000,22.2933750000 113.9252110000,22.2934250000 113.9252750000,22.2934570000 113.9253470000,22.2934730000 113.9254170000,22.2934710000 113.9258610000,22.2935300000 113.9260070000,22.2935690000 113.9262770000,22.2936410000 113.9266920000,22.2937820000 113.9269090000,22.2938490000 113.9272930000,22.2939670000 113.9273620000,22.2940110000 113.9274140000,22.2940530000 113.9274600000,22.2940990000 113.9274960000,22.2941510000 113.9275260000,22.2942200000 113.9275490000,22.2942740000 113.9275820000,22.2943130000 113.9276240000,22.2943430000 113.9276730000,22.2943620000 113.9277260000,22.2943690000 113.9277790000,22.2943630000 113.9278410000,22.2943380000 113.9279290000,22.2943260000 113.9280390000,22.2943090000 113.9280540000,22.2943070000 113.9281930000,22.2943020000 113.9283650000,22.2943060000 113.9289790000,22.2945080000 113.9295430000,22.2946750000 113.9312350000,22.2952110000 113.9316450000,22.2953420000 113.9317640000,22.2953800000 113.9319640000,22.2954440000 113.9322890000,22.2955480000 113.9326600000,22.2957090000 113.9329710000,22.2959010000 113.9330040000,22.2959880000 113.9330230000,22.2960330000 113.9330510000,22.2961020000 113.9330690000,22.2961580000 113.9330140000,22.2962380000 113.9329890000,22.2963220000 113.9329980000,22.2964160000 113.9330320000,22.2965060000 113.9331150000,22.2965950000 113.9332210000,22.2966360000 113.9332590000,22.2966480000 113.9332830000,22.2966510000 113.9333180000,22.2966540000 113.9333530000,22.2966540000 113.9334370000,22.2966460000 113.9335100000,22.2966180000 113.9335560000,22.2965880000 113.9336040000,22.2965870000 113.9337540000,22.2965780000 113.9339230000,22.2966070000 113.9341190000,22.2966710000 113.9343820000,22.2967670000 113.9345950000,22.2968870000 113.9347410000,22.2970010000 113.9348440000,22.2971220000 113.9349300000,22.2972900000 113.9349720000,22.2974370000 113.9349960000,22.2976060000 113.9349860000,22.2978080000 113.9349390000,22.2980020000 113.9348850000,22.2982040000 113.9348330000,22.2983940000 113.9348180000,22.2984470000 113.9347870000,22.2985580000 113.9347350000,22.2987830000 113.9347130000,22.2988980000 113.9347010000,22.2989680000 113.9346670000,22.2992420000 113.9346570000,22.2994040000 113.9346550000,22.2996860000 113.9346770000,22.2999930000 113.9346960000,22.3001930000 113.9346860000,22.3002810000 113.9346840000,22.3003610000 113.9347090000,22.3004910000 113.9347270000,22.3005850000 113.9348150000,22.3009360000 113.9349950000,22.3014760000 113.9350070000,22.3015120000 113.9350160000,22.3015370000 113.9351180000,22.3018350000 113.9353510000,22.3024350000 113.9355410000,22.3031180000 113.9358500000,22.3039490000 113.9359950000,22.3043030000 113.9360580000,22.3044510000 113.9361760000,22.3047410000 113.9364430000,22.3053550000 113.9367060000,22.3060100000 113.9367830000,22.3062100000 113.9368540000,22.3063950000 113.9369210000,22.3066690000 113.9371410000,22.3075690000 113.9372170000,22.3079370000 113.9372420000,22.3080590000 113.9372920000,22.3083330000 113.9373460000,22.3086430000 113.9375030000,22.3095700000 113.9375910000,22.3100450000 113.9375770000,22.3101150000 113.9374850000,22.3104040000 113.9374610000,22.3104410000 113.9374440000,22.3104610000 113.9374250000,22.3104800000 113.9373860000,22.3105230000 113.9373360000,22.3105630000 113.9372830000,22.3105970000 113.9372160000,22.3106320000 113.9371290000,22.3106660000 113.9370690000,22.3106930000 113.9368970000,22.3108030000 113.9367750000,22.3108840000 113.9366750000,22.3110070000 113.9364860000,22.3112970000 113.9364510000,22.3113040000 113.9364180000,22.3113170000 113.9363880000,22.3113360000 113.9363660000,22.3113560000 113.9363470000,22.3113790000 113.9363330000,22.3114060000 113.9363230000,22.3114340000 113.9363190000,22.3114640000 113.9363200000,22.3114940000 113.9363300000,22.3115300000 113.9363470000,22.3115640000 113.9363710000,22.3115930000 113.9364010000,22.3116170000 113.9364370000,22.3116350000 113.9363030000,22.3119480000 113.9362310000,22.3122060000 113.9361900000,22.3123370000 113.9361740000,22.3123980000 113.9361500000,22.3124640000 113.9360490000,22.3127420000 113.9360000000,22.3128710000 113.9359430000,22.3129850000 113.9359290000,22.3130670000 113.9359350000,22.3131390000 113.9359150000,22.3131650000 113.9359050000,22.3131950000 113.9359050000,22.3132270000 113.9359160000,22.3132570000 113.9359360000,22.3132820000 113.9359640000,22.3133010000 113.9359870000,22.3133090000 113.9360120000,22.3133130000 113.9360370000,22.3133100000 113.9360610000,22.3133030000 113.9360820000,22.3132910000 113.9361000000,22.3132750000 113.9361140000,22.3132560000 113.9361220000,22.3132340000 113.9361250000,22.3132110000 113.9361220000,22.3131880000 113.9361140000,22.3131660000 113.9361010000,22.3131460000 113.9360830000,22.3131300000 113.9360730000,22.3131240000 113.9360620000,22.3131180000 113.9360350000,22.3130670000 113.9360220000,22.3130240000 113.9360150000,22.3129710000 113.9360000000,22.3128710000 113.9360490000,22.3127420000 113.9361500000,22.3124640000 113.9361740000,22.3123980000 113.9361900000,22.3123370000 113.9362310000,22.3122060000 113.9363030000,22.3119480000 113.9364370000,22.3116350000 113.9364810000,22.3116460000 113.9365260000,22.3116480000 113.9365710000,22.3116390000 113.9366120000,22.3116210000 113.9366930000,22.3116100000 113.9367820000,22.3116040000 113.9368810000,22.3116000000 113.9370100000,22.3116060000 113.9371360000,22.3116240000 113.9375560000,22.3116900000 113.9376110000,22.3117030000 113.9376630000,22.3117220000 113.9377010000,22.3117480000 113.9377400000,22.3117810000 113.9377360000,22.3118260000 113.9377450000,22.3118670000 113.9377630000,22.3119080000 113.9377890000,22.3119450000 113.9378230000,22.3119760000 113.9378640000,22.3120000000 113.9379090000,22.3120150000 113.9379580000,22.3120220000 113.9380030000,22.3120180000 113.9380870000,22.3120450000 113.9382030000,22.3121280000 113.9383200000,22.3122250000 113.9383560000,22.3122840000 113.9383440000,22.3123680000 113.9383090000,22.3124650000 113.9382750000,22.3125650000 113.9382340000,22.3126930000 113.9381910000,22.3128310000 113.9381630000,22.3129860000 113.9381590000,22.3131090000 113.9381810000,22.3132260000 113.9382500000,22.3133800000 113.9383100000,22.3134620000 113.9383920000,22.3135400000 113.9385040000,22.3136080000 113.9386220000,22.3136650000 113.9387090000,22.3137070000 113.9388860000,22.3137840000 113.9389910000,22.3138280000 113.9391390000,22.3139210000 113.9392650000,22.3139620000 113.9394100000,22.3139870000 113.9394990000,22.3140120000 113.9395710000,22.3140650000 113.9396220000,22.3141470000 113.9397240000,22.3142340000 113.9398190000,22.3142780000 113.9399270000,22.3143010000 113.9400180000,22.3143000000 113.9401010000,22.3142800000 113.9402010000,22.3142400000 113.9402910000,22.3141970000 113.9403710000,22.3141540000 113.9404130000,22.3141240000 113.9404270000,22.3141100000 113.9405030000,22.3141090000 113.9405740000,22.3141150000 113.9406350000,22.3141310000 113.9408890000,22.3142270000 113.9409690000,22.3142480000 113.9410560000,22.3142580000 113.9411390000,22.3142600000 113.9413280000,22.3142510000 113.9414150000,22.3142580000 113.9414910000,22.3142830000 113.9415260000,22.3143470000 113.9415260000,22.3144000000 113.9415210000,22.3144520000 113.9415090000,22.3145040000 113.9414860000,22.3145680000 113.9414530000,22.3146290000 113.9413990000,22.3146900000 113.9413070000,22.3147480000 113.9412090000,22.3147950000 113.9411080000,22.3148380000 113.9408910000,22.3149410000 113.9408570000,22.3149610000 113.9408330000,22.3149760000 113.9407890000,22.3150110000 113.9407510000,22.3150520000 113.9407180000,22.3150960000 113.9406920000,22.3151440000 113.9406720000,22.3151950000 113.9406590000,22.3152470000 113.9406510000,22.3154360000 113.9406580000,22.3155050000 113.9406720000,22.3155730000 113.9406940000,22.3156390000 113.9407080000,22.3156980000 113.9407090000,22.3157130000 113.9407140000,22.3157570000 113.9407130000,22.3158170000 113.9407050000,22.3158760000 113.9406590000,22.3160800000 113.9406100000,22.3162830000 113.9405570000,22.3164860000 113.9404950000,22.3166500000 113.9402890000,22.3171350000 113.9399360000,22.3179660000 113.9394710000,22.3190830000 113.9395170000,22.3190890000 113.9395780000,22.3191100000 113.9396410000,22.3191290000 113.9397030000,22.3191480000 113.9404570000,22.3193070000 113.9408180000,22.3193840000 113.9408710000,22.3194540000 113.9409080000,22.3195190000 113.9409350000,22.3195840000 113.9409540000,22.3196460000 113.9409450000,22.3196920000 113.9409120000,22.3198110000 113.9407440000,22.3204810000 113.9405320000,22.3213230000 113.9403490000,22.3212860000 113.9402560000,22.3212670000 113.9403490000,22.3212860000 113.9405320000,22.3213230000 113.9409120000,22.3198110000 113.9409450000,22.3196920000 113.9409540000,22.3196460000 113.9409890000,22.3195840000 113.9410220000,22.3195400000 113.9410570000,22.3195020000 113.9411300000,22.3194420000 113.9412050000,22.3194510000 113.9413100000,22.3194650000 113.9414910000,22.3194910000 113.9416830000,22.3195150000 113.9417780000,22.3195250000 113.9420650000,22.3195530000 113.9422610000,22.3195940000 113.9423880000,22.3196420000 113.9424650000,22.3196910000 113.9425010000,22.3197360000 113.9425500000,22.3197700000 113.9426070000,22.3197890000 113.9426670000,22.3197930000 113.9427150000,22.3197850000 113.9427590000,22.3197670000 113.9427980000,22.3197410000 113.9428290000,22.3197060000 113.9428510000,22.3196670000 113.9428630000,22.3196230000 113.9428640000,22.3195790000 113.9428540000,22.3195350000 113.9428330000,22.3194940000 113.9428210000,22.3194480000 113.9428120000,22.3194020000 113.9428080000,22.3193550000 113.9428090000,22.3193080000 113.9428140000,22.3192610000 113.9430450000,22.3186420000 113.9430520000,22.3186220000 113.9430870000,22.3185280000 113.9431290000,22.3184190000 113.9431370000,22.3183950000 113.9431640000,22.3183090000 113.9431780000,22.3182510000 113.9431920000,22.3181960000 113.9432130000,22.3180720000 113.9432240000,22.3179670000 113.9432280000,22.3178510000 113.9432250000,22.3177350000 113.9432140000,22.3176200000 113.9431960000,22.3175060000 113.9431700000,22.3173920000 113.9429840000,22.3167500000 113.9428440000,22.3162690000 113.9427050000,22.3157430000 113.9426210000,22.3155380000 113.9425440000,22.3153460000 113.9425120000,22.3152690000 113.9424770000,22.3151730000 113.9424380000,22.3150730000 113.9423810000,22.3149450000 113.9423200000,22.3148280000 113.9421700000,22.3145530000 113.9421300000,22.3144920000 113.9421020000,22.3144450000 113.9420780000,22.3143920000 113.9420640000,22.3143350000 113.9420580000,22.3142590000 113.9420700000,22.3141960000 113.9420620000,22.3141390000 113.9420270000,22.3140470000 113.9419680000,22.3139800000 113.9418890000,22.3139330000 113.9418230000,22.3139160000 113.9417290000,22.3139120000 113.9416510000,22.3139320000 113.9415810000,22.3139710000 113.9415250000,22.3140270000 113.9414870000,22.3140960000 113.9413450000,22.3141470000 113.9412650000,22.3141610000 113.9411780000,22.3141690000 113.9410590000,22.3141620000 113.9408560000,22.3141310000 113.9407340000,22.3140820000 113.9406270000,22.3140270000 113.9405470000,22.3139710000 113.9404890000,22.3139010000 113.9404650000,22.3138040000 113.9404220000,22.3137210000 113.9403660000,22.3136600000 113.9403140000,22.3136170000 113.9402500000,22.3135840000 113.9401590000,22.3135530000 113.9400640000,22.3135380000 113.9399550000,22.3135300000 113.9398400000,22.3135440000 113.9397750000,22.3135680000 113.9397200000,22.3135990000 113.9396670000,22.3136390000 113.9396180000,22.3137010000 113.9395750000,22.3137750000 113.9394430000,22.3138230000 113.9393490000,22.3138380000 113.9392360000,22.3138190000 113.9391170000,22.3137660000 113.9389610000,22.3137010000 113.9388070000,22.3136320000 113.9386440000,22.3135480000 113.9384830000,22.3134870000 113.9383780000,22.3134110000 113.9383170000,22.3133270000 113.9382840000,22.3132530000 113.9382660000,22.3131800000 113.9382410000,22.3130210000 113.9382580000,22.3128680000 113.9383510000,22.3125960000 113.9384560000,22.3123640000 113.9384770000,22.3123000000 113.9384640000,22.3122460000 113.9383990000,22.3121300000 113.9382720000,22.3120110000 113.9382240000,22.3119610000 113.9382030000,22.3119200000 113.9381780000,22.3118780000 113.9381900000,22.3118210000 113.9381840000,22.3117630000 113.9381610000,22.3117100000 113.9381230000,22.3116640000 113.9380740000,22.3116290000 113.9380160000,22.3116080000 113.9379530000,22.3116030000 113.9378920000,22.3116130000 113.9378360000,22.3116390000 113.9377550000,22.3116540000 113.9376910000,22.3116580000 113.9376280000,22.3116530000 113.9375420000,22.3116400000 113.9369770000,22.3115590000 113.9369020000,22.3115470000 113.9368270000,22.3115300000 113.9367760000,22.3115050000 113.9367350000,22.3114700000 113.9366900000,22.3114160000 113.9366750000,22.3113850000 113.9366540000,22.3113570000 113.9366270000,22.3113330000 113.9365950000,22.3113150000 113.9365600000,22.3113020000 113.9365240000,22.3112960000 113.9364860000,22.3112970000 113.9364510000,22.3113040000 113.9364180000,22.3113170000 113.9363880000,22.3113360000 113.9363660000,22.3113560000 113.9363470000,22.3113790000 113.9363330000,22.3114060000 113.9363230000,22.3114340000 113.9363190000,22.3114640000 113.9363200000,22.3114940000 113.9363300000,22.3115300000 113.9363470000,22.3115640000 113.9363710000,22.3115930000 113.9364010000,22.3116170000 113.9364370000,22.3116350000 113.9363030000,22.3119480000 113.9362310000,22.3122060000 113.9361900000,22.3123370000 113.9361740000,22.3123980000 113.9361500000,22.3124640000 113.9360490000,22.3127420000 113.9360000000,22.3128710000 113.9359430000,22.3129850000 113.9359290000,22.3130670000 113.9359350000,22.3131390000 113.9359150000,22.3131650000 113.9359050000,22.3131950000 113.9359050000,22.3132270000 113.9359160000,22.3132570000 113.9359360000,22.3132820000 113.9359640000,22.3133010000 113.9359870000,22.3133090000 113.9360120000,22.3133130000 113.9360370000,22.3133100000 113.9360610000,22.3133030000 113.9360820000,22.3132910000 113.9361000000,22.3132750000 113.9361140000,22.3132560000 113.9361220000,22.3132340000 113.9361250000,22.3132110000 113.9361220000,22.3131880000 113.9361140000,22.3131660000 113.9361010000,22.3131460000 113.9360830000,22.3131300000 113.9360760000,22.3131260000 113.9360620000,22.3131180000 113.9360350000,22.3130670000 113.9360220000,22.3130240000 113.9360150000,22.3129710000 113.9360000000,22.3128710000 113.9360490000,22.3127420000 113.9361500000,22.3124640000 113.9361740000,22.3123980000 113.9361900000,22.3123370000 113.9362310000,22.3122060000 113.9363030000,22.3119480000 113.9364370000,22.3116350000 113.9364810000,22.3116460000 113.9365260000,22.3116480000 113.9365710000,22.3116390000 113.9366120000,22.3116210000 113.9366930000,22.3116100000 113.9367820000,22.3116040000 113.9368810000,22.3116000000 113.9370100000,22.3116060000 113.9371360000,22.3116240000 113.9375560000,22.3116900000 113.9376110000,22.3117030000 113.9376630000,22.3117220000 113.9377010000,22.3117480000 113.9377400000,22.3117810000 113.9377360000,22.3118260000 113.9377450000,22.3118670000 113.9377630000,22.3119080000 113.9377890000,22.3119450000 113.9378230000,22.3119760000 113.9378640000,22.3120000000 113.9379090000,22.3120150000 113.9379580000,22.3120220000 113.9380030000,22.3120180000 113.9380870000,22.3120450000 113.9382030000,22.3121280000 113.9383200000,22.3122250000 113.9383560000,22.3122840000 113.9383440000,22.3123680000 113.9383090000,22.3124650000 113.9382750000,22.3125650000 113.9382340000,22.3126930000 113.9381910000,22.3128310000 113.9381630000,22.3129860000 113.9381590000,22.3131090000 113.9381810000,22.3132260000 113.9382500000,22.3133800000 113.9383100000,22.3134620000 113.9383920000,22.3135400000 113.9385040000,22.3136080000 113.9386220000,22.3136650000 113.9387090000,22.3137070000 113.9388860000,22.3137840000 113.9389910000,22.3138280000 113.9391390000,22.3139210000 113.9392650000,22.3139620000 113.9394100000,22.3139870000 113.9394990000,22.3140120000 113.9395710000,22.3140650000 113.9396220000,22.3141470000 113.9397240000,22.3142340000 113.9398190000,22.3142780000 113.9399270000,22.3143010000 113.9400180000,22.3143000000 113.9401010000,22.3142800000 113.9402010000,22.3142400000 113.9402910000,22.3141970000 113.9403710000,22.3141540000 113.9404130000,22.3141240000 113.9404270000,22.3141100000 113.9404590000,22.3140490000 113.9404820000,22.3139750000 113.9404890000,22.3139010000 113.9404650000,22.3138040000 113.9404220000,22.3137210000 113.9403660000,22.3136600000 113.9403140000,22.3136170000 113.9402500000,22.3135840000 113.9399350000,22.3132890000 113.9398220000,22.3131550000 113.9393650000,22.3123720000 113.9392980000,22.3122210000 113.9392390000,22.3120560000 113.9392050000,22.3118630000 113.9391430000,22.3116480000 113.9390540000,22.3115070000 113.9389860000,22.3114040000 113.9388360000,22.3112310000 113.9386120000,22.3109950000 113.9383870000,22.3107600000 113.9382140000,22.3105130000 113.9380890000,22.3103880000 113.9380290000,22.3103070000 113.9379620000,22.3100810000 113.9378760000,22.3095350000 113.9378090000,22.3089490000 113.9377530000,22.3083740000 113.9376770000,22.3078150000 113.9375460000,22.3071650000 113.9373850000,22.3065230000 113.9370190000,22.3054330000 113.9368030000,22.3048500000 113.9364970000,22.3040530000 113.9361530000,22.3029100000 113.9360870000,22.3026620000 113.9360520000,22.3024890000 113.9360300000,22.3023030000 113.9360180000,22.3020750000 113.9360100000,22.3017530000 113.9359640000,22.3012900000 113.9358500000,22.3006070000 113.9358210000,22.3004250000 113.9358130000,22.3002460000 113.9358050000,22.2999520000 113.9358000000,22.2998440000 113.9358210000,22.2996990000 113.9358920000,22.2993320000 113.9359680000,22.2990050000 113.9361000000,22.2985340000 113.9361520000,22.2983040000 113.9361690000,22.2980660000 113.9361460000,22.2978740000 113.9361100000,22.2977650000 113.9360730000,22.2976690000 113.9360340000,22.2975870000 113.9359860000,22.2975040000 113.9359330000,22.2974310000 113.9358760000,22.2973610000 113.9358130000,22.2972920000 113.9357390000,22.2972240000 113.9356590000,22.2971640000 113.9355750000,22.2971080000 113.9354740000,22.2970490000 113.9353410000,22.2969780000 113.9348940000,22.2968100000 113.9342240000,22.2965760000 113.9340900000,22.2965250000 113.9339790000,22.2965310000 113.9339400000,22.2965190000 113.9338060000,22.2964480000 113.9337240000,22.2963800000 113.9336730000,22.2963410000 113.9336530000,22.2962500000 113.9336090000,22.2961300000 113.9335580000,22.2961010000 113.9335090000,22.2960780000 113.9334640000,22.2960570000 113.9334110000,22.2960430000 113.9333410000,22.2960320000 113.9332740000,22.2960350000 113.9331720000,22.2960070000 113.9331270000,22.2959870000 113.9330760000,22.2959590000 113.9329710000,22.2959010000 113.9326600000,22.2957090000 113.9322890000,22.2955480000 113.9317640000,22.2953800000 113.9316450000,22.2953420000 113.9312350000,22.2952110000 113.9295430000,22.2946750000 113.9289790000,22.2945080000 113.9283650000,22.2943060000 113.9281070000,22.2942230000 113.9280500000,22.2941980000 113.9279770000,22.2941540000 113.9279210000,22.2941180000 113.9279160000,22.2940970000 113.9278690000,22.2940370000 113.9278020000,22.2939980000 113.9277230000,22.2939860000 113.9276680000,22.2939970000 113.9275320000,22.2939830000 113.9274440000,22.2939700000 113.9273540000,22.2939630000 113.9271560000,22.2939000000 113.9269180000,22.2938240000 113.9262810000,22.2936160000 113.9262560000,22.2936080000 113.9258600000,22.2934820000 113.9257590000,22.2934380000 113.9257030000,22.2933870000 113.9256700000,22.2933290000 113.9256480000,22.2932370000 113.9256440000,22.2931730000 113.9256240000,22.2931140000 113.9255960000,22.2930690000 113.9255530000,22.2930270000 113.9254830000,22.2929870000 113.9254540000,22.2929760000 113.9253830000,22.2929650000 113.9253080000,22.2929720000 113.9252240000,22.2930060000 113.9250960000,22.2930700000 113.9250150000,22.2930820000 113.9248980000,22.2931030000 113.9246990000,22.2931400000 113.9243100000,22.2932020000 113.9240530000,22.2932540000 113.9239310000,22.2932910000 113.9231680000,22.2935210000 113.9226780000,22.2936690000 113.9224130000,22.2937720000 113.9222460000,22.2938380000 113.9220570000,22.2939240000 113.9219910000,22.2939530000 113.9219110000,22.2939820000 113.9218390000,22.2939900000 113.9217120000,22.2940100000 113.9216460000,22.2939980000 113.9215780000,22.2939990000 113.9215130000,22.2940140000 113.9214530000,22.2940420000 113.9214170000,22.2940660000 113.9213860000,22.2940950000 113.9213600000,22.2941280000 113.9213380000,22.2941640000 113.9213230000,22.2942020000 113.9213120000,22.2942510000 113.9213100000,22.2942800000 113.9213130000,22.2943190000 113.9213320000,22.2943880000 113.9213700000,22.2944510000 113.9214220000,22.2945030000 113.9214880000,22.2945410000 113.9215610000,22.2945630000 113.9216180000,22.2945680000 113.9216750000,22.2945630000 113.9218860000,22.2945870000 113.9220710000,22.2946000000 113.9223160000,22.2946270000 113.9226160000,22.2946900000 113.9231070000,22.2948440000 113.9234000000,22.2949360000 113.9239880000,22.2951260000 113.9243730000,22.2952460000 113.9247280000,22.2953620000 113.9261900000,22.2958400000 113.9264390000,22.2959220000 113.9265140000,22.2959540000 113.9265750000,22.2959980000 113.9266490000,22.2960770000 113.9266880000,22.2961890000 113.9267440000,22.2962650000 113.9267980000,22.2963020000 113.9268680000,22.2963370000 113.9269400000,22.2963520000 113.9270190000,22.2963570000 113.9271220000,22.2963410000 113.9272300000,22.2963360000 113.9273270000,22.2963320000 113.9274610000,22.2963440000 113.9277580000,22.2963860000 113.9280330000,22.2964430000 113.9285910000,22.2966300000 113.9286220000,22.2966400000 113.9287030000,22.2966680000 113.9287370000,22.2966800000 113.9294350000,22.2969220000 113.9295740000,22.2969700000 113.9296310000,22.2969900000 113.9302230000,22.2971960000 113.9306850000,22.2973630000 113.9309460000,22.2975200000 113.9311730000,22.2976700000 113.9313470000,22.2978110000 113.9314330000,22.2978810000 113.9315170000,22.2979560000 113.9316900000,22.2981130000 113.9318090000,22.2982400000 113.9319050000,22.2983700000 113.9320430000,22.2985540000 113.9320760000,22.2986130000 113.9321110000,22.2986730000 113.9321370000,22.2987600000 113.9321430000,22.2988620000 113.9321100000,22.2989310000 113.9320770000,22.2990170000 113.9320540000,22.2990910000 113.9320450000,22.2991350000 113.9320430000,22.2991860000 113.9320530000,22.2992750000 113.9320710000,22.2993370000 113.9320930000,22.2993840000 113.9321210000,22.2994250000 113.9321510000,22.2994600000 113.9321820000,22.2994910000 113.9322250000,22.2995250000 113.9322720000,22.2995510000 113.9323190000,22.2995710000 113.9324140000,22.2995900000 113.9324730000,22.2995950000 113.9325170000,22.2995940000 113.9325660000,22.2995870000 113.9326120000,22.2995740000 113.9326640000,22.2995540000 113.9327080000,22.2995310000 113.9327550000,22.2994990000 113.9328110000,22.2994550000 113.9329060000,22.2994460000 113.9329710000,22.2994430000 113.9330890000,22.2994540000 113.9332200000,22.2994950000 113.9334780000,22.2995640000 113.9337510000,22.2996450000 113.9339990000,22.2996860000 113.9342460000,22.2996860000 113.9344940000,22.2996680000 113.9345880000,22.2996540000 113.9346760000,22.2996350000 113.9347770000,22.2996100000 113.9348860000,22.2995750000 113.9349900000,22.2995350000 113.9350910000,22.2994890000 113.9351920000,22.2994300000 113.9352820000,22.2993680000 113.9353530000,22.2993120000 113.9354210000,22.2992460000 113.9355010000,22.2991560000 113.9355560000,22.2990800000 113.9356050000,22.2989970000 113.9356440000,22.2989200000 113.9356730000,22.2988510000 113.9356990000,22.2987750000 113.9357170000,22.2987060000 113.9357310000,22.2986320000 113.9357400000,22.2985610000 113.9357650000,22.2982640000 113.9357770000,22.2981820000 113.9358010000,22.2980770000 113.9358650000,22.2978560000 113.9359160000,22.2977000000 113.9361710000,22.2968800000 113.9362960000,22.2966480000 113.9367580000,22.2958170000 113.9369810000,22.2954240000 113.9372200000,22.2949960000 113.9373660000,22.2947480000 113.9375440000,22.2944630000 113.9379380000,22.2939420000 113.9382750000,22.2934720000 113.9385740000,22.2931120000 113.9388760000,22.2927800000 113.9394730000,22.2921620000 113.9396570000,22.2920020000 113.9397140000,22.2919530000 113.9397810000,22.2918940000 113.9401570000,22.2915970000 113.9404820000,22.2913300000 113.9407840000,22.2911200000 113.9410860000,22.2909230000 113.9413870000,22.2907440000 113.9417410000,22.2905350000 113.9420120000,22.2904060000 113.9424260000,22.2902200000 113.9428150000,22.2900690000 113.9431540000,22.2899500000 113.9435630000,22.2898200000 113.9437980000,22.2897610000 113.9440050000,22.2897220000 113.9445240000,22.2896210000 113.9449220000,22.2895610000 113.9455030000,22.2895030000 113.9461970000,22.2894740000 113.9465070000,22.2894790000 113.9469100000,22.2895000000 113.9474230000,22.2895510000 113.9478890000,22.2896190000 113.9484250000,22.2897320000 113.9487890000,22.2898340000 113.9491530000,22.2899500000 113.9495130000,22.2900840000 113.9498630000,22.2902340000 113.9501750000,22.2903860000 113.9504590000,22.2905370000 113.9507690000,22.2907200000 113.9510680000,22.2909150000 113.9513440000,22.2911130000 113.9516150000,22.2913280000 113.9519070000,22.2915810000 113.9521230000,22.2917860000 113.9522980000,22.2919630000 113.9532990000,22.2930220000 113.9535510000,22.2932850000 113.9537890000,22.2935190000 113.9540690000,22.2937800000 113.9543930000,22.2940630000 113.9547280000,22.2943400000 113.9550820000,22.2946160000 113.9554270000,22.2948660000 113.9557820000,22.2951070000 113.9561190000,22.2953240000 113.9565090000,22.2955580000 113.9569560000,22.2958070000 113.9574080000,22.2960370000 113.9578580000,22.2962480000 113.9582880000,22.2964330000 113.9587710000,22.2966220000 113.9591740000,22.2967660000 113.9595700000,22.2968940000 113.9599140000,22.2969950000 113.9603080000,22.2971000000 113.9607200000,22.2971990000 113.9645290000,22.2980500000 113.9676960000,22.2987570000 113.9679880000,22.2988220000 113.9693630000,22.2991290000 113.9698810000,22.2992580000 113.9702820000,22.2993660000 113.9706690000,22.2994790000 113.9711000000,22.2996170000 113.9715350000,22.2997640000 113.9719570000,22.2999190000 113.9724430000,22.3001100000 113.9728760000,22.3002900000 113.9732120000,22.3004410000 113.9735540000,22.3006010000 113.9740230000,22.3008340000 113.9767380000,22.3021890000 113.9772420000,22.3024500000 113.9776950000,22.3026940000 113.9780770000,22.3029060000 113.9785530000,22.3031780000 113.9789490000,22.3034100000 113.9794370000,22.3037060000 113.9799250000,22.3040110000 113.9816160000,22.3050930000 113.9843200000,22.3067900000 113.9849640000,22.3071960000 113.9850400000,22.3072450000 113.9856060000,22.3075890000 113.9877310000,22.3088640000 113.9889150000,22.3095420000 113.9925320000,22.3116130000 113.9928940000,22.3118400000 113.9932800000,22.3121080000 113.9935900000,22.3123250000 113.9936540000,22.3123690000 113.9939850000,22.3126240000 113.9943640000,22.3129400000 113.9944820000,22.3130400000 113.9947170000,22.3132380000 113.9948820000,22.3133840000 113.9950160000,22.3135030000 113.9950710000,22.3135560000 113.9953880000,22.3138680000 113.9956090000,22.3141060000 113.9958140000,22.3143200000 113.9960710000,22.3146170000 113.9963520000,22.3149690000 113.9965180000,22.3151920000 113.9967760000,22.3155490000 113.9969850000,22.3158460000 113.9971800000,22.3161470000 113.9973750000,22.3164580000 113.9975970000,22.3168140000 113.9976390000,22.3168830000 113.9978800000,22.3172650000 113.9979170000,22.3173200000 113.9981960000,22.3177340000 113.9984880000,22.3181120000 113.9988430000,22.3185050000 113.9990980000,22.3187760000 113.9994070000,22.3190820000 114.0000590000,22.3196040000 114.0003390000,22.3198090000 114.0005530000,22.3199570000 114.0008490000,22.3201550000 114.0011770000,22.3203390000 114.0014940000,22.3205080000 114.0018710000,22.3206920000 114.0022100000,22.3208580000 114.0029710000,22.3212190000 114.0094760000,22.3241070000 114.0099360000,22.3243000000 114.0104040000,22.3244760000 114.0109520000,22.3246520000 114.0120140000,22.3249200000 114.0125020000,22.3250130000 114.0129320000,22.3250750000 114.0134220000,22.3251330000 114.0140090000,22.3251710000 114.0146250000,22.3251850000 114.0151410000,22.3251750000 114.0157440000,22.3251400000 114.0179320000,22.3249830000 114.0184860000,22.3249840000 114.0189250000,22.3250100000 114.0194170000,22.3250510000 114.0198900000,22.3251030000 114.0202650000,22.3251710000 114.0207940000,22.3252890000 114.0213080000,22.3254290000 114.0218170000,22.3256010000 114.0225660000,22.3258960000 114.0230280000,22.3261070000 114.0235650000,22.3263960000 114.0237450000,22.3265060000 114.0238250000,22.3265550000 114.0239050000,22.3266040000 114.0242030000,22.3267940000 114.0243490000,22.3268920000 114.0246170000,22.3270780000 114.0247720000,22.3271940000 114.0254040000,22.3277460000 114.0260390000,22.3283460000 114.0264750000,22.3287670000 114.0282150000,22.3304640000 114.0291720000,22.3313740000 114.0295620000,22.3317450000 114.0298050000,22.3319760000 114.0304390000,22.3325750000 114.0308620000,22.3329980000 114.0312130000,22.3333890000 114.0317050000,22.3338540000 114.0323360000,22.3344360000 114.0327820000,22.3348390000 114.0333080000,22.3352490000 114.0338440000,22.3355960000 114.0342190000,22.3358170000 114.0344620000,22.3359510000 114.0347660000,22.3361070000 114.0350550000,22.3362460000 114.0353690000,22.3363980000 114.0363300000,22.3367570000 114.0366680000,22.3368420000 114.0370670000,22.3369350000 114.0375160000,22.3370150000 114.0380120000,22.3371160000 114.0384510000,22.3372100000 114.0388380000,22.3373170000 114.0392890000,22.3374640000 114.0397330000,22.3376370000 114.0403480000,22.3379370000 114.0409590000,22.3382530000 114.0412580000,22.3384320000 114.0429330000,22.3394340000 114.0430990000,22.3395140000 114.0438770000,22.3398890000 114.0444670000,22.3401500000 114.0448700000,22.3403100000 114.0450310000,22.3403730000 114.0451330000,22.3404040000 114.0452000000,22.3404250000 114.0452020000,22.3404260000 114.0457530000,22.3405940000 114.0460570000,22.3406770000 114.0466800000,22.3408170000 114.0473730000,22.3409100000 114.0482450000,22.3409950000 114.0487620000,22.3410670000 114.0496140000,22.3411750000 114.0500720000,22.3412490000 114.0504120000,22.3413120000 114.0508330000,22.3414360000 114.0511730000,22.3415610000 114.0514230000,22.3416710000 114.0516610000,22.3417990000 114.0518850000,22.3419290000 114.0520460000,22.3420240000 114.0524520000,22.3422840000 114.0584460000,22.3461890000 114.0587520000,22.3463840000 114.0590690000,22.3465800000 114.0594270000,22.3467830000 114.0597930000,22.3469780000 114.0601590000,22.3471560000 114.0605560000,22.3473310000 114.0609450000,22.3474910000 114.0613390000,22.3476360000 114.0617410000,22.3477700000 114.0621400000,22.3478920000 114.0628380000,22.3480920000 114.0785450000,22.3524280000 114.0797670000,22.3527760000 114.0800560000,22.3528590000 114.0804770000,22.3529760000 114.0806780000,22.3530320000 114.0815490000,22.3533040000 114.0817060000,22.3533540000 114.0818690000,22.3533820000 114.0820570000,22.3534100000 114.0821810000,22.3534370000 114.0822720000,22.3534630000 114.0823750000,22.3534920000 114.0825170000,22.3535330000 114.0828120000,22.3536060000 114.0831490000,22.3536800000 114.0834320000,22.3537280000 114.0834970000,22.3537370000 114.0836950000,22.3537650000 114.0838530000,22.3537790000 114.0839740000,22.3537800000 114.0840840000,22.3537810000 114.0841770000,22.3537800000 114.0843150000,22.3537780000 114.0845040000,22.3537540000 114.0847550000,22.3536920000 114.0849010000,22.3536440000 114.0850820000,22.3535590000 114.0852110000,22.3535140000 114.0854020000,22.3534360000 114.0854700000,22.3534080000 114.0855160000,22.3533890000 114.0856200000,22.3533410000 114.0857660000,22.3532790000 114.0858660000,22.3532260000 114.0859760000,22.3531680000 114.0860670000,22.3531210000 114.0861450000,22.3530700000 114.0862540000,22.3529910000 114.0863520000,22.3529080000 114.0864480000,22.3528090000 114.0865400000,22.3526940000 114.0866790000,22.3524530000 114.0867420000,22.3522850000 114.0868130000,22.3520210000 114.0869000000,22.3515320000 114.0869390000,22.3512990000 114.0869880000,22.3510740000 114.0870970000,22.3506830000 114.0871110000,22.3505910000 114.0871300000,22.3504650000 114.0871770000,22.3501490000 114.0871840000,22.3501050000 114.0873720000,22.3493900000 114.0873850000,22.3493210000 114.0874730000,22.3488690000 114.0874870000,22.3487930000 114.0875280000,22.3486700000 114.0876060000,22.3484580000 114.0876470000,22.3483500000 114.0877000000,22.3482120000 114.0878300000,22.3479380000 114.0879940000,22.3476390000 114.0881250000,22.3474620000 114.0882400000,22.3473590000 114.0883470000,22.3472640000 114.0885020000,22.3471250000 114.0885890000,22.3470470000 114.0891520000,22.3465960000 114.0892520000,22.3465380000 114.0893170000,22.3465010000 114.0894580000,22.3464220000 114.0895440000,22.3463710000 114.0896600000,22.3463030000 114.0898570000,22.3462060000 114.0904080000,22.3459230000 114.0909510000,22.3456540000 114.0913290000,22.3454850000 114.0917140000,22.3453370000 114.0921490000,22.3451970000 114.0926200000,22.3450830000 114.0931040000,22.3449910000 114.0933720000,22.3449670000 114.0939110000,22.3449370000 114.0941740000,22.3449370000 114.0952440000,22.3449500000 114.0957200000,22.3449460000 114.1004000000,22.3449930000 114.1010700000,22.3450180000 114.1014000000,22.3450400000 114.1017300000,22.3450680000 114.1020600000,22.3451030000 114.1023900000,22.3451480000 114.1030400000,22.3452500000 114.1033000000,22.3453000000 114.1035300000,22.3453500000 114.1037300000,22.3453950000 114.1038810000,22.3454310000 114.1040300000,22.3454700000 114.1042020000,22.3455180000 114.1043800000,22.3455700000 114.1046900000,22.3456680000 114.1049680000,22.3457620000 114.1051600000,22.3458300000 114.1053500000,22.3459000000 114.1056800000,22.3460270000 114.1060000000,22.3461600000 114.1066070000,22.3464420000 114.1092280000,22.3478020000 114.1094000000,22.3478900000 114.1094990000,22.3479370000 114.1095990000,22.3479820000 114.1098100000,22.3480700000 114.1100000000,22.3481490000 114.1103700000,22.3483000000 114.1107080000,22.3484390000 114.1112560000,22.3486440000 114.1114010000,22.3486980000 114.1121940000,22.3489990000 114.1150360000,22.3500680000 114.1152660000,22.3501660000 114.1155460000,22.3503070000 114.1158280000,22.3504570000 114.1160890000,22.3506120000 114.1163380000,22.3507780000 114.1166890000,22.3510310000 114.1170420000,22.3512980000 114.1174180000,22.3515670000 114.1177500000,22.3517760000 114.1179500000,22.3518880000 114.1181630000,22.3519900000 114.1185390000,22.3521520000 114.1187440000,22.3522270000 114.1189890000,22.3523010000 114.1192310000,22.3523660000 114.1195060000,22.3524250000 114.1197310000,22.3524620000 114.1199660000,22.3524930000 114.1203430000,22.3525160000 114.1207100000,22.3525140000 114.1211680000,22.3524720000 114.1214580000,22.3524280000 114.1216780000,22.3523900000 114.1217840000,22.3523650000 114.1219810000,22.3522960000 114.1220880000,22.3522570000 114.1221670000,22.3522230000 114.1226290000,22.3520200000 114.1228980000,22.3518990000 114.1232400000,22.3516400000 114.1234320000,22.3514950000 114.1237280000,22.3512190000 114.1239480000,22.3509410000 114.1241480000,22.3506360000 114.1243000000,22.3503120000 114.1244440000,22.3499020000 114.1244990000,22.3496360000 114.1245500000,22.3491470000 114.1245370000,22.3484120000 114.1245330000,22.3480180000 114.1245490000,22.3476170000 114.1246060000,22.3472410000 114.1246110000,22.3472070000 114.1246230000,22.3471590000 114.1246360000,22.3471070000 114.1246480000,22.3470550000 114.1246730000,22.3469520000 114.1247110000,22.3468180000 114.1247390000,22.3467160000 114.1247610000,22.3466370000 114.1247850000,22.3465690000 114.1248130000,22.3464960000 114.1248340000,22.3464420000 114.1249030000,22.3462770000 114.1250230000,22.3459890000 114.1251600000,22.3457430000 114.1252280000,22.3456200000 114.1254330000,22.3453410000 114.1256160000,22.3450810000 114.1258790000,22.3448160000 114.1260740000,22.3446340000 114.1262650000,22.3444920000 114.1264800000,22.3443300000 114.1269240000,22.3440300000 114.1270200000,22.3439790000 114.1271090000,22.3439320000 114.1271840000,22.3438920000 114.1272820000,22.3438400000 114.1276470000,22.3436840000 114.1278970000,22.3435720000 114.1281270000,22.3434690000 114.1283770000,22.3433460000 114.1286560000,22.3432050000 114.1289710000,22.3430190000 114.1291870000,22.3428750000 114.1294020000,22.3427320000 114.1295670000,22.3426040000 114.1297310000,22.3424680000 114.1298900000,22.3423150000 114.1301370000,22.3420730000 114.1303630000,22.3417950000 114.1304050000,22.3417270000 114.1304940000,22.3415860000 114.1306050000,22.3414080000 114.1306680000,22.3413080000 114.1307450000,22.3411650000 114.1307910000,22.3410810000 114.1308490000,22.3409740000 114.1310190000,22.3406270000 114.1311190000,22.3404140000 114.1311910000,22.3402610000 114.1314770000,22.3396800000 114.1315870000,22.3394560000 114.1316710000,22.3392680000 114.1316840000,22.3392360000 114.1318380000,22.3388760000 114.1319550000,22.3386180000 114.1320070000,22.3385160000 114.1320500000,22.3384340000 114.1322000000,22.3381400000 114.1324040000,22.3378060000 114.1326480000,22.3374240000 114.1328610000,22.3371230000 114.1331790000,22.3367280000 114.1333570000,22.3365230000 114.1336230000,22.3362450000 114.1337460000,22.3361190000 114.1343320000,22.3356020000 114.1345140000,22.3354620000 114.1346460000,22.3353620000 114.1349080000,22.3351570000 114.1351140000,22.3350120000 114.1353150000,22.3348710000 114.1354560000,22.3347710000 114.1355370000,22.3347190000 114.1357120000,22.3346060000 114.1360310000,22.3344250000 114.1363260000,22.3342690000 114.1366140000,22.3341310000 114.1369430000,22.3339880000 114.1373830000,22.3338160000 114.1378110000,22.3336600000 114.1395900000,22.3330030000 114.1403040000,22.3327090000 114.1403630000,22.3326870000 114.1413360000,22.3323200000 114.1417340000,22.3321710000 114.1428990000,22.3317170000 114.1429790000,22.3316830000 114.1439300000,22.3312840000 114.1442400000,22.3311570000 114.1453050000,22.3307780000 114.1455120000,22.3307010000 114.1464210000,22.3303510000 114.1464970000,22.3303220000 114.1472530000,22.3300310000 114.1479270000,22.3297640000 114.1486470000,22.3294550000 114.1490060000,22.3292880000 114.1491000000,22.3292440000 114.1496580000,22.3289770000 114.1500510000,22.3287860000 114.1505450000,22.3285160000 114.1512720000,22.3280540000 114.1515440000,22.3278800000 114.1518840000,22.3276670000 114.1522940000,22.3273890000 114.1528420000,22.3269960000 114.1532080000,22.3267150000 114.1536570000,22.3263590000 114.1540770000,22.3260070000 114.1544350000,22.3256710000 114.1547960000,22.3253360000 114.1551400000,22.3249960000 114.1554890000,22.3246310000 114.1556770000,22.3244380000 114.1558850000,22.3242120000 114.1561370000,22.3239280000 114.1564520000,22.3235770000 114.1567130000,22.3232530000 114.1569820000,22.3229170000 114.1573320000,22.3224540000 114.1576600000,22.3219910000 114.1579160000,22.3216230000 114.1581500000,22.3212580000 114.1584730000,22.3206990000 114.1588490000,22.3199810000 114.1591160000,22.3194600000 114.1593190000,22.3190490000 114.1593710000,22.3189370000 114.1595390000,22.3185730000 114.1597120000,22.3181800000 114.1599320000,22.3176580000 114.1600640000,22.3173450000 114.1601700000,22.3170940000 114.1603190000,22.3167700000 114.1604140000,22.3165490000 114.1605800000,22.3161640000 114.1606070000,22.3160980000 114.1607260000,22.3158200000 114.1608510000,22.3155020000 114.1609120000,22.3153470000 114.1610010000,22.3151200000 114.1610710000,22.3149390000 114.1611630000,22.3146640000 114.1612000000,22.3145530000 114.1612380000,22.3144410000 114.1612590000,22.3143370000 114.1613020000,22.3141250000 114.1613200000,22.3140540000 114.1613560000,22.3139150000 114.1614070000,22.3137140000 114.1615260000,22.3131120000 114.1616050000,22.3127250000 114.1616500000,22.3123490000 114.1616650000,22.3120670000 114.1616820000,22.3115320000 114.1616810000,22.3111110000 114.1616740000,22.3108150000 114.1616710000,22.3107280000 114.1616550000,22.3102900000 114.1616470000,22.3100740000 114.1616080000,22.3098280000 114.1615120000,22.3092920000 114.1613690000,22.3086000000 114.1613000000,22.3082960000 114.1612760000,22.3081910000 114.1612580000,22.3081130000 114.1612190000,22.3079850000 114.1611350000,22.3077140000 114.1610650000,22.3074870000 114.1609840000,22.3072940000 114.1608400000,22.3069860000 114.1607610000,22.3068140000 114.1606820000,22.3066440000 114.1606230000,22.3065180000 114.1604320000,22.3061120000 114.1601860000,22.3056400000 114.1601500000,22.3054820000 114.1601260000,22.3053790000 114.1600330000,22.3051960000 114.1598820000,22.3050400000 114.1597500000,22.3049160000 114.1594580000,22.3043950000 114.1590380000,22.3037070000 114.1589210000,22.3035410000 114.1588210000,22.3033850000 114.1587790000,22.3033330000 114.1587290000,22.3032580000 114.1586820000,22.3031860000 114.1584390000,22.3028540000 114.1582710000,22.3026750000 114.1580860000,22.3025020000 114.1578670000,22.3023060000 114.1576670000,22.3021240000 114.1573770000,22.3018260000 114.1573160000,22.3017620000 114.1570200000,22.3014420000 114.1567160000,22.3011410000 114.1561410000,22.3005100000 114.1466970000,22.2902980000 114.1464940000,22.2900780000 114.1462180000,22.2897960000 114.1460110000,22.2896560000 114.1457910000,22.2895310000 114.1455600000,22.2894220000 114.1453200000,22.2893320000 114.1450730000,22.2892600000 114.1448200000,22.2892070000 114.1445630000,22.2891750000 114.1443050000,22.2891610000 114.1440460000,22.2891680000 114.1437880000,22.2891950000 114.1435340000,22.2892410000 114.1434400000,22.2892660000 114.1432930000,22.2893050000 114.1431720000,22.2893380000 114.1430560000,22.2893800000 114.1429890000,22.2894070000 114.1427890000,22.2894970000 114.1424550000,22.2896580000 114.1423480000,22.2897090000 114.1421420000,22.2898940000 114.1420960000,22.2899240000 114.1419150000,22.2900390000 114.1417670000,22.2901280000 114.1416980000,22.2901660000 114.1416260000,22.2901990000 114.1415510000,22.2902260000 114.1414730000,22.2902470000 114.1413950000,22.2902620000 114.1413150000,22.2902710000 114.1412340000,22.2902710000 114.1411540000,22.2902630000 114.1410750000,22.2902470000 114.1409980000,22.2902250000 114.1409250000,22.2901950000 114.1408550000,22.2901560000 114.1407920000,22.2901110000 114.1407340000,22.2900590000 114.1406830000,22.2900010000 114.1406400000,22.2899380000 114.1406050000,22.2898710000 114.1405780000,22.2898010000 114.1405600000,22.2897280000 114.1405520000,22.2896540000 114.1405530000,22.2895790000 114.1405630000,22.2895050000 114.1405830000,22.2894330000 114.1406050000,22.2893710000 114.1406340000,22.2893110000 114.1406700000,22.2892550000 114.1407120000,22.2892020000 114.1407600000,22.2891530000 114.1408120000,22.2891100000 114.1408700000,22.2890710000 114.1409310000,22.2890390000 114.1410100000,22.2890100000 114.1410920000,22.2889900000 114.1411640000,22.2889810000 114.1412360000,22.2889780000 114.1413350000,22.2889970000 114.1414320000,22.2890190000 114.1415290000,22.2890430000 114.1416010000,22.2890620000 114.1417210000,22.2890970000 114.1418460000,22.2891370000 114.1419730000,22.2891710000 114.1421020000,22.2891970000 114.1422320000,22.2892170000 114.1423640000,22.2892290000 114.1424960000,22.2892340000 114.1426280000,22.2892320000 114.1428230000,22.2892320000 114.1430190000,22.2892310000 114.1433170000,22.2891960000 114.1433840000,22.2891890000 114.1436430000,22.2891610000 114.1437730000,22.2891450000 114.1438430000,22.2891370000 114.1440640000,22.2890990000 114.1441870000,22.2890640000 114.1442750000,22.2890270000 114.1443640000,22.2889810000 114.1444990000,22.2889040000 114.1445740000,22.2888680000 114.1446490000,22.2888410000 114.1447140000,22.2888250000 114.1447870000,22.2888160000 114.1452310000,22.2887700000 114.1454040000,22.2887520000 114.1456810000,22.2887600000 114.1458200000,22.2887620000 114.1458680000,22.2887630000 114.1459820000,22.2887620000 114.1465690000,22.2887230000 114.1467750000,22.2887040000 114.1469550000,22.2886850000 114.1470650000,22.2886680000 114.1473640000,22.2886250000 114.1477580000,22.2885750000 114.1482620000,22.2884840000 114.1484340000,22.2884570000 114.1496810000,22.2881250000 114.1500790000,22.2880250000 114.1505060000,22.2879080000 114.1507870000,22.2878240000 114.1510070000,22.2877570000 114.1518340000,22.2875020000 114.1523580000,22.2873400000 114.1531290000,22.2871000000 114.1532370000,22.2870710000 114.1533270000,22.2870530000 114.1534360000,22.2870390000 114.1537640000,22.2870110000 114.1539470000,22.2870040000 114.1540900000,22.2870070000 114.1542410000,22.2870160000 114.1545950000,22.2870570000 114.1547710000,22.2870780000 114.1548730000,22.2870910000 114.1551040000,22.2871210000 114.1553890000,22.2871580000 114.1555250000,22.2871760000 114.1556170000,22.2871880000 114.1557410000,22.2872010000 114.1559570000,22.2872610000 114.1560150000,22.2872730000 114.1561980000,22.2872970000 114.1563680000,22.2873140000 114.1565140000,22.2873230000 114.1566810000,22.2873230000 114.1568170000,22.2873140000 114.1569930000,22.2872910000 114.1571780000,22.2872540000 114.1572820000,22.2872290000 114.1574580000,22.2871530000 114.1575320000,22.2871190000 114.1576000000,22.2870900000 114.1578260000,22.2869930000 114.1578350000,22.2869890000 114.1579170000,22.2869450000 114.1579970000,22.2868920000 114.1580960000,22.2868160000 114.1582190000,22.2867120000 114.1585550000,22.2865150000 114.1586590000,22.2864510000 114.1590830000,22.2861850000 114.1601100000,22.2855380000 114.1603830000,22.2853670000 114.1613200000,22.2848360000 114.1631300000,22.2838110000 114.1638350000,22.2834740000 114.1641470000,22.2833390000 114.1644930000,22.2832060000 114.1651340000,22.2829870000 114.1656200000,22.2828430000 114.1661460000,22.2827110000 114.1665970000,22.2826160000 114.1670640000,22.2825310000 114.1677350000,22.2824530000 114.1680670000,22.2824220000 114.1684300000,22.2823990000 114.1690810000,22.2823640000 114.1697510000,22.2823630000 114.1700250000,22.2823730000 114.1702530000,22.2823870000 114.1704380000,22.2824080000 114.1705550000,22.2824250000 114.1706740000,22.2824490000 114.1708100000,22.2824760000 114.1708840000,22.2824970000 114.1709570000,22.2825220000 114.1710650000,22.2825690000 114.1711650000,22.2826210000 114.1712500000,22.2826720000 114.1713390000,22.2827390000 114.1714300000,22.2828130000 114.1715500000,22.2829300000 114.1716430000,22.2830380000 114.1718180000,22.2832790000 114.1718900000,22.2833700000 114.1719490000,22.2834280000 114.1720220000,22.2834870000 114.1720860000,22.2835290000 114.1721490000,22.2835630000 114.1722050000,22.2835890000 114.1722660000,22.2836150000 114.1723530000,22.2836410000 114.1724500000,22.2836600000 114.1728130000,22.2836850000 114.1729660000,22.2836960000 114.1730140000,22.2836990000 114.1732090000,22.2837130000 114.1736400000,22.2837420000 114.1739290000,22.2837630000 114.1739710000,22.2837660000 114.1740380000,22.2837700000 114.1740500000,22.2837810000 114.1740670000,22.2837900000 114.1740840000,22.2837950000 114.1741020000,22.2837960000 114.1741210000,22.2837930000 114.1741370000,22.2837860000 114.1741510000,22.2837760000 114.1741630000,22.2837620000 114.1741700000,22.2837480000 114.1741740000,22.2837320000 114.1741730000,22.2837140000 114.1741670000,22.2836950000 114.1741570000,22.2836800000 114.1742350000,22.2826710000 114.1742670000,22.2825990000 114.1742940000,22.2825290000 114.1743140000,22.2824700000 114.1743240000,22.2824160000 114.1743290000,22.2823720000 114.1743280000,22.2823220000 114.1743330000,22.2821950000 114.1743540000,22.2820670000 114.1743640000,22.2819330000 114.1743750000,22.2817630000 114.1743800000,22.2817190000 114.1743890000,22.2816690000 114.1744020000,22.2816180000 114.1744190000,22.2815650000 114.1744300000,22.2815280000 114.1744480000,22.2814400000 114.1744580000,22.2813460000 114.1744650000,22.2811950000 114.1744790000,22.2810230000 114.1744960000,22.2808170000 114.1745150000,22.2806930000 114.1745300000,22.2805750000 114.1745050000,22.2805400000 114.1745360000,22.2802040000 114.1745950000,22.2797520000 114.1745990000,22.2796730000 114.1745920000,22.2793950000 114.1745930000,22.2790840000 114.1746320000,22.2787920000 114.1746620000,22.2786650000 114.1746740000,22.2785750000 114.1747080000,22.2785100000 114.1747110000,22.2784890000 114.1747230000,22.2783920000 114.1747330000,22.2783180000 114.1747420000,22.2782430000 114.1747440000,22.2782270000 114.1747120000,22.2781910000 114.1747400000,22.2779910000 114.1747450000,22.2779530000 114.1747610000,22.2778310000 114.1749650000,22.2778510000 114.1753690000,22.2778920000 114.1760850000,22.2779650000 114.1765530000,22.2780120000 114.1766260000,22.2780200000 114.1768130000,22.2780390000 114.1770770000,22.2781010000 114.1779220000,22.2783530000 114.1780270000,22.2783840000 114.1787880000,22.2785990000 114.1789170000,22.2786380000 114.1794800000,22.2788040000 114.1795100000,22.2788140000 114.1796990000,22.2788750000 114.1798290000,22.2789260000 114.1804030000,22.2791380000 114.1806000000,22.2792100000 114.1810590000,22.2793860000 114.1811240000,22.2794100000 114.1811380000,22.2794150000 114.1813180000,22.2794790000 114.1814110000,22.2795130000 114.1819580000,22.2797130000 114.1824420000,22.2798890000 114.1824900000,22.2799070000 114.1826560000,22.2799640000 114.1827180000,22.2799930000 114.1830170000,22.2801060000 114.1830290000,22.2801110000 114.1830550000,22.2801200000 114.1831080000,22.2801390000 114.1831670000,22.2801490000 114.1832310000,22.2801550000 114.1832730000,22.2801560000 114.1833330000,22.2801580000 114.1842570000,22.2801810000 114.1843190000,22.2801820000 114.1843560000,22.2801830000 114.1844280000,22.2801840000 114.1845770000,22.2801860000 114.1845980000,22.2801860000 114.1846230000,22.2801840000 114.1846840000,22.2801740000 114.1847820000,22.2801540000 114.1848040000,22.2801520000 114.1848330000,22.2801460000 114.1849070000,22.2801240000 114.1849770000,22.2801000000 114.1850730000,22.2800710000 114.1855430000,22.2799270000 114.1856270000,22.2799110000 114.1856990000,22.2798870000 114.1857230000,22.2798790000 114.1858170000,22.2798480000 114.1858820000,22.2798270000 114.1858960000,22.2798220000 114.1860330000,22.2797770000 114.1861760000,22.2797330000 114.1861930000,22.2797280000 114.1863660000,22.2796810000 114.1869210000,22.2795140000 114.1869570000,22.2795040000 114.1871390000,22.2794510000 114.1872990000,22.2794630000 114.1874440000,22.2794810000 114.1876100000,22.2795380000 114.1878280000,22.2796260000 114.1880330000,22.2797400000 114.1883320000,22.2799260000 114.1886080000,22.2801090000 114.1888300000,22.2802620000 114.1894050000,22.2806560000 114.1896180000,22.2808030000 114.1907300000,22.2815450000 114.1907710000,22.2815730000 114.1908350000,22.2816170000 114.1909610000,22.2817060000 114.1912010000,22.2818720000 114.1912280000,22.2818910000 114.1912890000,22.2819310000 114.1912600000,22.2819980000 114.1912580000,22.2820770000 114.1912390000,22.2824800000 114.1912380000,22.2825130000 114.1912340000,22.2826160000 114.1912320000,22.2826720000 114.1912310000,22.2826750000 114.1912210000,22.2829090000 114.1912180000,22.2829940000 114.1911980000,22.2833720000 114.1911740000,22.2837530000 114.1911600000,22.2839750000 114.1911480000,22.2841510000 114.1911370000,22.2843100000 114.1911270000,22.2843800000 114.1911140000,22.2844460000 114.1910980000,22.2844980000 114.1910300000,22.2846920000 114.1910010000,22.2847700000 114.1909730000,22.2848400000 114.1909220000,22.2849480000 114.1908430000,22.2850990000 114.1908210000,22.2851380000 114.1907780000,22.2852160000 114.1907860000,22.2852330000 114.1907810000,22.2852540000 114.1907650000,22.2852860000 114.1907360000,22.2853280000 114.1907190000,22.2853570000 114.1907090000,22.2853880000 114.1907070000,22.2854080000 114.1907090000,22.2854270000 114.1907230000,22.2854500000 114.1909330000,22.2855920000 114.1909780000,22.2856210000 114.1910630000,22.2856790000 114.1910790000,22.2856890000 114.1913500000,22.2858720000 114.1914040000,22.2859080000 114.1914310000,22.2859190000 114.1914760000,22.2859510000 114.1915150000,22.2859880000 114.1915440000,22.2860340000 114.1915590000,22.2860840000 114.1915600000,22.2861370000 114.1915280000,22.2866830000 114.1915220000,22.2867600000 114.1915280000,22.2868370000 114.1915470000,22.2869120000 114.1915770000,22.2869840000 114.1916140000,22.2870460000 114.1916730000,22.2871190000 114.1918540000,22.2873200000 114.1918710000,22.2873390000 114.1919360000,22.2874170000 114.1919990000,22.2874960000 114.1921490000,22.2876610000 114.1928140000,22.2883870000 114.1928470000,22.2884230000 114.1932230000,22.2888410000 114.1935690000,22.2892020000 114.1935820000,22.2892150000 114.1936850000,22.2893290000 114.1940390000,22.2897420000 114.1940690000,22.2897750000 114.1941280000,22.2898330000 114.1948160000,22.2906000000 114.1948400000,22.2906260000 114.1950170000,22.2908170000 114.1951340000,22.2909430000 114.1952500000,22.2910400000 114.1953390000,22.2910970000 114.1955040000,22.2911690000 114.1955250000,22.2911790000 114.1960580000,22.2914110000 114.1963320000,22.2915170000 114.1963580000,22.2915290000 114.1965580000,22.2915780000 114.1967070000,22.2916090000 114.1967440000,22.2916160000 114.1971080000,22.2916850000 114.1984160000,22.2919430000 114.1984600000,22.2919510000 114.1985700000,22.2919730000 114.1987650000,22.2920130000 114.1988570000,22.2920320000 114.1989210000,22.2920450000 114.1998850000,22.2922530000 114.1999400000,22.2922630000 114.2000440000,22.2922820000 114.2001400000,22.2923020000 114.2008440000,22.2924500000 114.2013000000,22.2925460000 114.2013940000,22.2925660000 114.2015150000,22.2925890000 114.2023880000,22.2927630000 114.2027040000,22.2928260000 114.2027600000,22.2928370000 114.2028370000,22.2928520000 114.2028080000,22.2929770000 114.2027530000,22.2932060000 114.2027240000,22.2933250000 114.2027080000,22.2933940000 114.2026650000,22.2935770000</coordinates>
                </LineString>
                <ExtendedData>
                    <Data name="duration">
                        <value>01:46:55</value>
                    </Data>
                    <Data name="length">
                        <value>98377.17223642569</value>
                    </Data>
                </ExtendedData>
            </Placemark>
        </Document>
    </Document>
</kml>