<?xml version="1.0" encoding="UTF-8"?>
<kml xmlns="http://www.opengis.net/kml/2.2" xmlns:gx="http://www.google.com/kml/ext/2.2">
    <Document>
        <name>Route</name>
        <Folder>
            <name>Route Request</name>
            <Placemark>
                <address>Fortress, Pui To Road, Tuen Mun San Hui, Tuen Mun Central, Tuen Mun, Tuen Mun District, New Territories, Hong Kong, China</address>
                <Point>
                    <coordinates>113.9738680460,22.3946094160</coordinates>
                </Point>
                <ExtendedData>
                    <Data name="shop">
                        <value>Fortress</value>
                    </Data>
                    <Data name="ISO3166-2-lvl3">
                        <value>CN-HK</value>
                    </Data>
                    <Data name="quarter">
                        <value>Tuen Mun San Hui</value>
                    </Data>
                    <Data name="city">
                        <value>Tuen Mun District</value>
                    </Data>
                    <Data name="suburb">
                        <value>Tuen Mun Central</value>
                    </Data>
                    <Data name="country_code">
                        <value>cn</value>
                    </Data>
                    <Data name="municipality">
                        <value>New Territories</value>
                    </Data>
                    <Data name="state">
                        <value>Hong Kong</value>
                    </Data>
                    <Data name="town">
                        <value>Tuen Mun</value>
                    </Data>
                    <Data name="road">
                        <value>Pui To Road</value>
                    </Data>
                    <Data name="country">
                        <value>China</value>
                    </Data>
                </ExtendedData>
            </Placemark>
            <Placemark>
                <address>BYOB Coffee Roaster, 5, Tsing To Path, Hung Kiu, Tuen Mun Central, Kau Hui Village, Tuen Mun District, New Territories, Hong Kong, China</address>
                <Point>
                    <coordinates>113.9776561582,22.4008783511</coordinates>
                </Point>
                <ExtendedData>
                    <Data name="house_number">
                        <value>5</value>
                    </Data>
                    <Data name="ISO3166-2-lvl3">
                        <value>CN-HK</value>
                    </Data>
                    <Data name="city">
                        <value>Tuen Mun District</value>
                    </Data>
                    <Data name="village">
                        <value>Kau Hui Village</value>
                    </Data>
                    <Data name="neighbourhood">
                        <value>Hung Kiu</value>
                    </Data>
                    <Data name="suburb">
                        <value>Tuen Mun Central</value>
                    </Data>
                    <Data name="country_code">
                        <value>cn</value>
                    </Data>
                    <Data name="municipality">
                        <value>New Territories</value>
                    </Data>
                    <Data name="state">
                        <value>Hong Kong</value>
                    </Data>
                    <Data name="amenity">
                        <value>BYOB Coffee Roaster</value>
                    </Data>
                    <Data name="road">
                        <value>Tsing To Path</value>
                    </Data>
                    <Data name="country">
                        <value>China</value>
                    </Data>
                </ExtendedData>
            </Placemark>
            <Placemark>
                <address>Hung Fuk Shopping Centre, Hung Shui Kiu Tin Sam Road, Tin Sum, Hung Shui Kiu, Shek Po Village, Yuen Long District, New Territories, Hong Kong, China</address>
                <Point>
                    <coordinates>113.9979766085,22.4367116180</coordinates>
                </Point>
                <ExtendedData>
                    <Data name="shop">
                        <value>Hung Fuk Shopping Centre</value>
                    </Data>
                    <Data name="ISO3166-2-lvl3">
                        <value>CN-HK</value>
                    </Data>
                    <Data name="quarter">
                        <value>Tin Sum</value>
                    </Data>
                    <Data name="city">
                        <value>Yuen Long District</value>
                    </Data>
                    <Data name="village">
                        <value>Shek Po Village</value>
                    </Data>
                    <Data name="suburb">
                        <value>Hung Shui Kiu</value>
                    </Data>
                    <Data name="country_code">
                        <value>cn</value>
                    </Data>
                    <Data name="municipality">
                        <value>New Territories</value>
                    </Data>
                    <Data name="state">
                        <value>Hong Kong</value>
                    </Data>
                    <Data name="road">
                        <value>Hung Shui Kiu Tin Sam Road</value>
                    </Data>
                    <Data name="country">
                        <value>China</value>
                    </Data>
                </ExtendedData>
            </Placemark>
            <Placemark>
                <address>Tin Shui Wai West Interchange, Hung Shui Kiu, Shek Po Village, Yuen Long District, New Territories, Hong Kong, China</address>
                <Point>
                    <coordinates>114.0033910037,22.4344065155</coordinates>
                </Point>
                <ExtendedData>
                    <Data name="ISO3166-2-lvl3">
                        <value>CN-HK</value>
                    </Data>
                    <Data name="city">
                        <value>Yuen Long District</value>
                    </Data>
                    <Data name="village">
                        <value>Shek Po Village</value>
                    </Data>
                    <Data name="suburb">
                        <value>Hung Shui Kiu</value>
                    </Data>
                    <Data name="country_code">
                        <value>cn</value>
                    </Data>
                    <Data name="municipality">
                        <value>New Territories</value>
                    </Data>
                    <Data name="state">
                        <value>Hong Kong</value>
                    </Data>
                    <Data name="road">
                        <value>Tin Shui Wai West Interchange</value>
                    </Data>
                    <Data name="country">
                        <value>China</value>
                    </Data>
                </ExtendedData>
            </Placemark>
            <Placemark>
                <address>Pak Lai Road, Ma Wan, Wang Lung Mei, Tsuen Wan District, New Territories, Hong Kong, China</address>
                <Point>
                    <coordinates>114.0631103374,22.3529731846</coordinates>
                </Point>
                <ExtendedData>
                    <Data name="ISO3166-2-lvl3">
                        <value>CN-HK</value>
                    </Data>
                    <Data name="city">
                        <value>Tsuen Wan District</value>
                    </Data>
                    <Data name="village">
                        <value>Wang Lung Mei</value>
                    </Data>
                    <Data name="suburb">
                        <value>Ma Wan</value>
                    </Data>
                    <Data name="country_code">
                        <value>cn</value>
                    </Data>
                    <Data name="municipality">
                        <value>New Territories</value>
                    </Data>
                    <Data name="state">
                        <value>Hong Kong</value>
                    </Data>
                    <Data name="road">
                        <value>Pak Lai Road</value>
                    </Data>
                    <Data name="country">
                        <value>China</value>
                    </Data>
                </ExtendedData>
            </Placemark>
            <Placemark>
                <address>Tin Shui Wai West Interchange, Ping Shan, Tong Yan San Tsuen, Yuen Long District, New Territories, Hong Kong, China</address>
                <Point>
                    <coordinates>114.0028864761,22.4341500125</coordinates>
                </Point>
                <ExtendedData>
                    <Data name="ISO3166-2-lvl3">
                        <value>CN-HK</value>
                    </Data>
                    <Data name="city">
                        <value>Yuen Long District</value>
                    </Data>
                    <Data name="village">
                        <value>Tong Yan San Tsuen</value>
                    </Data>
                    <Data name="suburb">
                        <value>Ping Shan</value>
                    </Data>
                    <Data name="country_code">
                        <value>cn</value>
                    </Data>
                    <Data name="municipality">
                        <value>New Territories</value>
                    </Data>
                    <Data name="state">
                        <value>Hong Kong</value>
                    </Data>
                    <Data name="road">
                        <value>Tin Shui Wai West Interchange</value>
                    </Data>
                    <Data name="country">
                        <value>China</value>
                    </Data>
                </ExtendedData>
            </Placemark>
            <Placemark>
                <address>Hung Fuk Shopping Centre, Hung Shui Kiu Tin Sam Road, Tin Sum, Hung Shui Kiu, Shek Po Village, Yuen Long District, New Territories, Hong Kong, China</address>
                <Point>
                    <coordinates>113.9979838810,22.4366910917</coordinates>
                </Point>
                <ExtendedData>
                    <Data name="shop">
                        <value>Hung Fuk Shopping Centre</value>
                    </Data>
                    <Data name="ISO3166-2-lvl3">
                        <value>CN-HK</value>
                    </Data>
                    <Data name="quarter">
                        <value>Tin Sum</value>
                    </Data>
                    <Data name="city">
                        <value>Yuen Long District</value>
                    </Data>
                    <Data name="village">
                        <value>Shek Po Village</value>
                    </Data>
                    <Data name="suburb">
                        <value>Hung Shui Kiu</value>
                    </Data>
                    <Data name="country_code">
                        <value>cn</value>
                    </Data>
                    <Data name="municipality">
                        <value>New Territories</value>
                    </Data>
                    <Data name="state">
                        <value>Hong Kong</value>
                    </Data>
                    <Data name="road">
                        <value>Hung Shui Kiu Tin Sam Road</value>
                    </Data>
                    <Data name="country">
                        <value>China</value>
                    </Data>
                </ExtendedData>
            </Placemark>
            <Placemark>
                <address>Tuen Mun Road, Hung Kiu, Tuen Mun Central, Kau Hui Village, Tuen Mun District, New Territories, Hong Kong, China</address>
                <Point>
                    <coordinates>113.9766072800,22.4009107653</coordinates>
                </Point>
                <ExtendedData>
                    <Data name="ISO3166-2-lvl3">
                        <value>CN-HK</value>
                    </Data>
                    <Data name="city">
                        <value>Tuen Mun District</value>
                    </Data>
                    <Data name="village">
                        <value>Kau Hui Village</value>
                    </Data>
                    <Data name="neighbourhood">
                        <value>Hung Kiu</value>
                    </Data>
                    <Data name="suburb">
                        <value>Tuen Mun Central</value>
                    </Data>
                    <Data name="country_code">
                        <value>cn</value>
                    </Data>
                    <Data name="municipality">
                        <value>New Territories</value>
                    </Data>
                    <Data name="state">
                        <value>Hong Kong</value>
                    </Data>
                    <Data name="road">
                        <value>Tuen Mun Road</value>
                    </Data>
                    <Data name="country">
                        <value>China</value>
                    </Data>
                </ExtendedData>
            </Placemark>
            <Placemark>
                <address>Tuen Mun Road, Tuen Mun Town Centre, Tseng Tau Sheung Tsuen South, Tuen Mun, Tuen Mun District, New Territories, Hong Kong, China</address>
                <Point>
                    <coordinates>113.9777286151,22.3901851170</coordinates>
                </Point>
                <ExtendedData>
                    <Data name="ISO3166-2-lvl3">
                        <value>CN-HK</value>
                    </Data>
                    <Data name="quarter">
                        <value>Tuen Mun Town Centre</value>
                    </Data>
                    <Data name="city">
                        <value>Tuen Mun District</value>
                    </Data>
                    <Data name="country_code">
                        <value>cn</value>
                    </Data>
                    <Data name="municipality">
                        <value>New Territories</value>
                    </Data>
                    <Data name="state">
                        <value>Hong Kong</value>
                    </Data>
                    <Data name="town">
                        <value>Tuen Mun</value>
                    </Data>
                    <Data name="road">
                        <value>Tuen Mun Road</value>
                    </Data>
                    <Data name="country">
                        <value>China</value>
                    </Data>
                    <Data name="hamlet">
                        <value>Tseng Tau Sheung Tsuen South</value>
                    </Data>
                </ExtendedData>
            </Placemark>
            <Placemark>
                <address>Fortress, Pui To Road, Tuen Mun San Hui, Tuen Mun Central, Tuen Mun, Tuen Mun District, New Territories, Hong Kong, China</address>
                <Point>
                    <coordinates>113.9738606588,22.3946094518</coordinates>
                </Point>
                <ExtendedData>
                    <Data name="shop">
                        <value>Fortress</value>
                    </Data>
                    <Data name="ISO3166-2-lvl3">
                        <value>CN-HK</value>
                    </Data>
                    <Data name="quarter">
                        <value>Tuen Mun San Hui</value>
                    </Data>
                    <Data name="city">
                        <value>Tuen Mun District</value>
                    </Data>
                    <Data name="suburb">
                        <value>Tuen Mun Central</value>
                    </Data>
                    <Data name="country_code">
                        <value>cn</value>
                    </Data>
                    <Data name="municipality">
                        <value>New Territories</value>
                    </Data>
                    <Data name="state">
                        <value>Hong Kong</value>
                    </Data>
                    <Data name="town">
                        <value>Tuen Mun</value>
                    </Data>
                    <Data name="road">
                        <value>Pui To Road</value>
                    </Data>
                    <Data name="country">
                        <value>China</value>
                    </Data>
                </ExtendedData>
            </Placemark>
        </Folder>
        <Document>
            <name>63.3 km; 01:09 h (OSRM)</name>
            <Placemark>
                <name>Route</name>
                <LineString>
                    <coordinates>113.9733550000,22.3947200000 113.9734660000,22.3951600000 113.9735170000,22.3953530000 113.9735650000,22.3955250000 113.9736820000,22.3959800000 113.9737000000,22.3960520000 113.9737580000,22.3960400000 113.9740370000,22.3959800000 113.9741130000,22.3959640000 113.9743570000,22.3959110000 113.9743900000,22.3959030000 113.9744390000,22.3958940000 113.9745070000,22.3958810000 113.9745350000,22.3959880000 113.9745420000,22.3960120000 113.9746620000,22.3964230000 113.9747560000,22.3967560000 113.9747710000,22.3968150000 113.9747890000,22.3968790000 113.9750080000,22.3976950000 113.9750540000,22.3978520000 113.9750740000,22.3979370000 113.9750830000,22.3979760000 113.9751170000,22.3980200000 113.9751450000,22.3981150000 113.9751980000,22.3983320000 113.9753430000,22.3989060000 113.9753750000,22.3990870000 113.9753890000,22.3992410000 113.9753890000,22.3992490000 113.9753950000,22.3994710000 113.9754110000,22.3995960000 113.9754520000,22.3997640000 113.9755890000,22.3999810000 113.9758720000,22.4003880000 113.9759820000,22.4005310000 113.9761120000,22.4006950000 113.9761600000,22.4007550000 113.9762420000,22.4008270000 113.9763060000,22.4008780000 113.9763850000,22.4009270000 113.9764820000,22.4009570000 113.9765470000,22.4009700000 113.9765970000,22.4009750000 113.9766670000,22.4009800000 113.9767510000,22.4009810000 113.9768360000,22.4009750000 113.9769170000,22.4009650000 113.9774910000,22.4008500000 113.9776430000,22.4008210000 113.9778820000,22.4007750000 113.9779350000,22.4007660000 113.9780020000,22.4007550000 113.9783100000,22.4013650000 113.9783500000,22.4014390000 113.9786970000,22.4020840000 113.9790750000,22.4028580000 113.9791140000,22.4029330000 113.9791150000,22.4029360000 113.9792800000,22.4032670000 113.9793180000,22.4033570000 113.9793500000,22.4034390000 113.9793830000,22.4035320000 113.9794110000,22.4036170000 113.9794290000,22.4036780000 113.9794410000,22.4037340000 113.9794560000,22.4038220000 113.9794630000,22.4038760000 113.9794660000,22.4039320000 113.9794630000,22.4040000000 113.9794550000,22.4040700000 113.9794390000,22.4041600000 113.9794220000,22.4042270000 113.9794000000,22.4042940000 113.9793650000,22.4043740000 113.9793250000,22.4044530000 113.9792810000,22.4045290000 113.9792340000,22.4046030000 113.9791730000,22.4046870000 113.9790430000,22.4048570000 113.9787890000,22.4052410000 113.9786740000,22.4054430000 113.9785770000,22.4056570000 113.9785420000,22.4057770000 113.9785220000,22.4059080000 113.9785180000,22.4061310000 113.9785280000,22.4063250000 113.9785510000,22.4064820000 113.9786860000,22.4072140000 113.9787370000,22.4074620000 113.9787600000,22.4075820000 113.9787640000,22.4076100000 113.9788300000,22.4078330000 113.9788470000,22.4078880000 113.9788760000,22.4079480000 113.9789090000,22.4080310000 113.9789380000,22.4080880000 113.9790150000,22.4081940000 113.9790620000,22.4082440000 113.9790900000,22.4082720000 113.9791990000,22.4083650000 113.9792480000,22.4084050000 113.9792820000,22.4084340000 113.9793520000,22.4084750000 113.9793990000,22.4085030000 113.9796100000,22.4086070000 113.9796350000,22.4086170000 113.9796680000,22.4086280000 113.9797740000,22.4086530000 113.9798810000,22.4086800000 113.9800050000,22.4086990000 113.9801150000,22.4087170000 113.9802110000,22.4087190000 113.9803900000,22.4087230000 113.9806780000,22.4087300000 113.9807070000,22.4087310000 113.9808670000,22.4087400000 113.9810040000,22.4087550000 113.9811260000,22.4087770000 113.9812730000,22.4088220000 113.9814150000,22.4088730000 113.9815620000,22.4089480000 113.9816910000,22.4090320000 113.9818620000,22.4091850000 113.9819990000,22.4093470000 113.9820910000,22.4094800000 113.9821470000,22.4096040000 113.9822010000,22.4097230000 113.9822300000,22.4098290000 113.9822500000,22.4099350000 113.9822730000,22.4101510000 113.9822800000,22.4103970000 113.9822810000,22.4106250000 113.9822830000,22.4109750000 113.9822840000,22.4110160000 113.9822850000,22.4110280000 113.9822840000,22.4117210000 113.9822800000,22.4119080000 113.9822800000,22.4129600000 113.9822860000,22.4133440000 113.9822940000,22.4134320000 113.9823220000,22.4137360000 113.9823480000,22.4139900000 113.9823930000,22.4144030000 113.9823960000,22.4144450000 113.9824020000,22.4145420000 113.9823990000,22.4146050000 113.9823710000,22.4148610000 113.9823290000,22.4150070000 113.9822800000,22.4151120000 113.9822270000,22.4152010000 113.9821550000,22.4152940000 113.9821100000,22.4153440000 113.9819870000,22.4154480000 113.9817710000,22.4156780000 113.9816560000,22.4158000000 113.9816030000,22.4158580000 113.9814840000,22.4159680000 113.9814400000,22.4160210000 113.9814200000,22.4160490000 113.9813770000,22.4161090000 113.9813410000,22.4161910000 113.9813210000,22.4162680000 113.9813040000,22.4163380000 113.9812990000,22.4164110000 113.9812990000,22.4164890000 113.9813030000,22.4166680000 113.9813310000,22.4167150000 113.9817070000,22.4174190000 113.9817890000,22.4175730000 113.9818980000,22.4177700000 113.9821380000,22.4182070000 113.9822570000,22.4184220000 113.9822880000,22.4184750000 113.9823680000,22.4186270000 113.9826190000,22.4191010000 113.9827170000,22.4192810000 113.9827500000,22.4193370000 113.9829060000,22.4196030000 113.9829480000,22.4196680000 113.9831160000,22.4199070000 113.9833130000,22.4201480000 113.9834170000,22.4202680000 113.9835000000,22.4203780000 113.9835960000,22.4204830000 113.9837760000,22.4206810000 113.9840050000,22.4209230000 113.9840770000,22.4209890000 113.9841410000,22.4210540000 113.9841990000,22.4211080000 113.9842360000,22.4211480000 113.9842750000,22.4212040000 113.9844100000,22.4213380000 113.9845750000,22.4215040000 113.9847020000,22.4216310000 113.9847510000,22.4216890000 113.9847630000,22.4217010000 113.9848460000,22.4217930000 113.9848730000,22.4218230000 113.9850750000,22.4220450000 113.9851630000,22.4221420000 113.9854630000,22.4224590000 113.9856010000,22.4226110000 113.9865740000,22.4236520000 113.9870070000,22.4241050000 113.9872560000,22.4243650000 113.9872780000,22.4243880000 113.9873350000,22.4244270000 113.9873660000,22.4244600000 113.9873790000,22.4244960000 113.9874130000,22.4245330000 113.9876860000,22.4248210000 113.9878370000,22.4249610000 113.9886720000,22.4258590000 113.9887220000,22.4259120000 113.9888610000,22.4260620000 113.9890960000,22.4263130000 113.9891110000,22.4263530000 113.9891540000,22.4263860000 113.9891870000,22.4264250000 113.9892180000,22.4264730000 113.9892970000,22.4265550000 113.9895090000,22.4267660000 113.9896870000,22.4269510000 113.9898780000,22.4271560000 113.9899140000,22.4271940000 113.9900010000,22.4272920000 113.9900380000,22.4273290000 113.9900830000,22.4273790000 113.9901830000,22.4274890000 113.9902430000,22.4275590000 113.9903680000,22.4276640000 113.9904030000,22.4277000000 113.9904580000,22.4277760000 113.9906450000,22.4279810000 113.9909700000,22.4283250000 113.9911290000,22.4284900000 113.9912660000,22.4286330000 113.9913280000,22.4286980000 113.9913590000,22.4287300000 113.9913800000,22.4287570000 113.9914930000,22.4288380000 113.9915100000,22.4288550000 113.9915340000,22.4288770000 113.9915700000,22.4289370000 113.9916600000,22.4290220000 113.9918020000,22.4291590000 113.9918840000,22.4292410000 113.9922720000,22.4295580000 113.9924920000,22.4297380000 113.9925920000,22.4298100000 113.9931310000,22.4302460000 113.9932410000,22.4303450000 113.9949260000,22.4317030000 113.9951820000,22.4318890000 113.9954720000,22.4321020000 113.9955810000,22.4321810000 113.9962050000,22.4326080000 113.9962540000,22.4326440000 113.9963160000,22.4326880000 113.9962530000,22.4327700000 113.9962210000,22.4328100000 113.9962070000,22.4328300000 113.9961930000,22.4328450000 113.9961580000,22.4328910000 113.9960430000,22.4330260000 113.9958550000,22.4333340000 113.9958430000,22.4334700000 113.9956910000,22.4339310000 113.9956280000,22.4341240000 113.9955670000,22.4343430000 113.9955170000,22.4344590000 113.9954360000,22.4345990000 113.9953250000,22.4347820000 113.9953110000,22.4348120000 113.9952880000,22.4348750000 113.9954160000,22.4349140000 113.9957670000,22.4350040000 113.9958320000,22.4350250000 113.9965110000,22.4352510000 113.9967960000,22.4353620000 113.9970260000,22.4354600000 113.9973500000,22.4356420000 113.9973650000,22.4356500000 113.9975070000,22.4357480000 113.9977090000,22.4358810000 113.9977260000,22.4358920000 113.9982570000,22.4362260000 113.9983170000,22.4362650000 113.9983170000,22.4362650000 113.9983740000,22.4363010000 113.9986460000,22.4364760000 113.9988330000,22.4365970000 113.9989740000,22.4366900000 113.9992160000,22.4368400000 113.9993240000,22.4369080000 113.9993440000,22.4369250000 113.9991080000,22.4373400000 113.9990440000,22.4374840000 113.9990160000,22.4375460000 113.9988170000,22.4379860000 113.9986030000,22.4384590000 113.9985220000,22.4387100000 113.9984420000,22.4389980000 113.9983940000,22.4391700000 113.9983860000,22.4392080000 113.9983700000,22.4392830000 113.9983510000,22.4393740000 113.9985720000,22.4394040000 113.9989170000,22.4394450000 113.9990630000,22.4394620000 113.9990770000,22.4393680000 113.9990890000,22.4392860000 113.9991230000,22.4389360000 113.9991070000,22.4386110000 113.9991360000,22.4384560000 113.9992170000,22.4380320000 113.9993710000,22.4375440000 113.9994210000,22.4373660000 113.9994470000,22.4371950000 113.9997030000,22.4368030000 113.9998970000,22.4365120000 114.0001360000,22.4362010000 114.0003600000,22.4359290000 114.0004500000,22.4358330000 114.0009420000,22.4353370000 114.0012670000,22.4350820000 114.0014780000,22.4349390000 114.0016560000,22.4348220000 114.0018530000,22.4347060000 114.0020680000,22.4346110000 114.0022200000,22.4345490000 114.0023170000,22.4345130000 114.0025030000,22.4344470000 114.0026010000,22.4344160000 114.0026940000,22.4343940000 114.0027850000,22.4343790000 114.0028610000,22.4343710000 114.0029400000,22.4343670000 114.0030300000,22.4343690000 114.0031440000,22.4343820000 114.0033000000,22.4344140000 114.0033680000,22.4344390000 114.0033740000,22.4344420000 114.0034440000,22.4344710000 114.0035290000,22.4345140000 114.0036100000,22.4345680000 114.0037210000,22.4346540000 114.0038090000,22.4347310000 114.0039460000,22.4348690000 114.0040290000,22.4349530000 114.0041350000,22.4350540000 114.0042890000,22.4351940000 114.0046090000,22.4354510000 114.0047130000,22.4355240000 114.0048170000,22.4355860000 114.0049020000,22.4356310000 114.0053800000,22.4358650000 114.0056540000,22.4359990000 114.0059080000,22.4361210000 114.0061480000,22.4362270000 114.0065100000,22.4363710000 114.0068130000,22.4364940000 114.0072180000,22.4366470000 114.0074660000,22.4367340000 114.0077950000,22.4368540000 114.0081200000,22.4369610000 114.0085380000,22.4370830000 114.0088760000,22.4371860000 114.0092970000,22.4373030000 114.0100560000,22.4374960000 114.0111950000,22.4377320000 114.0116250000,22.4378110000 114.0121570000,22.4379040000 114.0124040000,22.4379410000 114.0125340000,22.4379570000 114.0126570000,22.4379680000 114.0128380000,22.4379820000 114.0131330000,22.4380000000 114.0132580000,22.4380050000 114.0136380000,22.4379980000 114.0138930000,22.4379850000 114.0140050000,22.4379790000 114.0141920000,22.4379630000 114.0144960000,22.4379240000 114.0147590000,22.4378800000 114.0149400000,22.4378440000 114.0151910000,22.4377850000 114.0153620000,22.4377390000 114.0155670000,22.4376820000 114.0157370000,22.4376280000 114.0158770000,22.4375790000 114.0160750000,22.4375070000 114.0162810000,22.4374220000 114.0164930000,22.4373330000 114.0166630000,22.4372550000 114.0172760000,22.4369520000 114.0178780000,22.4366500000 114.0181980000,22.4364950000 114.0185110000,22.4363550000 114.0188240000,22.4362200000 114.0190380000,22.4361410000 114.0193620000,22.4360330000 114.0197360000,22.4359250000 114.0200340000,22.4358610000 114.0208130000,22.4356920000 114.0211510000,22.4356160000 114.0216320000,22.4355150000 114.0222080000,22.4354000000 114.0229570000,22.4352660000 114.0239130000,22.4351010000 114.0246560000,22.4349680000 114.0250720000,22.4348960000 114.0259200000,22.4347440000 114.0264410000,22.4346530000 114.0283270000,22.4343380000 114.0293680000,22.4341510000 114.0297040000,22.4341020000 114.0299430000,22.4340770000 114.0301360000,22.4340600000 114.0303070000,22.4340490000 114.0305310000,22.4340420000 114.0307070000,22.4340430000 114.0308390000,22.4340460000 114.0310150000,22.4340570000 114.0311970000,22.4340680000 114.0313580000,22.4340840000 114.0315300000,22.4341080000 114.0317040000,22.4341360000 114.0318700000,22.4341660000 114.0320440000,22.4342020000 114.0322150000,22.4342420000 114.0323840000,22.4342840000 114.0325490000,22.4343330000 114.0328150000,22.4344240000 114.0329950000,22.4344910000 114.0331500000,22.4345530000 114.0332960000,22.4346190000 114.0334990000,22.4347170000 114.0336480000,22.4347910000 114.0338110000,22.4348770000 114.0339600000,22.4349620000 114.0340970000,22.4350490000 114.0342480000,22.4351470000 114.0343800000,22.4352370000 114.0345200000,22.4353410000 114.0346460000,22.4354360000 114.0348200000,22.4355760000 114.0350030000,22.4357270000 114.0377890000,22.4381000000 114.0379620000,22.4382610000 114.0381740000,22.4384820000 114.0383500000,22.4386890000 114.0384850000,22.4388620000 114.0386480000,22.4391120000 114.0388620000,22.4394730000 114.0389480000,22.4396500000 114.0390870000,22.4399930000 114.0391520000,22.4401880000 114.0391790000,22.4402710000 114.0392510000,22.4405540000 114.0393000000,22.4408410000 114.0393040000,22.4408630000 114.0393110000,22.4409030000 114.0393360000,22.4411430000 114.0393470000,22.4413790000 114.0393540000,22.4418680000 114.0393670000,22.4428090000 114.0393750000,22.4433690000 114.0393760000,22.4438150000 114.0393780000,22.4439700000 114.0393820000,22.4445210000 114.0394090000,22.4448890000 114.0394250000,22.4450290000 114.0394420000,22.4451390000 114.0394600000,22.4452230000 114.0394920000,22.4453460000 114.0395540000,22.4455640000 114.0396350000,22.4458420000 114.0396880000,22.4459760000 114.0397190000,22.4460440000 114.0397580000,22.4461260000 114.0398620000,22.4463640000 114.0399390000,22.4465430000 114.0399770000,22.4466300000 114.0400020000,22.4467050000 114.0400440000,22.4468160000 114.0401560000,22.4469770000 114.0402260000,22.4470630000 114.0404570000,22.4473430000 114.0406150000,22.4475120000 114.0407840000,22.4476730000 114.0409370000,22.4478070000 114.0410890000,22.4479410000 114.0412040000,22.4480380000 114.0415040000,22.4482430000 114.0418360000,22.4484470000 114.0421390000,22.4486100000 114.0423790000,22.4487250000 114.0426660000,22.4488300000 114.0429540000,22.4489250000 114.0431430000,22.4489790000 114.0433990000,22.4490400000 114.0435580000,22.4490840000 114.0438340000,22.4491570000 114.0439220000,22.4491750000 114.0445260000,22.4492920000 114.0446930000,22.4493210000 114.0448720000,22.4493500000 114.0450400000,22.4493710000 114.0452260000,22.4493890000 114.0454290000,22.4494010000 114.0456530000,22.4494020000 114.0457970000,22.4493930000 114.0459610000,22.4493780000 114.0461200000,22.4493550000 114.0462540000,22.4493310000 114.0464080000,22.4492990000 114.0465630000,22.4492570000 114.0467160000,22.4492110000 114.0468650000,22.4491590000 114.0470410000,22.4490920000 114.0472760000,22.4489930000 114.0474960000,22.4488960000 114.0477610000,22.4487680000 114.0479670000,22.4486630000 114.0481820000,22.4485440000 114.0483610000,22.4484370000 114.0485370000,22.4483270000 114.0487380000,22.4481910000 114.0489770000,22.4480110000 114.0492460000,22.4477790000 114.0495220000,22.4475150000 114.0497300000,22.4472910000 114.0498060000,22.4472000000 114.0499180000,22.4470490000 114.0500100000,22.4469070000 114.0501100000,22.4467360000 114.0501830000,22.4466010000 114.0502760000,22.4463770000 114.0503430000,22.4461870000 114.0503940000,22.4460100000 114.0504620000,22.4457210000 114.0506000000,22.4449900000 114.0506640000,22.4446850000 114.0507310000,22.4444470000 114.0507810000,22.4442940000 114.0508480000,22.4441090000 114.0509310000,22.4439180000 114.0510550000,22.4436670000 114.0511570000,22.4434860000 114.0513140000,22.4432450000 114.0514890000,22.4430120000 114.0516560000,22.4427950000 114.0519930000,22.4424060000 114.0523540000,22.4420140000 114.0524670000,22.4418910000 114.0528330000,22.4415880000 114.0537250000,22.4408880000 114.0539140000,22.4407410000 114.0539990000,22.4406740000 114.0543270000,22.4404180000 114.0544410000,22.4403300000 114.0552510000,22.4397070000 114.0557360000,22.4393400000 114.0562240000,22.4389830000 114.0566030000,22.4387200000 114.0574240000,22.4381650000 114.0580710000,22.4376870000 114.0583250000,22.4374860000 114.0586730000,22.4372000000 114.0591960000,22.4367440000 114.0596240000,22.4363440000 114.0597870000,22.4361860000 114.0601090000,22.4358600000 114.0604530000,22.4354950000 114.0607800000,22.4351250000 114.0611520000,22.4346860000 114.0614490000,22.4343100000 114.0617700000,22.4338730000 114.0619730000,22.4335750000 114.0622480000,22.4331430000 114.0624570000,22.4327850000 114.0626480000,22.4324290000 114.0628140000,22.4321030000 114.0630310000,22.4316290000 114.0631480000,22.4313530000 114.0633360000,22.4308500000 114.0634380000,22.4305540000 114.0635560000,22.4301880000 114.0637050000,22.4296700000 114.0638390000,22.4291530000 114.0639560000,22.4286250000 114.0640530000,22.4281040000 114.0641170000,22.4277120000 114.0641550000,22.4274190000 114.0642180000,22.4268400000 114.0642520000,22.4264070000 114.0642720000,22.4259930000 114.0642990000,22.4243590000 114.0643130000,22.4232740000 114.0643110000,22.4225020000 114.0642930000,22.4220220000 114.0642670000,22.4215770000 114.0642570000,22.4213660000 114.0641580000,22.4204600000 114.0640030000,22.4189740000 114.0639950000,22.4189290000 114.0638760000,22.4183200000 114.0635200000,22.4166570000 114.0634500000,22.4161790000 114.0633480000,22.4155790000 114.0632220000,22.4150740000 114.0630650000,22.4145840000 114.0628950000,22.4141420000 114.0626700000,22.4136450000 114.0623420000,22.4130480000 114.0610830000,22.4109250000 114.0609240000,22.4106470000 114.0608340000,22.4104820000 114.0607460000,22.4103130000 114.0606660000,22.4101470000 114.0605870000,22.4099760000 114.0605150000,22.4098100000 114.0604420000,22.4096400000 114.0603740000,22.4094700000 114.0603150000,22.4093000000 114.0602180000,22.4090130000 114.0601610000,22.4088270000 114.0601160000,22.4086640000 114.0600790000,22.4085170000 114.0600430000,22.4083840000 114.0600290000,22.4083290000 114.0599900000,22.4081590000 114.0599610000,22.4080280000 114.0599410000,22.4079220000 114.0599230000,22.4078170000 114.0599050000,22.4076820000 114.0598850000,22.4075290000 114.0598610000,22.4073170000 114.0598450000,22.4071630000 114.0598350000,22.4070400000 114.0598260000,22.4068800000 114.0598220000,22.4067200000 114.0598200000,22.4065600000 114.0598200000,22.4064000000 114.0598220000,22.4062400000 114.0598260000,22.4060800000 114.0598320000,22.4059200000 114.0598410000,22.4057600000 114.0598540000,22.4056000000 114.0598690000,22.4054400000 114.0598910000,22.4052500000 114.0623570000,22.3893650000 114.0626980000,22.3871780000 114.0637180000,22.3811750000 114.0637550000,22.3810000000 114.0637950000,22.3808300000 114.0638400000,22.3806600000 114.0638870000,22.3804900000 114.0639380000,22.3803100000 114.0639920000,22.3801310000 114.0640500000,22.3799600000 114.0641120000,22.3797900000 114.0641800000,22.3796200000 114.0642480000,22.3794600000 114.0643150000,22.3793030000 114.0643830000,22.3791500000 114.0644610000,22.3789900000 114.0645400000,22.3788400000 114.0646200000,22.3786900000 114.0647230000,22.3785000000 114.0648310000,22.3783200000 114.0649400000,22.3781500000 114.0650520000,22.3779800000 114.0651700000,22.3778100000 114.0652900000,22.3776450000 114.0654130000,22.3774800000 114.0655400000,22.3773200000 114.0656660000,22.3771710000 114.0658010000,22.3770150000 114.0659500000,22.3768540000 114.0661020000,22.3766950000 114.0662500000,22.3765450000 114.0664000000,22.3764000000 114.0665500000,22.3762610000 114.0667140000,22.3761200000 114.0668830000,22.3759780000 114.0670380000,22.3758630000 114.0672200000,22.3757280000 114.0673400000,22.3756430000 114.0673840000,22.3756120000 114.0674310000,22.3755850000 114.0676090000,22.3754820000 114.0682370000,22.3750400000 114.0688590000,22.3745820000 114.0690860000,22.3744300000 114.0692620000,22.3743040000 114.0701770000,22.3737060000 114.0713690000,22.3729280000 114.0732230000,22.3717740000 114.0734910000,22.3716070000 114.0739570000,22.3713190000 114.0753200000,22.3704760000 114.0755740000,22.3703150000 114.0757640000,22.3701890000 114.0759600000,22.3700600000 114.0760750000,22.3699840000 114.0762980000,22.3698280000 114.0765050000,22.3696610000 114.0765950000,22.3695800000 114.0766770000,22.3695060000 114.0768280000,22.3693520000 114.0769840000,22.3691700000 114.0771000000,22.3690320000 114.0771560000,22.3689570000 114.0772120000,22.3688760000 114.0772980000,22.3687530000 114.0773250000,22.3687170000 114.0773570000,22.3686640000 114.0777440000,22.3681000000 114.0779760000,22.3676890000 114.0785560000,22.3666650000 114.0786410000,22.3665060000 114.0786820000,22.3664280000 114.0789710000,22.3658810000 114.0795610000,22.3647620000 114.0819460000,22.3602400000 114.0820270000,22.3600740000 114.0821430000,22.3598350000 114.0822250000,22.3596680000 114.0824180000,22.3592640000 114.0824780000,22.3591470000 114.0826310000,22.3588550000 114.0828450000,22.3584440000 114.0830440000,22.3581450000 114.0833080000,22.3577150000 114.0833600000,22.3576320000 114.0834100000,22.3575520000 114.0834410000,22.3575050000 114.0834880000,22.3574290000 114.0836510000,22.3571970000 114.0837530000,22.3570690000 114.0838890000,22.3568810000 114.0840480000,22.3566920000 114.0843110000,22.3564160000 114.0846110000,22.3561480000 114.0850050000,22.3557630000 114.0851160000,22.3556240000 114.0851690000,22.3555170000 114.0852130000,22.3554410000 114.0852410000,22.3553850000 114.0852730000,22.3553130000 114.0852870000,22.3552680000 114.0853030000,22.3552170000 114.0853150000,22.3551690000 114.0853260000,22.3551260000 114.0853330000,22.3550720000 114.0853480000,22.3549480000 114.0853520000,22.3548900000 114.0853520000,22.3548290000 114.0853500000,22.3547650000 114.0853450000,22.3546970000 114.0853320000,22.3546180000 114.0853160000,22.3545430000 114.0852930000,22.3544590000 114.0852710000,22.3543930000 114.0852370000,22.3542990000 114.0852010000,22.3542220000 114.0851620000,22.3541530000 114.0851180000,22.3540850000 114.0850720000,22.3540200000 114.0850230000,22.3539610000 114.0849520000,22.3538920000 114.0848640000,22.3538170000 114.0847930000,22.3537630000 114.0847110000,22.3537080000 114.0846320000,22.3536630000 114.0845750000,22.3536320000 114.0845240000,22.3536090000 114.0844700000,22.3535860000 114.0843870000,22.3535550000 114.0842640000,22.3535170000 114.0841160000,22.3534790000 114.0839870000,22.3534480000 114.0838770000,22.3534260000 114.0838050000,22.3534130000 114.0837350000,22.3534020000 114.0836090000,22.3533850000 114.0834800000,22.3533710000 114.0833520000,22.3533620000 114.0832420000,22.3533590000 114.0830740000,22.3533480000 114.0829440000,22.3533400000 114.0828180000,22.3533300000 114.0827140000,22.3533210000 114.0826150000,22.3533090000 114.0825370000,22.3533010000 114.0824610000,22.3532930000 114.0823170000,22.3532800000 114.0822460000,22.3532720000 114.0820610000,22.3532540000 114.0818980000,22.3532060000 114.0817580000,22.3531650000 114.0816090000,22.3531210000 114.0805210000,22.3528160000 114.0797960000,22.3526170000 114.0797070000,22.3525930000 114.0726090000,22.3506460000 114.0675450000,22.3492370000 114.0659400000,22.3487900000 114.0628910000,22.3479420000 114.0621920000,22.3477430000 114.0617970000,22.3476210000 114.0613990000,22.3474890000 114.0610110000,22.3473460000 114.0606270000,22.3471880000 114.0605150000,22.3470580000 114.0602960000,22.3469230000 114.0599060000,22.3467040000 114.0591780000,22.3462980000 114.0590810000,22.3462350000 114.0589940000,22.3461760000 114.0589210000,22.3461180000 114.0588610000,22.3460630000 114.0587850000,22.3459840000 114.0586950000,22.3458710000 114.0586370000,22.3457700000 114.0586030000,22.3456950000 114.0585700000,22.3455930000 114.0585570000,22.3455270000 114.0585510000,22.3454560000 114.0585540000,22.3453490000 114.0585670000,22.3452580000 114.0586000000,22.3451410000 114.0586600000,22.3450230000 114.0587120000,22.3449450000 114.0587800000,22.3448670000 114.0588650000,22.3447910000 114.0589680000,22.3447230000 114.0590420000,22.3446850000 114.0591330000,22.3446490000 114.0593260000,22.3446100000 114.0594580000,22.3446040000 114.0596430000,22.3446270000 114.0597790000,22.3446710000 114.0599020000,22.3447340000 114.0600160000,22.3448130000 114.0601330000,22.3449300000 114.0601780000,22.3449890000 114.0602200000,22.3450530000 114.0602750000,22.3451450000 114.0603210000,22.3452380000 114.0603730000,22.3453750000 114.0604440000,22.3456290000 114.0607210000,22.3468530000 114.0607810000,22.3471460000 114.0608040000,22.3473050000 114.0608350000,22.3476730000 114.0608330000,22.3482840000 114.0608260000,22.3486600000 114.0608300000,22.3488480000 114.0608290000,22.3488740000 114.0608290000,22.3489140000 114.0608290000,22.3490420000 114.0608280000,22.3491250000 114.0608300000,22.3492190000 114.0608280000,22.3492550000 114.0608210000,22.3493250000 114.0608180000,22.3493540000 114.0607880000,22.3494410000 114.0607450000,22.3494940000 114.0607200000,22.3495110000 114.0606980000,22.3495310000 114.0606640000,22.3495440000 114.0605950000,22.3495750000 114.0604250000,22.3495910000 114.0602510000,22.3495960000 114.0600710000,22.3496110000 114.0599610000,22.3496310000 114.0598640000,22.3496590000 114.0597680000,22.3496980000 114.0597020000,22.3497440000 114.0596430000,22.3497950000 114.0596070000,22.3498690000 114.0595850000,22.3499520000 114.0595790000,22.3500550000 114.0595750000,22.3502020000 114.0595500000,22.3503230000 114.0595460000,22.3503430000 114.0595200000,22.3504340000 114.0594850000,22.3505560000 114.0594010000,22.3506870000 114.0593390000,22.3508050000 114.0593130000,22.3509620000 114.0593170000,22.3510680000 114.0593270000,22.3511380000 114.0593540000,22.3512080000 114.0594200000,22.3513930000 114.0595210000,22.3515920000 114.0596320000,22.3518230000 114.0596790000,22.3519770000 114.0597200000,22.3522270000 114.0597510000,22.3523610000 114.0597860000,22.3524590000 114.0598160000,22.3525290000 114.0598480000,22.3525790000 114.0598890000,22.3526310000 114.0599750000,22.3527490000 114.0600680000,22.3529140000 114.0601140000,22.3530150000 114.0601470000,22.3531080000 114.0601550000,22.3531640000 114.0601530000,22.3533470000 114.0601520000,22.3533970000 114.0601290000,22.3540480000 114.0601470000,22.3542720000 114.0602040000,22.3543710000 114.0603010000,22.3544520000 114.0604050000,22.3545250000 114.0605240000,22.3545500000 114.0609170000,22.3545540000 114.0612660000,22.3544510000 114.0616330000,22.3543440000 114.0619460000,22.3542400000 114.0620040000,22.3542200000 114.0621080000,22.3541720000 114.0622090000,22.3541260000 114.0623720000,22.3540300000 114.0624360000,22.3539860000 114.0625150000,22.3539250000 114.0626050000,22.3538390000 114.0626900000,22.3537590000 114.0627120000,22.3537300000 114.0627380000,22.3536980000 114.0627830000,22.3536390000 114.0628000000,22.3536110000 114.0628590000,22.3535110000 114.0629160000,22.3533910000 114.0629610000,22.3532140000 114.0629880000,22.3530710000 114.0629880000,22.3530710000 114.0629610000,22.3532140000 114.0629160000,22.3533910000 114.0628590000,22.3535110000 114.0628000000,22.3536110000 114.0627830000,22.3536390000 114.0627380000,22.3536980000 114.0627120000,22.3537300000 114.0626900000,22.3537590000 114.0626050000,22.3538390000 114.0625150000,22.3539250000 114.0624360000,22.3539860000 114.0623720000,22.3540300000 114.0622090000,22.3541260000 114.0621080000,22.3541720000 114.0620040000,22.3542200000 114.0619460000,22.3542400000 114.0616330000,22.3543440000 114.0612660000,22.3544510000 114.0609170000,22.3545540000 114.0605240000,22.3545500000 114.0604050000,22.3545250000 114.0603010000,22.3544520000 114.0602040000,22.3543710000 114.0601470000,22.3542720000 114.0601290000,22.3540480000 114.0601520000,22.3533970000 114.0601530000,22.3533470000 114.0601550000,22.3531640000 114.0601470000,22.3531080000 114.0601140000,22.3530150000 114.0600680000,22.3529140000 114.0599750000,22.3527490000 114.0598890000,22.3526310000 114.0598480000,22.3525790000 114.0598160000,22.3525290000 114.0597860000,22.3524590000 114.0597510000,22.3523610000 114.0597200000,22.3522270000 114.0596790000,22.3519770000 114.0596320000,22.3518230000 114.0595210000,22.3515920000 114.0594200000,22.3513930000 114.0593540000,22.3512080000 114.0593270000,22.3511380000 114.0593170000,22.3510680000 114.0593130000,22.3509620000 114.0593390000,22.3508050000 114.0594010000,22.3506870000 114.0594850000,22.3505560000 114.0595200000,22.3504340000 114.0595460000,22.3503430000 114.0595500000,22.3503230000 114.0595750000,22.3502020000 114.0595790000,22.3500550000 114.0595850000,22.3499520000 114.0596070000,22.3498690000 114.0596430000,22.3497950000 114.0597020000,22.3497440000 114.0597680000,22.3496980000 114.0598640000,22.3496590000 114.0599610000,22.3496310000 114.0600710000,22.3496110000 114.0602620000,22.3496340000 114.0604010000,22.3496420000 114.0604900000,22.3496500000 114.0605610000,22.3496730000 114.0606620000,22.3497230000 114.0607040000,22.3497420000 114.0607080000,22.3497480000 114.0607140000,22.3497520000 114.0607590000,22.3497800000 114.0608110000,22.3497950000 114.0608650000,22.3497930000 114.0609160000,22.3497770000 114.0609590000,22.3497470000 114.0609910000,22.3497060000 114.0610070000,22.3496580000 114.0610020000,22.3496040000 114.0610010000,22.3495920000 114.0610000000,22.3495820000 114.0610110000,22.3495180000 114.0610110000,22.3493530000 114.0610110000,22.3493260000 114.0610110000,22.3491650000 114.0610090000,22.3490460000 114.0610120000,22.3489140000 114.0610130000,22.3488740000 114.0610130000,22.3488480000 114.0610170000,22.3486630000 114.0610160000,22.3484960000 114.0610140000,22.3482730000 114.0609900000,22.3479120000 114.0609580000,22.3476290000 114.0609120000,22.3473480000 114.0608690000,22.3471430000 114.0605210000,22.3456000000 114.0604520000,22.3453590000 114.0603720000,22.3451460000 114.0603310000,22.3450660000 114.0602840000,22.3449910000 114.0601770000,22.3448530000 114.0600450000,22.3447320000 114.0598750000,22.3446230000 114.0596720000,22.3445370000 114.0594940000,22.3444960000 114.0593540000,22.3444820000 114.0592090000,22.3444850000 114.0589160000,22.3445350000 114.0584200000,22.3446770000 114.0582690000,22.3447280000 114.0581020000,22.3448060000 114.0579550000,22.3448980000 114.0578400000,22.3450000000 114.0577670000,22.3450880000 114.0577030000,22.3451930000 114.0576550000,22.3453120000 114.0576400000,22.3453670000 114.0576270000,22.3454280000 114.0576190000,22.3454960000 114.0576170000,22.3455620000 114.0576200000,22.3456220000 114.0576300000,22.3456840000 114.0576480000,22.3457650000 114.0576670000,22.3458260000 114.0576910000,22.3458830000 114.0577170000,22.3459330000 114.0577520000,22.3459900000 114.0577890000,22.3460400000 114.0578350000,22.3460980000 114.0578780000,22.3461450000 114.0579290000,22.3461920000 114.0579810000,22.3462350000 114.0580290000,22.3462710000 114.0581440000,22.3463440000 114.0582570000,22.3464070000 114.0585000000,22.3465250000 114.0597520000,22.3470480000 114.0604120000,22.3473260000 114.0605560000,22.3473310000 114.0609450000,22.3474910000 114.0613390000,22.3476360000 114.0617410000,22.3477700000 114.0621400000,22.3478920000 114.0628380000,22.3480920000 114.0785450000,22.3524280000 114.0797670000,22.3527760000 114.0800560000,22.3528590000 114.0804770000,22.3529760000 114.0806780000,22.3530320000 114.0815490000,22.3533040000 114.0817060000,22.3533540000 114.0818600000,22.3534150000 114.0820340000,22.3534850000 114.0821400000,22.3535230000 114.0822360000,22.3535580000 114.0823250000,22.3535970000 114.0824260000,22.3536490000 114.0826700000,22.3538010000 114.0828180000,22.3539120000 114.0829080000,22.3539780000 114.0830470000,22.3540950000 114.0830990000,22.3541460000 114.0831390000,22.3541890000 114.0831750000,22.3542280000 114.0832010000,22.3542640000 114.0832290000,22.3543040000 114.0832660000,22.3543650000 114.0832970000,22.3544170000 114.0833460000,22.3544980000 114.0833850000,22.3545690000 114.0834230000,22.3546410000 114.0834740000,22.3547480000 114.0835370000,22.3549100000 114.0835740000,22.3550200000 114.0836090000,22.3551470000 114.0836280000,22.3552490000 114.0836450000,22.3553560000 114.0836580000,22.3554500000 114.0836650000,22.3555460000 114.0836720000,22.3556480000 114.0836740000,22.3557370000 114.0836730000,22.3558530000 114.0836680000,22.3559530000 114.0836600000,22.3560510000 114.0836450000,22.3561390000 114.0836240000,22.3562260000 114.0835440000,22.3565110000 114.0835130000,22.3566070000 114.0832200000,22.3573020000 114.0831800000,22.3574120000 114.0831640000,22.3574540000 114.0831280000,22.3575540000 114.0825590000,22.3586130000 114.0823180000,22.3590690000 114.0822550000,22.3591920000 114.0820450000,22.3596010000 114.0819540000,22.3597770000 114.0818340000,22.3600100000 114.0817620000,22.3601520000 114.0784610000,22.3663210000 114.0784070000,22.3664220000 114.0783190000,22.3665850000 114.0778380000,22.3674460000 114.0777330000,22.3676290000 114.0774930000,22.3680440000 114.0772010000,22.3685740000 114.0770670000,22.3687970000 114.0770200000,22.3688770000 114.0769890000,22.3689200000 114.0769470000,22.3689820000 114.0768730000,22.3690820000 114.0767460000,22.3692410000 114.0765650000,22.3694190000 114.0764950000,22.3694810000 114.0763740000,22.3695900000 114.0761860000,22.3697380000 114.0760190000,22.3698570000 114.0758750000,22.3699550000 114.0756900000,22.3700820000 114.0755110000,22.3702040000 114.0752390000,22.3703750000 114.0743130000,22.3709420000 114.0738940000,22.3712060000 114.0734160000,22.3715060000 114.0731480000,22.3716760000 114.0714360000,22.3727580000 114.0700810000,22.3735450000 114.0691450000,22.3740380000 114.0686290000,22.3743360000 114.0680660000,22.3746380000 114.0674240000,22.3750220000 114.0671140000,22.3752200000 114.0670650000,22.3752560000 114.0670390000,22.3752760000 114.0669000000,22.3753850000 114.0667150000,22.3755200000 114.0665630000,22.3756400000 114.0664200000,22.3757600000 114.0662790000,22.3758800000 114.0661410000,22.3760010000 114.0660170000,22.3761210000 114.0658870000,22.3762500000 114.0657670000,22.3763700000 114.0656400000,22.3765000000 114.0655140000,22.3766300000 114.0653940000,22.3767600000 114.0652830000,22.3768900000 114.0651700000,22.3770250000 114.0650620000,22.3771600000 114.0649600000,22.3772950000 114.0648600000,22.3774300000 114.0647660000,22.3775610000 114.0646670000,22.3777000000 114.0645780000,22.3778300000 114.0644870000,22.3779700000 114.0643920000,22.3781210000 114.0643070000,22.3782700000 114.0642190000,22.3784300000 114.0641320000,22.3785900000 114.0640530000,22.3787400000 114.0639750000,22.3789000000 114.0639000000,22.3790600000 114.0638300000,22.3792200000 114.0637600000,22.3793850000 114.0636900000,22.3795600000 114.0636290000,22.3797200000 114.0635680000,22.3799000000 114.0635100000,22.3800800000 114.0634500000,22.3802800000 114.0633950000,22.3804800000 114.0633400000,22.3807000000 114.0632940000,22.3809100000 114.0632710000,22.3810420000 114.0593990000,22.4053980000 114.0593770000,22.4055790000 114.0593560000,22.4058000000 114.0593450000,22.4060000000 114.0593400000,22.4062000000 114.0593380000,22.4063500000 114.0593370000,22.4065000000 114.0593370000,22.4066500000 114.0593410000,22.4068000000 114.0593500000,22.4069800000 114.0593600000,22.4071500000 114.0593800000,22.4073700000 114.0594020000,22.4075490000 114.0594280000,22.4077230000 114.0594530000,22.4078830000 114.0594740000,22.4080010000 114.0594860000,22.4080650000 114.0595200000,22.4082420000 114.0595660000,22.4084530000 114.0596020000,22.4086000000 114.0596570000,22.4087970000 114.0597120000,22.4089790000 114.0597530000,22.4091000000 114.0598070000,22.4092470000 114.0598670000,22.4093960000 114.0599300000,22.4095450000 114.0600150000,22.4097290000 114.0600810000,22.4098610000 114.0601500000,22.4099950000 114.0602360000,22.4101490000 114.0603220000,22.4102920000 114.0604160000,22.4104460000 114.0607530000,22.4109680000 114.0620380000,22.4129560000 114.0621710000,22.4131700000 114.0623380000,22.4134550000 114.0624760000,22.4137160000 114.0626170000,22.4140090000 114.0626930000,22.4141800000 114.0627610000,22.4143470000 114.0629210000,22.4147810000 114.0630140000,22.4150830000 114.0630920000,22.4153790000 114.0631570000,22.4156740000 114.0631990000,22.4159040000 114.0632390000,22.4161610000 114.0632940000,22.4166630000 114.0633480000,22.4172350000 114.0633840000,22.4182370000 114.0634030000,22.4184270000 114.0634250000,22.4186380000 114.0634610000,22.4189950000 114.0634650000,22.4190400000 114.0636610000,22.4200300000 114.0638150000,22.4206580000 114.0639010000,22.4209710000 114.0639970000,22.4213920000 114.0640380000,22.4215880000 114.0640540000,22.4216990000 114.0640860000,22.4220490000 114.0641000000,22.4223850000 114.0641040000,22.4232760000 114.0640900000,22.4243760000 114.0640650000,22.4259440000 114.0640490000,22.4262990000 114.0640100000,22.4268180000 114.0639460000,22.4274170000 114.0639040000,22.4277240000 114.0638490000,22.4280760000 114.0637520000,22.4285890000 114.0636170000,22.4291910000 114.0635110000,22.4296030000 114.0633510000,22.4301510000 114.0632340000,22.4305050000 114.0631410000,22.4307830000 114.0629330000,22.4313270000 114.0628380000,22.4315540000 114.0626210000,22.4320250000 114.0624500000,22.4323680000 114.0622730000,22.4326920000 114.0620860000,22.4330150000 114.0617990000,22.4334680000 114.0616030000,22.4337560000 114.0612690000,22.4342100000 114.0609900000,22.4345610000 114.0606940000,22.4349150000 114.0605570000,22.4350760000 114.0599760000,22.4357090000 114.0596510000,22.4360360000 114.0594850000,22.4362000000 114.0590450000,22.4366100000 114.0588800000,22.4367570000 114.0582100000,22.4373210000 114.0581420000,22.4373770000 114.0573420000,22.4379790000 114.0565280000,22.4385340000 114.0560270000,22.4388750000 114.0557520000,22.4390750000 114.0551310000,22.4395470000 114.0543340000,22.4401750000 114.0542340000,22.4402510000 114.0539030000,22.4405030000 114.0538070000,22.4405760000 114.0535920000,22.4407400000 114.0526830000,22.4414320000 114.0523280000,22.4417320000 114.0522060000,22.4418380000 114.0521860000,22.4418550000 114.0517480000,22.4422600000 114.0514320000,22.4426060000 114.0511850000,22.4428770000 114.0510370000,22.4430560000 114.0506700000,22.4435560000 114.0503530000,22.4440540000 114.0500970000,22.4444800000 114.0499460000,22.4447510000 114.0499150000,22.4448110000 114.0497400000,22.4449990000 114.0496490000,22.4451450000 114.0495420000,22.4453240000 114.0494060000,22.4455620000 114.0492730000,22.4458040000 114.0492250000,22.4458920000 114.0491950000,22.4459490000 114.0491220000,22.4460920000 114.0488260000,22.4467050000 114.0487220000,22.4469030000 114.0486530000,22.4470230000 114.0485660000,22.4471570000 114.0484680000,22.4472820000 114.0483550000,22.4474100000 114.0482400000,22.4475190000 114.0481130000,22.4476270000 114.0479960000,22.4477160000 114.0478580000,22.4478130000 114.0477180000,22.4479030000 114.0472410000,22.4481890000 114.0470240000,22.4483100000 114.0468410000,22.4484030000 114.0466370000,22.4484940000 114.0464580000,22.4485670000 114.0460590000,22.4487010000 114.0458760000,22.4487470000 114.0452900000,22.4489210000 114.0449110000,22.4489510000 114.0446200000,22.4489700000 114.0443780000,22.4489780000 114.0440370000,22.4489690000 114.0439780000,22.4489650000 114.0438700000,22.4489560000 114.0435940000,22.4489210000 114.0434410000,22.4488880000 114.0431640000,22.4488250000 114.0429890000,22.4487850000 114.0427130000,22.4486970000 114.0424630000,22.4486000000 114.0422390000,22.4484970000 114.0419140000,22.4483230000 114.0415970000,22.4481400000 114.0413090000,22.4479250000 114.0412110000,22.4478540000 114.0409350000,22.4476020000 114.0407350000,22.4474060000 114.0405670000,22.4472060000 114.0403820000,22.4469720000 114.0402220000,22.4467310000 114.0401590000,22.4466170000 114.0401230000,22.4465550000 114.0400820000,22.4464840000 114.0399910000,22.4463370000 114.0398460000,22.4460860000 114.0398070000,22.4460130000 114.0397820000,22.4459590000 114.0397260000,22.4458060000 114.0396530000,22.4455410000 114.0396020000,22.4453330000 114.0395760000,22.4452030000 114.0395610000,22.4451190000 114.0395430000,22.4450210000 114.0395310000,22.4448850000 114.0395020000,22.4445300000 114.0394950000,22.4439630000 114.0394930000,22.4438140000 114.0394910000,22.4433620000 114.0394890000,22.4427990000 114.0394840000,22.4424070000 114.0394910000,22.4416630000 114.0394890000,22.4414610000 114.0394730000,22.4413070000 114.0394320000,22.4408950000 114.0394260000,22.4408590000 114.0394220000,22.4408270000 114.0393740000,22.4405640000 114.0392870000,22.4402410000 114.0392650000,22.4401670000 114.0391990000,22.4399460000 114.0390600000,22.4396120000 114.0389740000,22.4394210000 114.0387510000,22.4390540000 114.0385940000,22.4388200000 114.0384640000,22.4386480000 114.0382690000,22.4384160000 114.0378910000,22.4380200000 114.0348760000,22.4354580000 114.0346760000,22.4353000000 114.0342940000,22.4350340000 114.0341400000,22.4349370000 114.0340060000,22.4348550000 114.0338560000,22.4347670000 114.0337340000,22.4347010000 114.0335840000,22.4346200000 114.0334210000,22.4345380000 114.0332700000,22.4344660000 114.0331010000,22.4343920000 114.0328840000,22.4343090000 114.0327080000,22.4342450000 114.0325390000,22.4341930000 114.0322720000,22.4341230000 114.0320530000,22.4340720000 114.0318280000,22.4340240000 114.0316460000,22.4339960000 114.0314640000,22.4339710000 114.0312930000,22.4339480000 114.0311220000,22.4339350000 114.0309250000,22.4339210000 114.0308320000,22.4339170000 114.0306000000,22.4339160000 114.0303970000,22.4339210000 114.0301940000,22.4339280000 114.0299510000,22.4339430000 114.0296770000,22.4339780000 114.0294210000,22.4340150000 114.0290780000,22.4340720000 114.0280730000,22.4342590000 114.0262680000,22.4345510000 114.0257210000,22.4346490000 114.0253750000,22.4347070000 114.0250460000,22.4347710000 114.0246280000,22.4348450000 114.0240040000,22.4349520000 114.0229390000,22.4351390000 114.0224110000,22.4352280000 114.0215820000,22.4354010000 114.0201070000,22.4357090000 114.0199360000,22.4357490000 114.0196810000,22.4358100000 114.0194490000,22.4358730000 114.0192630000,22.4359310000 114.0189400000,22.4360410000 114.0186990000,22.4361380000 114.0184560000,22.4362410000 114.0179270000,22.4364820000 114.0176730000,22.4366040000 114.0175020000,22.4366940000 114.0173470000,22.4367760000 114.0169250000,22.4369860000 114.0165600000,22.4371580000 114.0162780000,22.4372850000 114.0161110000,22.4373560000 114.0158410000,22.4374550000 114.0157000000,22.4375040000 114.0155230000,22.4375580000 114.0153260000,22.4376140000 114.0152660000,22.4376300000 114.0150050000,22.4376970000 114.0147500000,22.4377490000 114.0145790000,22.4377780000 114.0143180000,22.4378180000 114.0141250000,22.4378390000 114.0139310000,22.4378550000 114.0137990000,22.4378640000 114.0136260000,22.4378730000 114.0134380000,22.4378760000 114.0131820000,22.4378730000 114.0129320000,22.4378590000 114.0126620000,22.4378380000 114.0124080000,22.4378110000 114.0120650000,22.4377610000 114.0116560000,22.4376840000 114.0112260000,22.4376050000 114.0107100000,22.4375030000 114.0103410000,22.4374240000 114.0098750000,22.4373160000 114.0090270000,22.4371010000 114.0081280000,22.4368270000 114.0073600000,22.4365630000 114.0065620000,22.4361810000 114.0063620000,22.4360950000 114.0062650000,22.4360510000 114.0061690000,22.4360040000 114.0060680000,22.4359450000 114.0059450000,22.4358640000 114.0058910000,22.4358230000 114.0058440000,22.4357750000 114.0058020000,22.4357240000 114.0057620000,22.4356640000 114.0057320000,22.4356050000 114.0056940000,22.4355190000 114.0056690000,22.4354530000 114.0056500000,22.4353720000 114.0056350000,22.4352330000 114.0056310000,22.4351210000 114.0056350000,22.4349530000 114.0056460000,22.4347140000 114.0056480000,22.4344530000 114.0056390000,22.4343550000 114.0056210000,22.4342530000 114.0055790000,22.4341310000 114.0055340000,22.4340460000 114.0054800000,22.4339510000 114.0054180000,22.4338590000 114.0053620000,22.4337970000 114.0052890000,22.4337350000 114.0051980000,22.4336770000 114.0051110000,22.4336300000 114.0050220000,22.4336000000 114.0049030000,22.4335800000 114.0047570000,22.4335700000 114.0045950000,22.4335780000 114.0044530000,22.4335990000 114.0043200000,22.4336320000 114.0040780000,22.4337110000 114.0037610000,22.4338170000 114.0029890000,22.4340860000 114.0028770000,22.4341290000 114.0026760000,22.4342070000 114.0024610000,22.4343020000 114.0022430000,22.4344110000 114.0020190000,22.4345280000 114.0017120000,22.4347000000 114.0014320000,22.4348640000 114.0013790000,22.4349000000 114.0013150000,22.4349430000 114.0012300000,22.4350040000 114.0011320000,22.4350770000 114.0008480000,22.4352920000 114.0005800000,22.4355630000 114.0003680000,22.4357760000 114.0002830000,22.4358760000 114.0001740000,22.4360040000 114.0000640000,22.4361480000 113.9998150000,22.4364520000 113.9995920000,22.4367510000 113.9993510000,22.4371560000 113.9991280000,22.4375380000 113.9987110000,22.4383710000 113.9985220000,22.4387100000 113.9984420000,22.4389980000 113.9983940000,22.4391700000 113.9983860000,22.4392080000 113.9983700000,22.4392830000 113.9981560000,22.4392680000 113.9980700000,22.4392590000 113.9979940000,22.4392490000 113.9979270000,22.4392680000 113.9977800000,22.4392400000 113.9976030000,22.4392130000 113.9970330000,22.4391070000 113.9964210000,22.4390080000 113.9962760000,22.4390000000 113.9962760000,22.4389380000 113.9962770000,22.4388330000 113.9962800000,22.4386060000 113.9962910000,22.4384270000 113.9963110000,22.4382490000 113.9963340000,22.4380960000 113.9963380000,22.4380710000 113.9963730000,22.4378950000 113.9964100000,22.4377400000 113.9964540000,22.4375980000 113.9964740000,22.4375360000 113.9965190000,22.4374120000 113.9965750000,22.4372640000 113.9966370000,22.4371150000 113.9967040000,22.4369670000 113.9967760000,22.4368210000 113.9968530000,22.4366770000 113.9969340000,22.4365350000 113.9970200000,22.4363960000 113.9970520000,22.4363480000 113.9971100000,22.4362590000 113.9972050000,22.4361250000 113.9973040000,22.4359930000 113.9973770000,22.4359050000 113.9973920000,22.4358870000 113.9974070000,22.4358690000 113.9975070000,22.4357480000 113.9977090000,22.4358810000 113.9977260000,22.4358920000 113.9982570000,22.4362260000 113.9983110000,22.4362610000 113.9983170000,22.4362650000 113.9983740000,22.4363010000 113.9986460000,22.4364760000 113.9988330000,22.4365970000 113.9989740000,22.4366900000 113.9992160000,22.4368400000 113.9993240000,22.4369080000 113.9993440000,22.4369250000 113.9991080000,22.4373400000 113.9990440000,22.4374840000 113.9990160000,22.4375460000 113.9988170000,22.4379860000 113.9986030000,22.4384590000 113.9985220000,22.4387100000 113.9984420000,22.4389980000 113.9983940000,22.4391700000 113.9983860000,22.4392080000 113.9983700000,22.4392830000 113.9983510000,22.4393740000 113.9985720000,22.4394040000 113.9989170000,22.4394450000 113.9990630000,22.4394620000 113.9990770000,22.4393680000 113.9990890000,22.4392860000 113.9991230000,22.4389360000 113.9991910000,22.4386130000 113.9992690000,22.4381350000 113.9993820000,22.4377560000 113.9995100000,22.4374040000 113.9997120000,22.4370380000 113.9998520000,22.4368030000 113.9999770000,22.4366200000 114.0001880000,22.4363040000 114.0004790000,22.4359490000 114.0004910000,22.4359340000 114.0005050000,22.4359190000 114.0005390000,22.4358820000 114.0005650000,22.4358540000 114.0006230000,22.4357900000 114.0006780000,22.4357310000 114.0007290000,22.4356690000 114.0004980000,22.4355400000 114.0004490000,22.4355090000 114.0003760000,22.4354630000 114.0003030000,22.4354110000 114.0002490000,22.4353720000 114.0001780000,22.4353200000 113.9999680000,22.4351660000 113.9999050000,22.4351240000 113.9996930000,22.4349810000 113.9996040000,22.4349230000 113.9984450000,22.4340570000 113.9983700000,22.4340040000 113.9983090000,22.4339610000 113.9981710000,22.4338630000 113.9978890000,22.4336660000 113.9969960000,22.4330310000 113.9968710000,22.4329370000 113.9965890000,22.4327450000 113.9964780000,22.4326700000 113.9964510000,22.4326520000 113.9958070000,22.4322080000 113.9951540000,22.4317280000 113.9949680000,22.4315820000 113.9948520000,22.4314930000 113.9947670000,22.4314230000 113.9946360000,22.4313130000 113.9944770000,22.4311850000 113.9943230000,22.4310610000 113.9940260000,22.4308210000 113.9938170000,22.4306520000 113.9933750000,22.4302870000 113.9933570000,22.4302730000 113.9933200000,22.4302440000 113.9930270000,22.4299970000 113.9927330000,22.4297690000 113.9926060000,22.4296610000 113.9922690000,22.4293870000 113.9918980000,22.4290950000 113.9915770000,22.4288170000 113.9914030000,22.4286520000 113.9904480000,22.4276230000 113.9902750000,22.4274380000 113.9901090000,22.4272630000 113.9900800000,22.4272320000 113.9899880000,22.4271340000 113.9899550000,22.4270990000 113.9897590000,22.4268910000 113.9894090000,22.4264960000 113.9893360000,22.4264140000 113.9892700000,22.4263390000 113.9892150000,22.4262830000 113.9891910000,22.4262580000 113.9884400000,22.4254940000 113.9879010000,22.4249210000 113.9873260000,22.4242960000 113.9870910000,22.4240380000 113.9858000000,22.4226400000 113.9856130000,22.4224390000 113.9853210000,22.4221580000 113.9849580000,22.4217740000 113.9849230000,22.4217360000 113.9848440000,22.4216430000 113.9847810000,22.4215680000 113.9846690000,22.4214530000 113.9845070000,22.4212850000 113.9841520000,22.4209180000 113.9835380000,22.4202500000 113.9834750000,22.4201690000 113.9834060000,22.4200910000 113.9832070000,22.4198720000 113.9830090000,22.4195990000 113.9828300000,22.4193000000 113.9828110000,22.4192670000 113.9827720000,22.4191930000 113.9825550000,22.4187800000 113.9824600000,22.4186090000 113.9822990000,22.4183020000 113.9820870000,22.4179240000 113.9818740000,22.4175200000 113.9818020000,22.4173830000 113.9817350000,22.4171470000 113.9816920000,22.4170600000 113.9816640000,22.4169980000 113.9816250000,22.4168670000 113.9816020000,22.4166830000 113.9816000000,22.4165360000 113.9816070000,22.4164060000 113.9816360000,22.4162850000 113.9817210000,22.4161140000 113.9817380000,22.4160790000 113.9817950000,22.4159850000 113.9818900000,22.4158670000 113.9819570000,22.4158020000 113.9823410000,22.4152420000 113.9823820000,22.4151780000 113.9824090000,22.4151170000 113.9824480000,22.4149600000 113.9824760000,22.4146950000 113.9824850000,22.4145500000 113.9824810000,22.4144420000 113.9824800000,22.4143960000 113.9824730000,22.4143260000 113.9824480000,22.4140320000 113.9824280000,22.4137950000 113.9824150000,22.4136450000 113.9824010000,22.4134280000 113.9823960000,22.4133470000 113.9823860000,22.4130400000 113.9823890000,22.4126660000 113.9823880000,22.4125560000 113.9823900000,22.4124500000 113.9823870000,22.4119100000 113.9823820000,22.4112330000 113.9823740000,22.4110250000 113.9823740000,22.4110160000 113.9823720000,22.4109680000 113.9823560000,22.4103110000 113.9823490000,22.4101810000 113.9823410000,22.4100870000 113.9823290000,22.4099920000 113.9823050000,22.4098500000 113.9822750000,22.4097250000 113.9822500000,22.4096480000 113.9822190000,22.4095700000 113.9821820000,22.4094940000 113.9821380000,22.4094140000 113.9820890000,22.4093390000 113.9820350000,22.4092660000 113.9819730000,22.4091870000 113.9819110000,22.4091190000 113.9818610000,22.4090720000 113.9818080000,22.4090250000 113.9817490000,22.4089770000 113.9816890000,22.4089310000 113.9816150000,22.4088850000 113.9815220000,22.4088300000 113.9814360000,22.4087870000 113.9813520000,22.4087520000 113.9812560000,22.4087180000 113.9811760000,22.4086950000 113.9810940000,22.4086760000 113.9808780000,22.4086470000 113.9807230000,22.4086420000 113.9806820000,22.4086410000 113.9803390000,22.4086350000 113.9802250000,22.4086310000 113.9801300000,22.4086270000 113.9800280000,22.4086030000 113.9799220000,22.4085760000 113.9797960000,22.4085560000 113.9797060000,22.4085260000 113.9796670000,22.4085110000 113.9796350000,22.4084980000 113.9795390000,22.4084540000 113.9795110000,22.4084300000 113.9794540000,22.4083820000 113.9794210000,22.4083610000 113.9793740000,22.4083320000 113.9793420000,22.4083120000 113.9792850000,22.4082670000 113.9791870000,22.4081900000 113.9791560000,22.4081540000 113.9791280000,22.4081190000 113.9790520000,22.4080280000 113.9790140000,22.4079620000 113.9789760000,22.4078990000 113.9789550000,22.4078580000 113.9789250000,22.4078010000 113.9788650000,22.4075970000 113.9788310000,22.4074470000 113.9787240000,22.4069420000 113.9786200000,22.4064380000 113.9785990000,22.4062850000 113.9785870000,22.4061400000 113.9785910000,22.4060150000 113.9786010000,22.4058920000 113.9786380000,22.4057490000 113.9786610000,22.4056840000 113.9786930000,22.4056010000 113.9787230000,22.4055330000 113.9787640000,22.4054550000 113.9788040000,22.4053860000 113.9788480000,22.4053170000 113.9789040000,22.4052320000 113.9789690000,22.4051400000 113.9791340000,22.4049170000 113.9792840000,22.4047160000 113.9793890000,22.4045550000 113.9794360000,22.4044700000 113.9794780000,22.4043800000 113.9795080000,22.4043040000 113.9795310000,22.4042270000 113.9795520000,22.4041360000 113.9795630000,22.4040510000 113.9795680000,22.4039530000 113.9795600000,22.4038270000 113.9795340000,22.4036680000 113.9794890000,22.4035030000 113.9794370000,22.4033610000 113.9793870000,22.4032350000 113.9792470000,22.4029170000 113.9791940000,22.4028050000 113.9787970000,22.4020560000 113.9784100000,22.4013330000 113.9781880000,22.4008800000 113.9781160000,22.4007350000 113.9780020000,22.4007550000 113.9779350000,22.4007660000 113.9778820000,22.4007750000 113.9774910000,22.4008500000 113.9769170000,22.4009650000 113.9768360000,22.4009750000 113.9767510000,22.4009810000 113.9766670000,22.4009800000 113.9766020000,22.4009750000 113.9765970000,22.4009750000 113.9765470000,22.4009700000 113.9764820000,22.4009570000 113.9763850000,22.4009270000 113.9763060000,22.4008780000 113.9762420000,22.4008270000 113.9761600000,22.4007550000 113.9761120000,22.4006950000 113.9759820000,22.4005310000 113.9758720000,22.4003880000 113.9755890000,22.3999810000 113.9754520000,22.3997640000 113.9754110000,22.3995960000 113.9753950000,22.3994710000 113.9753890000,22.3992490000 113.9753890000,22.3992410000 113.9753750000,22.3990870000 113.9753430000,22.3989060000 113.9751980000,22.3983320000 113.9751450000,22.3981150000 113.9751170000,22.3980200000 113.9751280000,22.3979650000 113.9751250000,22.3979330000 113.9751170000,22.3978370000 113.9750680000,22.3976820000 113.9750050000,22.3974240000 113.9748540000,22.3968600000 113.9747970000,22.3966550000 113.9746260000,22.3959950000 113.9746200000,22.3959730000 113.9745870000,22.3958660000 113.9745670000,22.3957910000 113.9745380000,22.3956910000 113.9745340000,22.3956660000 113.9745270000,22.3956200000 113.9744950000,22.3954350000 113.9745060000,22.3952620000 113.9745210000,22.3951800000 113.9745510000,22.3950840000 113.9745890000,22.3949630000 113.9746140000,22.3948900000 113.9746380000,22.3948350000 113.9746570000,22.3947910000 113.9746990000,22.3946740000 113.9747520000,22.3945320000 113.9747600000,22.3945100000 113.9747830000,22.3944550000 113.9748240000,22.3943340000 113.9749760000,22.3943610000 113.9754230000,22.3944940000 113.9760520000,22.3946960000 113.9763250000,22.3947750000 113.9768400000,22.3949430000 113.9771190000,22.3950500000 113.9775300000,22.3951670000 113.9776340000,22.3951960000 113.9777210000,22.3952150000 113.9777410000,22.3951110000 113.9777620000,22.3950040000 113.9777700000,22.3949610000 113.9777910000,22.3948530000 113.9779270000,22.3943880000 113.9780760000,22.3940200000 113.9781490000,22.3938740000 113.9782540000,22.3936630000 113.9784970000,22.3932350000 113.9788450000,22.3927500000 113.9789030000,22.3926700000 113.9792110000,22.3922530000 113.9793860000,22.3919700000 113.9794100000,22.3919300000 113.9796460000,22.3914680000 113.9798550000,22.3909570000 113.9798710000,22.3909180000 113.9799130000,22.3908040000 113.9799490000,22.3907010000 113.9798280000,22.3906730000 113.9796740000,22.3906410000 113.9788610000,22.3904620000 113.9785420000,22.3903810000 113.9783250000,22.3903280000 113.9782470000,22.3903090000 113.9781610000,22.3902900000 113.9777260000,22.3901950000 113.9777060000,22.3901910000 113.9776120000,22.3901690000 113.9772660000,22.3900810000 113.9769350000,22.3899940000 113.9765900000,22.3899230000 113.9760860000,22.3898810000 113.9754210000,22.3898760000 113.9753400000,22.3898760000 113.9752090000,22.3898760000 113.9752050000,22.3899770000 113.9751590000,22.3910020000 113.9751860000,22.3920090000 113.9751920000,22.3923300000 113.9751880000,22.3925770000 113.9751640000,22.3929480000 113.9750660000,22.3933790000 113.9750120000,22.3935010000 113.9748740000,22.3938170000 113.9748440000,22.3938340000 113.9747720000,22.3938800000 113.9746580000,22.3939760000 113.9746320000,22.3939940000 113.9745910000,22.3940250000 113.9745380000,22.3940650000 113.9743960000,22.3941680000 113.9741100000,22.3940840000 113.9740540000,22.3940650000 113.9740170000,22.3940570000 113.9739230000,22.3940470000 113.9738570000,22.3940460000 113.9737700000,22.3940490000 113.9736470000,22.3940650000 113.9735590000,22.3940770000 113.9735080000,22.3940850000 113.9734840000,22.3940780000 113.9734280000,22.3940630000 113.9734040000,22.3940680000 113.9733090000,22.3940890000 113.9731910000,22.3941140000 113.9732050000,22.3941760000 113.9732330000,22.3942780000 113.9733320000,22.3946290000 113.9733550000,22.3947180000</coordinates>
                </LineString>
                <ExtendedData>
                    <Data name="duration">
                        <value>01:09:16</value>
                    </Data>
                    <Data name="length">
                        <value>63342.87363763188</value>
                    </Data>
                </ExtendedData>
            </Placemark>
        </Document>
    </Document>
</kml>