<?xml version="1.0" encoding="UTF-8"?>
<kml xmlns="http://www.opengis.net/kml/2.2" xmlns:gx="http://www.google.com/kml/ext/2.2">
    <Document>
        <name>Route</name>
        <Folder>
            <name>Route Request</name>
            <Placemark>
                <Point>
                    <coordinates>114.1983154541,22.2813471337</coordinates>
                </Point>
                <ExtendedData>
                    <Data name="routingVisited">
                        <value>false</value>
                    </Data>
                </ExtendedData>
            </Placemark>
            <Placemark>
                <Point>
                    <coordinates>114.2018729625,22.2873624901</coordinates>
                </Point>
                <ExtendedData>
                    <Data name="routingVisited">
                        <value>false</value>
                    </Data>
                </ExtendedData>
            </Placemark>
            <Placemark>
                <Point>
                    <coordinates>114.1932215946,22.2876714485</coordinates>
                </Point>
            </Placemark>
            <Placemark>
                <Point>
                    <coordinates>114.1929485014,22.2847208047</coordinates>
                </Point>
            </Placemark>
            <Placemark>
                <Point>
                    <coordinates>114.1846998078,22.2798963150</coordinates>
                </Point>
                <ExtendedData>
                    <Data name="routingVisited">
                        <value>false</value>
                    </Data>
                </ExtendedData>
            </Placemark>
            <Placemark>
                <Point>
                    <coordinates>114.1911308111,22.3238507915</coordinates>
                </Point>
                <ExtendedData>
                    <Data name="routingVisited">
                        <value>false</value>
                    </Data>
                </ExtendedData>
            </Placemark>
            <Placemark>
                <Point>
                    <coordinates>114.1937888941,22.3213099790</coordinates>
                </Point>
            </Placemark>
            <Placemark>
                <Point>
                    <coordinates>114.2078012422,22.3303667689</coordinates>
                </Point>
            </Placemark>
            <Placemark>
                <Point>
                    <coordinates>114.2094972229,22.3192844959</coordinates>
                </Point>
            </Placemark>
            <Placemark>
                <Point>
                    <coordinates>114.2176705361,22.3180892512</coordinates>
                </Point>
            </Placemark>
            <Placemark>
                <Point>
                    <coordinates>114.2175469496,22.3240943436</coordinates>
                </Point>
            </Placemark>
            <Placemark>
                <Point>
                    <coordinates>114.2184589598,22.3269889327</coordinates>
                </Point>
                <ExtendedData>
                    <Data name="routingVisited">
                        <value>false</value>
                    </Data>
                </ExtendedData>
            </Placemark>
            <Placemark>
                <Point>
                    <coordinates>114.2136469608,22.3284234534</coordinates>
                </Point>
            </Placemark>
            <Placemark>
                <Point>
                    <coordinates>114.2175875559,22.3238177205</coordinates>
                </Point>
                <ExtendedData>
                    <Data name="routingVisited">
                        <value>false</value>
                    </Data>
                </ExtendedData>
            </Placemark>
            <Placemark>
                <Point>
                    <coordinates>114.2174047215,22.3177477532</coordinates>
                </Point>
            </Placemark>
            <Placemark>
                <Point>
                    <coordinates>114.2059257524,22.3313093901</coordinates>
                </Point>
            </Placemark>
            <Placemark>
                <Point>
                    <coordinates>114.1948502477,22.3225939544</coordinates>
                </Point>
            </Placemark>
            <Placemark>
                <Point>
                    <coordinates>114.1930505608,22.3183046951</coordinates>
                </Point>
                <ExtendedData>
                    <Data name="routingVisited">
                        <value>false</value>
                    </Data>
                </ExtendedData>
            </Placemark>
            <Placemark>
                <Point>
                    <coordinates>114.1819097047,22.2797186129</coordinates>
                </Point>
                <ExtendedData>
                    <Data name="routingVisited">
                        <value>false</value>
                    </Data>
                </ExtendedData>
            </Placemark>
            <Placemark>
                <Point>
                    <coordinates>114.1956058464,22.2875143633</coordinates>
                </Point>
            </Placemark>
            <Placemark>
                <Point>
                    <coordinates>114.2020870258,22.2872531997</coordinates>
                </Point>
            </Placemark>
            <Placemark>
                <Point>
                    <coordinates>114.1983388219,22.2813351826</coordinates>
                </Point>
                <ExtendedData>
                    <Data name="routingVisited">
                        <value>false</value>
                    </Data>
                </ExtendedData>
            </Placemark>
        </Folder>
        <Document>
            <name>39.7 km; 01:00 h (OSRM)</name>
            <Placemark>
                <name>Route</name>
                <LineString>
                    <coordinates>114.1983820000,22.2820020000 114.1984630000,22.2820050000 114.1985350000,22.2820270000 114.1985850000,22.2820610000 114.1986330000,22.2821010000 114.1986620000,22.2821510000 114.1986860000,22.2821970000 114.1986950000,22.2822300000 114.1987380000,22.2823910000 114.1988900000,22.2829190000 114.1988920000,22.2829640000 114.1988810000,22.2829970000 114.1988450000,22.2830260000 114.1988010000,22.2830490000 114.1987290000,22.2830880000 114.1987040000,22.2831450000 114.1988140000,22.2832240000 114.1989190000,22.2833810000 114.1989720000,22.2834610000 114.1990340000,22.2836360000 114.1991310000,22.2837330000 114.1993940000,22.2846260000 114.1996080000,22.2853330000 114.1996200000,22.2853710000 114.1996500000,22.2854560000 114.1997120000,22.2856320000 114.1998400000,22.2858800000 114.1998520000,22.2859000000 114.1999200000,22.2860090000 114.1999460000,22.2860510000 114.2001150000,22.2862780000 114.2001520000,22.2863170000 114.2002920000,22.2864720000 114.2003580000,22.2865330000 114.2004470000,22.2866160000 114.2006210000,22.2867250000 114.2008900000,22.2868660000 114.2009200000,22.2868800000 114.2011430000,22.2869880000 114.2012940000,22.2870610000 114.2015030000,22.2871280000 114.2017330000,22.2872190000 114.2018090000,22.2872610000 114.2018700000,22.2873060000 114.2019010000,22.2873400000 114.2019200000,22.2873610000 114.2020070000,22.2874760000 114.2020860000,22.2875840000 114.2021420000,22.2876570000 114.2022180000,22.2877390000 114.2022720000,22.2877920000 114.2023310000,22.2878340000 114.2024200000,22.2878900000 114.2026860000,22.2880620000 114.2027860000,22.2881390000 114.2028050000,22.2881590000 114.2028800000,22.2882370000 114.2028040000,22.2883360000 114.2027780000,22.2883700000 114.2027520000,22.2884040000 114.2027400000,22.2884180000 114.2026020000,22.2885600000 114.2024940000,22.2886680000 114.2024280000,22.2887180000 114.2023240000,22.2887650000 114.2022050000,22.2887760000 114.2021270000,22.2887780000 114.2020580000,22.2887580000 114.2019990000,22.2887240000 114.2018830000,22.2885990000 114.2018000000,22.2884780000 114.2017080000,22.2883910000 114.2016380000,22.2883320000 114.2015740000,22.2883040000 114.2014350000,22.2882670000 114.2011480000,22.2882020000 114.2010030000,22.2881710000 114.2008730000,22.2881530000 114.2007150000,22.2881390000 114.2004440000,22.2881150000 114.2002660000,22.2881070000 114.2001440000,22.2880880000 114.2000350000,22.2880580000 114.1999630000,22.2880310000 114.1997470000,22.2878880000 114.1995080000,22.2877450000 114.1994200000,22.2877230000 114.1993580000,22.2877140000 114.1993160000,22.2877120000 114.1992120000,22.2877230000 114.1991470000,22.2877480000 114.1990830000,22.2877790000 114.1988750000,22.2878880000 114.1986680000,22.2879980000 114.1984220000,22.2880980000 114.1982390000,22.2881250000 114.1980280000,22.2881250000 114.1976060000,22.2880890000 114.1975150000,22.2880790000 114.1971520000,22.2880400000 114.1970280000,22.2880250000 114.1967300000,22.2879990000 114.1966760000,22.2879890000 114.1966320000,22.2879760000 114.1965440000,22.2879310000 114.1964920000,22.2879020000 114.1964270000,22.2878580000 114.1963190000,22.2877730000 114.1961740000,22.2876590000 114.1961190000,22.2876110000 114.1960860000,22.2875700000 114.1959520000,22.2873660000 114.1959050000,22.2872950000 114.1957820000,22.2871100000 114.1957640000,22.2870810000 114.1954460000,22.2866280000 114.1952390000,22.2863140000 114.1951510000,22.2863740000 114.1951110000,22.2864040000 114.1950580000,22.2864530000 114.1950420000,22.2865010000 114.1950440000,22.2865340000 114.1950630000,22.2866130000 114.1952610000,22.2869670000 114.1953000000,22.2870400000 114.1953180000,22.2870700000 114.1954160000,22.2872390000 114.1954580000,22.2873450000 114.1955840000,22.2876600000 114.1955950000,22.2877070000 114.1955990000,22.2877560000 114.1955850000,22.2878330000 114.1953970000,22.2881610000 114.1953620000,22.2882210000 114.1952270000,22.2884410000 114.1951410000,22.2885860000 114.1950950000,22.2886790000 114.1950720000,22.2887210000 114.1950500000,22.2887740000 114.1950320000,22.2888180000 114.1950080000,22.2888830000 114.1949670000,22.2890180000 114.1949440000,22.2891350000 114.1949280000,22.2891800000 114.1949120000,22.2892190000 114.1948760000,22.2892800000 114.1948430000,22.2893170000 114.1948100000,22.2893310000 114.1947660000,22.2893610000 114.1947360000,22.2893840000 114.1946360000,22.2894580000 114.1946050000,22.2894080000 114.1945520000,22.2893250000 114.1944580000,22.2892190000 114.1944490000,22.2892090000 114.1944390000,22.2891980000 114.1944310000,22.2891880000 114.1944220000,22.2891790000 114.1943110000,22.2890520000 114.1942340000,22.2889650000 114.1938690000,22.2885610000 114.1936620000,22.2883330000 114.1934520000,22.2880920000 114.1933680000,22.2879940000 114.1931870000,22.2877770000 114.1931450000,22.2877150000 114.1931400000,22.2877070000 114.1930830000,22.2875960000 114.1930400000,22.2875240000 114.1930100000,22.2874730000 114.1929920000,22.2874380000 114.1929790000,22.2873990000 114.1929710000,22.2873680000 114.1929650000,22.2873310000 114.1929640000,22.2872300000 114.1929580000,22.2871670000 114.1929510000,22.2870700000 114.1929490000,22.2870230000 114.1929500000,22.2869690000 114.1929670000,22.2869200000 114.1929810000,22.2868530000 114.1929890000,22.2866020000 114.1929910000,22.2865540000 114.1929920000,22.2864730000 114.1929930000,22.2862060000 114.1930170000,22.2859230000 114.1930040000,22.2858080000 114.1930030000,22.2856770000 114.1929920000,22.2854960000 114.1929890000,22.2853700000 114.1929770000,22.2853080000 114.1928810000,22.2847740000 114.1928730000,22.2847330000 114.1928040000,22.2843680000 114.1927660000,22.2841910000 114.1926440000,22.2836020000 114.1926200000,22.2835040000 114.1925970000,22.2834320000 114.1925410000,22.2832850000 114.1924650000,22.2831050000 114.1923930000,22.2829500000 114.1923570000,22.2828710000 114.1922150000,22.2825790000 114.1921440000,22.2824650000 114.1920560000,22.2823530000 114.1920140000,22.2823010000 114.1919750000,22.2822570000 114.1919140000,22.2821900000 114.1918890000,22.2821650000 114.1918560000,22.2821370000 114.1917750000,22.2820740000 114.1917060000,22.2820260000 114.1914710000,22.2818590000 114.1914570000,22.2818500000 114.1913330000,22.2817660000 114.1909050000,22.2814850000 114.1908100000,22.2814230000 114.1903820000,22.2811300000 114.1896480000,22.2806270000 114.1895030000,22.2805270000 114.1894430000,22.2804860000 114.1889260000,22.2801340000 114.1886970000,22.2799780000 114.1881330000,22.2796030000 114.1879860000,22.2795050000 114.1876680000,22.2792970000 114.1873360000,22.2791450000 114.1871790000,22.2790800000 114.1870900000,22.2789780000 114.1870800000,22.2789670000 114.1870450000,22.2789320000 114.1870060000,22.2789070000 114.1869460000,22.2788910000 114.1868830000,22.2788930000 114.1867940000,22.2789080000 114.1867160000,22.2789210000 114.1865680000,22.2789460000 114.1861070000,22.2790250000 114.1860490000,22.2790430000 114.1859260000,22.2791050000 114.1856680000,22.2792560000 114.1852120000,22.2795350000 114.1851230000,22.2795890000 114.1848330000,22.2797730000 114.1846810000,22.2798700000 114.1845530000,22.2799520000 114.1845330000,22.2799630000 114.1844930000,22.2799850000 114.1843960000,22.2800340000 114.1843470000,22.2800580000 114.1843210000,22.2800570000 114.1842610000,22.2800550000 114.1839810000,22.2800420000 114.1837640000,22.2800350000 114.1832760000,22.2800250000 114.1832390000,22.2800200000 114.1831920000,22.2800150000 114.1831290000,22.2799950000 114.1827730000,22.2798790000 114.1827270000,22.2798620000 114.1826770000,22.2798440000 114.1825420000,22.2797920000 114.1824620000,22.2797630000 114.1818000000,22.2795160000 114.1814500000,22.2793820000 114.1813610000,22.2793470000 114.1811760000,22.2792750000 114.1810330000,22.2792200000 114.1810170000,22.2792150000 114.1806970000,22.2790960000 114.1802340000,22.2789270000 114.1800860000,22.2788740000 114.1798540000,22.2787900000 114.1798050000,22.2787730000 114.1796440000,22.2787190000 114.1796170000,22.2787090000 114.1795370000,22.2786870000 114.1795030000,22.2786770000 114.1794280000,22.2786550000 114.1785530000,22.2783790000 114.1781550000,22.2782560000 114.1781340000,22.2782620000 114.1780620000,22.2783070000 114.1780460000,22.2783270000 114.1780270000,22.2783840000 114.1780070000,22.2784450000 114.1778930000,22.2787730000 114.1778810000,22.2788380000 114.1778720000,22.2789040000 114.1780140000,22.2789420000 114.1794010000,22.2793600000 114.1794750000,22.2793860000 114.1794540000,22.2794360000 114.1794380000,22.2796280000 114.1794060000,22.2797120000 114.1791300000,22.2803100000 114.1787270000,22.2813000000 114.1785940000,22.2816420000 114.1785280000,22.2818110000 114.1783140000,22.2823300000 114.1782760000,22.2824190000 114.1781330000,22.2823690000 114.1780140000,22.2823290000 114.1771660000,22.2820690000 114.1770530000,22.2820230000 114.1770090000,22.2819950000 114.1769710000,22.2819420000 114.1769040000,22.2818010000 114.1769190000,22.2817590000 114.1769410000,22.2816960000 114.1769570000,22.2816490000 114.1769980000,22.2815330000 114.1770410000,22.2814020000 114.1770840000,22.2812800000 114.1771320000,22.2811630000 114.1771790000,22.2810550000 114.1772820000,22.2807950000 114.1773340000,22.2807160000 114.1774780000,22.2803520000 114.1775030000,22.2803020000 114.1775250000,22.2802600000 114.1775650000,22.2802250000 114.1776210000,22.2801800000 114.1777610000,22.2801360000 114.1782220000,22.2803010000 114.1787020000,22.2804780000 114.1788900000,22.2805600000 114.1791290000,22.2807740000 114.1792020000,22.2808560000 114.1792660000,22.2809470000 114.1793720000,22.2811160000 114.1796930000,22.2815630000 114.1799230000,22.2818210000 114.1801780000,22.2820330000 114.1802920000,22.2821160000 114.1804180000,22.2821890000 114.1805370000,22.2822540000 114.1806070000,22.2822890000 114.1807590000,22.2823570000 114.1808980000,22.2824090000 114.1812320000,22.2825350000 114.1813560000,22.2825920000 114.1816190000,22.2827130000 114.1817210000,22.2827590000 114.1818540000,22.2828140000 114.1820810000,22.2829300000 114.1823400000,22.2830600000 114.1825200000,22.2832500000 114.1826800000,22.2834390000 114.1828320000,22.2836720000 114.1829370000,22.2838430000 114.1830020000,22.2839850000 114.1830590000,22.2841840000 114.1830780000,22.2844020000 114.1830720000,22.2846470000 114.1806980000,22.2989440000 114.1806730000,22.2990920000 114.1805720000,22.2997000000 114.1805210000,22.3000220000 114.1804640000,22.3003030000 114.1804000000,22.3006310000 114.1803430000,22.3009300000 114.1803240000,22.3010280000 114.1802500000,22.3013450000 114.1801400000,22.3017910000 114.1801310000,22.3019700000 114.1801460000,22.3020750000 114.1801590000,22.3021900000 114.1801650000,22.3022500000 114.1801920000,22.3024230000 114.1802280000,22.3025700000 114.1802940000,22.3027710000 114.1803860000,22.3029630000 114.1805780000,22.3033290000 114.1806750000,22.3035430000 114.1807030000,22.3037150000 114.1807830000,22.3038330000 114.1809670000,22.3042120000 114.1811250000,22.3045490000 114.1813140000,22.3048960000 114.1813700000,22.3050530000 114.1814690000,22.3053110000 114.1814990000,22.3054940000 114.1815000000,22.3056370000 114.1814880000,22.3057520000 114.1814230000,22.3059500000 114.1813510000,22.3060980000 114.1812750000,22.3062120000 114.1810970000,22.3063870000 114.1807830000,22.3066640000 114.1807050000,22.3067710000 114.1805670000,22.3068740000 114.1803150000,22.3070430000 114.1800700000,22.3071880000 114.1799320000,22.3073020000 114.1798610000,22.3074070000 114.1798170000,22.3075080000 114.1798030000,22.3075910000 114.1797990000,22.3076830000 114.1798130000,22.3077670000 114.1798360000,22.3078310000 114.1798650000,22.3078860000 114.1799090000,22.3079450000 114.1799560000,22.3079910000 114.1800310000,22.3080490000 114.1800900000,22.3080800000 114.1801770000,22.3081130000 114.1802520000,22.3081310000 114.1803370000,22.3081400000 114.1804120000,22.3081360000 114.1811270000,22.3080310000 114.1812380000,22.3080210000 114.1813510000,22.3080160000 114.1814820000,22.3080200000 114.1816560000,22.3080420000 114.1818170000,22.3080830000 114.1820140000,22.3081550000 114.1822890000,22.3082480000 114.1824900000,22.3083530000 114.1826890000,22.3084680000 114.1829570000,22.3086170000 114.1830040000,22.3086480000 114.1830710000,22.3086910000 114.1832440000,22.3087990000 114.1833890000,22.3088890000 114.1835460000,22.3090140000 114.1836370000,22.3090810000 114.1837090000,22.3091350000 114.1837770000,22.3091880000 114.1838300000,22.3092310000 114.1838690000,22.3092650000 114.1840360000,22.3094010000 114.1841810000,22.3095220000 114.1842980000,22.3096210000 114.1844680000,22.3097610000 114.1845800000,22.3098570000 114.1846330000,22.3099030000 114.1846840000,22.3099530000 114.1847310000,22.3100070000 114.1847730000,22.3100620000 114.1849020000,22.3101790000 114.1849430000,22.3102180000 114.1850480000,22.3103290000 114.1851390000,22.3104370000 114.1852220000,22.3105550000 114.1852980000,22.3106670000 114.1853560000,22.3107620000 114.1854130000,22.3108680000 114.1855190000,22.3110620000 114.1855950000,22.3112000000 114.1856760000,22.3113400000 114.1857620000,22.3114840000 114.1858760000,22.3116560000 114.1864810000,22.3126060000 114.1869200000,22.3132810000 114.1870170000,22.3134410000 114.1871220000,22.3136230000 114.1871830000,22.3137400000 114.1872470000,22.3138640000 114.1872810000,22.3139390000 114.1873190000,22.3140280000 114.1873830000,22.3142090000 114.1874130000,22.3143040000 114.1874420000,22.3144050000 114.1874680000,22.3145190000 114.1874900000,22.3146410000 114.1875150000,22.3148190000 114.1875430000,22.3150200000 114.1875670000,22.3151800000 114.1875820000,22.3152620000 114.1875990000,22.3153460000 114.1876180000,22.3154300000 114.1876360000,22.3155080000 114.1876630000,22.3156150000 114.1876860000,22.3156950000 114.1877120000,22.3157790000 114.1877340000,22.3158400000 114.1877650000,22.3159230000 114.1877940000,22.3159900000 114.1878220000,22.3160540000 114.1879480000,22.3163410000 114.1879770000,22.3163980000 114.1881190000,22.3166700000 114.1884810000,22.3174020000 114.1890320000,22.3184980000 114.1892130000,22.3188510000 114.1892490000,22.3189150000 114.1893320000,22.3190650000 114.1893820000,22.3191430000 114.1894190000,22.3191950000 114.1894570000,22.3192450000 114.1898360000,22.3197650000 114.1898950000,22.3198470000 114.1899450000,22.3199190000 114.1899910000,22.3199900000 114.1900760000,22.3201300000 114.1901180000,22.3202020000 114.1901510000,22.3202660000 114.1902070000,22.3203830000 114.1902580000,22.3204980000 114.1902880000,22.3205760000 114.1903140000,22.3206510000 114.1903380000,22.3207300000 114.1903630000,22.3208310000 114.1904520000,22.3211520000 114.1904790000,22.3212540000 114.1905230000,22.3214340000 114.1905880000,22.3216490000 114.1906400000,22.3217910000 114.1913460000,22.3232190000 114.1914020000,22.3234950000 114.1913930000,22.3236140000 114.1913330000,22.3237170000 114.1912660000,22.3237640000 114.1911960000,22.3238120000 114.1911260000,22.3238390000 114.1910930000,22.3238520000 114.1909980000,22.3238680000 114.1909040000,22.3238760000 114.1907840000,22.3238760000 114.1905600000,22.3238760000 114.1902610000,22.3239290000 114.1900630000,22.3240190000 114.1900110000,22.3240420000 114.1898610000,22.3241100000 114.1894750000,22.3243040000 114.1893460000,22.3243690000 114.1888860000,22.3234290000 114.1892080000,22.3232900000 114.1894030000,22.3232030000 114.1898690000,22.3230040000 114.1900130000,22.3229420000 114.1904810000,22.3227390000 114.1910160000,22.3225070000 114.1913610000,22.3223490000 114.1915940000,22.3222490000 114.1918140000,22.3221540000 114.1920540000,22.3220420000 114.1922940000,22.3219400000 114.1925380000,22.3218370000 114.1927790000,22.3217360000 114.1930060000,22.3216360000 114.1932470000,22.3215380000 114.1934900000,22.3214330000 114.1935220000,22.3214190000 114.1937200000,22.3213290000 114.1937850000,22.3213020000 114.1938740000,22.3212650000 114.1939000000,22.3212550000 114.1940040000,22.3212090000 114.1940260000,22.3213010000 114.1940420000,22.3213360000 114.1941960000,22.3216590000 114.1943390000,22.3219480000 114.1943490000,22.3219660000 114.1944210000,22.3221190000 114.1944640000,22.3222350000 114.1945240000,22.3223720000 114.1946230000,22.3225320000 114.1947410000,22.3227070000 114.1948390000,22.3228390000 114.1949650000,22.3229860000 114.1951010000,22.3231260000 114.1952790000,22.3232940000 114.1954750000,22.3234610000 114.1956090000,22.3235600000 114.1957470000,22.3236430000 114.1958390000,22.3236930000 114.1959260000,22.3237400000 114.1960530000,22.3238050000 114.1961400000,22.3238470000 114.1962570000,22.3238990000 114.1964410000,22.3239730000 114.1965800000,22.3240220000 114.1967430000,22.3240740000 114.1968880000,22.3241100000 114.1975050000,22.3242600000 114.1977690000,22.3243230000 114.1979510000,22.3243680000 114.1979580000,22.3243700000 114.1990320000,22.3246390000 114.1990740000,22.3246550000 114.1991960000,22.3246950000 114.1992900000,22.3247310000 114.1994930000,22.3248010000 114.1995910000,22.3248340000 114.1999610000,22.3249570000 114.2002180000,22.3250690000 114.2008150000,22.3253290000 114.2012120000,22.3255000000 114.2014170000,22.3255960000 114.2017230000,22.3257620000 114.2018280000,22.3258260000 114.2019160000,22.3258770000 114.2023270000,22.3261430000 114.2025320000,22.3262850000 114.2027360000,22.3264460000 114.2030030000,22.3266740000 114.2032690000,22.3269220000 114.2032740000,22.3269260000 114.2035690000,22.3272030000 114.2036020000,22.3272350000 114.2037280000,22.3273510000 114.2038030000,22.3274190000 114.2038780000,22.3274880000 114.2040560000,22.3276630000 114.2042490000,22.3278650000 114.2043370000,22.3279640000 114.2044660000,22.3281660000 114.2045260000,22.3282670000 114.2045940000,22.3284060000 114.2046720000,22.3286180000 114.2046950000,22.3287300000 114.2047050000,22.3287810000 114.2047140000,22.3289370000 114.2047420000,22.3292710000 114.2047600000,22.3297590000 114.2047700000,22.3298960000 114.2047720000,22.3300350000 114.2047770000,22.3303270000 114.2047830000,22.3305340000 114.2047830000,22.3306970000 114.2047790000,22.3309430000 114.2047780000,22.3309850000 114.2047720000,22.3311390000 114.2047680000,22.3312200000 114.2048770000,22.3312170000 114.2053360000,22.3312100000 114.2053860000,22.3311950000 114.2054670000,22.3311690000 114.2055110000,22.3312180000 114.2055300000,22.3312310000 114.2055660000,22.3312570000 114.2056600000,22.3312890000 114.2058070000,22.3313040000 114.2060440000,22.3313150000 114.2060850000,22.3313130000 114.2061830000,22.3313090000 114.2062490000,22.3313060000 114.2064360000,22.3312370000 114.2066250000,22.3311160000 114.2071770000,22.3307100000 114.2074980000,22.3304600000 114.2077160000,22.3302790000 114.2080250000,22.3300230000 114.2080900000,22.3299620000 114.2081260000,22.3299150000 114.2081560000,22.3298620000 114.2081920000,22.3297740000 114.2082080000,22.3297010000 114.2082380000,22.3293990000 114.2082620000,22.3291580000 114.2082820000,22.3289500000 114.2083540000,22.3282260000 114.2083950000,22.3278020000 114.2084100000,22.3276530000 114.2084240000,22.3275090000 114.2085480000,22.3262600000 114.2085850000,22.3258850000 114.2086000000,22.3256960000 114.2086040000,22.3256480000 114.2086130000,22.3255360000 114.2086280000,22.3254190000 114.2086500000,22.3252840000 114.2086540000,22.3252460000 114.2086800000,22.3249970000 114.2087360000,22.3244800000 114.2088550000,22.3233060000 114.2089270000,22.3225890000 114.2090140000,22.3217350000 114.2090240000,22.3216420000 114.2090310000,22.3215460000 114.2090700000,22.3211240000 114.2091270000,22.3204980000 114.2091400000,22.3203870000 114.2091510000,22.3202680000 114.2091840000,22.3199120000 114.2092130000,22.3197770000 114.2092200000,22.3197050000 114.2092250000,22.3196830000 114.2092740000,22.3194940000 114.2092780000,22.3194510000 114.2092950000,22.3192970000 114.2094660000,22.3193120000 114.2094940000,22.3193140000 114.2095330000,22.3193180000 114.2098880000,22.3193480000 114.2099570000,22.3193390000 114.2100580000,22.3193330000 114.2101930000,22.3193260000 114.2117640000,22.3194570000 114.2129550000,22.3195360000 114.2136940000,22.3196010000 114.2144140000,22.3196610000 114.2146950000,22.3196570000 114.2148400000,22.3196370000 114.2149310000,22.3196120000 114.2150360000,22.3195720000 114.2151560000,22.3195110000 114.2152700000,22.3194260000 114.2153340000,22.3193270000 114.2154320000,22.3191630000 114.2156120000,22.3187430000 114.2156840000,22.3186270000 114.2157900000,22.3185100000 114.2163010000,22.3180380000 114.2165630000,22.3178380000 114.2169380000,22.3175490000 114.2169400000,22.3175480000 114.2171170000,22.3174180000 114.2172000000,22.3175230000 114.2173550000,22.3176750000 114.2174240000,22.3177430000 114.2176100000,22.3179010000 114.2176930000,22.3179840000 114.2177730000,22.3181110000 114.2177100000,22.3181410000 114.2177010000,22.3181450000 114.2170790000,22.3184320000 114.2169460000,22.3185090000 114.2168430000,22.3185920000 114.2167390000,22.3186990000 114.2166690000,22.3188090000 114.2166280000,22.3189070000 114.2166040000,22.3190110000 114.2165990000,22.3190870000 114.2166120000,22.3191620000 114.2166690000,22.3193530000 114.2167350000,22.3195190000 114.2167400000,22.3195320000 114.2167540000,22.3195650000 114.2167950000,22.3196560000 114.2168410000,22.3198070000 114.2168640000,22.3199190000 114.2168680000,22.3201170000 114.2167840000,22.3203490000 114.2166540000,22.3204950000 114.2164550000,22.3206450000 114.2162680000,22.3207560000 114.2158250000,22.3209560000 114.2163880000,22.3220660000 114.2164580000,22.3222000000 114.2164930000,22.3222780000 114.2165110000,22.3223470000 114.2165250000,22.3224110000 114.2165230000,22.3224690000 114.2164690000,22.3226360000 114.2165620000,22.3226610000 114.2168280000,22.3227290000 114.2169470000,22.3227530000 114.2169450000,22.3227960000 114.2169580000,22.3228420000 114.2170510000,22.3229750000 114.2170630000,22.3230030000 114.2170690000,22.3230310000 114.2170650000,22.3230650000 114.2170490000,22.3230980000 114.2170120000,22.3231520000 114.2169750000,22.3232020000 114.2169410000,22.3232530000 114.2169060000,22.3233030000 114.2168720000,22.3233570000 114.2167940000,22.3234870000 114.2169020000,22.3235500000 114.2170150000,22.3236170000 114.2172920000,22.3237780000 114.2173270000,22.3237980000 114.2174120000,22.3238600000 114.2174640000,22.3238980000 114.2174960000,22.3239320000 114.2175460000,22.3240700000 114.2175520000,22.3240930000 114.2175750000,22.3241720000 114.2176090000,22.3242930000 114.2175810000,22.3243410000 114.2175530000,22.3243910000 114.2175070000,22.3244650000 114.2172320000,22.3248840000 114.2170760000,22.3251490000 114.2169830000,22.3253410000 114.2169110000,22.3255030000 114.2168990000,22.3255330000 114.2168030000,22.3256930000 114.2166990000,22.3258010000 114.2166890000,22.3258120000 114.2165340000,22.3259020000 114.2162730000,22.3259910000 114.2160650000,22.3260650000 114.2158450000,22.3262010000 114.2156430000,22.3263310000 114.2155930000,22.3263760000 114.2154360000,22.3265190000 114.2152750000,22.3267290000 114.2151450000,22.3269180000 114.2150510000,22.3271210000 114.2150090000,22.3273260000 114.2149960000,22.3276020000 114.2149330000,22.3277420000 114.2149080000,22.3277360000 114.2148830000,22.3277360000 114.2148590000,22.3277430000 114.2148380000,22.3277540000 114.2148200000,22.3277710000 114.2148080000,22.3277910000 114.2148020000,22.3278100000 114.2148000000,22.3278290000 114.2148040000,22.3278490000 114.2148150000,22.3278720000 114.2148320000,22.3278920000 114.2148550000,22.3279060000 114.2148810000,22.3279140000 114.2149090000,22.3279140000 114.2149350000,22.3279080000 114.2149590000,22.3278940000 114.2149770000,22.3278760000 114.2149890000,22.3278530000 114.2150230000,22.3279010000 114.2151000000,22.3279660000 114.2152540000,22.3280910000 114.2157430000,22.3283940000 114.2158130000,22.3284470000 114.2158730000,22.3284960000 114.2158890000,22.3285300000 114.2159100000,22.3285740000 114.2159270000,22.3286670000 114.2159060000,22.3287500000 114.2158410000,22.3288430000 114.2156770000,22.3290750000 114.2156070000,22.3291190000 114.2155390000,22.3291430000 114.2154500000,22.3291590000 114.2153530000,22.3291540000 114.2153120000,22.3291390000 114.2152410000,22.3291130000 114.2151170000,22.3290450000 114.2150400000,22.3289930000 114.2148570000,22.3288720000 114.2145180000,22.3286460000 114.2144510000,22.3286020000 114.2143890000,22.3285620000 114.2140780000,22.3283600000 114.2139330000,22.3282920000 114.2138320000,22.3282920000 114.2136480000,22.3283290000 114.2135520000,22.3283660000 114.2134840000,22.3284140000 114.2134250000,22.3284560000 114.2133660000,22.3284980000 114.2133900000,22.3285250000 114.2134290000,22.3285630000 114.2134740000,22.3286170000 114.2134870000,22.3286520000 114.2134890000,22.3286810000 114.2134810000,22.3287140000 114.2134670000,22.3287400000 114.2134470000,22.3287660000 114.2134150000,22.3287950000 114.2133500000,22.3288150000 114.2131920000,22.3288450000 114.2130640000,22.3288770000 114.2129420000,22.3289200000 114.2121300000,22.3292680000 114.2120830000,22.3293050000 114.2120540000,22.3293330000 114.2120270000,22.3293700000 114.2120080000,22.3294140000 114.2119980000,22.3294570000 114.2119940000,22.3295080000 114.2119990000,22.3295580000 114.2120090000,22.3296010000 114.2120440000,22.3296890000 114.2120960000,22.3298310000 114.2121680000,22.3297880000 114.2122370000,22.3297460000 114.2123780000,22.3296650000 114.2126050000,22.3295270000 114.2127470000,22.3294360000 114.2128710000,22.3293480000 114.2129530000,22.3293000000 114.2130800000,22.3292520000 114.2132020000,22.3292290000 114.2133250000,22.3292300000 114.2134330000,22.3292530000 114.2135330000,22.3292970000 114.2136210000,22.3293600000 114.2139880000,22.3297120000 114.2140570000,22.3297660000 114.2141290000,22.3298170000 114.2142070000,22.3298550000 114.2142900000,22.3298830000 114.2143770000,22.3298970000 114.2144660000,22.3299000000 114.2145550000,22.3298910000 114.2147590000,22.3298510000 114.2155500000,22.3296340000 114.2156540000,22.3296090000 114.2157490000,22.3296020000 114.2158410000,22.3296070000 114.2159360000,22.3296290000 114.2160180000,22.3296530000 114.2163290000,22.3297920000 114.2165930000,22.3298980000 114.2166800000,22.3299170000 114.2167890000,22.3299190000 114.2168950000,22.3298990000 114.2170120000,22.3298440000 114.2170970000,22.3297730000 114.2171480000,22.3297070000 114.2171980000,22.3295940000 114.2172140000,22.3294640000 114.2172400000,22.3292210000 114.2172700000,22.3289770000 114.2172980000,22.3287960000 114.2173350000,22.3286300000 114.2173850000,22.3284660000 114.2174450000,22.3283060000 114.2175180000,22.3281500000 114.2175880000,22.3280090000 114.2177810000,22.3276400000 114.2178060000,22.3275910000 114.2178290000,22.3275470000 114.2179980000,22.3273190000 114.2180960000,22.3272150000 114.2182030000,22.3271190000 114.2183250000,22.3270390000 114.2183770000,22.3269890000 114.2184380000,22.3269360000 114.2184820000,22.3268930000 114.2185280000,22.3268400000 114.2185820000,22.3267650000 114.2185950000,22.3267480000 114.2186040000,22.3267290000 114.2186080000,22.3267090000 114.2186080000,22.3266880000 114.2186110000,22.3265990000 114.2186080000,22.3266880000 114.2186080000,22.3267090000 114.2186040000,22.3267290000 114.2185950000,22.3267480000 114.2185820000,22.3267650000 114.2185280000,22.3268400000 114.2184820000,22.3268930000 114.2184380000,22.3269360000 114.2184210000,22.3269510000 114.2183770000,22.3269890000 114.2183250000,22.3270390000 114.2182030000,22.3271190000 114.2180960000,22.3272150000 114.2179980000,22.3273190000 114.2178290000,22.3275470000 114.2178060000,22.3275910000 114.2177810000,22.3276400000 114.2175880000,22.3280090000 114.2175180000,22.3281500000 114.2174450000,22.3283060000 114.2173850000,22.3284660000 114.2173350000,22.3286300000 114.2172980000,22.3287960000 114.2172700000,22.3289770000 114.2172400000,22.3292210000 114.2172140000,22.3294640000 114.2171980000,22.3295940000 114.2171480000,22.3297070000 114.2170970000,22.3297730000 114.2170120000,22.3298440000 114.2168950000,22.3298990000 114.2167890000,22.3299190000 114.2166800000,22.3299170000 114.2165930000,22.3298980000 114.2163290000,22.3297920000 114.2160180000,22.3296530000 114.2159360000,22.3296290000 114.2158410000,22.3296070000 114.2157490000,22.3296020000 114.2156540000,22.3296090000 114.2155500000,22.3296340000 114.2147590000,22.3298510000 114.2145550000,22.3298910000 114.2144660000,22.3299000000 114.2143770000,22.3298970000 114.2142900000,22.3298830000 114.2142070000,22.3298550000 114.2141290000,22.3298170000 114.2140570000,22.3297660000 114.2139880000,22.3297120000 114.2136210000,22.3293600000 114.2135330000,22.3292970000 114.2134330000,22.3292530000 114.2133250000,22.3292300000 114.2132020000,22.3292290000 114.2130800000,22.3292520000 114.2129530000,22.3293000000 114.2128710000,22.3293480000 114.2127470000,22.3294360000 114.2126050000,22.3295270000 114.2123780000,22.3296650000 114.2122090000,22.3296230000 114.2121810000,22.3296010000 114.2121410000,22.3295490000 114.2121300000,22.3295220000 114.2121240000,22.3294840000 114.2121230000,22.3293990000 114.2121460000,22.3293700000 114.2121810000,22.3293400000 114.2122200000,22.3293150000 114.2125600000,22.3291660000 114.2129710000,22.3289930000 114.2130710000,22.3289580000 114.2131240000,22.3289450000 114.2131890000,22.3289330000 114.2132860000,22.3289170000 114.2134210000,22.3288940000 114.2134560000,22.3288800000 114.2134860000,22.3288610000 114.2135150000,22.3288340000 114.2135400000,22.3288060000 114.2135690000,22.3287580000 114.2136000000,22.3286700000 114.2136030000,22.3285720000 114.2136100000,22.3285480000 114.2136260000,22.3285120000 114.2136510000,22.3284690000 114.2136740000,22.3284440000 114.2136900000,22.3284260000 114.2137400000,22.3283830000 114.2137860000,22.3283610000 114.2138260000,22.3283470000 114.2138750000,22.3283360000 114.2139460000,22.3283370000 114.2140780000,22.3283600000 114.2143890000,22.3285620000 114.2144510000,22.3286020000 114.2145180000,22.3286460000 114.2148570000,22.3288720000 114.2150400000,22.3289930000 114.2151170000,22.3290450000 114.2152410000,22.3291130000 114.2153120000,22.3291390000 114.2153530000,22.3291540000 114.2154500000,22.3291590000 114.2155390000,22.3291430000 114.2156070000,22.3291190000 114.2156770000,22.3290750000 114.2158410000,22.3288430000 114.2159060000,22.3287500000 114.2159270000,22.3286670000 114.2159100000,22.3285740000 114.2158890000,22.3285300000 114.2158730000,22.3284960000 114.2158130000,22.3284470000 114.2157430000,22.3283940000 114.2152540000,22.3280910000 114.2151000000,22.3279660000 114.2150230000,22.3279010000 114.2149890000,22.3278530000 114.2149940000,22.3278340000 114.2149930000,22.3278140000 114.2149890000,22.3277960000 114.2149800000,22.3277780000 114.2149670000,22.3277630000 114.2149510000,22.3277510000 114.2149330000,22.3277420000 114.2149960000,22.3276020000 114.2150090000,22.3273260000 114.2150510000,22.3271210000 114.2151450000,22.3269180000 114.2152750000,22.3267290000 114.2154360000,22.3265190000 114.2155930000,22.3263760000 114.2156430000,22.3263310000 114.2158450000,22.3262010000 114.2160650000,22.3260650000 114.2162730000,22.3259910000 114.2165340000,22.3259020000 114.2166890000,22.3258120000 114.2166990000,22.3258010000 114.2168030000,22.3256930000 114.2168990000,22.3255330000 114.2169110000,22.3255030000 114.2169830000,22.3253410000 114.2170760000,22.3251490000 114.2172320000,22.3248840000 114.2175070000,22.3244650000 114.2175530000,22.3243910000 114.2175810000,22.3243410000 114.2176090000,22.3242930000 114.2176520000,22.3241710000 114.2176920000,22.3239460000 114.2176900000,22.3239210000 114.2176920000,22.3238970000 114.2177000000,22.3238380000 114.2176860000,22.3238350000 114.2176290000,22.3238260000 114.2175880000,22.3238200000 114.2175020000,22.3238090000 114.2174350000,22.3238040000 114.2173270000,22.3237980000 114.2172920000,22.3237780000 114.2170150000,22.3236170000 114.2169020000,22.3235500000 114.2167940000,22.3234870000 114.2166340000,22.3233940000 114.2165240000,22.3233330000 114.2163930000,22.3232590000 114.2162930000,22.3232130000 114.2163960000,22.3228610000 114.2164650000,22.3226540000 114.2164690000,22.3226360000 114.2165230000,22.3224690000 114.2165250000,22.3224110000 114.2165110000,22.3223470000 114.2164930000,22.3222780000 114.2164580000,22.3222000000 114.2163880000,22.3220660000 114.2158250000,22.3209560000 114.2162680000,22.3207560000 114.2164550000,22.3206450000 114.2166540000,22.3204950000 114.2167840000,22.3203490000 114.2168680000,22.3201170000 114.2168640000,22.3199190000 114.2168410000,22.3198070000 114.2167950000,22.3196560000 114.2167540000,22.3195650000 114.2167400000,22.3195320000 114.2167350000,22.3195190000 114.2166690000,22.3193530000 114.2166120000,22.3191620000 114.2165990000,22.3190870000 114.2166040000,22.3190110000 114.2166280000,22.3189070000 114.2166690000,22.3188090000 114.2167390000,22.3186990000 114.2168430000,22.3185920000 114.2169460000,22.3185090000 114.2170790000,22.3184320000 114.2177100000,22.3181410000 114.2177730000,22.3181110000 114.2176930000,22.3179840000 114.2176100000,22.3179010000 114.2174240000,22.3177430000 114.2174180000,22.3177370000 114.2173550000,22.3176750000 114.2172000000,22.3175230000 114.2171170000,22.3174180000 114.2169400000,22.3175480000 114.2169380000,22.3175490000 114.2165630000,22.3178380000 114.2163010000,22.3180380000 114.2157900000,22.3185100000 114.2156840000,22.3186270000 114.2156120000,22.3187430000 114.2154320000,22.3191630000 114.2153340000,22.3193270000 114.2152700000,22.3194260000 114.2151560000,22.3195110000 114.2150360000,22.3195720000 114.2149310000,22.3196120000 114.2148400000,22.3196370000 114.2146950000,22.3196570000 114.2144140000,22.3196610000 114.2136940000,22.3196010000 114.2129550000,22.3195360000 114.2117640000,22.3194570000 114.2101930000,22.3193260000 114.2100250000,22.3192860000 114.2098880000,22.3192560000 114.2098550000,22.3192380000 114.2095370000,22.3192180000 114.2094810000,22.3192150000 114.2093060000,22.3192010000 114.2091990000,22.3191950000 114.2091990000,22.3192440000 114.2091850000,22.3193930000 114.2091800000,22.3194860000 114.2092090000,22.3196840000 114.2092200000,22.3197050000 114.2092130000,22.3197770000 114.2091840000,22.3199120000 114.2091510000,22.3202680000 114.2091400000,22.3203870000 114.2091270000,22.3204980000 114.2090700000,22.3211240000 114.2090310000,22.3215460000 114.2090240000,22.3216420000 114.2090140000,22.3217350000 114.2089270000,22.3225890000 114.2088550000,22.3233060000 114.2087360000,22.3244800000 114.2086800000,22.3249970000 114.2086540000,22.3252460000 114.2086500000,22.3252840000 114.2086280000,22.3254190000 114.2086130000,22.3255360000 114.2086040000,22.3256480000 114.2086000000,22.3256960000 114.2085850000,22.3258850000 114.2085480000,22.3262600000 114.2084240000,22.3275090000 114.2084100000,22.3276530000 114.2083950000,22.3278020000 114.2083540000,22.3282260000 114.2082820000,22.3289500000 114.2082620000,22.3291580000 114.2082380000,22.3293990000 114.2082080000,22.3297010000 114.2081920000,22.3297740000 114.2081560000,22.3298620000 114.2081260000,22.3299150000 114.2080900000,22.3299620000 114.2080250000,22.3300230000 114.2074980000,22.3304600000 114.2071770000,22.3307100000 114.2066250000,22.3311160000 114.2064360000,22.3312370000 114.2062490000,22.3313060000 114.2061830000,22.3313090000 114.2060850000,22.3313130000 114.2060440000,22.3313150000 114.2059260000,22.3313100000 114.2058070000,22.3313040000 114.2056600000,22.3312890000 114.2055660000,22.3312570000 114.2055300000,22.3312310000 114.2055110000,22.3312180000 114.2054670000,22.3311690000 114.2054460000,22.3311300000 114.2054330000,22.3310940000 114.2054170000,22.3310590000 114.2054030000,22.3309900000 114.2054080000,22.3308910000 114.2054410000,22.3305810000 114.2055800000,22.3292890000 114.2055940000,22.3291540000 114.2057050000,22.3279700000 114.2057460000,22.3275020000 114.2057540000,22.3274140000 114.2058130000,22.3268850000 114.2058280000,22.3267540000 114.2058360000,22.3266840000 114.2056800000,22.3266700000 114.2052100000,22.3266310000 114.2050300000,22.3266160000 114.2048500000,22.3266000000 114.2048100000,22.3266000000 114.2047680000,22.3266030000 114.2046730000,22.3266230000 114.2046100000,22.3266420000 114.2045200000,22.3266800000 114.2044400000,22.3267200000 114.2043450000,22.3267990000 114.2043110000,22.3268290000 114.2041640000,22.3269620000 114.2040480000,22.3270200000 114.2039380000,22.3270510000 114.2038510000,22.3270590000 114.2038000000,22.3270570000 114.2037300000,22.3270480000 114.2036370000,22.3270160000 114.2034760000,22.3269150000 114.2034210000,22.3268630000 114.2031700000,22.3266230000 114.2028230000,22.3263320000 114.2025740000,22.3261470000 114.2025080000,22.3261010000 114.2023480000,22.3259890000 114.2019930000,22.3257600000 114.2019070000,22.3257060000 114.2018100000,22.3256470000 114.2018010000,22.3256420000 114.2016170000,22.3255420000 114.2013850000,22.3254270000 114.2010530000,22.3252740000 114.2005520000,22.3250610000 114.2003730000,22.3249880000 114.1995830000,22.3246860000 114.1995230000,22.3246640000 114.1993480000,22.3246000000 114.1992490000,22.3245620000 114.1992170000,22.3245500000 114.1991280000,22.3245180000 114.1980400000,22.3242510000 114.1972140000,22.3240430000 114.1968270000,22.3239470000 114.1967530000,22.3239270000 114.1965990000,22.3238820000 114.1964150000,22.3238170000 114.1962000000,22.3237260000 114.1961600000,22.3237080000 114.1960220000,22.3236450000 114.1960130000,22.3236400000 114.1959240000,22.3235920000 114.1959170000,22.3235880000 114.1957750000,22.3234980000 114.1956050000,22.3233820000 114.1954920000,22.3232890000 114.1953300000,22.3231520000 114.1952090000,22.3230390000 114.1951090000,22.3229350000 114.1950060000,22.3228130000 114.1948850000,22.3226650000 114.1948400000,22.3226000000 114.1947450000,22.3224640000 114.1946680000,22.3223380000 114.1946320000,22.3222810000 114.1946000000,22.3222270000 114.1945740000,22.3221800000 114.1945190000,22.3220760000 114.1944600000,22.3219610000 114.1944060000,22.3218560000 114.1943590000,22.3217690000 114.1942350000,22.3215430000 114.1942110000,22.3214980000 114.1941330000,22.3213420000 114.1941140000,22.3213050000 114.1940960000,22.3212790000 114.1940370000,22.3212340000 114.1940040000,22.3212090000 114.1939620000,22.3211250000 114.1936280000,22.3204570000 114.1935620000,22.3203470000 114.1935460000,22.3203320000 114.1935190000,22.3203110000 114.1934770000,22.3202750000 114.1933810000,22.3201940000 114.1932180000,22.3200190000 114.1929810000,22.3197650000 114.1929230000,22.3196920000 114.1926130000,22.3193690000 114.1925540000,22.3192860000 114.1926870000,22.3192260000 114.1935900000,22.3188180000 114.1936240000,22.3188030000 114.1936610000,22.3187880000 114.1936980000,22.3187720000 114.1937050000,22.3186610000 114.1934820000,22.3182250000 114.1934430000,22.3182360000 114.1933870000,22.3182520000 114.1933140000,22.3182720000 114.1931870000,22.3183070000 114.1930690000,22.3183400000 114.1930630000,22.3183420000 114.1929360000,22.3183770000 114.1928890000,22.3184030000 114.1928930000,22.3184520000 114.1930310000,22.3186660000 114.1930510000,22.3187450000 114.1930420000,22.3188020000 114.1930060000,22.3188420000 114.1926040000,22.3191090000 114.1925540000,22.3191420000 114.1924670000,22.3192060000 114.1923750000,22.3192760000 114.1922620000,22.3193510000 114.1920310000,22.3195030000 114.1920090000,22.3195140000 114.1920000000,22.3195190000 114.1917920000,22.3196280000 114.1915590000,22.3197500000 114.1910990000,22.3199910000 114.1908850000,22.3200820000 114.1907970000,22.3201100000 114.1907200000,22.3201240000 114.1906410000,22.3201280000 114.1905470000,22.3201260000 114.1904580000,22.3201130000 114.1903940000,22.3200960000 114.1903200000,22.3200600000 114.1902540000,22.3200130000 114.1901350000,22.3198930000 114.1899990000,22.3197420000 114.1899510000,22.3196950000 114.1899300000,22.3196720000 114.1896400000,22.3193570000 114.1895210000,22.3191930000 114.1894550000,22.3190990000 114.1894140000,22.3190380000 114.1893840000,22.3189900000 114.1893490000,22.3189280000 114.1893080000,22.3188520000 114.1892700000,22.3187800000 114.1891320000,22.3185030000 114.1885480000,22.3173290000 114.1881990000,22.3166390000 114.1880140000,22.3162710000 114.1879760000,22.3161940000 114.1879320000,22.3160990000 114.1878900000,22.3160040000 114.1878560000,22.3159210000 114.1878170000,22.3158200000 114.1877810000,22.3157200000 114.1877470000,22.3156140000 114.1877250000,22.3155370000 114.1877050000,22.3154550000 114.1876730000,22.3152820000 114.1876130000,22.3148810000 114.1876010000,22.3147950000 114.1875880000,22.3147130000 114.1875570000,22.3145620000 114.1875370000,22.3144630000 114.1875200000,22.3143820000 114.1874970000,22.3143040000 114.1874770000,22.3142420000 114.1873840000,22.3139840000 114.1873530000,22.3139010000 114.1873140000,22.3138090000 114.1872720000,22.3137180000 114.1872170000,22.3136100000 114.1871700000,22.3135250000 114.1871250000,22.3134500000 114.1869880000,22.3132340000 114.1865460000,22.3125520000 114.1860760000,22.3118220000 114.1859480000,22.3116210000 114.1858010000,22.3113940000 114.1857270000,22.3112690000 114.1856850000,22.3111940000 114.1854880000,22.3108360000 114.1854410000,22.3107540000 114.1853870000,22.3106640000 114.1853200000,22.3105530000 114.1852550000,22.3104580000 114.1851860000,22.3103670000 114.1851140000,22.3102800000 114.1848710000,22.3099790000 114.1847480000,22.3098390000 114.1845920000,22.3096680000 114.1844420000,22.3095140000 114.1842420000,22.3092930000 114.1841190000,22.3091860000 114.1838820000,22.3089980000 114.1837520000,22.3089020000 114.1835540000,22.3088030000 114.1834750000,22.3087620000 114.1832990000,22.3086690000 114.1830920000,22.3085460000 114.1828020000,22.3083920000 114.1825850000,22.3082650000 114.1824680000,22.3081960000 114.1821720000,22.3080070000 114.1818010000,22.3077720000 114.1815380000,22.3075950000 114.1812350000,22.3073110000 114.1811670000,22.3071420000 114.1811510000,22.3070250000 114.1811510000,22.3068800000 114.1812000000,22.3067220000 114.1812470000,22.3066520000 114.1813440000,22.3064790000 114.1814910000,22.3062290000 114.1815380000,22.3061080000 114.1815470000,22.3059810000 114.1815750000,22.3059020000 114.1816100000,22.3057230000 114.1816010000,22.3054770000 114.1815710000,22.3052910000 114.1814910000,22.3050070000 114.1812210000,22.3044370000 114.1811230000,22.3042230000 114.1810440000,22.3040150000 114.1808730000,22.3035850000 114.1807300000,22.3032420000 114.1806030000,22.3028740000 114.1804960000,22.3025370000 114.1804530000,22.3023080000 114.1804390000,22.3022200000 114.1804280000,22.3021570000 114.1804240000,22.3021280000 114.1804100000,22.3019510000 114.1804000000,22.3016830000 114.1804260000,22.3014080000 114.1804500000,22.3012290000 114.1804770000,22.3009960000 114.1805280000,22.3006710000 114.1805930000,22.3003530000 114.1806470000,22.3000300000 114.1806970000,22.2997190000 114.1808220000,22.2989630000 114.1831870000,22.2846590000 114.1831980000,22.2843750000 114.1831770000,22.2841610000 114.1831280000,22.2839770000 114.1830550000,22.2838110000 114.1829730000,22.2836590000 114.1829470000,22.2836110000 114.1827730000,22.2833600000 114.1825870000,22.2831320000 114.1824230000,22.2829760000 114.1820400000,22.2826100000 114.1817800000,22.2823800000 114.1817200000,22.2823270000 114.1816620000,22.2822700000 114.1816150000,22.2822220000 114.1815730000,22.2821730000 114.1815310000,22.2821190000 114.1814900000,22.2820600000 114.1814540000,22.2820090000 114.1814080000,22.2819550000 114.1813600000,22.2819100000 114.1813120000,22.2818750000 114.1812500000,22.2818400000 114.1812070000,22.2818190000 114.1811530000,22.2817980000 114.1811000000,22.2817810000 114.1810500000,22.2817700000 114.1810000000,22.2817620000 114.1809400000,22.2817580000 114.1808900000,22.2817610000 114.1808200000,22.2817700000 114.1806200000,22.2818100000 114.1805680000,22.2818160000 114.1805100000,22.2818180000 114.1804520000,22.2818160000 114.1803950000,22.2818090000 114.1803440000,22.2817930000 114.1802970000,22.2817710000 114.1802630000,22.2817490000 114.1802180000,22.2817110000 114.1801790000,22.2816700000 114.1801590000,22.2816420000 114.1801420000,22.2816090000 114.1801310000,22.2815800000 114.1801240000,22.2815490000 114.1801190000,22.2815010000 114.1801180000,22.2814550000 114.1801220000,22.2814110000 114.1801290000,22.2813700000 114.1801400000,22.2813330000 114.1801570000,22.2812950000 114.1801800000,22.2812600000 114.1802180000,22.2812160000 114.1802490000,22.2811870000 114.1802830000,22.2811590000 114.1805500000,22.2809600000 114.1806400000,22.2808600000 114.1807240000,22.2807230000 114.1807950000,22.2805830000 114.1808650000,22.2804290000 114.1811770000,22.2797040000 114.1812830000,22.2794790000 114.1813410000,22.2793390000 114.1813570000,22.2792850000 114.1813680000,22.2792400000 114.1813740000,22.2791860000 114.1813730000,22.2791220000 114.1813040000,22.2778020000 114.1813400000,22.2775280000 114.1813340000,22.2772790000 114.1813280000,22.2769770000 114.1813310000,22.2767660000 114.1813260000,22.2767270000 114.1813090000,22.2766350000 114.1806850000,22.2763800000 114.1806020000,22.2763830000 114.1805570000,22.2763940000 114.1805210000,22.2764020000 114.1804700000,22.2764270000 114.1804480000,22.2764380000 114.1803560000,22.2765080000 114.1803200000,22.2765610000 114.1801600000,22.2770820000 114.1800050000,22.2774170000 114.1799050000,22.2776350000 114.1798500000,22.2778070000 114.1798170000,22.2778940000 114.1797610000,22.2780410000 114.1797890000,22.2780960000 114.1798090000,22.2781470000 114.1797850000,22.2782120000 114.1796720000,22.2785410000 114.1796580000,22.2785850000 114.1796450000,22.2786250000 114.1796440000,22.2787190000 114.1796690000,22.2787840000 114.1796720000,22.2787960000 114.1796750000,22.2788100000 114.1796990000,22.2788750000 114.1798290000,22.2789260000 114.1804030000,22.2791380000 114.1806000000,22.2792100000 114.1810590000,22.2793860000 114.1811240000,22.2794100000 114.1811380000,22.2794150000 114.1813180000,22.2794790000 114.1814110000,22.2795130000 114.1819190000,22.2796980000 114.1821430000,22.2797800000 114.1824900000,22.2799070000 114.1826760000,22.2799770000 114.1827180000,22.2799930000 114.1830170000,22.2801060000 114.1830290000,22.2801110000 114.1830550000,22.2801200000 114.1831080000,22.2801390000 114.1831670000,22.2801490000 114.1832310000,22.2801550000 114.1832730000,22.2801560000 114.1833330000,22.2801580000 114.1842570000,22.2801810000 114.1843190000,22.2801820000 114.1843560000,22.2801830000 114.1844280000,22.2801840000 114.1845770000,22.2801860000 114.1845980000,22.2801860000 114.1846230000,22.2801840000 114.1846840000,22.2801740000 114.1847820000,22.2801540000 114.1848040000,22.2801520000 114.1848330000,22.2801460000 114.1849070000,22.2801240000 114.1849770000,22.2801000000 114.1850730000,22.2800710000 114.1855430000,22.2799270000 114.1856270000,22.2799110000 114.1856990000,22.2798870000 114.1857230000,22.2798790000 114.1858170000,22.2798480000 114.1858820000,22.2798270000 114.1858960000,22.2798220000 114.1860330000,22.2797770000 114.1861760000,22.2797330000 114.1861930000,22.2797280000 114.1863660000,22.2796810000 114.1869210000,22.2795140000 114.1869570000,22.2795040000 114.1871390000,22.2794510000 114.1872990000,22.2794630000 114.1874440000,22.2794810000 114.1876100000,22.2795380000 114.1878280000,22.2796260000 114.1880330000,22.2797400000 114.1883320000,22.2799260000 114.1886080000,22.2801090000 114.1888300000,22.2802620000 114.1894050000,22.2806560000 114.1896180000,22.2808030000 114.1907300000,22.2815450000 114.1908350000,22.2816170000 114.1909610000,22.2817060000 114.1912010000,22.2818720000 114.1912280000,22.2818910000 114.1912890000,22.2819310000 114.1912600000,22.2819980000 114.1912580000,22.2820770000 114.1912390000,22.2824800000 114.1912380000,22.2825130000 114.1912340000,22.2826040000 114.1912320000,22.2826720000 114.1912310000,22.2826750000 114.1912210000,22.2829090000 114.1912180000,22.2829940000 114.1911980000,22.2833720000 114.1911780000,22.2837530000 114.1911770000,22.2838100000 114.1911730000,22.2839760000 114.1911610000,22.2841510000 114.1911100000,22.2844320000 114.1910580000,22.2846940000 114.1910490000,22.2847270000 114.1910130000,22.2848320000 114.1909610000,22.2849540000 114.1908720000,22.2851040000 114.1908460000,22.2851400000 114.1907870000,22.2852170000 114.1907860000,22.2852330000 114.1907810000,22.2852540000 114.1907650000,22.2852860000 114.1907360000,22.2853280000 114.1907190000,22.2853570000 114.1907090000,22.2853880000 114.1907070000,22.2854080000 114.1907090000,22.2854270000 114.1907230000,22.2854500000 114.1909330000,22.2855920000 114.1909780000,22.2856210000 114.1910630000,22.2856790000 114.1910790000,22.2856890000 114.1913500000,22.2858720000 114.1914040000,22.2859080000 114.1914310000,22.2859190000 114.1914760000,22.2859510000 114.1915150000,22.2859880000 114.1915440000,22.2860340000 114.1915590000,22.2860840000 114.1915600000,22.2861370000 114.1915280000,22.2866830000 114.1915220000,22.2867600000 114.1915280000,22.2868370000 114.1915470000,22.2869120000 114.1915770000,22.2869840000 114.1916140000,22.2870460000 114.1916730000,22.2871190000 114.1918540000,22.2873200000 114.1918710000,22.2873390000 114.1919360000,22.2874170000 114.1919990000,22.2874960000 114.1921490000,22.2876610000 114.1928470000,22.2884230000 114.1932230000,22.2888410000 114.1935690000,22.2892020000 114.1935820000,22.2892150000 114.1936850000,22.2893290000 114.1940390000,22.2897420000 114.1940690000,22.2897750000 114.1941340000,22.2898450000 114.1948160000,22.2906000000 114.1948400000,22.2906260000 114.1948830000,22.2905930000 114.1952780000,22.2902880000 114.1953050000,22.2902560000 114.1953130000,22.2902360000 114.1953300000,22.2901940000 114.1953470000,22.2901560000 114.1953570000,22.2901320000 114.1953600000,22.2900850000 114.1952220000,22.2900220000 114.1951230000,22.2899600000 114.1950440000,22.2899000000 114.1949620000,22.2898250000 114.1947570000,22.2895830000 114.1947650000,22.2895020000 114.1947660000,22.2894870000 114.1947670000,22.2894720000 114.1947680000,22.2894610000 114.1947710000,22.2894500000 114.1947760000,22.2894390000 114.1947820000,22.2894250000 114.1947890000,22.2894120000 114.1948070000,22.2893930000 114.1948340000,22.2893600000 114.1948430000,22.2893170000 114.1948760000,22.2892800000 114.1949120000,22.2892190000 114.1949280000,22.2891800000 114.1949440000,22.2891350000 114.1949670000,22.2890180000 114.1950080000,22.2888830000 114.1950320000,22.2888180000 114.1950500000,22.2887740000 114.1950720000,22.2887210000 114.1950950000,22.2886790000 114.1951410000,22.2885860000 114.1952270000,22.2884410000 114.1953620000,22.2882210000 114.1953970000,22.2881610000 114.1955850000,22.2878330000 114.1955990000,22.2877560000 114.1955950000,22.2877070000 114.1955840000,22.2876600000 114.1955350000,22.2875380000 114.1954580000,22.2873450000 114.1954160000,22.2872390000 114.1953180000,22.2870700000 114.1953000000,22.2870400000 114.1952610000,22.2869670000 114.1950630000,22.2866130000 114.1950440000,22.2865340000 114.1950420000,22.2865010000 114.1950580000,22.2864530000 114.1951110000,22.2864040000 114.1951510000,22.2863740000 114.1952390000,22.2863140000 114.1954460000,22.2866280000 114.1957640000,22.2870810000 114.1957820000,22.2871100000 114.1959050000,22.2872950000 114.1959520000,22.2873660000 114.1960860000,22.2875700000 114.1961190000,22.2876110000 114.1961740000,22.2876590000 114.1963190000,22.2877730000 114.1964270000,22.2878580000 114.1964920000,22.2879020000 114.1965440000,22.2879310000 114.1966320000,22.2879760000 114.1966760000,22.2879890000 114.1967300000,22.2879990000 114.1970280000,22.2880250000 114.1971520000,22.2880400000 114.1975150000,22.2880790000 114.1976060000,22.2880890000 114.1980280000,22.2881250000 114.1982390000,22.2881250000 114.1984220000,22.2880980000 114.1986680000,22.2879980000 114.1988750000,22.2878880000 114.1990830000,22.2877790000 114.1991470000,22.2877480000 114.1992120000,22.2877230000 114.1993160000,22.2877120000 114.1993580000,22.2877140000 114.1994200000,22.2877230000 114.1995080000,22.2877450000 114.1997470000,22.2878880000 114.1999630000,22.2880310000 114.2000350000,22.2880580000 114.2001440000,22.2880880000 114.2002660000,22.2881070000 114.2004440000,22.2881150000 114.2007150000,22.2881390000 114.2008730000,22.2881530000 114.2010030000,22.2881710000 114.2011480000,22.2882020000 114.2014350000,22.2882670000 114.2015740000,22.2883040000 114.2016380000,22.2883320000 114.2017080000,22.2883910000 114.2018000000,22.2884780000 114.2018830000,22.2885990000 114.2019990000,22.2887240000 114.2020580000,22.2887580000 114.2021270000,22.2887780000 114.2022050000,22.2887760000 114.2023240000,22.2887650000 114.2024280000,22.2887180000 114.2024940000,22.2886680000 114.2026020000,22.2885600000 114.2027400000,22.2884180000 114.2027520000,22.2884040000 114.2027780000,22.2883700000 114.2028040000,22.2883360000 114.2028800000,22.2882370000 114.2028050000,22.2881590000 114.2027860000,22.2881390000 114.2026860000,22.2880620000 114.2024200000,22.2878900000 114.2023310000,22.2878340000 114.2022720000,22.2877920000 114.2022180000,22.2877390000 114.2021420000,22.2876570000 114.2020860000,22.2875840000 114.2021150000,22.2874840000 114.2021510000,22.2874300000 114.2021810000,22.2873960000 114.2022240000,22.2873690000 114.2022860000,22.2873510000 114.2023850000,22.2873480000 114.2024490000,22.2873610000 114.2028490000,22.2874400000 114.2031370000,22.2874870000 114.2032150000,22.2874950000 114.2033550000,22.2874920000 114.2035150000,22.2874750000 114.2036950000,22.2874380000 114.2039580000,22.2873260000 114.2040920000,22.2872540000 114.2041740000,22.2872070000 114.2044810000,22.2870100000 114.2041740000,22.2872070000 114.2040920000,22.2872540000 114.2039580000,22.2873260000 114.2036950000,22.2874380000 114.2035150000,22.2874750000 114.2033550000,22.2874920000 114.2032150000,22.2874950000 114.2031370000,22.2874870000 114.2028490000,22.2874400000 114.2024490000,22.2873610000 114.2023850000,22.2873480000 114.2021970000,22.2872880000 114.2020850000,22.2872620000 114.2020520000,22.2872540000 114.2017770000,22.2871910000 114.2015030000,22.2871280000 114.2012940000,22.2870610000 114.2011430000,22.2869880000 114.2009200000,22.2868800000 114.2008900000,22.2868660000 114.2006210000,22.2867250000 114.2004470000,22.2866160000 114.2003580000,22.2865330000 114.2002920000,22.2864720000 114.2001520000,22.2863170000 114.2001150000,22.2862780000 114.1999460000,22.2860510000 114.1999200000,22.2860090000 114.1998520000,22.2859000000 114.1998400000,22.2858800000 114.1997120000,22.2856320000 114.1996500000,22.2854560000 114.1996200000,22.2853710000 114.1996080000,22.2853330000 114.1993940000,22.2846260000 114.1991310000,22.2837330000 114.1990740000,22.2835530000 114.1990140000,22.2833480000 114.1989670000,22.2831910000 114.1989430000,22.2831050000 114.1988900000,22.2829190000 114.1987380000,22.2823910000 114.1986950000,22.2822300000 114.1986860000,22.2821970000 114.1986620000,22.2821510000 114.1986330000,22.2821010000 114.1985850000,22.2820610000 114.1985350000,22.2820270000 114.1984630000,22.2820050000 114.1983820000,22.2820020000</coordinates>
                </LineString>
                <ExtendedData>
                    <Data name="length">
                        <value>39673.47469704131</value>
                    </Data>
                    <Data name="duration">
                        <value>01:00:47</value>
                    </Data>
                </ExtendedData>
            </Placemark>
        </Document>
    </Document>
</kml>