<?xml version="1.0" encoding="UTF-8"?>
<kml xmlns="http://www.opengis.net/kml/2.2" xmlns:gx="http://www.google.com/kml/ext/2.2">
    <Document>
        <name>Route</name>
        <Folder>
            <name>Route Request</name>
            <Placemark>
                <address>和喜樓, Hing Kwai Street, Leung Tin, Po Tong Ha, Kei Lun Wai, Tuen Mun District, New Territories, Hong Kong, China</address>
                <Point>
                    <coordinates>113.9737653535,22.3946273113</coordinates>
                </Point>
                <ExtendedData>
                    <Data name="building">
                        <value>和喜樓</value>
                    </Data>
                    <Data name="region">
                        <value>New Territories</value>
                    </Data>
                    <Data name="county">
                        <value>Tuen Mun District</value>
                    </Data>
                    <Data name="quarter">
                        <value>Leung Tin</value>
                    </Data>
                    <Data name="country">
                        <value>China</value>
                    </Data>
                    <Data name="country_code">
                        <value>cn</value>
                    </Data>
                    <Data name="village">
                        <value>Kei Lun Wai</value>
                    </Data>
                    <Data name="hamlet">
                        <value>Po Tong Ha</value>
                    </Data>
                    <Data name="ISO3166-2-lvl3">
                        <value>CN-HK</value>
                    </Data>
                    <Data name="routingVisited">
                        <value>false</value>
                    </Data>
                    <Data name="road">
                        <value>Hing Kwai Street</value>
                    </Data>
                    <Data name="state">
                        <value>Hong Kong</value>
                    </Data>
                </ExtendedData>
            </Placemark>
            <Placemark>
                <Point>
                    <coordinates>113.9792903762,22.4044630915</coordinates>
                </Point>
            </Placemark>
            <Placemark>
                <address>Hung Hei House, Hung Shui Kiu Tin Sam Road, Tin Sum, Hung Shui Kiu, Shek Po Village, Yuen Long District, New Territories, Hong Kong, China</address>
                <Point>
                    <coordinates>113.9984061629,22.4367419813</coordinates>
                </Point>
                <ExtendedData>
                    <Data name="building">
                        <value>Hung Hei House</value>
                    </Data>
                    <Data name="region">
                        <value>New Territories</value>
                    </Data>
                    <Data name="county">
                        <value>Yuen Long District</value>
                    </Data>
                    <Data name="quarter">
                        <value>Tin Sum</value>
                    </Data>
                    <Data name="country">
                        <value>China</value>
                    </Data>
                    <Data name="country_code">
                        <value>cn</value>
                    </Data>
                    <Data name="village">
                        <value>Shek Po Village</value>
                    </Data>
                    <Data name="ISO3166-2-lvl3">
                        <value>CN-HK</value>
                    </Data>
                    <Data name="suburb">
                        <value>Hung Shui Kiu</value>
                    </Data>
                    <Data name="road">
                        <value>Hung Shui Kiu Tin Sam Road</value>
                    </Data>
                    <Data name="state">
                        <value>Hong Kong</value>
                    </Data>
                </ExtendedData>
            </Placemark>
            <Placemark>
                <address>Tin Shui Wai West Interchange, Hung Shui Kiu, Shek Po Village, Yuen Long District, New Territories, Hong Kong, China</address>
                <Point>
                    <coordinates>114.0032389998,22.4343925719</coordinates>
                </Point>
                <ExtendedData>
                    <Data name="region">
                        <value>New Territories</value>
                    </Data>
                    <Data name="county">
                        <value>Yuen Long District</value>
                    </Data>
                    <Data name="country">
                        <value>China</value>
                    </Data>
                    <Data name="country_code">
                        <value>cn</value>
                    </Data>
                    <Data name="village">
                        <value>Shek Po Village</value>
                    </Data>
                    <Data name="ISO3166-2-lvl3">
                        <value>CN-HK</value>
                    </Data>
                    <Data name="suburb">
                        <value>Hung Shui Kiu</value>
                    </Data>
                    <Data name="road">
                        <value>Tin Shui Wai West Interchange</value>
                    </Data>
                    <Data name="state">
                        <value>Hong Kong</value>
                    </Data>
                </ExtendedData>
            </Placemark>
            <Placemark>
                <address>Tsing Kwai Highway, Tsing Yi Industrial Area, Ha Kwai Chung, Kwai Chung, Kwai Tsing District, New Territories, Hong Kong, China</address>
                <Point>
                    <coordinates>114.1183828810,22.3520572676</coordinates>
                </Point>
                <ExtendedData>
                    <Data name="region">
                        <value>New Territories</value>
                    </Data>
                    <Data name="neighbourhood">
                        <value>Tsing Yi Industrial Area</value>
                    </Data>
                    <Data name="county">
                        <value>Kwai Tsing District</value>
                    </Data>
                    <Data name="country">
                        <value>China</value>
                    </Data>
                    <Data name="country_code">
                        <value>cn</value>
                    </Data>
                    <Data name="ISO3166-2-lvl3">
                        <value>CN-HK</value>
                    </Data>
                    <Data name="town">
                        <value>Kwai Chung</value>
                    </Data>
                    <Data name="suburb">
                        <value>Ha Kwai Chung</value>
                    </Data>
                    <Data name="road">
                        <value>Tsing Kwai Highway</value>
                    </Data>
                    <Data name="state">
                        <value>Hong Kong</value>
                    </Data>
                </ExtendedData>
            </Placemark>
            <Placemark>
                <Point>
                    <coordinates>114.1716716347,22.2982754246</coordinates>
                </Point>
            </Placemark>
            <Placemark>
                <Point>
                    <coordinates>114.1915066872,22.3037500617</coordinates>
                </Point>
            </Placemark>
            <Placemark>
                <Point>
                    <coordinates>114.1886032658,22.3009908193</coordinates>
                </Point>
                <ExtendedData>
                    <Data name="routingVisited">
                        <value>false</value>
                    </Data>
                </ExtendedData>
            </Placemark>
            <Placemark>
                <Point>
                    <coordinates>114.1848766353,22.3037918369</coordinates>
                </Point>
            </Placemark>
            <Placemark>
                <Point>
                    <coordinates>114.1872544143,22.3040785754</coordinates>
                </Point>
            </Placemark>
            <Placemark>
                <Point>
                    <coordinates>114.1819530740,22.3018795217</coordinates>
                </Point>
            </Placemark>
            <Placemark>
                <Point>
                    <coordinates>114.1760916181,22.2993806218</coordinates>
                </Point>
            </Placemark>
            <Placemark>
                <Point>
                    <coordinates>114.1672129242,22.3008711821</coordinates>
                </Point>
            </Placemark>
            <Placemark>
                <Point>
                    <coordinates>114.1635805963,22.3031799228</coordinates>
                </Point>
                <ExtendedData>
                    <Data name="routingVisited">
                        <value>false</value>
                    </Data>
                </ExtendedData>
            </Placemark>
            <Placemark>
                <address>Cheung Tsing Highway, Sai Tso Wan, Tsing Yi West, Tsing Yi, Kwai Tsing District, New Territories, Hong Kong, China</address>
                <Point>
                    <coordinates>114.0945729509,22.3446373737</coordinates>
                </Point>
                <ExtendedData>
                    <Data name="region">
                        <value>New Territories</value>
                    </Data>
                    <Data name="neighbourhood">
                        <value>Sai Tso Wan</value>
                    </Data>
                    <Data name="county">
                        <value>Kwai Tsing District</value>
                    </Data>
                    <Data name="country">
                        <value>China</value>
                    </Data>
                    <Data name="country_code">
                        <value>cn</value>
                    </Data>
                    <Data name="ISO3166-2-lvl3">
                        <value>CN-HK</value>
                    </Data>
                    <Data name="town">
                        <value>Tsing Yi</value>
                    </Data>
                    <Data name="suburb">
                        <value>Tsing Yi West</value>
                    </Data>
                    <Data name="road">
                        <value>Cheung Tsing Highway</value>
                    </Data>
                    <Data name="state">
                        <value>Hong Kong</value>
                    </Data>
                </ExtendedData>
            </Placemark>
            <Placemark>
                <address>Tin Shui Wai West Interchange, Hung Uk Tsuen, Tong Yan San Tsuen, Yuen Long District, New Territories, Hong Kong, China</address>
                <Point>
                    <coordinates>114.0029286503,22.4341330178</coordinates>
                </Point>
                <ExtendedData>
                    <Data name="region">
                        <value>New Territories</value>
                    </Data>
                    <Data name="county">
                        <value>Yuen Long District</value>
                    </Data>
                    <Data name="country">
                        <value>China</value>
                    </Data>
                    <Data name="country_code">
                        <value>cn</value>
                    </Data>
                    <Data name="village">
                        <value>Tong Yan San Tsuen</value>
                    </Data>
                    <Data name="hamlet">
                        <value>Hung Uk Tsuen</value>
                    </Data>
                    <Data name="ISO3166-2-lvl3">
                        <value>CN-HK</value>
                    </Data>
                    <Data name="road">
                        <value>Tin Shui Wai West Interchange</value>
                    </Data>
                    <Data name="state">
                        <value>Hong Kong</value>
                    </Data>
                </ExtendedData>
            </Placemark>
            <Placemark>
                <address>Hung Hei House, Hung Shui Kiu Tin Sam Road, Tin Sum, Hung Shui Kiu, Shek Po Village, Yuen Long District, New Territories, Hong Kong, China</address>
                <Point>
                    <coordinates>113.9984357228,22.4367146621</coordinates>
                </Point>
                <ExtendedData>
                    <Data name="building">
                        <value>Hung Hei House</value>
                    </Data>
                    <Data name="region">
                        <value>New Territories</value>
                    </Data>
                    <Data name="county">
                        <value>Yuen Long District</value>
                    </Data>
                    <Data name="quarter">
                        <value>Tin Sum</value>
                    </Data>
                    <Data name="country">
                        <value>China</value>
                    </Data>
                    <Data name="country_code">
                        <value>cn</value>
                    </Data>
                    <Data name="village">
                        <value>Shek Po Village</value>
                    </Data>
                    <Data name="ISO3166-2-lvl3">
                        <value>CN-HK</value>
                    </Data>
                    <Data name="suburb">
                        <value>Hung Shui Kiu</value>
                    </Data>
                    <Data name="road">
                        <value>Hung Shui Kiu Tin Sam Road</value>
                    </Data>
                    <Data name="state">
                        <value>Hong Kong</value>
                    </Data>
                </ExtendedData>
            </Placemark>
            <Placemark>
                <Point>
                    <coordinates>113.9747698604,22.3963759263</coordinates>
                </Point>
            </Placemark>
            <Placemark>
                <Point>
                    <coordinates>113.9750808700,22.3920183520</coordinates>
                </Point>
            </Placemark>
            <Placemark>
                <address>和喜樓, Hing Kwai Street, Leung Tin, Po Tong Ha, Kei Lun Wai, Tuen Mun District, New Territories, Hong Kong, China</address>
                <Point>
                    <coordinates>113.9737657838,22.3946547394</coordinates>
                </Point>
                <ExtendedData>
                    <Data name="building">
                        <value>和喜樓</value>
                    </Data>
                    <Data name="region">
                        <value>New Territories</value>
                    </Data>
                    <Data name="county">
                        <value>Tuen Mun District</value>
                    </Data>
                    <Data name="quarter">
                        <value>Leung Tin</value>
                    </Data>
                    <Data name="country">
                        <value>China</value>
                    </Data>
                    <Data name="country_code">
                        <value>cn</value>
                    </Data>
                    <Data name="village">
                        <value>Kei Lun Wai</value>
                    </Data>
                    <Data name="hamlet">
                        <value>Po Tong Ha</value>
                    </Data>
                    <Data name="ISO3166-2-lvl3">
                        <value>CN-HK</value>
                    </Data>
                    <Data name="routingVisited">
                        <value>false</value>
                    </Data>
                    <Data name="road">
                        <value>Hing Kwai Street</value>
                    </Data>
                    <Data name="state">
                        <value>Hong Kong</value>
                    </Data>
                </ExtendedData>
            </Placemark>
        </Folder>
        <Document>
            <name>89.7 km; 01:38 h (OSRM)</name>
            <Placemark>
                <name>Route</name>
                <LineString>
                    <coordinates>113.9733540000,22.3947160000 113.9734660000,22.3951600000 113.9735170000,22.3953530000 113.9735650000,22.3955250000 113.9736820000,22.3959800000 113.9737000000,22.3960520000 113.9737580000,22.3960400000 113.9740370000,22.3959800000 113.9741130000,22.3959640000 113.9743570000,22.3959110000 113.9743900000,22.3959030000 113.9744390000,22.3958940000 113.9745070000,22.3958810000 113.9745350000,22.3959880000 113.9745420000,22.3960120000 113.9746620000,22.3964230000 113.9747560000,22.3967560000 113.9747710000,22.3968150000 113.9747890000,22.3968790000 113.9750080000,22.3976950000 113.9750540000,22.3978520000 113.9750740000,22.3979370000 113.9750830000,22.3979760000 113.9751170000,22.3980200000 113.9751450000,22.3981150000 113.9751980000,22.3983320000 113.9753430000,22.3989060000 113.9753750000,22.3990870000 113.9753890000,22.3992410000 113.9753890000,22.3992490000 113.9753950000,22.3994710000 113.9754110000,22.3995960000 113.9754520000,22.3997640000 113.9755890000,22.3999810000 113.9758720000,22.4003880000 113.9759820000,22.4005310000 113.9761580000,22.4007540000 113.9763010000,22.4008640000 113.9763850000,22.4009270000 113.9764820000,22.4009570000 113.9765800000,22.4009740000 113.9767510000,22.4009810000 113.9769170000,22.4009650000 113.9778920000,22.4007730000 113.9780020000,22.4007550000 113.9783100000,22.4013650000 113.9783500000,22.4014390000 113.9786970000,22.4020840000 113.9790750000,22.4028580000 113.9791140000,22.4029330000 113.9791150000,22.4029360000 113.9792800000,22.4032670000 113.9793180000,22.4033570000 113.9793500000,22.4034390000 113.9793830000,22.4035320000 113.9794110000,22.4036170000 113.9794290000,22.4036780000 113.9794410000,22.4037340000 113.9794560000,22.4038220000 113.9794630000,22.4038760000 113.9794660000,22.4039320000 113.9794630000,22.4040000000 113.9794550000,22.4040700000 113.9794390000,22.4041600000 113.9794220000,22.4042270000 113.9794000000,22.4042940000 113.9793650000,22.4043740000 113.9793250000,22.4044530000 113.9793130000,22.4044740000 113.9792810000,22.4045290000 113.9792340000,22.4046030000 113.9791730000,22.4046870000 113.9790430000,22.4048570000 113.9787890000,22.4052410000 113.9786740000,22.4054430000 113.9785770000,22.4056570000 113.9785420000,22.4057770000 113.9785220000,22.4059080000 113.9785180000,22.4061310000 113.9785280000,22.4063250000 113.9785510000,22.4064820000 113.9786860000,22.4072140000 113.9787370000,22.4074620000 113.9787600000,22.4075820000 113.9787640000,22.4076100000 113.9788300000,22.4078330000 113.9788470000,22.4078880000 113.9788760000,22.4079480000 113.9789090000,22.4080310000 113.9789380000,22.4080880000 113.9790150000,22.4081940000 113.9790620000,22.4082440000 113.9790900000,22.4082720000 113.9791990000,22.4083650000 113.9792480000,22.4084050000 113.9792820000,22.4084340000 113.9793520000,22.4084750000 113.9793990000,22.4085030000 113.9796100000,22.4086070000 113.9796350000,22.4086170000 113.9796680000,22.4086280000 113.9797740000,22.4086530000 113.9798810000,22.4086800000 113.9800050000,22.4086990000 113.9801150000,22.4087170000 113.9802110000,22.4087190000 113.9803900000,22.4087230000 113.9807070000,22.4087310000 113.9808670000,22.4087400000 113.9810040000,22.4087550000 113.9811260000,22.4087770000 113.9812730000,22.4088220000 113.9814150000,22.4088730000 113.9815620000,22.4089480000 113.9816910000,22.4090320000 113.9818620000,22.4091850000 113.9819990000,22.4093470000 113.9820910000,22.4094800000 113.9821470000,22.4096040000 113.9822010000,22.4097230000 113.9822300000,22.4098290000 113.9822500000,22.4099350000 113.9822730000,22.4101510000 113.9822800000,22.4103970000 113.9822810000,22.4106250000 113.9822830000,22.4109750000 113.9822850000,22.4110280000 113.9822840000,22.4117210000 113.9822800000,22.4119080000 113.9822800000,22.4129600000 113.9822860000,22.4133440000 113.9822940000,22.4134320000 113.9823220000,22.4137360000 113.9823480000,22.4139900000 113.9823930000,22.4144030000 113.9823960000,22.4144450000 113.9824020000,22.4145420000 113.9823990000,22.4146050000 113.9823710000,22.4148610000 113.9823290000,22.4150070000 113.9822800000,22.4151120000 113.9822270000,22.4152010000 113.9821550000,22.4152940000 113.9821100000,22.4153440000 113.9818890000,22.4155540000 113.9816560000,22.4158000000 113.9816030000,22.4158580000 113.9815100000,22.4159380000 113.9814940000,22.4159580000 113.9814810000,22.4159730000 113.9814400000,22.4160210000 113.9813770000,22.4161090000 113.9813410000,22.4161910000 113.9813210000,22.4162680000 113.9813040000,22.4163380000 113.9812990000,22.4164110000 113.9812990000,22.4164890000 113.9813030000,22.4166680000 113.9813310000,22.4167150000 113.9817070000,22.4174190000 113.9817890000,22.4175730000 113.9818980000,22.4177700000 113.9821380000,22.4182070000 113.9822570000,22.4184220000 113.9822880000,22.4184750000 113.9823680000,22.4186270000 113.9826190000,22.4191010000 113.9827310000,22.4193020000 113.9827500000,22.4193370000 113.9829060000,22.4196030000 113.9829480000,22.4196680000 113.9831160000,22.4199070000 113.9833130000,22.4201480000 113.9834170000,22.4202680000 113.9835000000,22.4203780000 113.9835960000,22.4204830000 113.9837760000,22.4206810000 113.9840050000,22.4209230000 113.9840770000,22.4209890000 113.9841410000,22.4210540000 113.9841990000,22.4211080000 113.9842360000,22.4211480000 113.9842750000,22.4212040000 113.9844100000,22.4213380000 113.9845750000,22.4215040000 113.9847020000,22.4216310000 113.9847510000,22.4216890000 113.9847630000,22.4217010000 113.9848460000,22.4217930000 113.9848730000,22.4218230000 113.9850750000,22.4220450000 113.9851630000,22.4221420000 113.9854630000,22.4224590000 113.9856010000,22.4226110000 113.9865740000,22.4236520000 113.9870070000,22.4241050000 113.9872560000,22.4243650000 113.9872780000,22.4243880000 113.9873350000,22.4244270000 113.9873660000,22.4244600000 113.9873790000,22.4244960000 113.9874130000,22.4245330000 113.9876860000,22.4248210000 113.9878370000,22.4249610000 113.9886720000,22.4258590000 113.9887220000,22.4259120000 113.9888610000,22.4260620000 113.9890960000,22.4263130000 113.9891110000,22.4263530000 113.9891540000,22.4263860000 113.9891870000,22.4264250000 113.9892180000,22.4264730000 113.9892970000,22.4265550000 113.9895090000,22.4267660000 113.9896870000,22.4269510000 113.9898780000,22.4271560000 113.9899140000,22.4271940000 113.9900010000,22.4272920000 113.9900380000,22.4273290000 113.9900830000,22.4273790000 113.9901830000,22.4274890000 113.9902430000,22.4275590000 113.9903680000,22.4276640000 113.9904030000,22.4277000000 113.9904580000,22.4277760000 113.9906450000,22.4279810000 113.9909700000,22.4283250000 113.9911290000,22.4284900000 113.9912660000,22.4286330000 113.9913280000,22.4286980000 113.9913590000,22.4287300000 113.9913800000,22.4287570000 113.9914930000,22.4288380000 113.9915100000,22.4288550000 113.9915340000,22.4288770000 113.9915700000,22.4289370000 113.9916600000,22.4290220000 113.9918020000,22.4291590000 113.9918840000,22.4292410000 113.9922720000,22.4295580000 113.9924920000,22.4297380000 113.9925920000,22.4298100000 113.9931310000,22.4302460000 113.9932410000,22.4303450000 113.9949260000,22.4317030000 113.9951820000,22.4318890000 113.9954720000,22.4321020000 113.9955810000,22.4321810000 113.9962050000,22.4326080000 113.9962540000,22.4326440000 113.9963160000,22.4326880000 113.9962530000,22.4327700000 113.9962210000,22.4328100000 113.9962070000,22.4328300000 113.9961930000,22.4328450000 113.9961580000,22.4328910000 113.9960430000,22.4330260000 113.9958550000,22.4333340000 113.9958430000,22.4334700000 113.9956910000,22.4339310000 113.9956280000,22.4341240000 113.9955670000,22.4343430000 113.9955170000,22.4344590000 113.9954360000,22.4345990000 113.9953250000,22.4347820000 113.9953110000,22.4348120000 113.9952880000,22.4348750000 113.9954160000,22.4349140000 113.9957670000,22.4350040000 113.9958320000,22.4350250000 113.9965110000,22.4352510000 113.9967960000,22.4353620000 113.9970260000,22.4354600000 113.9973500000,22.4356420000 113.9973680000,22.4356520000 113.9975320000,22.4357650000 113.9977090000,22.4358810000 113.9977260000,22.4358920000 113.9982570000,22.4362260000 113.9983360000,22.4362770000 113.9983740000,22.4363010000 113.9986190000,22.4364590000 113.9986460000,22.4364760000 113.9988330000,22.4365970000 113.9989500000,22.4366720000 113.9989730000,22.4366860000 113.9992160000,22.4368400000 113.9993240000,22.4369080000 113.9993440000,22.4369250000 113.9991080000,22.4373400000 113.9990440000,22.4374840000 113.9990160000,22.4375460000 113.9988350000,22.4379450000 113.9986030000,22.4384590000 113.9985220000,22.4387100000 113.9984420000,22.4389980000 113.9983940000,22.4391700000 113.9983860000,22.4392080000 113.9983700000,22.4392830000 113.9983510000,22.4393740000 113.9985720000,22.4394040000 113.9989170000,22.4394450000 113.9990630000,22.4394620000 113.9990770000,22.4393680000 113.9990890000,22.4392860000 113.9991230000,22.4389360000 113.9991070000,22.4386110000 113.9991360000,22.4384560000 113.9992170000,22.4380320000 113.9993710000,22.4375440000 113.9994210000,22.4373660000 113.9994470000,22.4371950000 113.9997030000,22.4368030000 113.9998970000,22.4365120000 114.0001360000,22.4362010000 114.0003600000,22.4359290000 114.0004500000,22.4358330000 114.0009420000,22.4353370000 114.0012670000,22.4350820000 114.0014780000,22.4349390000 114.0016560000,22.4348220000 114.0018530000,22.4347060000 114.0020680000,22.4346110000 114.0022200000,22.4345490000 114.0023170000,22.4345130000 114.0025030000,22.4344470000 114.0026010000,22.4344160000 114.0026940000,22.4343940000 114.0027850000,22.4343790000 114.0028610000,22.4343710000 114.0029400000,22.4343670000 114.0030300000,22.4343690000 114.0031440000,22.4343820000 114.0032370000,22.4344010000 114.0033000000,22.4344140000 114.0033680000,22.4344390000 114.0034440000,22.4344710000 114.0035290000,22.4345140000 114.0036100000,22.4345680000 114.0037210000,22.4346540000 114.0038090000,22.4347310000 114.0039460000,22.4348690000 114.0040290000,22.4349530000 114.0041350000,22.4350540000 114.0042890000,22.4351940000 114.0046090000,22.4354510000 114.0047130000,22.4355240000 114.0048170000,22.4355860000 114.0049020000,22.4356310000 114.0053800000,22.4358650000 114.0056540000,22.4359990000 114.0059080000,22.4361210000 114.0061480000,22.4362270000 114.0065100000,22.4363710000 114.0068130000,22.4364940000 114.0072180000,22.4366470000 114.0074660000,22.4367340000 114.0077950000,22.4368540000 114.0081200000,22.4369610000 114.0085380000,22.4370830000 114.0088760000,22.4371860000 114.0092970000,22.4373030000 114.0100560000,22.4374960000 114.0111950000,22.4377320000 114.0116250000,22.4378110000 114.0121570000,22.4379040000 114.0124040000,22.4379410000 114.0125340000,22.4379570000 114.0126570000,22.4379680000 114.0128380000,22.4379820000 114.0131330000,22.4380000000 114.0132580000,22.4380050000 114.0136380000,22.4379980000 114.0138930000,22.4379850000 114.0140050000,22.4379790000 114.0141920000,22.4379630000 114.0144960000,22.4379240000 114.0147590000,22.4378800000 114.0149400000,22.4378440000 114.0151910000,22.4377850000 114.0153620000,22.4377390000 114.0155670000,22.4376820000 114.0157370000,22.4376280000 114.0158770000,22.4375790000 114.0160750000,22.4375070000 114.0162810000,22.4374220000 114.0164930000,22.4373330000 114.0166630000,22.4372550000 114.0172760000,22.4369520000 114.0178780000,22.4366500000 114.0181980000,22.4364950000 114.0185110000,22.4363550000 114.0188240000,22.4362200000 114.0190380000,22.4361410000 114.0193620000,22.4360330000 114.0197360000,22.4359250000 114.0200340000,22.4358610000 114.0208130000,22.4356920000 114.0211510000,22.4356160000 114.0216320000,22.4355150000 114.0222080000,22.4354000000 114.0229570000,22.4352660000 114.0239130000,22.4351010000 114.0246560000,22.4349680000 114.0250720000,22.4348960000 114.0259200000,22.4347440000 114.0264410000,22.4346530000 114.0283270000,22.4343380000 114.0293680000,22.4341510000 114.0297040000,22.4341020000 114.0299430000,22.4340770000 114.0301360000,22.4340600000 114.0303070000,22.4340490000 114.0305310000,22.4340420000 114.0307070000,22.4340430000 114.0308390000,22.4340460000 114.0310150000,22.4340570000 114.0311970000,22.4340680000 114.0313580000,22.4340840000 114.0315300000,22.4341080000 114.0317040000,22.4341360000 114.0318700000,22.4341660000 114.0320440000,22.4342020000 114.0322150000,22.4342420000 114.0323840000,22.4342840000 114.0325490000,22.4343330000 114.0328150000,22.4344240000 114.0329950000,22.4344910000 114.0331500000,22.4345530000 114.0332960000,22.4346190000 114.0334990000,22.4347170000 114.0336480000,22.4347910000 114.0338110000,22.4348770000 114.0339600000,22.4349620000 114.0340970000,22.4350490000 114.0342480000,22.4351470000 114.0343800000,22.4352370000 114.0345200000,22.4353410000 114.0346460000,22.4354360000 114.0348200000,22.4355760000 114.0350030000,22.4357270000 114.0377890000,22.4381000000 114.0379620000,22.4382610000 114.0381740000,22.4384820000 114.0383500000,22.4386890000 114.0384850000,22.4388620000 114.0386170000,22.4390550000 114.0388620000,22.4394730000 114.0390870000,22.4399930000 114.0391790000,22.4402710000 114.0392510000,22.4405540000 114.0393110000,22.4409030000 114.0393360000,22.4411430000 114.0393470000,22.4413790000 114.0393540000,22.4418680000 114.0393640000,22.4431860000 114.0393820000,22.4445210000 114.0394090000,22.4448890000 114.0394430000,22.4451450000 114.0394940000,22.4454010000 114.0395410000,22.4455810000 114.0396060000,22.4457940000 114.0396800000,22.4459960000 114.0398340000,22.4463180000 114.0399970000,22.4466170000 114.0402970000,22.4471380000 114.0404570000,22.4473430000 114.0406150000,22.4475120000 114.0407840000,22.4476730000 114.0409370000,22.4478070000 114.0411900000,22.4480140000 114.0414820000,22.4482210000 114.0417720000,22.4484040000 114.0420700000,22.4485560000 114.0423790000,22.4487250000 114.0426740000,22.4488440000 114.0431190000,22.4489980000 114.0436760000,22.4491300000 114.0439290000,22.4491900000 114.0445460000,22.4493100000 114.0450170000,22.4493850000 114.0451870000,22.4494050000 114.0454280000,22.4494160000 114.0456660000,22.4494150000 114.0459200000,22.4493970000 114.0461390000,22.4493670000 114.0463190000,22.4493290000 114.0465150000,22.4492800000 114.0468650000,22.4491630000 114.0472510000,22.4490090000 114.0476220000,22.4488420000 114.0479130000,22.4486930000 114.0481580000,22.4485590000 114.0485370000,22.4483270000 114.0487380000,22.4481910000 114.0489770000,22.4480110000 114.0492460000,22.4477790000 114.0495220000,22.4475150000 114.0497300000,22.4472910000 114.0498060000,22.4472000000 114.0499180000,22.4470490000 114.0500100000,22.4469070000 114.0501100000,22.4467360000 114.0501950000,22.4465650000 114.0502760000,22.4463770000 114.0503430000,22.4461870000 114.0503940000,22.4460100000 114.0504620000,22.4457210000 114.0506000000,22.4449900000 114.0506640000,22.4446850000 114.0507310000,22.4444470000 114.0507810000,22.4442940000 114.0508480000,22.4441090000 114.0509310000,22.4439180000 114.0510550000,22.4436670000 114.0511570000,22.4434860000 114.0512970000,22.4432670000 114.0515650000,22.4429060000 114.0518320000,22.4425660000 114.0523300000,22.4420110000 114.0525380000,22.4417980000 114.0529800000,22.4414190000 114.0552440000,22.4397030000 114.0566270000,22.4387340000 114.0574420000,22.4381680000 114.0580760000,22.4376940000 114.0582660000,22.4375380000 114.0583270000,22.4374890000 114.0586750000,22.4372040000 114.0591920000,22.4367400000 114.0596270000,22.4363460000 114.0597900000,22.4361900000 114.0601230000,22.4358700000 114.0607360000,22.4352330000 114.0611550000,22.4347070000 114.0614400000,22.4343080000 114.0617550000,22.4338640000 114.0619680000,22.4335740000 114.0622730000,22.4331580000 114.0624830000,22.4328010000 114.0626900000,22.4324490000 114.0628410000,22.4321190000 114.0630580000,22.4316410000 114.0631590000,22.4313610000 114.0633420000,22.4308540000 114.0634380000,22.4305540000 114.0635560000,22.4301880000 114.0636940000,22.4296680000 114.0638320000,22.4291520000 114.0639430000,22.4286230000 114.0640530000,22.4281040000 114.0641090000,22.4277120000 114.0641500000,22.4274210000 114.0642000000,22.4268370000 114.0642720000,22.4259930000 114.0643150000,22.4243600000 114.0643190000,22.4232760000 114.0643020000,22.4220230000 114.0642770000,22.4215790000 114.0642570000,22.4213660000 114.0641580000,22.4204600000 114.0640030000,22.4189740000 114.0639950000,22.4189290000 114.0638760000,22.4183200000 114.0635200000,22.4166570000 114.0634500000,22.4161790000 114.0633480000,22.4155790000 114.0632220000,22.4150740000 114.0630650000,22.4145840000 114.0628950000,22.4141420000 114.0626700000,22.4136450000 114.0623410000,22.4130610000 114.0610200000,22.4108000000 114.0609240000,22.4106400000 114.0608370000,22.4104800000 114.0607560000,22.4103200000 114.0606700000,22.4101500000 114.0605900000,22.4099800000 114.0605150000,22.4098100000 114.0604420000,22.4096400000 114.0603740000,22.4094700000 114.0603150000,22.4093000000 114.0602650000,22.4091500000 114.0602190000,22.4090000000 114.0601790000,22.4088600000 114.0601310000,22.4086900000 114.0600910000,22.4085300000 114.0600550000,22.4083790000 114.0600430000,22.4083300000 114.0600010000,22.4081530000 114.0599670000,22.4080000000 114.0599510000,22.4079190000 114.0599350000,22.4078400000 114.0599080000,22.4076800000 114.0598880000,22.4075200000 114.0598690000,22.4073600000 114.0598510000,22.4072000000 114.0598350000,22.4070400000 114.0598260000,22.4068800000 114.0598220000,22.4067200000 114.0598200000,22.4065600000 114.0598200000,22.4064000000 114.0598220000,22.4062400000 114.0598260000,22.4060800000 114.0598320000,22.4059200000 114.0598410000,22.4057600000 114.0598540000,22.4056000000 114.0598690000,22.4054400000 114.0598910000,22.4052500000 114.0623570000,22.3893650000 114.0626980000,22.3871780000 114.0637180000,22.3811750000 114.0637550000,22.3810000000 114.0637950000,22.3808300000 114.0638400000,22.3806600000 114.0638870000,22.3804900000 114.0639380000,22.3803100000 114.0639920000,22.3801310000 114.0640500000,22.3799600000 114.0641120000,22.3797900000 114.0641800000,22.3796200000 114.0642480000,22.3794600000 114.0643150000,22.3793030000 114.0643830000,22.3791500000 114.0644610000,22.3789900000 114.0645400000,22.3788400000 114.0646200000,22.3786900000 114.0647230000,22.3785000000 114.0648310000,22.3783200000 114.0649400000,22.3781500000 114.0650520000,22.3779800000 114.0651700000,22.3778100000 114.0652900000,22.3776450000 114.0654130000,22.3774800000 114.0655400000,22.3773200000 114.0656660000,22.3771710000 114.0658010000,22.3770150000 114.0659500000,22.3768540000 114.0661020000,22.3766950000 114.0662500000,22.3765450000 114.0664000000,22.3764000000 114.0665500000,22.3762610000 114.0667140000,22.3761200000 114.0668830000,22.3759780000 114.0670380000,22.3758630000 114.0672200000,22.3757280000 114.0673400000,22.3756430000 114.0673840000,22.3756120000 114.0674310000,22.3755850000 114.0676090000,22.3754820000 114.0682370000,22.3750400000 114.0688590000,22.3745820000 114.0690860000,22.3744300000 114.0692620000,22.3743040000 114.0701770000,22.3737060000 114.0713690000,22.3729280000 114.0734910000,22.3716070000 114.0753200000,22.3704760000 114.0755740000,22.3703150000 114.0758210000,22.3701600000 114.0760750000,22.3699840000 114.0762980000,22.3698280000 114.0765050000,22.3696610000 114.0766770000,22.3695060000 114.0768530000,22.3693330000 114.0770350000,22.3691380000 114.0772200000,22.3689270000 114.0773820000,22.3687170000 114.0775600000,22.3684230000 114.0779680000,22.3677150000 114.0783000000,22.3670880000 114.0785960000,22.3665690000 114.0819460000,22.3602400000 114.0825040000,22.3591140000 114.0825780000,22.3589550000 114.0827290000,22.3586440000 114.0830530000,22.3580330000 114.0838930000,22.3564690000 114.0842340000,22.3558540000 114.0845770000,22.3553400000 114.0848100000,22.3550170000 114.0849950000,22.3547760000 114.0850380000,22.3547210000 114.0852940000,22.3543780000 114.0853390000,22.3543180000 114.0853880000,22.3542500000 114.0856200000,22.3538980000 114.0859400000,22.3533550000 114.0860880000,22.3530600000 114.0861420000,22.3529420000 114.0861880000,22.3528400000 114.0863450000,22.3524750000 114.0864690000,22.3521870000 114.0865310000,22.3520200000 114.0865960000,22.3518460000 114.0868600000,22.3510520000 114.0869210000,22.3508770000 114.0869360000,22.3508280000 114.0869950000,22.3506510000 114.0870280000,22.3505540000 114.0871700000,22.3501460000 114.0871840000,22.3501050000 114.0873720000,22.3493900000 114.0873850000,22.3493210000 114.0874730000,22.3488690000 114.0874870000,22.3487930000 114.0875280000,22.3486700000 114.0876060000,22.3484580000 114.0876470000,22.3483500000 114.0877000000,22.3482120000 114.0878300000,22.3479380000 114.0879940000,22.3476390000 114.0881250000,22.3474620000 114.0882400000,22.3473590000 114.0883470000,22.3472640000 114.0885020000,22.3471250000 114.0885890000,22.3470470000 114.0891520000,22.3465960000 114.0892520000,22.3465380000 114.0893170000,22.3465010000 114.0894580000,22.3464220000 114.0895440000,22.3463710000 114.0896600000,22.3463030000 114.0898570000,22.3462060000 114.0904080000,22.3459230000 114.0909510000,22.3456540000 114.0913290000,22.3454850000 114.0917140000,22.3453370000 114.0921490000,22.3451970000 114.0926200000,22.3450830000 114.0931040000,22.3449910000 114.0933720000,22.3449670000 114.0939110000,22.3449370000 114.0941740000,22.3449370000 114.0952440000,22.3449500000 114.0957200000,22.3449460000 114.1004000000,22.3449930000 114.1010700000,22.3450180000 114.1014000000,22.3450400000 114.1017300000,22.3450680000 114.1020600000,22.3451030000 114.1023900000,22.3451480000 114.1030400000,22.3452500000 114.1033000000,22.3453000000 114.1035300000,22.3453500000 114.1037300000,22.3453950000 114.1038810000,22.3454310000 114.1040300000,22.3454700000 114.1042020000,22.3455180000 114.1043800000,22.3455700000 114.1046900000,22.3456680000 114.1049680000,22.3457620000 114.1051600000,22.3458300000 114.1053500000,22.3459000000 114.1056800000,22.3460270000 114.1060000000,22.3461600000 114.1066070000,22.3464420000 114.1092280000,22.3478020000 114.1094000000,22.3478900000 114.1094990000,22.3479370000 114.1095990000,22.3479820000 114.1098100000,22.3480700000 114.1100000000,22.3481490000 114.1103700000,22.3483000000 114.1107080000,22.3484390000 114.1112560000,22.3486440000 114.1114010000,22.3486980000 114.1121940000,22.3489990000 114.1150360000,22.3500680000 114.1152660000,22.3501660000 114.1155460000,22.3503070000 114.1158280000,22.3504570000 114.1160890000,22.3506120000 114.1163380000,22.3507780000 114.1166890000,22.3510310000 114.1170420000,22.3512980000 114.1174180000,22.3515670000 114.1177500000,22.3517760000 114.1179500000,22.3518880000 114.1181630000,22.3519900000 114.1183710000,22.3520800000 114.1185390000,22.3521520000 114.1187440000,22.3522270000 114.1189890000,22.3523010000 114.1192310000,22.3523660000 114.1195060000,22.3524250000 114.1197310000,22.3524620000 114.1199660000,22.3524930000 114.1203430000,22.3525160000 114.1207100000,22.3525140000 114.1211680000,22.3524720000 114.1214580000,22.3524280000 114.1216780000,22.3523900000 114.1217840000,22.3523650000 114.1219810000,22.3522960000 114.1220880000,22.3522570000 114.1221670000,22.3522230000 114.1226290000,22.3520200000 114.1228980000,22.3518990000 114.1232400000,22.3516400000 114.1234320000,22.3514950000 114.1237280000,22.3512190000 114.1239480000,22.3509410000 114.1241480000,22.3506360000 114.1243000000,22.3503120000 114.1244440000,22.3499020000 114.1244990000,22.3496360000 114.1245500000,22.3491470000 114.1245370000,22.3484120000 114.1245330000,22.3480180000 114.1245490000,22.3476170000 114.1246060000,22.3472410000 114.1246110000,22.3472070000 114.1246230000,22.3471590000 114.1246360000,22.3471070000 114.1246480000,22.3470550000 114.1246730000,22.3469520000 114.1247110000,22.3468180000 114.1247390000,22.3467160000 114.1247610000,22.3466370000 114.1247850000,22.3465690000 114.1248130000,22.3464960000 114.1248340000,22.3464420000 114.1249030000,22.3462770000 114.1250230000,22.3459890000 114.1251600000,22.3457430000 114.1252280000,22.3456200000 114.1254330000,22.3453410000 114.1256160000,22.3450810000 114.1258790000,22.3448160000 114.1260740000,22.3446340000 114.1262650000,22.3444920000 114.1264800000,22.3443300000 114.1269240000,22.3440300000 114.1270200000,22.3439790000 114.1271090000,22.3439320000 114.1271840000,22.3438920000 114.1272820000,22.3438400000 114.1276470000,22.3436840000 114.1278970000,22.3435720000 114.1281270000,22.3434690000 114.1283770000,22.3433460000 114.1286560000,22.3432050000 114.1289710000,22.3430190000 114.1291870000,22.3428750000 114.1294020000,22.3427320000 114.1295670000,22.3426040000 114.1297310000,22.3424680000 114.1298900000,22.3423150000 114.1301370000,22.3420730000 114.1303630000,22.3417950000 114.1304050000,22.3417270000 114.1304940000,22.3415860000 114.1306050000,22.3414080000 114.1306680000,22.3413080000 114.1307450000,22.3411650000 114.1307910000,22.3410810000 114.1308490000,22.3409740000 114.1310190000,22.3406270000 114.1311190000,22.3404140000 114.1311910000,22.3402610000 114.1314770000,22.3396800000 114.1315870000,22.3394560000 114.1316710000,22.3392680000 114.1316840000,22.3392360000 114.1318380000,22.3388760000 114.1319550000,22.3386180000 114.1320070000,22.3385160000 114.1320500000,22.3384340000 114.1322000000,22.3381400000 114.1324040000,22.3378060000 114.1326480000,22.3374240000 114.1328610000,22.3371230000 114.1331790000,22.3367280000 114.1333570000,22.3365230000 114.1336230000,22.3362450000 114.1337460000,22.3361190000 114.1343320000,22.3356020000 114.1345050000,22.3354580000 114.1346320000,22.3353540000 114.1349080000,22.3351570000 114.1351140000,22.3350120000 114.1353150000,22.3348710000 114.1354560000,22.3347710000 114.1355370000,22.3347190000 114.1357120000,22.3346060000 114.1360310000,22.3344250000 114.1363260000,22.3342690000 114.1366140000,22.3341310000 114.1369430000,22.3339880000 114.1373830000,22.3338160000 114.1378110000,22.3336600000 114.1395900000,22.3330030000 114.1403040000,22.3327090000 114.1403630000,22.3326870000 114.1413360000,22.3323200000 114.1417340000,22.3321710000 114.1428990000,22.3317170000 114.1429790000,22.3316830000 114.1439300000,22.3312840000 114.1442400000,22.3311570000 114.1453050000,22.3307780000 114.1455120000,22.3307010000 114.1464210000,22.3303510000 114.1464970000,22.3303220000 114.1472530000,22.3300310000 114.1479270000,22.3297640000 114.1486470000,22.3294550000 114.1490060000,22.3292880000 114.1491000000,22.3292440000 114.1496580000,22.3289770000 114.1500510000,22.3287860000 114.1505450000,22.3285160000 114.1512720000,22.3280540000 114.1515440000,22.3278800000 114.1518840000,22.3276670000 114.1522940000,22.3273890000 114.1528420000,22.3269960000 114.1532080000,22.3267150000 114.1536570000,22.3263590000 114.1540770000,22.3260070000 114.1544350000,22.3256710000 114.1547960000,22.3253360000 114.1551400000,22.3249960000 114.1554890000,22.3246310000 114.1556770000,22.3244380000 114.1558850000,22.3242120000 114.1561370000,22.3239280000 114.1564520000,22.3235770000 114.1567130000,22.3232530000 114.1569820000,22.3229170000 114.1573320000,22.3224540000 114.1576600000,22.3219910000 114.1579160000,22.3216230000 114.1581500000,22.3212580000 114.1584730000,22.3206990000 114.1588490000,22.3199810000 114.1591160000,22.3194600000 114.1593190000,22.3190490000 114.1595390000,22.3185730000 114.1597120000,22.3181800000 114.1603290000,22.3167100000 114.1605310000,22.3162300000 114.1608300000,22.3155880000 114.1610290000,22.3150940000 114.1612400000,22.3145370000 114.1613170000,22.3143800000 114.1614240000,22.3141290000 114.1615580000,22.3137960000 114.1616770000,22.3134710000 114.1620140000,22.3126870000 114.1620850000,22.3125300000 114.1622800000,22.3120960000 114.1624220000,22.3118840000 114.1625750000,22.3116450000 114.1627410000,22.3113690000 114.1627600000,22.3112920000 114.1628260000,22.3108880000 114.1629370000,22.3105970000 114.1630730000,22.3102810000 114.1631720000,22.3100970000 114.1632650000,22.3099790000 114.1633540000,22.3098870000 114.1634410000,22.3097720000 114.1635140000,22.3095890000 114.1636040000,22.3093920000 114.1637680000,22.3090770000 114.1639050000,22.3087370000 114.1639240000,22.3086800000 114.1639360000,22.3086180000 114.1639640000,22.3084030000 114.1640020000,22.3081090000 114.1640120000,22.3080290000 114.1640230000,22.3079290000 114.1640310000,22.3078010000 114.1640350000,22.3072670000 114.1640300000,22.3070590000 114.1640230000,22.3069490000 114.1640050000,22.3067670000 114.1639490000,22.3063890000 114.1639290000,22.3061840000 114.1639220000,22.3060880000 114.1639130000,22.3058610000 114.1639270000,22.3055750000 114.1639440000,22.3049530000 114.1639350000,22.3040500000 114.1639370000,22.3037790000 114.1639480000,22.3034470000 114.1639820000,22.3033070000 114.1640370000,22.3031800000 114.1640910000,22.3030560000 114.1641530000,22.3029640000 114.1642770000,22.3028660000 114.1643950000,22.3028050000 114.1645250000,22.3027550000 114.1648800000,22.3027770000 114.1652440000,22.3028070000 114.1655170000,22.3028310000 114.1659330000,22.3028620000 114.1664480000,22.3028990000 114.1667790000,22.3029270000 114.1670790000,22.3029540000 114.1671500000,22.3029630000 114.1672500000,22.3029720000 114.1673700000,22.3029830000 114.1678120000,22.3030170000 114.1679360000,22.3030230000 114.1680150000,22.3030250000 114.1681400000,22.3030330000 114.1681430000,22.3029510000 114.1681130000,22.3025490000 114.1681100000,22.3025220000 114.1680750000,22.3022550000 114.1680680000,22.3021860000 114.1680610000,22.3020110000 114.1680550000,22.3018880000 114.1680740000,22.3017180000 114.1680770000,22.3017020000 114.1681190000,22.3014780000 114.1682150000,22.3010760000 114.1682860000,22.3007810000 114.1683620000,22.3005540000 114.1684040000,22.3004650000 114.1684710000,22.3003510000 114.1685590000,22.3002120000 114.1685440000,22.3000600000 114.1685350000,22.3000010000 114.1685140000,22.2999060000 114.1685030000,22.2998440000 114.1684930000,22.2997900000 114.1684990000,22.2996530000 114.1685680000,22.2993120000 114.1688390000,22.2980020000 114.1689180000,22.2980050000 114.1697870000,22.2980450000 114.1704680000,22.2980770000 114.1710530000,22.2981110000 114.1715150000,22.2981360000 114.1716780000,22.2981430000 114.1720040000,22.2981560000 114.1720390000,22.2981570000 114.1720860000,22.2981590000 114.1721680000,22.2981630000 114.1722520000,22.2981650000 114.1726080000,22.2981750000 114.1726350000,22.2981790000 114.1736430000,22.2984750000 114.1736850000,22.2984820000 114.1737330000,22.2984710000 114.1738680000,22.2984170000 114.1739140000,22.2984080000 114.1739510000,22.2984120000 114.1739890000,22.2984150000 114.1752990000,22.2987790000 114.1753310000,22.2987850000 114.1753620000,22.2987890000 114.1753910000,22.2987890000 114.1755800000,22.2987660000 114.1756630000,22.2987540000 114.1757280000,22.2987450000 114.1758230000,22.2993390000 114.1758310000,22.2993840000 114.1758460000,22.2994780000 114.1758730000,22.2995770000 114.1759570000,22.2998780000 114.1759790000,22.2999560000 114.1759950000,22.3000120000 114.1760030000,22.3000400000 114.1760260000,22.3001230000 114.1760420000,22.3001800000 114.1761080000,22.3003070000 114.1761680000,22.3005240000 114.1762530000,22.3008340000 114.1762880000,22.3009720000 114.1763310000,22.3011000000 114.1763510000,22.3011570000 114.1764440000,22.3014360000 114.1764610000,22.3014870000 114.1764800000,22.3015460000 114.1765320000,22.3016970000 114.1766200000,22.3019540000 114.1768430000,22.3025400000 114.1770590000,22.3028470000 114.1771180000,22.3029390000 114.1771680000,22.3029600000 114.1771940000,22.3029690000 114.1772150000,22.3029750000 114.1772340000,22.3029800000 114.1772570000,22.3029820000 114.1774100000,22.3029110000 114.1775450000,22.3028610000 114.1780480000,22.3026490000 114.1782670000,22.3025620000 114.1783360000,22.3025380000 114.1785210000,22.3024470000 114.1786690000,22.3023870000 114.1788540000,22.3023280000 114.1790780000,22.3022770000 114.1791890000,22.3022560000 114.1792950000,22.3022400000 114.1806750000,22.3021140000 114.1808370000,22.3021050000 114.1808950000,22.3021040000 114.1809760000,22.3021120000 114.1810220000,22.3021430000 114.1810580000,22.3021790000 114.1810990000,22.3022830000 114.1811510000,22.3025380000 114.1812110000,22.3031350000 114.1812440000,22.3035020000 114.1812820000,22.3036560000 114.1813000000,22.3037120000 114.1813710000,22.3038440000 114.1814220000,22.3039420000 114.1815220000,22.3040680000 114.1815730000,22.3041190000 114.1816170000,22.3041410000 114.1817100000,22.3041590000 114.1818940000,22.3041440000 114.1820000000,22.3041690000 114.1820230000,22.3041890000 114.1820330000,22.3042090000 114.1820370000,22.3042310000 114.1820400000,22.3042600000 114.1820500000,22.3044200000 114.1820550000,22.3044600000 114.1820660000,22.3045110000 114.1820850000,22.3045800000 114.1821090000,22.3046500000 114.1821390000,22.3047200000 114.1821570000,22.3047500000 114.1821820000,22.3047900000 114.1822400000,22.3048590000 114.1823000000,22.3049100000 114.1823570000,22.3049520000 114.1823890000,22.3049720000 114.1824200000,22.3049890000 114.1824570000,22.3050060000 114.1824890000,22.3050190000 114.1825190000,22.3050300000 114.1826600000,22.3050690000 114.1827250000,22.3050900000 114.1827580000,22.3051020000 114.1827900000,22.3051200000 114.1832110000,22.3054990000 114.1833700000,22.3056400000 114.1834600000,22.3057370000 114.1835430000,22.3058380000 114.1836210000,22.3059430000 114.1836920000,22.3060520000 114.1837580000,22.3061660000 114.1838230000,22.3062810000 114.1838930000,22.3063760000 114.1841930000,22.3068120000 114.1842280000,22.3068570000 114.1842590000,22.3069000000 114.1843660000,22.3070370000 114.1844290000,22.3071240000 114.1845630000,22.3073060000 114.1846990000,22.3074920000 114.1849860000,22.3078950000 114.1850320000,22.3078660000 114.1850610000,22.3078500000 114.1854610000,22.3075960000 114.1856670000,22.3074670000 114.1859000000,22.3073220000 114.1861110000,22.3071890000 114.1864450000,22.3069800000 114.1864640000,22.3069680000 114.1865900000,22.3068890000 114.1867010000,22.3068200000 114.1871610000,22.3065230000 114.1874730000,22.3063240000 114.1875610000,22.3062680000 114.1876850000,22.3061880000 114.1879860000,22.3060000000 114.1880420000,22.3059650000 114.1881870000,22.3058740000 114.1882340000,22.3058450000 114.1885100000,22.3056720000 114.1885690000,22.3056350000 114.1886140000,22.3056070000 114.1887180000,22.3055420000 114.1888160000,22.3054800000 114.1889290000,22.3054100000 114.1890120000,22.3053570000 114.1900650000,22.3046990000 114.1902090000,22.3046090000 114.1903750000,22.3045080000 114.1904030000,22.3044900000 114.1907150000,22.3042890000 114.1909480000,22.3041390000 114.1911480000,22.3040090000 114.1915210000,22.3037680000 114.1919100000,22.3035170000 114.1919170000,22.3034670000 114.1919110000,22.3034190000 114.1919040000,22.3033980000 114.1918530000,22.3032920000 114.1917730000,22.3031330000 114.1916220000,22.3028330000 114.1915640000,22.3027260000 114.1915410000,22.3026990000 114.1915100000,22.3026720000 114.1914660000,22.3026520000 114.1914040000,22.3026350000 114.1913420000,22.3026330000 114.1912820000,22.3026460000 114.1904160000,22.3029900000 114.1903860000,22.3030020000 114.1902460000,22.3030580000 114.1900060000,22.3032060000 114.1899020000,22.3032710000 114.1897640000,22.3033560000 114.1894470000,22.3035560000 114.1893890000,22.3035930000 114.1892980000,22.3036520000 114.1892420000,22.3035730000 114.1892140000,22.3035330000 114.1890560000,22.3033170000 114.1888990000,22.3031090000 114.1888610000,22.3029670000 114.1888060000,22.3028750000 114.1887830000,22.3027760000 114.1887690000,22.3026870000 114.1887590000,22.3026310000 114.1887510000,22.3025850000 114.1887380000,22.3025380000 114.1887280000,22.3023660000 114.1887070000,22.3022820000 114.1886780000,22.3021940000 114.1886520000,22.3021280000 114.1886240000,22.3020630000 114.1886570000,22.3020520000 114.1887240000,22.3020090000 114.1887500000,22.3019930000 114.1889180000,22.3018810000 114.1891460000,22.3017280000 114.1891570000,22.3017170000 114.1891610000,22.3017020000 114.1891590000,22.3016860000 114.1891490000,22.3016740000 114.1891340000,22.3016660000 114.1891170000,22.3016660000 114.1891020000,22.3016720000 114.1889430000,22.3017780000 114.1888890000,22.3017930000 114.1887650000,22.3014100000 114.1887570000,22.3013870000 114.1887430000,22.3013670000 114.1887240000,22.3013500000 114.1887010000,22.3013370000 114.1885030000,22.3012600000 114.1885030000,22.3012600000 114.1884790000,22.3012560000 114.1884550000,22.3012600000 114.1884330000,22.3012710000 114.1884160000,22.3012870000 114.1884050000,22.3013080000 114.1884020000,22.3013310000 114.1884070000,22.3013530000 114.1884480000,22.3014150000 114.1884670000,22.3014320000 114.1884900000,22.3014430000 114.1886640000,22.3015110000 114.1886970000,22.3015270000 114.1887250000,22.3015490000 114.1887420000,22.3015700000 114.1887540000,22.3015920000 114.1887620000,22.3016170000 114.1888240000,22.3018110000 114.1887920000,22.3018200000 114.1886750000,22.3018980000 114.1886550000,22.3019110000 114.1886290000,22.3019290000 114.1885700000,22.3019680000 114.1885350000,22.3019160000 114.1885170000,22.3018890000 114.1884920000,22.3018540000 114.1884670000,22.3018250000 114.1884530000,22.3018090000 114.1883730000,22.3017320000 114.1883040000,22.3016830000 114.1881750000,22.3016010000 114.1880490000,22.3015350000 114.1880380000,22.3015300000 114.1873040000,22.3012180000 114.1871380000,22.3011520000 114.1869710000,22.3010900000 114.1868090000,22.3010350000 114.1867000000,22.3010010000 114.1866150000,22.3009710000 114.1865280000,22.3009590000 114.1865040000,22.3009580000 114.1863860000,22.3009580000 114.1861200000,22.3009570000 114.1857070000,22.3009610000 114.1855180000,22.3009640000 114.1854370000,22.3009580000 114.1852420000,22.3009520000 114.1849680000,22.3009280000 114.1847190000,22.3008860000 114.1845680000,22.3008560000 114.1845300000,22.3008020000 114.1844750000,22.3007620000 114.1844100000,22.3007400000 114.1843400000,22.3007390000 114.1842730000,22.3007580000 114.1842250000,22.3007880000 114.1841870000,22.3008290000 114.1841630000,22.3008770000 114.1841530000,22.3009360000 114.1841620000,22.3009960000 114.1841900000,22.3010500000 114.1842330000,22.3010940000 114.1842890000,22.3011240000 114.1843450000,22.3011370000 114.1844030000,22.3011360000 114.1844450000,22.3011260000 114.1844830000,22.3011090000 114.1846460000,22.3010800000 114.1847500000,22.3010750000 114.1849060000,22.3010900000 114.1850570000,22.3011220000 114.1851720000,22.3011630000 114.1853020000,22.3012300000 114.1854660000,22.3013430000 114.1854990000,22.3013740000 114.1855280000,22.3014010000 114.1855680000,22.3014880000 114.1855860000,22.3015430000 114.1855940000,22.3015960000 114.1856090000,22.3017590000 114.1856020000,22.3018320000 114.1855670000,22.3022200000 114.1855610000,22.3022650000 114.1855540000,22.3023110000 114.1855000000,22.3025450000 114.1854340000,22.3028020000 114.1853560000,22.3029920000 114.1852090000,22.3033340000 114.1849160000,22.3038130000 114.1848920000,22.3038520000 114.1848140000,22.3039850000 114.1847870000,22.3040300000 114.1848460000,22.3040580000 114.1851590000,22.3042050000 114.1853120000,22.3043080000 114.1854740000,22.3044170000 114.1856450000,22.3045810000 114.1857260000,22.3046760000 114.1858180000,22.3047880000 114.1858370000,22.3048100000 114.1859490000,22.3048920000 114.1859970000,22.3048540000 114.1860270000,22.3048280000 114.1861550000,22.3047180000 114.1862770000,22.3046450000 114.1863920000,22.3045480000 114.1870740000,22.3040200000 114.1871340000,22.3039790000 114.1872010000,22.3039500000 114.1872320000,22.3039460000 114.1872660000,22.3039410000 114.1873300000,22.3039390000 114.1874190000,22.3039540000 114.1874870000,22.3039800000 114.1875250000,22.3039950000 114.1876060000,22.3040640000 114.1877070000,22.3041450000 114.1880540000,22.3046240000 114.1884260000,22.3051380000 114.1886120000,22.3053950000 114.1886400000,22.3054340000 114.1887050000,22.3055230000 114.1887180000,22.3055420000 114.1886140000,22.3056070000 114.1885690000,22.3056350000 114.1885100000,22.3056720000 114.1882340000,22.3058450000 114.1881870000,22.3058740000 114.1880420000,22.3059650000 114.1879860000,22.3060000000 114.1876850000,22.3061880000 114.1875610000,22.3062680000 114.1874730000,22.3063240000 114.1871610000,22.3065230000 114.1867010000,22.3068200000 114.1865900000,22.3068890000 114.1864640000,22.3069680000 114.1864450000,22.3069800000 114.1861110000,22.3071890000 114.1859000000,22.3073220000 114.1856670000,22.3074670000 114.1854610000,22.3075960000 114.1850610000,22.3078500000 114.1849040000,22.3076360000 114.1847760000,22.3074600000 114.1847120000,22.3073140000 114.1843500000,22.3068020000 114.1839820000,22.3062970000 114.1838710000,22.3061440000 114.1838370000,22.3060900000 114.1838220000,22.3060660000 114.1837860000,22.3060070000 114.1837320000,22.3059260000 114.1835950000,22.3057760000 114.1834410000,22.3056240000 114.1832480000,22.3054540000 114.1828000000,22.3050900000 114.1827780000,22.3050740000 114.1827500000,22.3050600000 114.1826900000,22.3050400000 114.1825300000,22.3049980000 114.1824900000,22.3049800000 114.1824390000,22.3049500000 114.1823800000,22.3049110000 114.1823270000,22.3048710000 114.1822900000,22.3048400000 114.1822600000,22.3048100000 114.1822100000,22.3047500000 114.1821800000,22.3047100000 114.1821610000,22.3046810000 114.1821450000,22.3046500000 114.1821300000,22.3046140000 114.1821200000,22.3045820000 114.1821040000,22.3045100000 114.1820960000,22.3044650000 114.1820900000,22.3044190000 114.1820870000,22.3042580000 114.1820940000,22.3042150000 114.1821090000,22.3041800000 114.1821380000,22.3041520000 114.1822190000,22.3041010000 114.1824570000,22.3040900000 114.1825760000,22.3040880000 114.1826760000,22.3040870000 114.1827390000,22.3040760000 114.1827910000,22.3040580000 114.1828430000,22.3040190000 114.1828740000,22.3039720000 114.1828960000,22.3038980000 114.1829170000,22.3036560000 114.1829250000,22.3034700000 114.1829270000,22.3033710000 114.1829110000,22.3032350000 114.1828980000,22.3026050000 114.1828790000,22.3024910000 114.1828460000,22.3023920000 114.1828210000,22.3023290000 114.1827910000,22.3022560000 114.1827450000,22.3021620000 114.1827110000,22.3021120000 114.1826680000,22.3020600000 114.1826390000,22.3020420000 114.1826060000,22.3020260000 114.1825790000,22.3020170000 114.1825410000,22.3020100000 114.1824640000,22.3020000000 114.1824040000,22.3020030000 114.1823370000,22.3020080000 114.1823070000,22.3020100000 114.1819630000,22.3020300000 114.1817490000,22.3020420000 114.1815420000,22.3020510000 114.1812080000,22.3020500000 114.1811220000,22.3020480000 114.1810090000,22.3020540000 114.1808410000,22.3020500000 114.1792990000,22.3021850000 114.1791770000,22.3022050000 114.1790560000,22.3022290000 114.1788480000,22.3022800000 114.1786160000,22.3023520000 114.1784600000,22.3024090000 114.1781090000,22.3025230000 114.1776360000,22.3026960000 114.1775250000,22.3027470000 114.1773340000,22.3027550000 114.1772990000,22.3027510000 114.1772450000,22.3027380000 114.1771760000,22.3027090000 114.1771180000,22.3026810000 114.1770240000,22.3026010000 114.1769630000,22.3024940000 114.1768730000,22.3022870000 114.1767330000,22.3019130000 114.1765970000,22.3015200000 114.1764680000,22.3011410000 114.1764460000,22.3010740000 114.1763410000,22.3007860000 114.1762730000,22.3005190000 114.1761990000,22.3002410000 114.1760230000,22.2996640000 114.1759620000,22.2994470000 114.1759550000,22.2994030000 114.1759550000,22.2994010000 114.1759490000,22.2993670000 114.1758400000,22.2986960000 114.1758350000,22.2986620000 114.1757320000,22.2980300000 114.1756060000,22.2972480000 114.1755690000,22.2970440000 114.1753590000,22.2958870000 114.1753470000,22.2958230000 114.1753300000,22.2957270000 114.1753180000,22.2956490000 114.1753050000,22.2955550000 114.1753020000,22.2955140000 114.1752980000,22.2954300000 114.1753110000,22.2953000000 114.1753430000,22.2951790000 114.1752390000,22.2951450000 114.1751020000,22.2950780000 114.1748800000,22.2949940000 114.1746380000,22.2949190000 114.1745140000,22.2948810000 114.1744310000,22.2948550000 114.1742890000,22.2948160000 114.1740360000,22.2947560000 114.1739470000,22.2947340000 114.1736990000,22.2946930000 114.1736200000,22.2946840000 114.1735590000,22.2946750000 114.1735110000,22.2946700000 114.1734700000,22.2946700000 114.1733380000,22.2946800000 114.1732530000,22.2946820000 114.1732060000,22.2946800000 114.1730690000,22.2946790000 114.1728200000,22.2946600000 114.1727250000,22.2946290000 114.1726240000,22.2946050000 114.1725630000,22.2946030000 114.1724380000,22.2945970000 114.1723130000,22.2946120000 114.1721830000,22.2946050000 114.1720950000,22.2946020000 114.1720520000,22.2946010000 114.1719760000,22.2946110000 114.1717580000,22.2946050000 114.1716390000,22.2946010000 114.1715000000,22.2945970000 114.1713480000,22.2945930000 114.1712830000,22.2945910000 114.1712170000,22.2945920000 114.1711520000,22.2945940000 114.1710800000,22.2945920000 114.1709780000,22.2945900000 114.1708910000,22.2945880000 114.1708050000,22.2946070000 114.1707150000,22.2946360000 114.1706450000,22.2946640000 114.1705900000,22.2948820000 114.1704380000,22.2954400000 114.1704140000,22.2955260000 114.1703030000,22.2959040000 114.1702450000,22.2960440000 114.1702110000,22.2961670000 114.1702050000,22.2962680000 114.1700410000,22.2968150000 114.1699350000,22.2971620000 114.1699020000,22.2972720000 114.1698350000,22.2974530000 114.1695200000,22.2983280000 114.1694530000,22.2985460000 114.1693980000,22.2987260000 114.1693600000,22.2988320000 114.1691630000,22.2992010000 114.1689890000,22.2994740000 114.1687780000,22.2997140000 114.1687370000,22.2997660000 114.1686300000,22.2999050000 114.1686030000,22.2999330000 114.1685350000,22.3000010000 114.1684070000,22.2999870000 114.1682890000,22.2999670000 114.1682660000,22.2999630000 114.1679200000,22.2999010000 114.1678300000,22.2998820000 114.1677250000,22.2998590000 114.1676210000,22.2998370000 114.1675160000,22.2998150000 114.1673500000,22.3006990000 114.1673500000,22.3006990000 114.1674510000,22.3007170000 114.1675520000,22.3007340000 114.1676550000,22.3007520000 114.1677560000,22.3007700000 114.1679470000,22.3007980000 114.1679900000,22.3008050000 114.1680290000,22.3008110000 114.1680970000,22.3008210000 114.1680540000,22.3010540000 114.1680120000,22.3012340000 114.1680200000,22.3013490000 114.1679680000,22.3017850000 114.1679420000,22.3019940000 114.1679580000,22.3022660000 114.1680080000,22.3025620000 114.1680240000,22.3027200000 114.1680210000,22.3028370000 114.1680190000,22.3029420000 114.1678160000,22.3029290000 114.1672670000,22.3028850000 114.1671250000,22.3028710000 114.1669050000,22.3028510000 114.1665990000,22.3027320000 114.1664590000,22.3027170000 114.1659810000,22.3026650000 114.1655230000,22.3026160000 114.1652540000,22.3025760000 114.1648460000,22.3025150000 114.1645670000,22.3024950000 114.1642590000,22.3025000000 114.1639480000,22.3025770000 114.1638140000,22.3026740000 114.1636900000,22.3028350000 114.1636390000,22.3030440000 114.1636360000,22.3031810000 114.1636330000,22.3033440000 114.1636600000,22.3038970000 114.1636890000,22.3047980000 114.1637170000,22.3050670000 114.1637980000,22.3053690000 114.1638250000,22.3056110000 114.1638340000,22.3058970000 114.1637600000,22.3074900000 114.1637130000,22.3085600000 114.1636990000,22.3087140000 114.1636700000,22.3088570000 114.1636360000,22.3090110000 114.1635880000,22.3091170000 114.1635520000,22.3091870000 114.1635200000,22.3092570000 114.1634660000,22.3093580000 114.1633560000,22.3095580000 114.1632220000,22.3097580000 114.1630900000,22.3099330000 114.1629090000,22.3101240000 114.1626600000,22.3102980000 114.1623690000,22.3104570000 114.1620850000,22.3105760000 114.1617760000,22.3107270000 114.1615100000,22.3108940000 114.1613130000,22.3110850000 114.1611670000,22.3112590000 114.1610980000,22.3113730000 114.1610380000,22.3115050000 114.1609640000,22.3117030000 114.1609440000,22.3118380000 114.1609430000,22.3120110000 114.1609570000,22.3123110000 114.1610070000,22.3126620000 114.1610640000,22.3129820000 114.1610900000,22.3133050000 114.1610830000,22.3136950000 114.1610520000,22.3139570000 114.1610210000,22.3141600000 114.1609690000,22.3144350000 114.1609470000,22.3145350000 114.1606690000,22.3154690000 114.1605850000,22.3156680000 114.1603970000,22.3161240000 114.1602390000,22.3165010000 114.1601630000,22.3166960000 114.1595970000,22.3181420000 114.1594260000,22.3185310000 114.1592030000,22.3190150000 114.1590080000,22.3194180000 114.1587420000,22.3199420000 114.1583530000,22.3206340000 114.1580280000,22.3211960000 114.1578120000,22.3215320000 114.1575490000,22.3219090000 114.1572310000,22.3223570000 114.1568960000,22.3228060000 114.1566210000,22.3231540000 114.1563410000,22.3235090000 114.1560360000,22.3238490000 114.1557920000,22.3241230000 114.1553950000,22.3245530000 114.1550540000,22.3249040000 114.1547300000,22.3252310000 114.1543620000,22.3255780000 114.1540020000,22.3258970000 114.1535900000,22.3262530000 114.1531170000,22.3266270000 114.1527770000,22.3268800000 114.1522560000,22.3272720000 114.1518220000,22.3275630000 114.1514760000,22.3277850000 114.1512290000,22.3279450000 114.1504710000,22.3283960000 114.1499850000,22.3286710000 114.1496200000,22.3288590000 114.1490590000,22.3291340000 114.1489510000,22.3291850000 114.1486060000,22.3293440000 114.1478890000,22.3296390000 114.1475170000,22.3297910000 114.1471780000,22.3299180000 114.1464480000,22.3302230000 114.1463850000,22.3302470000 114.1454820000,22.3305840000 114.1452560000,22.3306640000 114.1445070000,22.3309320000 114.1438590000,22.3311530000 114.1436130000,22.3312480000 114.1429310000,22.3315740000 114.1428530000,22.3316050000 114.1412890000,22.3322090000 114.1405410000,22.3324930000 114.1403740000,22.3325580000 114.1395880000,22.3328230000 114.1394970000,22.3328500000 114.1385640000,22.3332330000 114.1378030000,22.3335180000 114.1373210000,22.3337010000 114.1368860000,22.3338730000 114.1365640000,22.3340150000 114.1362710000,22.3341510000 114.1359690000,22.3343040000 114.1356310000,22.3344910000 114.1354440000,22.3346060000 114.1353440000,22.3346670000 114.1352220000,22.3347460000 114.1350140000,22.3348820000 114.1348000000,22.3350240000 114.1344480000,22.3352610000 114.1342910000,22.3353690000 114.1341900000,22.3354590000 114.1338720000,22.3357390000 114.1334860000,22.3361210000 114.1332200000,22.3364150000 114.1330340000,22.3366250000 114.1327260000,22.3370270000 114.1325120000,22.3373330000 114.1322740000,22.3377130000 114.1321960000,22.3378480000 114.1320510000,22.3380930000 114.1318960000,22.3383900000 114.1318580000,22.3384640000 114.1316890000,22.3387910000 114.1313190000,22.3395860000 114.1310380000,22.3402110000 114.1309620000,22.3403700000 114.1308660000,22.3405680000 114.1307020000,22.3409030000 114.1306300000,22.3410380000 114.1305920000,22.3411100000 114.1305250000,22.3412340000 114.1304660000,22.3413420000 114.1303470000,22.3415350000 114.1302580000,22.3416670000 114.1301950000,22.3417640000 114.1300900000,22.3418930000 114.1300170000,22.3419770000 114.1299130000,22.3420940000 114.1297960000,22.3422120000 114.1296700000,22.3423320000 114.1295520000,22.3424400000 114.1294840000,22.3425000000 114.1293200000,22.3426370000 114.1291160000,22.3427790000 114.1289430000,22.3428890000 114.1287970000,22.3429780000 114.1286030000,22.3430850000 114.1283130000,22.3432270000 114.1281970000,22.3432800000 114.1280870000,22.3433250000 114.1278230000,22.3434330000 114.1275370000,22.3435510000 114.1272190000,22.3436900000 114.1270920000,22.3437490000 114.1269950000,22.3437970000 114.1269170000,22.3438390000 114.1268020000,22.3439050000 114.1265700000,22.3440470000 114.1263600000,22.3441870000 114.1261980000,22.3443040000 114.1260630000,22.3444120000 114.1259430000,22.3445150000 114.1257850000,22.3446620000 114.1256620000,22.3447850000 114.1254920000,22.3449680000 114.1252790000,22.3452360000 114.1251700000,22.3453840000 114.1250580000,22.3455550000 114.1249770000,22.3456920000 114.1248460000,22.3459330000 114.1246780000,22.3462410000 114.1246340000,22.3464060000 114.1246200000,22.3464560000 114.1246030000,22.3465190000 114.1245820000,22.3465970000 114.1245630000,22.3466700000 114.1245300000,22.3467900000 114.1244960000,22.3469180000 114.1244670000,22.3470260000 114.1244530000,22.3470760000 114.1244430000,22.3471290000 114.1244350000,22.3471890000 114.1244300000,22.3472230000 114.1243930000,22.3475460000 114.1243650000,22.3479040000 114.1243660000,22.3480910000 114.1243750000,22.3483980000 114.1243700000,22.3487140000 114.1243510000,22.3491910000 114.1242990000,22.3496090000 114.1241960000,22.3499950000 114.1240680000,22.3503030000 114.1239290000,22.3506140000 114.1237360000,22.3509000000 114.1236170000,22.3510480000 114.1233060000,22.3513820000 114.1231200000,22.3515280000 114.1228140000,22.3517660000 114.1226590000,22.3518510000 114.1221170000,22.3521330000 114.1220390000,22.3521610000 114.1219330000,22.3521910000 114.1217460000,22.3522390000 114.1216430000,22.3522680000 114.1214310000,22.3523020000 114.1211410000,22.3523410000 114.1207110000,22.3523730000 114.1203330000,22.3523730000 114.1199880000,22.3523650000 114.1194960000,22.3522790000 114.1191870000,22.3522180000 114.1188760000,22.3521210000 114.1185250000,22.3519850000 114.1181990000,22.3518490000 114.1179480000,22.3517290000 114.1175950000,22.3515240000 114.1171200000,22.3512030000 114.1167670000,22.3509350000 114.1163940000,22.3506770000 114.1161560000,22.3505160000 114.1158850000,22.3503530000 114.1156120000,22.3502090000 114.1153200000,22.3500660000 114.1151020000,22.3499700000 114.1122350000,22.3488850000 114.1118310000,22.3487140000 114.1114850000,22.3485670000 114.1110020000,22.3483410000 114.1108420000,22.3482640000 114.1067700000,22.3461380000 114.1065040000,22.3460130000 114.1062830000,22.3459150000 114.1060100000,22.3457980000 114.1057500000,22.3456900000 114.1055200000,22.3456000000 114.1053160000,22.3455250000 114.1050600000,22.3454400000 114.1048010000,22.3453580000 114.1045000000,22.3452660000 114.1042000000,22.3451750000 114.1039000000,22.3450920000 114.1036000000,22.3450220000 114.1033000000,22.3449580000 114.1030000000,22.3449000000 114.1026000000,22.3448350000 114.1020600000,22.3447660000 114.1017660000,22.3447330000 114.1014700000,22.3447070000 114.1011840000,22.3446860000 114.1009000000,22.3446750000 114.1003400000,22.3446570000 114.0957200000,22.3446110000 114.0956240000,22.3446120000 114.0945730000,22.3446100000 114.0943500000,22.3446090000 114.0939100000,22.3446010000 114.0937600000,22.3445980000 114.0932450000,22.3446000000 114.0929810000,22.3446070000 114.0927640000,22.3446250000 114.0924930000,22.3446550000 114.0921460000,22.3447160000 114.0920330000,22.3447350000 114.0918930000,22.3447670000 114.0917140000,22.3448180000 114.0915110000,22.3448750000 114.0912240000,22.3449820000 114.0909570000,22.3450960000 114.0906820000,22.3452200000 114.0903900000,22.3453580000 114.0901100000,22.3454820000 114.0897870000,22.3456310000 114.0895330000,22.3457580000 114.0892480000,22.3459070000 114.0889450000,22.3460940000 114.0886130000,22.3463450000 114.0883940000,22.3465310000 114.0882570000,22.3466630000 114.0880450000,22.3468980000 114.0879860000,22.3469680000 114.0878280000,22.3471710000 114.0875680000,22.3475740000 114.0873750000,22.3479670000 114.0872760000,22.3482430000 114.0872380000,22.3483480000 114.0871240000,22.3487340000 114.0871080000,22.3487870000 114.0868960000,22.3496110000 114.0868320000,22.3498440000 114.0866600000,22.3504700000 114.0866270000,22.3505780000 114.0865800000,22.3507360000 114.0865590000,22.3508010000 114.0865030000,22.3509750000 114.0863930000,22.3512790000 114.0863000000,22.3514870000 114.0861080000,22.3518650000 114.0858040000,22.3524010000 114.0854560000,22.3530980000 114.0852300000,22.3536390000 114.0850680000,22.3539900000 114.0847740000,22.3545430000 114.0845460000,22.3549570000 114.0841510000,22.3556970000 114.0837010000,22.3565310000 114.0827420000,22.3583450000 114.0823640000,22.3590440000 114.0817620000,22.3601520000 114.0784010000,22.3664850000 114.0777670000,22.3675880000 114.0777150000,22.3677360000 114.0774160000,22.3683250000 114.0773160000,22.3685090000 114.0770880000,22.3688390000 114.0769220000,22.3690450000 114.0767460000,22.3692410000 114.0765460000,22.3694370000 114.0763740000,22.3695900000 114.0761860000,22.3697380000 114.0760190000,22.3698570000 114.0757620000,22.3700390000 114.0755040000,22.3702000000 114.0752340000,22.3703670000 114.0743130000,22.3709420000 114.0734160000,22.3715060000 114.0714360000,22.3727580000 114.0700810000,22.3735450000 114.0691450000,22.3740380000 114.0686290000,22.3743360000 114.0680660000,22.3746380000 114.0674240000,22.3750220000 114.0671140000,22.3752200000 114.0670650000,22.3752560000 114.0670390000,22.3752760000 114.0669000000,22.3753850000 114.0667150000,22.3755200000 114.0665630000,22.3756400000 114.0664200000,22.3757600000 114.0662790000,22.3758800000 114.0661410000,22.3760010000 114.0660170000,22.3761210000 114.0658870000,22.3762500000 114.0657670000,22.3763700000 114.0656400000,22.3765000000 114.0655140000,22.3766300000 114.0653940000,22.3767600000 114.0652830000,22.3768900000 114.0651700000,22.3770250000 114.0650620000,22.3771600000 114.0649600000,22.3772950000 114.0648600000,22.3774300000 114.0647660000,22.3775610000 114.0646670000,22.3777000000 114.0645780000,22.3778300000 114.0644870000,22.3779700000 114.0643920000,22.3781210000 114.0643070000,22.3782700000 114.0642190000,22.3784300000 114.0641320000,22.3785900000 114.0640530000,22.3787400000 114.0639750000,22.3789000000 114.0639000000,22.3790600000 114.0638300000,22.3792200000 114.0637600000,22.3793850000 114.0636900000,22.3795600000 114.0636290000,22.3797200000 114.0635680000,22.3799000000 114.0635100000,22.3800800000 114.0634500000,22.3802800000 114.0633950000,22.3804800000 114.0633400000,22.3807000000 114.0632940000,22.3809100000 114.0632710000,22.3810420000 114.0593990000,22.4053980000 114.0593770000,22.4055790000 114.0593560000,22.4058000000 114.0593450000,22.4060000000 114.0593400000,22.4062000000 114.0593380000,22.4063500000 114.0593370000,22.4065000000 114.0593370000,22.4066500000 114.0593410000,22.4068000000 114.0593500000,22.4069800000 114.0593600000,22.4071500000 114.0593800000,22.4073700000 114.0594000000,22.4075600000 114.0594200000,22.4077300000 114.0594450000,22.4079000000 114.0594600000,22.4079910000 114.0594710000,22.4080600000 114.0595100000,22.4082430000 114.0595450000,22.4084000000 114.0595590000,22.4084620000 114.0595900000,22.4086000000 114.0596400000,22.4088000000 114.0596880000,22.4089500000 114.0597400000,22.4091000000 114.0597940000,22.4092500000 114.0598500000,22.4094000000 114.0599200000,22.4095600000 114.0599900000,22.4097100000 114.0600640000,22.4098600000 114.0601400000,22.4100100000 114.0602250000,22.4101600000 114.0603170000,22.4103100000 114.0603800000,22.4104100000 114.0604160000,22.4104600000 114.0605880000,22.4107290000 114.0621750000,22.4131710000 114.0623450000,22.4134530000 114.0624790000,22.4137160000 114.0626320000,22.4140050000 114.0627740000,22.4143430000 114.0629310000,22.4147790000 114.0630260000,22.4150800000 114.0631030000,22.4153860000 114.0631600000,22.4156780000 114.0632030000,22.4159050000 114.0632440000,22.4161640000 114.0633070000,22.4166640000 114.0633480000,22.4172350000 114.0633840000,22.4182370000 114.0634030000,22.4184270000 114.0634250000,22.4186380000 114.0634610000,22.4189950000 114.0634650000,22.4190400000 114.0636610000,22.4200300000 114.0638150000,22.4206580000 114.0639010000,22.4209710000 114.0639970000,22.4213920000 114.0640350000,22.4215920000 114.0640500000,22.4216920000 114.0640990000,22.4220490000 114.0641190000,22.4232790000 114.0641060000,22.4243760000 114.0640870000,22.4259440000 114.0640220000,22.4268200000 114.0639550000,22.4274180000 114.0639200000,22.4277240000 114.0638610000,22.4280820000 114.0637770000,22.4285930000 114.0635410000,22.4296160000 114.0633680000,22.4301560000 114.0632550000,22.4305100000 114.0631540000,22.4307870000 114.0629540000,22.4313360000 114.0628510000,22.4315610000 114.0626350000,22.4320300000 114.0624600000,22.4323730000 114.0622710000,22.4326910000 114.0620810000,22.4330120000 114.0617960000,22.4334660000 114.0615980000,22.4337540000 114.0612660000,22.4342080000 114.0609870000,22.4345600000 114.0606900000,22.4349130000 114.0605510000,22.4350720000 114.0599700000,22.4357050000 114.0596510000,22.4360360000 114.0594850000,22.4362000000 114.0590270000,22.4366140000 114.0587840000,22.4368280000 114.0582000000,22.4373180000 114.0581420000,22.4373660000 114.0573450000,22.4379820000 114.0565380000,22.4385440000 114.0551350000,22.4395660000 114.0528590000,22.4413090000 114.0525830000,22.4415180000 114.0521860000,22.4418550000 114.0517580000,22.4422580000 114.0512860000,22.4427720000 114.0509410000,22.4431830000 114.0506780000,22.4435630000 114.0503510000,22.4440780000 114.0500900000,22.4445150000 114.0499770000,22.4446820000 114.0495570000,22.4453350000 114.0493430000,22.4457020000 114.0492100000,22.4459480000 114.0491070000,22.4461390000 114.0489680000,22.4464660000 114.0488980000,22.4466070000 114.0488070000,22.4467930000 114.0486350000,22.4470910000 114.0484420000,22.4473390000 114.0482060000,22.4475670000 114.0479910000,22.4477450000 114.0476800000,22.4479530000 114.0473470000,22.4481620000 114.0469830000,22.4483400000 114.0466070000,22.4485090000 114.0462420000,22.4486530000 114.0458790000,22.4487470000 114.0454360000,22.4488420000 114.0447490000,22.4489710000 114.0443780000,22.4489780000 114.0439690000,22.4489680000 114.0437270000,22.4489350000 114.0434590000,22.4488890000 114.0431640000,22.4488250000 114.0429890000,22.4487850000 114.0426850000,22.4486910000 114.0422390000,22.4484970000 114.0418980000,22.4483110000 114.0415410000,22.4480890000 114.0412110000,22.4478540000 114.0409350000,22.4476020000 114.0407150000,22.4473650000 114.0405780000,22.4472030000 114.0404890000,22.4470790000 114.0402380000,22.4468060000 114.0400800000,22.4465500000 114.0399430000,22.4463000000 114.0397760000,22.4459130000 114.0396400000,22.4455000000 114.0395850000,22.4452430000 114.0395260000,22.4448490000 114.0395020000,22.4445300000 114.0394890000,22.4432020000 114.0394880000,22.4427990000 114.0394770000,22.4415700000 114.0394620000,22.4412790000 114.0394500000,22.4410340000 114.0394140000,22.4407930000 114.0393740000,22.4405640000 114.0393190000,22.4402820000 114.0391440000,22.4397690000 114.0390540000,22.4395620000 114.0387740000,22.4390690000 114.0384790000,22.4386760000 114.0381830000,22.4383230000 114.0378910000,22.4380200000 114.0348760000,22.4354580000 114.0346760000,22.4353000000 114.0342940000,22.4350340000 114.0341400000,22.4349370000 114.0340060000,22.4348550000 114.0338560000,22.4347670000 114.0337340000,22.4347010000 114.0335840000,22.4346200000 114.0334210000,22.4345380000 114.0332700000,22.4344660000 114.0331010000,22.4343920000 114.0328840000,22.4343090000 114.0327080000,22.4342450000 114.0325390000,22.4341930000 114.0322720000,22.4341230000 114.0320530000,22.4340720000 114.0318280000,22.4340240000 114.0316460000,22.4339960000 114.0314640000,22.4339710000 114.0312930000,22.4339480000 114.0311220000,22.4339350000 114.0309250000,22.4339210000 114.0308320000,22.4339170000 114.0306000000,22.4339160000 114.0303970000,22.4339210000 114.0301940000,22.4339280000 114.0299510000,22.4339430000 114.0296770000,22.4339780000 114.0294210000,22.4340150000 114.0290780000,22.4340720000 114.0280730000,22.4342590000 114.0262680000,22.4345510000 114.0257210000,22.4346490000 114.0253750000,22.4347070000 114.0250460000,22.4347710000 114.0246280000,22.4348450000 114.0240040000,22.4349520000 114.0229390000,22.4351390000 114.0224110000,22.4352280000 114.0215820000,22.4354010000 114.0201070000,22.4357090000 114.0199360000,22.4357490000 114.0196810000,22.4358100000 114.0194490000,22.4358730000 114.0192630000,22.4359310000 114.0189400000,22.4360410000 114.0186990000,22.4361380000 114.0184560000,22.4362410000 114.0179270000,22.4364820000 114.0176730000,22.4366040000 114.0175020000,22.4366940000 114.0173470000,22.4367760000 114.0169250000,22.4369860000 114.0165600000,22.4371580000 114.0162780000,22.4372850000 114.0161110000,22.4373560000 114.0158410000,22.4374550000 114.0157000000,22.4375040000 114.0155230000,22.4375580000 114.0153260000,22.4376140000 114.0152660000,22.4376300000 114.0150050000,22.4376970000 114.0147500000,22.4377490000 114.0145790000,22.4377780000 114.0143180000,22.4378180000 114.0141250000,22.4378390000 114.0139310000,22.4378550000 114.0137990000,22.4378640000 114.0136260000,22.4378730000 114.0134380000,22.4378760000 114.0131820000,22.4378730000 114.0129320000,22.4378590000 114.0126620000,22.4378380000 114.0124080000,22.4378110000 114.0120650000,22.4377610000 114.0116560000,22.4376840000 114.0112260000,22.4376050000 114.0107100000,22.4375030000 114.0103410000,22.4374240000 114.0098750000,22.4373160000 114.0090270000,22.4371010000 114.0081280000,22.4368270000 114.0073600000,22.4365630000 114.0065620000,22.4361810000 114.0063620000,22.4360950000 114.0062650000,22.4360510000 114.0061690000,22.4360040000 114.0060680000,22.4359450000 114.0059450000,22.4358640000 114.0058910000,22.4358230000 114.0058440000,22.4357750000 114.0058020000,22.4357240000 114.0057620000,22.4356640000 114.0057320000,22.4356050000 114.0056940000,22.4355190000 114.0056690000,22.4354530000 114.0056500000,22.4353720000 114.0056350000,22.4352330000 114.0056310000,22.4351210000 114.0056350000,22.4349530000 114.0056460000,22.4347140000 114.0056480000,22.4344530000 114.0056390000,22.4343550000 114.0056210000,22.4342530000 114.0055790000,22.4341310000 114.0055340000,22.4340460000 114.0054800000,22.4339510000 114.0054180000,22.4338590000 114.0053620000,22.4337970000 114.0052890000,22.4337350000 114.0051980000,22.4336770000 114.0051110000,22.4336300000 114.0050220000,22.4336000000 114.0049030000,22.4335800000 114.0047570000,22.4335700000 114.0045950000,22.4335780000 114.0044530000,22.4335990000 114.0043200000,22.4336320000 114.0040780000,22.4337110000 114.0037610000,22.4338170000 114.0029890000,22.4340860000 114.0029200000,22.4341130000 114.0026760000,22.4342070000 114.0024610000,22.4343020000 114.0022430000,22.4344110000 114.0020190000,22.4345280000 114.0017120000,22.4347000000 114.0014320000,22.4348640000 114.0013790000,22.4349000000 114.0013150000,22.4349430000 114.0012300000,22.4350040000 114.0011320000,22.4350770000 114.0008480000,22.4352920000 114.0005800000,22.4355630000 114.0003680000,22.4357760000 114.0002830000,22.4358760000 114.0001740000,22.4360040000 114.0000640000,22.4361480000 113.9998150000,22.4364520000 113.9995920000,22.4367510000 113.9993510000,22.4371560000 113.9991280000,22.4375380000 113.9987110000,22.4383710000 113.9985220000,22.4387100000 113.9984420000,22.4389980000 113.9983940000,22.4391700000 113.9983860000,22.4392080000 113.9983700000,22.4392830000 113.9981560000,22.4392680000 113.9980210000,22.4392590000 113.9978830000,22.4392470000 113.9977940000,22.4392700000 113.9976930000,22.4392530000 113.9964210000,22.4390080000 113.9963160000,22.4390010000 113.9963170000,22.4388960000 113.9963150000,22.4388150000 113.9963160000,22.4386920000 113.9963330000,22.4383840000 113.9963490000,22.4382800000 113.9963770000,22.4381180000 113.9964140000,22.4379120000 113.9964460000,22.4377790000 113.9964990000,22.4376000000 113.9965480000,22.4374380000 113.9966120000,22.4372710000 113.9967700000,22.4369350000 113.9969210000,22.4366400000 113.9970790000,22.4363740000 113.9971910000,22.4362110000 113.9974280000,22.4358990000 113.9974380000,22.4358860000 113.9974520000,22.4358670000 113.9975320000,22.4357650000 113.9977090000,22.4358810000 113.9977260000,22.4358920000 113.9982570000,22.4362260000 113.9983360000,22.4362770000 113.9983740000,22.4363010000 113.9986260000,22.4364630000 113.9986460000,22.4364760000 113.9988330000,22.4365970000 113.9989500000,22.4366720000 113.9989730000,22.4366860000 113.9992160000,22.4368400000 113.9993240000,22.4369080000 113.9993440000,22.4369250000 113.9991080000,22.4373400000 113.9990440000,22.4374840000 113.9990160000,22.4375460000 113.9988350000,22.4379450000 113.9986030000,22.4384590000 113.9985220000,22.4387100000 113.9984420000,22.4389980000 113.9983940000,22.4391700000 113.9983860000,22.4392080000 113.9983700000,22.4392830000 113.9983510000,22.4393740000 113.9985720000,22.4394040000 113.9989170000,22.4394450000 113.9990630000,22.4394620000 113.9990770000,22.4393680000 113.9990890000,22.4392860000 113.9991230000,22.4389360000 113.9991910000,22.4386130000 113.9992690000,22.4381350000 113.9993820000,22.4377560000 113.9995100000,22.4374040000 113.9997120000,22.4370380000 113.9998520000,22.4368030000 113.9999770000,22.4366200000 114.0001880000,22.4363040000 114.0004790000,22.4359490000 114.0004910000,22.4359340000 114.0005050000,22.4359190000 114.0005390000,22.4358820000 114.0005650000,22.4358540000 114.0006230000,22.4357900000 114.0006780000,22.4357310000 114.0007290000,22.4356690000 114.0004980000,22.4355400000 114.0004490000,22.4355090000 114.0003760000,22.4354630000 114.0003030000,22.4354110000 114.0002490000,22.4353720000 114.0001780000,22.4353200000 113.9999680000,22.4351660000 113.9999050000,22.4351240000 113.9996930000,22.4349810000 113.9996040000,22.4349230000 113.9984450000,22.4340570000 113.9983700000,22.4340040000 113.9983090000,22.4339610000 113.9981710000,22.4338630000 113.9978890000,22.4336660000 113.9969960000,22.4330310000 113.9968710000,22.4329370000 113.9965890000,22.4327450000 113.9964780000,22.4326700000 113.9964510000,22.4326520000 113.9958070000,22.4322080000 113.9951540000,22.4317280000 113.9949680000,22.4315820000 113.9948520000,22.4314930000 113.9947670000,22.4314230000 113.9946360000,22.4313130000 113.9943230000,22.4310610000 113.9940350000,22.4308300000 113.9938210000,22.4306590000 113.9934130000,22.4303170000 113.9933200000,22.4302440000 113.9930270000,22.4299970000 113.9927330000,22.4297690000 113.9926060000,22.4296610000 113.9922690000,22.4293870000 113.9918980000,22.4290950000 113.9915770000,22.4288170000 113.9914030000,22.4286520000 113.9904480000,22.4276230000 113.9902750000,22.4274380000 113.9901090000,22.4272630000 113.9900800000,22.4272320000 113.9899880000,22.4271340000 113.9899550000,22.4270990000 113.9897590000,22.4268910000 113.9894090000,22.4264960000 113.9893360000,22.4264140000 113.9892700000,22.4263390000 113.9892150000,22.4262830000 113.9891910000,22.4262580000 113.9884400000,22.4254940000 113.9879010000,22.4249210000 113.9873260000,22.4242960000 113.9870910000,22.4240380000 113.9858000000,22.4226400000 113.9856130000,22.4224390000 113.9853210000,22.4221580000 113.9849580000,22.4217740000 113.9849230000,22.4217360000 113.9848440000,22.4216430000 113.9847810000,22.4215680000 113.9846690000,22.4214530000 113.9845070000,22.4212850000 113.9841520000,22.4209180000 113.9835380000,22.4202500000 113.9834750000,22.4201690000 113.9834060000,22.4200910000 113.9832070000,22.4198720000 113.9830090000,22.4195990000 113.9828300000,22.4193000000 113.9828110000,22.4192670000 113.9827720000,22.4191930000 113.9825550000,22.4187800000 113.9824600000,22.4186090000 113.9822990000,22.4183020000 113.9820870000,22.4179240000 113.9818740000,22.4175200000 113.9818020000,22.4173830000 113.9817350000,22.4171470000 113.9816920000,22.4170600000 113.9816640000,22.4169980000 113.9816250000,22.4168670000 113.9816020000,22.4166830000 113.9816000000,22.4165360000 113.9816070000,22.4164060000 113.9816360000,22.4162850000 113.9817380000,22.4160790000 113.9817470000,22.4160610000 113.9817600000,22.4160350000 113.9817950000,22.4159850000 113.9818900000,22.4158670000 113.9819570000,22.4158020000 113.9823410000,22.4152420000 113.9823820000,22.4151780000 113.9824090000,22.4151170000 113.9824480000,22.4149600000 113.9824760000,22.4146950000 113.9824850000,22.4145500000 113.9824810000,22.4144420000 113.9824800000,22.4143960000 113.9824730000,22.4143260000 113.9824480000,22.4140320000 113.9824280000,22.4137950000 113.9824150000,22.4136450000 113.9824010000,22.4134280000 113.9823960000,22.4133470000 113.9823860000,22.4130400000 113.9823890000,22.4126660000 113.9823880000,22.4125560000 113.9823900000,22.4124500000 113.9823870000,22.4119100000 113.9823820000,22.4112330000 113.9823740000,22.4110250000 113.9823720000,22.4109680000 113.9823560000,22.4103110000 113.9823490000,22.4101810000 113.9823410000,22.4100870000 113.9823290000,22.4099920000 113.9823050000,22.4098500000 113.9822610000,22.4096990000 113.9822100000,22.4095750000 113.9821360000,22.4094280000 113.9820460000,22.4092970000 113.9819140000,22.4091370000 113.9817450000,22.4089820000 113.9816150000,22.4088910000 113.9814410000,22.4087970000 113.9812850000,22.4087420000 113.9811310000,22.4086980000 113.9808780000,22.4086470000 113.9807230000,22.4086420000 113.9803390000,22.4086350000 113.9802250000,22.4086310000 113.9801300000,22.4086270000 113.9800280000,22.4086030000 113.9799220000,22.4085760000 113.9797960000,22.4085560000 113.9797060000,22.4085260000 113.9796670000,22.4085110000 113.9796350000,22.4084980000 113.9795390000,22.4084540000 113.9795110000,22.4084300000 113.9794540000,22.4083820000 113.9794210000,22.4083610000 113.9793740000,22.4083320000 113.9793420000,22.4083120000 113.9792850000,22.4082670000 113.9791870000,22.4081900000 113.9791560000,22.4081540000 113.9791280000,22.4081190000 113.9790520000,22.4080280000 113.9790140000,22.4079620000 113.9789760000,22.4078990000 113.9789550000,22.4078580000 113.9789250000,22.4078010000 113.9788650000,22.4075970000 113.9788310000,22.4074470000 113.9787240000,22.4069420000 113.9786200000,22.4064380000 113.9785990000,22.4062850000 113.9785870000,22.4061400000 113.9785910000,22.4060150000 113.9786010000,22.4058920000 113.9786380000,22.4057490000 113.9786610000,22.4056840000 113.9786930000,22.4056010000 113.9787230000,22.4055330000 113.9787640000,22.4054550000 113.9788040000,22.4053860000 113.9788480000,22.4053170000 113.9789040000,22.4052320000 113.9789690000,22.4051400000 113.9791340000,22.4049170000 113.9792840000,22.4047160000 113.9793890000,22.4045550000 113.9794360000,22.4044700000 113.9794780000,22.4043800000 113.9795080000,22.4043040000 113.9795310000,22.4042270000 113.9795520000,22.4041360000 113.9795630000,22.4040510000 113.9795680000,22.4039530000 113.9795600000,22.4038270000 113.9795340000,22.4036680000 113.9794890000,22.4035030000 113.9794370000,22.4033610000 113.9793870000,22.4032350000 113.9792470000,22.4029170000 113.9791940000,22.4028050000 113.9787970000,22.4020560000 113.9784100000,22.4013330000 113.9781160000,22.4007350000 113.9780020000,22.4007550000 113.9778920000,22.4007730000 113.9769170000,22.4009650000 113.9767510000,22.4009810000 113.9765800000,22.4009740000 113.9764820000,22.4009570000 113.9763850000,22.4009270000 113.9763010000,22.4008640000 113.9761580000,22.4007540000 113.9759820000,22.4005310000 113.9758720000,22.4003880000 113.9755890000,22.3999810000 113.9754520000,22.3997640000 113.9754110000,22.3995960000 113.9753950000,22.3994710000 113.9753890000,22.3992490000 113.9753890000,22.3992410000 113.9753750000,22.3990870000 113.9753430000,22.3989060000 113.9751980000,22.3983320000 113.9751450000,22.3981150000 113.9751170000,22.3980200000 113.9751280000,22.3979650000 113.9751250000,22.3979330000 113.9751170000,22.3978370000 113.9750680000,22.3976820000 113.9750050000,22.3974240000 113.9748540000,22.3968600000 113.9747970000,22.3966550000 113.9747270000,22.3963850000 113.9746260000,22.3959950000 113.9746200000,22.3959730000 113.9745870000,22.3958660000 113.9745670000,22.3957910000 113.9745380000,22.3956910000 113.9745340000,22.3956660000 113.9745270000,22.3956200000 113.9744950000,22.3954350000 113.9745060000,22.3952620000 113.9745210000,22.3951800000 113.9745510000,22.3950840000 113.9745890000,22.3949630000 113.9746140000,22.3948900000 113.9746380000,22.3948350000 113.9746570000,22.3947910000 113.9746990000,22.3946740000 113.9747520000,22.3945320000 113.9747600000,22.3945100000 113.9747830000,22.3944550000 113.9748240000,22.3943340000 113.9749760000,22.3943610000 113.9754230000,22.3944940000 113.9760520000,22.3946960000 113.9763250000,22.3947750000 113.9768400000,22.3949430000 113.9771190000,22.3950500000 113.9775300000,22.3951670000 113.9776340000,22.3951960000 113.9777210000,22.3952150000 113.9777410000,22.3951110000 113.9777700000,22.3949610000 113.9777910000,22.3948530000 113.9779270000,22.3943880000 113.9780760000,22.3940200000 113.9782540000,22.3936630000 113.9784970000,22.3932350000 113.9788450000,22.3927500000 113.9792110000,22.3922530000 113.9793860000,22.3919700000 113.9794100000,22.3919300000 113.9796460000,22.3914680000 113.9798720000,22.3909150000 113.9798880000,22.3908720000 113.9799130000,22.3908040000 113.9799490000,22.3907010000 113.9798280000,22.3906730000 113.9796740000,22.3906410000 113.9788610000,22.3904620000 113.9785420000,22.3903810000 113.9782470000,22.3903090000 113.9781610000,22.3902900000 113.9777060000,22.3901910000 113.9776120000,22.3901690000 113.9772660000,22.3900810000 113.9769350000,22.3899940000 113.9765900000,22.3899230000 113.9760860000,22.3898810000 113.9753400000,22.3898760000 113.9752090000,22.3898760000 113.9752050000,22.3899770000 113.9751590000,22.3910020000 113.9751860000,22.3920090000 113.9751860000,22.3920160000 113.9751920000,22.3923300000 113.9751880000,22.3925770000 113.9751640000,22.3929480000 113.9750660000,22.3933790000 113.9750120000,22.3935010000 113.9748740000,22.3938170000 113.9748440000,22.3938340000 113.9747720000,22.3938800000 113.9746580000,22.3939760000 113.9746320000,22.3939940000 113.9745910000,22.3940250000 113.9745380000,22.3940650000 113.9743960000,22.3941680000 113.9741100000,22.3940840000 113.9740540000,22.3940650000 113.9740170000,22.3940570000 113.9739230000,22.3940470000 113.9738570000,22.3940460000 113.9737700000,22.3940490000 113.9736470000,22.3940650000 113.9735590000,22.3940770000 113.9735080000,22.3940850000 113.9734840000,22.3940780000 113.9734280000,22.3940630000 113.9734040000,22.3940680000 113.9733090000,22.3940890000 113.9731910000,22.3941140000 113.9732050000,22.3941760000 113.9732330000,22.3942780000 113.9733320000,22.3946290000 113.9733610000,22.3947420000</coordinates>
                </LineString>
                <ExtendedData>
                    <Data name="length">
                        <value>89723.62321242498</value>
                    </Data>
                    <Data name="duration">
                        <value>01:38:35</value>
                    </Data>
                </ExtendedData>
            </Placemark>
        </Document>
    </Document>
</kml>