<?xml version="1.0" encoding="UTF-8"?>
<kml xmlns="http://www.opengis.net/kml/2.2" xmlns:gx="http://www.google.com/kml/ext/2.2">
    <Document>
        <name>Route</name>
        <Folder>
            <name>Route Request</name>
            <Placemark>
                <Point>
                    <coordinates>114.0983004948,22.3702280039</coordinates>
                </Point>
                <ExtendedData>
                    <Data name="routingVisited">
                        <value>false</value>
                    </Data>
                </ExtendedData>
            </Placemark>
            <Placemark>
                <Point>
                    <coordinates>114.1056210990,22.3769766129</coordinates>
                </Point>
                <ExtendedData>
                    <Data name="routingVisited">
                        <value>false</value>
                    </Data>
                </ExtendedData>
            </Placemark>
            <Placemark>
                <Point>
                    <coordinates>114.1185114711,22.3693613703</coordinates>
                </Point>
            </Placemark>
            <Placemark>
                <Point>
                    <coordinates>114.1334899761,22.3701584280</coordinates>
                </Point>
            </Placemark>
            <Placemark>
                <Point>
                    <coordinates>114.1421012958,22.3727562660</coordinates>
                </Point>
            </Placemark>
            <Placemark>
                <Point>
                    <coordinates>114.1257268727,22.3711437844</coordinates>
                </Point>
            </Placemark>
            <Placemark>
                <Point>
                    <coordinates>114.1145738021,22.3708176365</coordinates>
                </Point>
                <ExtendedData>
                    <Data name="routingVisited">
                        <value>false</value>
                    </Data>
                </ExtendedData>
            </Placemark>
            <Placemark>
                <Point>
                    <coordinates>114.1042653838,22.3789644292</coordinates>
                </Point>
                <ExtendedData>
                    <Data name="routingVisited">
                        <value>false</value>
                    </Data>
                </ExtendedData>
            </Placemark>
            <Placemark>
                <Point>
                    <coordinates>114.0983262913,22.3702195891</coordinates>
                </Point>
                <ExtendedData>
                    <Data name="routingVisited">
                        <value>false</value>
                    </Data>
                </ExtendedData>
            </Placemark>
        </Folder>
        <Document>
            <name>16.8 km; 00:28 h (OSRM)</name>
            <Placemark>
                <name>Route</name>
                <LineString>
                    <coordinates>114.0983390000,22.3701940000 114.0987670000,22.3706080000 114.0987900000,22.3706270000 114.0988130000,22.3706310000 114.0992980000,22.3706270000 114.0993420000,22.3706200000 114.0993810000,22.3706050000 114.0994400000,22.3705700000 114.0995290000,22.3704800000 114.0996350000,22.3705700000 114.0997350000,22.3706550000 114.0998380000,22.3707430000 114.1001090000,22.3709590000 114.1002520000,22.3710660000 114.1002950000,22.3711020000 114.1004470000,22.3712170000 114.1006190000,22.3713520000 114.1006930000,22.3714090000 114.1008480000,22.3715290000 114.1011410000,22.3717540000 114.1011540000,22.3717630000 114.1016040000,22.3720950000 114.1022330000,22.3725640000 114.1022870000,22.3726050000 114.1024230000,22.3727050000 114.1027340000,22.3729460000 114.1030680000,22.3732050000 114.1031120000,22.3732380000 114.1031620000,22.3732760000 114.1034550000,22.3734950000 114.1036240000,22.3736230000 114.1038100000,22.3737540000 114.1040440000,22.3738840000 114.1042410000,22.3739840000 114.1043940000,22.3740550000 114.1044690000,22.3741370000 114.1045690000,22.3741880000 114.1046630000,22.3742040000 114.1047480000,22.3742130000 114.1047750000,22.3742370000 114.1048160000,22.3742620000 114.1048640000,22.3742730000 114.1049470000,22.3743430000 114.1050230000,22.3744370000 114.1051550000,22.3746550000 114.1053470000,22.3749320000 114.1055200000,22.3751280000 114.1058070000,22.3753530000 114.1060250000,22.3755080000 114.1060990000,22.3755440000 114.1061770000,22.3755740000 114.1063080000,22.3756210000 114.1064210000,22.3756550000 114.1065610000,22.3756860000 114.1066380000,22.3756960000 114.1066820000,22.3757020000 114.1067290000,22.3757080000 114.1068340000,22.3757120000 114.1069170000,22.3757160000 114.1069990000,22.3757080000 114.1070770000,22.3756370000 114.1073740000,22.3756350000 114.1074990000,22.3756330000 114.1077140000,22.3756280000 114.1077750000,22.3756270000 114.1078090000,22.3756270000 114.1079330000,22.3756260000 114.1079890000,22.3756240000 114.1080350000,22.3756240000 114.1081830000,22.3756210000 114.1082850000,22.3756320000 114.1085140000,22.3756290000 114.1087330000,22.3756910000 114.1087780000,22.3756900000 114.1088140000,22.3756890000 114.1088840000,22.3756910000 114.1096780000,22.3757140000 114.1098390000,22.3757200000 114.1101490000,22.3758120000 114.1102540000,22.3758480000 114.1103420000,22.3759000000 114.1103830000,22.3759320000 114.1104210000,22.3759620000 114.1105070000,22.3760540000 114.1105630000,22.3761440000 114.1105750000,22.3762420000 114.1105800000,22.3762840000 114.1105690000,22.3764580000 114.1105640000,22.3765120000 114.1105110000,22.3766480000 114.1105050000,22.3766750000 114.1105010000,22.3766950000 114.1104900000,22.3767650000 114.1104360000,22.3770220000 114.1104150000,22.3770880000 114.1104090000,22.3771130000 114.1103790000,22.3772040000 114.1103820000,22.3772480000 114.1103580000,22.3773060000 114.1103070000,22.3774410000 114.1101680000,22.3777900000 114.1101170000,22.3778980000 114.1100440000,22.3779950000 114.1099600000,22.3780630000 114.1098520000,22.3781190000 114.1097550000,22.3781680000 114.1095550000,22.3782440000 114.1094920000,22.3782660000 114.1094100000,22.3782930000 114.1092700000,22.3783400000 114.1092440000,22.3783490000 114.1090190000,22.3784240000 114.1086520000,22.3785430000 114.1085640000,22.3785710000 114.1082410000,22.3786780000 114.1081400000,22.3787050000 114.1080960000,22.3787180000 114.1079590000,22.3787410000 114.1079060000,22.3787450000 114.1078590000,22.3787430000 114.1078080000,22.3787340000 114.1075940000,22.3786870000 114.1075480000,22.3786780000 114.1074760000,22.3786640000 114.1072830000,22.3786130000 114.1071250000,22.3785710000 114.1069970000,22.3785470000 114.1068180000,22.3785130000 114.1068120000,22.3783880000 114.1068080000,22.3782870000 114.1067970000,22.3782010000 114.1067480000,22.3780710000 114.1066880000,22.3779730000 114.1066300000,22.3778980000 114.1065160000,22.3778160000 114.1063890000,22.3777470000 114.1061780000,22.3776820000 114.1060800000,22.3776520000 114.1060180000,22.3776310000 114.1058980000,22.3775880000 114.1057780000,22.3775340000 114.1056300000,22.3774510000 114.1055520000,22.3773870000 114.1054780000,22.3772970000 114.1054270000,22.3772060000 114.1053760000,22.3770780000 114.1053640000,22.3770280000 114.1053610000,22.3770130000 114.1053480000,22.3769430000 114.1053410000,22.3768810000 114.1053430000,22.3768530000 114.1053470000,22.3767930000 114.1053700000,22.3767480000 114.1053910000,22.3767190000 114.1054170000,22.3766930000 114.1054600000,22.3766760000 114.1055020000,22.3766700000 114.1058100000,22.3767740000 114.1059600000,22.3768260000 114.1060240000,22.3768480000 114.1060510000,22.3768570000 114.1060790000,22.3768670000 114.1062170000,22.3769170000 114.1063150000,22.3769490000 114.1063950000,22.3769700000 114.1064670000,22.3769850000 114.1065280000,22.3769960000 114.1065950000,22.3770010000 114.1066640000,22.3770020000 114.1067310000,22.3769990000 114.1067930000,22.3769880000 114.1068470000,22.3769720000 114.1068980000,22.3769480000 114.1069470000,22.3769200000 114.1069930000,22.3768870000 114.1070410000,22.3768440000 114.1070830000,22.3767900000 114.1071220000,22.3767360000 114.1071540000,22.3766740000 114.1071830000,22.3766010000 114.1072110000,22.3765050000 114.1072470000,22.3763650000 114.1072630000,22.3763080000 114.1073550000,22.3760990000 114.1074390000,22.3757820000 114.1076650000,22.3749210000 114.1077500000,22.3747420000 114.1078770000,22.3745830000 114.1080100000,22.3744720000 114.1081620000,22.3743900000 114.1082850000,22.3743290000 114.1084090000,22.3742660000 114.1090590000,22.3739210000 114.1105070000,22.3731270000 114.1105680000,22.3730970000 114.1106100000,22.3730760000 114.1107200000,22.3730120000 114.1113060000,22.3726840000 114.1115400000,22.3725530000 114.1115890000,22.3725260000 114.1117220000,22.3724550000 114.1122030000,22.3721900000 114.1122290000,22.3721750000 114.1123000000,22.3721360000 114.1126940000,22.3719190000 114.1128070000,22.3718580000 114.1128710000,22.3718210000 114.1129590000,22.3717760000 114.1130560000,22.3717250000 114.1132470000,22.3716110000 114.1134330000,22.3715000000 114.1135070000,22.3714650000 114.1135690000,22.3714570000 114.1136130000,22.3714340000 114.1137160000,22.3713760000 114.1140600000,22.3711850000 114.1143000000,22.3710570000 114.1143520000,22.3710290000 114.1144670000,22.3709660000 114.1145350000,22.3709290000 114.1145970000,22.3708930000 114.1148600000,22.3707460000 114.1149980000,22.3706690000 114.1150340000,22.3706490000 114.1151940000,22.3705600000 114.1152430000,22.3705330000 114.1152680000,22.3705190000 114.1154500000,22.3704180000 114.1154670000,22.3704080000 114.1154850000,22.3703980000 114.1156670000,22.3702960000 114.1157260000,22.3702610000 114.1158370000,22.3702000000 114.1162960000,22.3699620000 114.1164110000,22.3699020000 114.1166100000,22.3697970000 114.1166490000,22.3697760000 114.1167620000,22.3697190000 114.1169180000,22.3696370000 114.1172040000,22.3694860000 114.1173150000,22.3694280000 114.1173350000,22.3694170000 114.1173640000,22.3694020000 114.1175780000,22.3692890000 114.1176180000,22.3692680000 114.1176700000,22.3692410000 114.1177000000,22.3692880000 114.1178940000,22.3695880000 114.1179150000,22.3696100000 114.1179530000,22.3696300000 114.1179970000,22.3696400000 114.1180880000,22.3696290000 114.1185260000,22.3693830000 114.1187670000,22.3692480000 114.1189450000,22.3691390000 114.1190460000,22.3690790000 114.1194440000,22.3688620000 114.1195190000,22.3688390000 114.1196090000,22.3688370000 114.1201050000,22.3691230000 114.1205290000,22.3693680000 114.1208310000,22.3695420000 114.1208460000,22.3695510000 114.1210080000,22.3696410000 114.1211120000,22.3697450000 114.1212830000,22.3699590000 114.1213550000,22.3700790000 114.1214050000,22.3701680000 114.1214670000,22.3702990000 114.1215960000,22.3703080000 114.1220430000,22.3703390000 114.1224220000,22.3703690000 114.1230170000,22.3703990000 114.1232530000,22.3704090000 114.1233950000,22.3704250000 114.1236180000,22.3704530000 114.1237240000,22.3704610000 114.1238290000,22.3704690000 114.1240340000,22.3704850000 114.1245590000,22.3705190000 114.1248510000,22.3705470000 114.1250250000,22.3706570000 114.1251230000,22.3707670000 114.1251560000,22.3708720000 114.1251550000,22.3709580000 114.1251360000,22.3710320000 114.1251170000,22.3711030000 114.1252160000,22.3710980000 114.1252960000,22.3711040000 114.1258700000,22.3711380000 114.1264150000,22.3711660000 114.1266060000,22.3711870000 114.1269520000,22.3712540000 114.1271550000,22.3713060000 114.1278560000,22.3715290000 114.1279800000,22.3715480000 114.1283830000,22.3716070000 114.1288150000,22.3716500000 114.1290620000,22.3716690000 114.1299590000,22.3717270000 114.1301480000,22.3717240000 114.1302680000,22.3717120000 114.1303910000,22.3716990000 114.1305080000,22.3716650000 114.1306740000,22.3716100000 114.1309100000,22.3715250000 114.1311990000,22.3714130000 114.1315330000,22.3712770000 114.1319760000,22.3710380000 114.1326750000,22.3705980000 114.1328120000,22.3705120000 114.1332900000,22.3702120000 114.1333350000,22.3701800000 114.1334700000,22.3701280000 114.1334720000,22.3701270000 114.1335540000,22.3700860000 114.1336030000,22.3700630000 114.1336500000,22.3700480000 114.1337480000,22.3700220000 114.1338820000,22.3699940000 114.1339680000,22.3700050000 114.1340480000,22.3700080000 114.1342040000,22.3700900000 114.1342400000,22.3701170000 114.1342610000,22.3701340000 114.1343050000,22.3702220000 114.1343640000,22.3704620000 114.1344400000,22.3706560000 114.1345480000,22.3708930000 114.1346570000,22.3710550000 114.1346900000,22.3710970000 114.1349530000,22.3713300000 114.1350520000,22.3714120000 114.1350990000,22.3714460000 114.1352220000,22.3715330000 114.1354860000,22.3717210000 114.1356370000,22.3718300000 114.1357400000,22.3719040000 114.1358320000,22.3719710000 114.1359120000,22.3720290000 114.1360610000,22.3721400000 114.1361440000,22.3720770000 114.1362030000,22.3720210000 114.1363630000,22.3718650000 114.1364440000,22.3717420000 114.1364940000,22.3716220000 114.1365780000,22.3714180000 114.1367260000,22.3712330000 114.1367380000,22.3712210000 114.1368210000,22.3711330000 114.1369570000,22.3710190000 114.1370270000,22.3709660000 114.1373710000,22.3707140000 114.1373970000,22.3706950000 114.1375390000,22.3705890000 114.1376500000,22.3707020000 114.1376810000,22.3707340000 114.1379280000,22.3709780000 114.1380240000,22.3710770000 114.1381580000,22.3712290000 114.1382270000,22.3713190000 114.1383150000,22.3714860000 114.1383260000,22.3715070000 114.1384430000,22.3717180000 114.1384780000,22.3717840000 114.1385010000,22.3718270000 114.1385660000,22.3719470000 114.1387730000,22.3723240000 114.1388800000,22.3725180000 114.1389170000,22.3725470000 114.1389470000,22.3725630000 114.1389710000,22.3725730000 114.1390050000,22.3725840000 114.1390430000,22.3725890000 114.1390820000,22.3725860000 114.1391200000,22.3725800000 114.1391660000,22.3725720000 114.1392050000,22.3725530000 114.1392270000,22.3725360000 114.1393010000,22.3724780000 114.1393710000,22.3724170000 114.1394720000,22.3723280000 114.1395370000,22.3722710000 114.1396030000,22.3722140000 114.1397200000,22.3721010000 114.1398490000,22.3719770000 114.1398570000,22.3719660000 114.1398900000,22.3719230000 114.1399680000,22.3718240000 114.1400320000,22.3717200000 114.1401220000,22.3715040000 114.1402960000,22.3707320000 114.1402980000,22.3707220000 114.1403330000,22.3705560000 114.1403530000,22.3704510000 114.1403560000,22.3704330000 114.1404280000,22.3700320000 114.1405680000,22.3700490000 114.1405890000,22.3700520000 114.1411840000,22.3701500000 114.1412820000,22.3701660000 114.1413290000,22.3701740000 114.1413310000,22.3702720000 114.1413240000,22.3703780000 114.1412660000,22.3709160000 114.1412310000,22.3712200000 114.1411850000,22.3716130000 114.1411280000,22.3721170000 114.1410710000,22.3727000000 114.1410580000,22.3727820000 114.1410510000,22.3728520000 114.1410490000,22.3728850000 114.1410510000,22.3729270000 114.1410540000,22.3729470000 114.1410660000,22.3729730000 114.1410780000,22.3729950000 114.1410930000,22.3730170000 114.1411120000,22.3730390000 114.1411270000,22.3730510000 114.1411440000,22.3730660000 114.1411630000,22.3730780000 114.1411860000,22.3730890000 114.1412140000,22.3731000000 114.1412460000,22.3731070000 114.1412770000,22.3731140000 114.1413270000,22.3731190000 114.1415970000,22.3731330000 114.1416490000,22.3731350000 114.1417060000,22.3731380000 114.1417790000,22.3731440000 114.1418730000,22.3731280000 114.1419560000,22.3731080000 114.1420480000,22.3730750000 114.1420930000,22.3730580000 114.1421300000,22.3730280000 114.1421550000,22.3729880000 114.1421600000,22.3729630000 114.1421640000,22.3729430000 114.1421570000,22.3728980000 114.1421340000,22.3728580000 114.1420990000,22.3728260000 114.1420730000,22.3728160000 114.1420690000,22.3728140000 114.1420540000,22.3728070000 114.1420050000,22.3728030000 114.1419570000,22.3728130000 114.1419150000,22.3728380000 114.1418840000,22.3728730000 114.1418680000,22.3729160000 114.1418670000,22.3729270000 114.1418670000,22.3729610000 114.1418580000,22.3730050000 114.1418410000,22.3730450000 114.1418090000,22.3730810000 114.1417730000,22.3731110000 114.1417280000,22.3731380000 114.1417060000,22.3731380000 114.1416490000,22.3731350000 114.1415970000,22.3731330000 114.1413270000,22.3731190000 114.1412800000,22.3730800000 114.1412560000,22.3730610000 114.1412250000,22.3730340000 114.1412130000,22.3730210000 114.1411780000,22.3729850000 114.1411480000,22.3729410000 114.1411210000,22.3728940000 114.1410990000,22.3728450000 114.1410820000,22.3727840000 114.1410710000,22.3727000000 114.1411280000,22.3721170000 114.1411850000,22.3716130000 114.1412310000,22.3712200000 114.1412660000,22.3709160000 114.1413240000,22.3703780000 114.1413310000,22.3702720000 114.1413290000,22.3701740000 114.1412820000,22.3701660000 114.1411840000,22.3701500000 114.1405890000,22.3700520000 114.1405680000,22.3700490000 114.1404280000,22.3700320000 114.1403560000,22.3704330000 114.1403530000,22.3704510000 114.1403330000,22.3705560000 114.1402980000,22.3707220000 114.1402960000,22.3707320000 114.1401220000,22.3715040000 114.1400320000,22.3717200000 114.1399680000,22.3718240000 114.1398900000,22.3719230000 114.1398570000,22.3719660000 114.1398490000,22.3719770000 114.1397200000,22.3721010000 114.1396030000,22.3722140000 114.1395370000,22.3722710000 114.1394720000,22.3723280000 114.1393710000,22.3724170000 114.1393010000,22.3724780000 114.1392270000,22.3725360000 114.1392050000,22.3725530000 114.1391660000,22.3725720000 114.1391200000,22.3725800000 114.1390820000,22.3725860000 114.1390430000,22.3725890000 114.1390050000,22.3725840000 114.1389710000,22.3725730000 114.1389470000,22.3725630000 114.1389170000,22.3725470000 114.1388800000,22.3725180000 114.1387730000,22.3723240000 114.1385660000,22.3719470000 114.1385010000,22.3718270000 114.1384780000,22.3717840000 114.1384430000,22.3717180000 114.1383260000,22.3715070000 114.1383150000,22.3714860000 114.1382270000,22.3713190000 114.1381580000,22.3712290000 114.1380240000,22.3710770000 114.1379280000,22.3709780000 114.1376810000,22.3707340000 114.1376500000,22.3707020000 114.1375390000,22.3705890000 114.1373970000,22.3706950000 114.1373710000,22.3707140000 114.1370270000,22.3709660000 114.1369570000,22.3710190000 114.1368210000,22.3711330000 114.1367380000,22.3712210000 114.1367260000,22.3712330000 114.1365780000,22.3714180000 114.1364940000,22.3716220000 114.1364440000,22.3717420000 114.1363630000,22.3718650000 114.1362030000,22.3720210000 114.1361440000,22.3720770000 114.1359680000,22.3719270000 114.1359160000,22.3718670000 114.1358230000,22.3718030000 114.1356900000,22.3717350000 114.1355670000,22.3716460000 114.1353030000,22.3714590000 114.1351920000,22.3713660000 114.1351460000,22.3713280000 114.1350600000,22.3712560000 114.1350110000,22.3711700000 114.1349330000,22.3710390000 114.1348910000,22.3709840000 114.1348220000,22.3708920000 114.1347230000,22.3707170000 114.1346370000,22.3705350000 114.1345670000,22.3703470000 114.1345160000,22.3701510000 114.1344860000,22.3699900000 114.1344790000,22.3699560000 114.1344470000,22.3697400000 114.1343890000,22.3694170000 114.1342910000,22.3688630000 114.1342260000,22.3687930000 114.1341560000,22.3687620000 114.1340640000,22.3687370000 114.1339620000,22.3687330000 114.1338410000,22.3687500000 114.1337780000,22.3688160000 114.1335980000,22.3689950000 114.1334790000,22.3690920000 114.1333780000,22.3691540000 114.1331660000,22.3692840000 114.1331210000,22.3693320000 114.1330870000,22.3693770000 114.1330590000,22.3694250000 114.1330420000,22.3694780000 114.1330380000,22.3695330000 114.1330460000,22.3695870000 114.1330670000,22.3696390000 114.1331000000,22.3696850000 114.1331420000,22.3697240000 114.1331810000,22.3697430000 114.1332450000,22.3697720000 114.1333130000,22.3697960000 114.1333660000,22.3698110000 114.1334060000,22.3698520000 114.1334330000,22.3699010000 114.1334470000,22.3699540000 114.1334480000,22.3700090000 114.1334290000,22.3700760000 114.1333900000,22.3701340000 114.1333350000,22.3701800000 114.1332900000,22.3702120000 114.1328120000,22.3705120000 114.1326750000,22.3705980000 114.1319760000,22.3710380000 114.1315330000,22.3712770000 114.1311990000,22.3714130000 114.1309100000,22.3715250000 114.1306740000,22.3716100000 114.1305080000,22.3716650000 114.1303910000,22.3716990000 114.1302680000,22.3717120000 114.1301480000,22.3717240000 114.1299590000,22.3717270000 114.1290620000,22.3716690000 114.1288150000,22.3716500000 114.1283830000,22.3716070000 114.1279800000,22.3715480000 114.1278560000,22.3715290000 114.1271550000,22.3713060000 114.1269520000,22.3712540000 114.1266060000,22.3711870000 114.1264150000,22.3711660000 114.1258700000,22.3711380000 114.1257280000,22.3711300000 114.1252960000,22.3711040000 114.1252160000,22.3710980000 114.1251170000,22.3711030000 114.1249810000,22.3711170000 114.1248250000,22.3711660000 114.1247530000,22.3711850000 114.1246150000,22.3712300000 114.1245990000,22.3712350000 114.1244650000,22.3712760000 114.1243460000,22.3712850000 114.1237500000,22.3712970000 114.1236830000,22.3712850000 114.1236440000,22.3712670000 114.1236050000,22.3712420000 114.1235630000,22.3712060000 114.1235260000,22.3711580000 114.1234890000,22.3710820000 114.1234840000,22.3708900000 114.1234780000,22.3706360000 114.1234290000,22.3703850000 114.1233820000,22.3701890000 114.1233460000,22.3700960000 114.1232880000,22.3699450000 114.1232590000,22.3698660000 114.1232090000,22.3696770000 114.1231070000,22.3695060000 114.1230760000,22.3694540000 114.1229980000,22.3693310000 114.1225680000,22.3686330000 114.1225050000,22.3685450000 114.1224810000,22.3685080000 114.1224580000,22.3684720000 114.1224270000,22.3684240000 114.1224040000,22.3683880000 114.1222680000,22.3681760000 114.1221930000,22.3680500000 114.1220810000,22.3678580000 114.1219640000,22.3676650000 114.1219190000,22.3675900000 114.1218830000,22.3675310000 114.1218370000,22.3674220000 114.1216460000,22.3672340000 114.1215870000,22.3671820000 114.1215180000,22.3671440000 114.1214800000,22.3671300000 114.1214420000,22.3671250000 114.1213780000,22.3671510000 114.1213200000,22.3671800000 114.1207030000,22.3675110000 114.1205870000,22.3675730000 114.1204670000,22.3676370000 114.1203680000,22.3676900000 114.1199300000,22.3679260000 114.1199030000,22.3679410000 114.1192490000,22.3682930000 114.1191000000,22.3683740000 114.1190520000,22.3683980000 114.1189940000,22.3684260000 114.1189130000,22.3684680000 114.1187310000,22.3685690000 114.1185880000,22.3686490000 114.1182510000,22.3688340000 114.1181660000,22.3688810000 114.1180540000,22.3689420000 114.1177970000,22.3690820000 114.1177730000,22.3690950000 114.1176320000,22.3691730000 114.1175700000,22.3692070000 114.1172720000,22.3693710000 114.1170890000,22.3694660000 114.1169170000,22.3695560000 114.1168780000,22.3695730000 114.1167170000,22.3696530000 114.1166120000,22.3697080000 114.1164720000,22.3697830000 114.1162150000,22.3699200000 114.1160060000,22.3700310000 114.1157990000,22.3701410000 114.1157750000,22.3701540000 114.1156910000,22.3702000000 114.1154020000,22.3703550000 114.1153170000,22.3704010000 114.1152030000,22.3704630000 114.1150290000,22.3705570000 114.1149900000,22.3705780000 114.1148920000,22.3706310000 114.1145960000,22.3707890000 114.1145660000,22.3708050000 114.1145240000,22.3708280000 114.1144840000,22.3708500000 114.1143820000,22.3709040000 114.1142610000,22.3709610000 114.1138780000,22.3711430000 114.1137700000,22.3711890000 114.1136520000,22.3712600000 114.1134990000,22.3713500000 114.1134320000,22.3713880000 114.1132820000,22.3714730000 114.1130360000,22.3716190000 114.1128840000,22.3717100000 114.1128230000,22.3717470000 114.1127340000,22.3717990000 114.1123360000,22.3720050000 114.1122790000,22.3720410000 114.1122060000,22.3720930000 114.1117580000,22.3723400000 114.1116770000,22.3723820000 114.1115460000,22.3724560000 114.1112620000,22.3726120000 114.1108830000,22.3728220000 114.1107450000,22.3728980000 114.1106700000,22.3729360000 114.1105620000,22.3729970000 114.1104180000,22.3730740000 114.1091850000,22.3737600000 114.1090400000,22.3738850000 114.1084330000,22.3742100000 114.1081700000,22.3743460000 114.1079840000,22.3744450000 114.1078560000,22.3745500000 114.1077040000,22.3747380000 114.1076190000,22.3748930000 114.1072870000,22.3760840000 114.1072630000,22.3763080000 114.1072470000,22.3763650000 114.1072110000,22.3765050000 114.1071830000,22.3766010000 114.1071540000,22.3766740000 114.1071220000,22.3767360000 114.1070830000,22.3767900000 114.1070410000,22.3768440000 114.1069930000,22.3768870000 114.1069470000,22.3769200000 114.1068980000,22.3769480000 114.1068470000,22.3769720000 114.1067930000,22.3769880000 114.1067310000,22.3769990000 114.1066640000,22.3770020000 114.1065950000,22.3770010000 114.1065280000,22.3769960000 114.1064670000,22.3769850000 114.1063950000,22.3769700000 114.1063150000,22.3769490000 114.1062170000,22.3769170000 114.1060790000,22.3768670000 114.1060510000,22.3768570000 114.1060240000,22.3768480000 114.1059600000,22.3768260000 114.1058100000,22.3767740000 114.1055020000,22.3766700000 114.1052510000,22.3765820000 114.1051640000,22.3765520000 114.1048200000,22.3764230000 114.1047270000,22.3763870000 114.1045120000,22.3763070000 114.1041680000,22.3762340000 114.1039750000,22.3762590000 114.1038200000,22.3763240000 114.1037100000,22.3764340000 114.1036270000,22.3765600000 114.1035990000,22.3766750000 114.1035970000,22.3767730000 114.1036150000,22.3768850000 114.1036560000,22.3769670000 114.1036900000,22.3770200000 114.1037510000,22.3770820000 114.1038260000,22.3771290000 114.1039090000,22.3771660000 114.1042010000,22.3772630000 114.1043760000,22.3773180000 114.1044770000,22.3773750000 114.1045180000,22.3774060000 114.1045880000,22.3774670000 114.1046490000,22.3775460000 114.1047060000,22.3776830000 114.1047430000,22.3778320000 114.1047490000,22.3779190000 114.1047420000,22.3779950000 114.1047270000,22.3780800000 114.1047000000,22.3781730000 114.1045270000,22.3784680000 114.1044270000,22.3786330000 114.1043730000,22.3787220000 114.1042650000,22.3788940000 114.1042310000,22.3789440000 114.1042260000,22.3789520000 114.1042040000,22.3789830000 114.1041420000,22.3790880000 114.1042150000,22.3791740000 114.1043180000,22.3792850000 114.1044850000,22.3794180000 114.1046370000,22.3795320000 114.1047670000,22.3796140000 114.1051850000,22.3798800000 114.1052420000,22.3799160000 114.1053060000,22.3799490000 114.1053720000,22.3799770000 114.1054410000,22.3799990000 114.1055240000,22.3800150000 114.1056020000,22.3800190000 114.1056980000,22.3800100000 114.1057750000,22.3799920000 114.1058420000,22.3799600000 114.1059010000,22.3799220000 114.1059560000,22.3798720000 114.1060030000,22.3798170000 114.1060350000,22.3797630000 114.1060630000,22.3796920000 114.1060790000,22.3796270000 114.1060850000,22.3795610000 114.1060830000,22.3794970000 114.1060660000,22.3794190000 114.1060320000,22.3793090000 114.1059460000,22.3790820000 114.1059250000,22.3790080000 114.1059150000,22.3789490000 114.1059120000,22.3788930000 114.1059280000,22.3787950000 114.1059710000,22.3786890000 114.1060280000,22.3786010000 114.1061170000,22.3785400000 114.1062030000,22.3785010000 114.1063540000,22.3784750000 114.1065010000,22.3784690000 114.1066730000,22.3784880000 114.1068180000,22.3785130000 114.1069970000,22.3785470000 114.1071250000,22.3785710000 114.1072830000,22.3786130000 114.1074760000,22.3786640000 114.1075480000,22.3786780000 114.1075940000,22.3786870000 114.1078080000,22.3787340000 114.1078590000,22.3787430000 114.1079060000,22.3787450000 114.1079590000,22.3787410000 114.1080960000,22.3787180000 114.1081400000,22.3787050000 114.1082410000,22.3786780000 114.1085640000,22.3785710000 114.1086520000,22.3785430000 114.1090190000,22.3784240000 114.1092440000,22.3783490000 114.1092700000,22.3783400000 114.1094100000,22.3782930000 114.1094920000,22.3782660000 114.1095550000,22.3782440000 114.1097550000,22.3781680000 114.1098520000,22.3781190000 114.1099600000,22.3780630000 114.1100440000,22.3779950000 114.1101170000,22.3778980000 114.1101680000,22.3777900000 114.1103070000,22.3774410000 114.1103580000,22.3773060000 114.1103820000,22.3772480000 114.1104370000,22.3772220000 114.1104800000,22.3771310000 114.1104860000,22.3771130000 114.1105180000,22.3770260000 114.1105670000,22.3768950000 114.1106000000,22.3767910000 114.1106240000,22.3767140000 114.1106360000,22.3766680000 114.1106670000,22.3764730000 114.1106730000,22.3764170000 114.1106860000,22.3763350000 114.1106940000,22.3762870000 114.1107030000,22.3762120000 114.1107180000,22.3759820000 114.1107200000,22.3759370000 114.1107300000,22.3757540000 114.1107120000,22.3756950000 114.1106960000,22.3756580000 114.1106590000,22.3755840000 114.1106180000,22.3755100000 114.1105830000,22.3754770000 114.1105640000,22.3754590000 114.1103260000,22.3754580000 114.1096540000,22.3754460000 114.1093970000,22.3754470000 114.1092160000,22.3754460000 114.1090330000,22.3754470000 114.1088190000,22.3754480000 114.1085600000,22.3754530000 114.1083940000,22.3754700000 114.1079900000,22.3754850000 114.1079170000,22.3754880000 114.1077270000,22.3754520000 114.1075460000,22.3754470000 114.1074170000,22.3754450000 114.1073640000,22.3754450000 114.1069100000,22.3754250000 114.1066100000,22.3753920000 114.1064790000,22.3753690000 114.1063490000,22.3753360000 114.1062060000,22.3752810000 114.1059740000,22.3751730000 114.1057670000,22.3750420000 114.1056440000,22.3749440000 114.1055220000,22.3748150000 114.1053790000,22.3746680000 114.1052040000,22.3744600000 114.1051410000,22.3743690000 114.1050880000,22.3742810000 114.1050770000,22.3742510000 114.1050570000,22.3741960000 114.1051040000,22.3741560000 114.1051410000,22.3740990000 114.1051570000,22.3740320000 114.1052620000,22.3738390000 114.1054120000,22.3734490000 114.1054870000,22.3731310000 114.1055490000,22.3729920000 114.1055820000,22.3729190000 114.1056510000,22.3727650000 114.1056720000,22.3727230000 114.1056920000,22.3726600000 114.1057430000,22.3725280000 114.1057180000,22.3724700000 114.1056900000,22.3724050000 114.1056030000,22.3724450000 114.1054960000,22.3724900000 114.1052650000,22.3725540000 114.1050210000,22.3726000000 114.1049170000,22.3726090000 114.1047950000,22.3726190000 114.1047320000,22.3726080000 114.1044870000,22.3725680000 114.1043530000,22.3725360000 114.1041590000,22.3724720000 114.1039620000,22.3723810000 114.1033300000,22.3719600000 114.1032210000,22.3719150000 114.1031240000,22.3719220000 114.1030900000,22.3719530000 114.1030720000,22.3719730000 114.1030130000,22.3720310000 114.1029870000,22.3720570000 114.1028920000,22.3721690000 114.1027870000,22.3722900000 114.1025850000,22.3725190000 114.1024800000,22.3726400000 114.1024230000,22.3727050000 114.1022870000,22.3726050000 114.1022330000,22.3725640000 114.1016040000,22.3720950000 114.1011540000,22.3717630000 114.1011410000,22.3717540000 114.1008480000,22.3715290000 114.1006930000,22.3714090000 114.1006190000,22.3713520000 114.1004470000,22.3712170000 114.1002950000,22.3711020000 114.1002520000,22.3710660000 114.1001090000,22.3709590000 114.0998380000,22.3707430000 114.0997350000,22.3706550000 114.0996350000,22.3705700000 114.0995290000,22.3704800000 114.0994400000,22.3705700000 114.0993810000,22.3706050000 114.0993420000,22.3706200000 114.0992980000,22.3706270000 114.0988130000,22.3706310000 114.0987900000,22.3706270000 114.0987670000,22.3706080000 114.0983470000,22.3702010000</coordinates>
                </LineString>
                <ExtendedData>
                    <Data name="duration">
                        <value>00:28:12</value>
                    </Data>
                    <Data name="length">
                        <value>16813.892528430024</value>
                    </Data>
                </ExtendedData>
            </Placemark>
        </Document>
    </Document>
</kml>