<?xml version="1.0" encoding="UTF-8"?>
<kml xmlns="http://www.opengis.net/kml/2.2" xmlns:gx="http://www.google.com/kml/ext/2.2">
    <Document>
        <name>Route</name>
        <Folder>
            <name>Route Request</name>
            <Placemark>
                <Point>
                    <coordinates>114.2176709979,22.3823157159</coordinates>
                </Point>
                <ExtendedData>
                    <Data name="routingVisited">
                        <value>false</value>
                    </Data>
                </ExtendedData>
            </Placemark>
            <Placemark>
                <Point>
                    <coordinates>114.2085465372,22.3794815946</coordinates>
                </Point>
            </Placemark>
            <Placemark>
                <Point>
                    <coordinates>114.2041841544,22.3876158423</coordinates>
                </Point>
            </Placemark>
            <Placemark>
                <address>Dragon Bridge, Yuen Wo Road, Wo Che, Yuen Chau Kok, Sha Tin, Sha Tin District, New Territories, Hong Kong, China</address>
                <Point>
                    <coordinates>114.2006812217,22.3870560863</coordinates>
                </Point>
                <ExtendedData>
                    <Data name="man_made">
                        <value>Dragon Bridge</value>
                    </Data>
                    <Data name="town">
                        <value>Sha Tin</value>
                    </Data>
                    <Data name="county">
                        <value>Sha Tin District</value>
                    </Data>
                    <Data name="region">
                        <value>New Territories</value>
                    </Data>
                    <Data name="state">
                        <value>Hong Kong</value>
                    </Data>
                    <Data name="suburb">
                        <value>Yuen Chau Kok</value>
                    </Data>
                    <Data name="country_code">
                        <value>cn</value>
                    </Data>
                    <Data name="ISO3166-2-lvl3">
                        <value>CN-HK</value>
                    </Data>
                    <Data name="quarter">
                        <value>Wo Che</value>
                    </Data>
                    <Data name="road">
                        <value>Yuen Wo Road</value>
                    </Data>
                    <Data name="country">
                        <value>China</value>
                    </Data>
                </ExtendedData>
            </Placemark>
            <Placemark>
                <address>Sun Chui Estate, Hung Mui Kuk Road, Kak Tin Village Kung Miu, San Tin Village, Tin Sam, Sha Tin District, New Territories, Hong Kong, China</address>
                <Point>
                    <coordinates>114.1797334123,22.3702068717</coordinates>
                </Point>
                <ExtendedData>
                    <Data name="county">
                        <value>Sha Tin District</value>
                    </Data>
                    <Data name="region">
                        <value>New Territories</value>
                    </Data>
                    <Data name="state">
                        <value>Hong Kong</value>
                    </Data>
                    <Data name="highway">
                        <value>Sun Chui Estate</value>
                    </Data>
                    <Data name="village">
                        <value>Tin Sam</value>
                    </Data>
                    <Data name="hamlet">
                        <value>San Tin Village</value>
                    </Data>
                    <Data name="country_code">
                        <value>cn</value>
                    </Data>
                    <Data name="ISO3166-2-lvl3">
                        <value>CN-HK</value>
                    </Data>
                    <Data name="neighbourhood">
                        <value>Kak Tin Village Kung Miu</value>
                    </Data>
                    <Data name="road">
                        <value>Hung Mui Kuk Road</value>
                    </Data>
                    <Data name="country">
                        <value>China</value>
                    </Data>
                </ExtendedData>
            </Placemark>
            <Placemark>
                <address>Tower 5, Wui Cheung Road, Ferry Point, Yau Ma Tei, Yau Tsim Mong District, Kowloon, Hong Kong, China</address>
                <Point>
                    <coordinates>114.1666154229,22.3046406252</coordinates>
                </Point>
                <ExtendedData>
                    <Data name="building">
                        <value>Tower 5</value>
                    </Data>
                    <Data name="state">
                        <value>Hong Kong</value>
                    </Data>
                    <Data name="suburb">
                        <value>Yau Ma Tei</value>
                    </Data>
                    <Data name="country_code">
                        <value>cn</value>
                    </Data>
                    <Data name="city_district">
                        <value>Yau Tsim Mong District</value>
                    </Data>
                    <Data name="ISO3166-2-lvl3">
                        <value>CN-HK</value>
                    </Data>
                    <Data name="neighbourhood">
                        <value>Ferry Point</value>
                    </Data>
                    <Data name="city">
                        <value>Kowloon</value>
                    </Data>
                    <Data name="road">
                        <value>Wui Cheung Road</value>
                    </Data>
                    <Data name="country">
                        <value>China</value>
                    </Data>
                </ExtendedData>
            </Placemark>
            <Placemark>
                <address>VIP Station, Haiphong Road, Kwun Chung, Tsim Sha Tsui, Yau Tsim Mong District, Kowloon, Hong Kong, China</address>
                <Point>
                    <coordinates>114.1714859591,22.2981079919</coordinates>
                </Point>
                <ExtendedData>
                    <Data name="state">
                        <value>Hong Kong</value>
                    </Data>
                    <Data name="shop">
                        <value>VIP Station</value>
                    </Data>
                    <Data name="suburb">
                        <value>Tsim Sha Tsui</value>
                    </Data>
                    <Data name="country_code">
                        <value>cn</value>
                    </Data>
                    <Data name="city_district">
                        <value>Yau Tsim Mong District</value>
                    </Data>
                    <Data name="ISO3166-2-lvl3">
                        <value>CN-HK</value>
                    </Data>
                    <Data name="neighbourhood">
                        <value>Kwun Chung</value>
                    </Data>
                    <Data name="city">
                        <value>Kowloon</value>
                    </Data>
                    <Data name="road">
                        <value>Haiphong Road</value>
                    </Data>
                    <Data name="country">
                        <value>China</value>
                    </Data>
                </ExtendedData>
            </Placemark>
            <Placemark>
                <Point>
                    <coordinates>114.1758293313,22.2999598824</coordinates>
                </Point>
            </Placemark>
            <Placemark>
                <address>Hung Hom Station, 8, Cheong Wan Road, Hung Hom Bay, Tsim Sha Tsui, Yau Tsim Mong District, Kowloon, Hong Kong, China</address>
                <Point>
                    <coordinates>114.1819422438,22.3042368703</coordinates>
                </Point>
                <ExtendedData>
                    <Data name="building">
                        <value>Hung Hom Station</value>
                    </Data>
                    <Data name="house_number">
                        <value>8</value>
                    </Data>
                    <Data name="state">
                        <value>Hong Kong</value>
                    </Data>
                    <Data name="suburb">
                        <value>Tsim Sha Tsui</value>
                    </Data>
                    <Data name="country_code">
                        <value>cn</value>
                    </Data>
                    <Data name="city_district">
                        <value>Yau Tsim Mong District</value>
                    </Data>
                    <Data name="ISO3166-2-lvl3">
                        <value>CN-HK</value>
                    </Data>
                    <Data name="quarter">
                        <value>Hung Hom Bay</value>
                    </Data>
                    <Data name="city">
                        <value>Kowloon</value>
                    </Data>
                    <Data name="road">
                        <value>Cheong Wan Road</value>
                    </Data>
                    <Data name="country">
                        <value>China</value>
                    </Data>
                </ExtendedData>
            </Placemark>
            <Placemark>
                <address>Cheron Court, 24-30, Wuhu Street, Tai Wan, Hung Hom, Kowloon City District, Kowloon, Hong Kong, China</address>
                <Point>
                    <coordinates>114.1869563144,22.3066949768</coordinates>
                </Point>
                <ExtendedData>
                    <Data name="building">
                        <value>Cheron Court</value>
                    </Data>
                    <Data name="house_number">
                        <value>24-30</value>
                    </Data>
                    <Data name="state">
                        <value>Hong Kong</value>
                    </Data>
                    <Data name="suburb">
                        <value>Hung Hom</value>
                    </Data>
                    <Data name="country_code">
                        <value>cn</value>
                    </Data>
                    <Data name="city_district">
                        <value>Kowloon City District</value>
                    </Data>
                    <Data name="ISO3166-2-lvl3">
                        <value>CN-HK</value>
                    </Data>
                    <Data name="neighbourhood">
                        <value>Tai Wan</value>
                    </Data>
                    <Data name="city">
                        <value>Kowloon</value>
                    </Data>
                    <Data name="road">
                        <value>Wuhu Street</value>
                    </Data>
                    <Data name="country">
                        <value>China</value>
                    </Data>
                </ExtendedData>
            </Placemark>
            <Placemark>
                <Point>
                    <coordinates>114.1887667849,22.3009236743</coordinates>
                </Point>
                <ExtendedData>
                    <Data name="routingVisited">
                        <value>false</value>
                    </Data>
                </ExtendedData>
            </Placemark>
            <Placemark>
                <address>Cheung Kei Center Tower A, Hung Luen Road, Tai Wan, Hung Hom, Kowloon City District, Kowloon, Hong Kong, China</address>
                <Point>
                    <coordinates>114.1870377151,22.3010667414</coordinates>
                </Point>
                <ExtendedData>
                    <Data name="building">
                        <value>Cheung Kei Center Tower A</value>
                    </Data>
                    <Data name="state">
                        <value>Hong Kong</value>
                    </Data>
                    <Data name="suburb">
                        <value>Hung Hom</value>
                    </Data>
                    <Data name="country_code">
                        <value>cn</value>
                    </Data>
                    <Data name="city_district">
                        <value>Kowloon City District</value>
                    </Data>
                    <Data name="ISO3166-2-lvl3">
                        <value>CN-HK</value>
                    </Data>
                    <Data name="neighbourhood">
                        <value>Tai Wan</value>
                    </Data>
                    <Data name="city">
                        <value>Kowloon</value>
                    </Data>
                    <Data name="road">
                        <value>Hung Luen Road</value>
                    </Data>
                    <Data name="country">
                        <value>China</value>
                    </Data>
                </ExtendedData>
            </Placemark>
            <Placemark>
                <address>Hung Hom South Road, Tai Wan, Hung Hom, Kowloon City District, Kowloon, Hong Kong, China</address>
                <Point>
                    <coordinates>114.1873034600,22.3039764038</coordinates>
                </Point>
                <ExtendedData>
                    <Data name="state">
                        <value>Hong Kong</value>
                    </Data>
                    <Data name="suburb">
                        <value>Hung Hom</value>
                    </Data>
                    <Data name="country_code">
                        <value>cn</value>
                    </Data>
                    <Data name="city_district">
                        <value>Kowloon City District</value>
                    </Data>
                    <Data name="ISO3166-2-lvl3">
                        <value>CN-HK</value>
                    </Data>
                    <Data name="neighbourhood">
                        <value>Tai Wan</value>
                    </Data>
                    <Data name="city">
                        <value>Kowloon</value>
                    </Data>
                    <Data name="road">
                        <value>Hung Hom South Road</value>
                    </Data>
                    <Data name="country">
                        <value>China</value>
                    </Data>
                </ExtendedData>
            </Placemark>
            <Placemark>
                <Point>
                    <coordinates>114.1821787042,22.3042486248</coordinates>
                </Point>
            </Placemark>
            <Placemark>
                <Point>
                    <coordinates>114.1756222806,22.2960803509</coordinates>
                </Point>
                <ExtendedData>
                    <Data name="routingVisited">
                        <value>false</value>
                    </Data>
                </ExtendedData>
            </Placemark>
            <Placemark>
                <address>1881 Heritage, Canton Road, Kwun Chung, Tsim Sha Tsui, Yau Tsim Mong District, Kowloon, Hong Kong, China</address>
                <Point>
                    <coordinates>114.1702836930,22.2958029890</coordinates>
                </Point>
                <ExtendedData>
                    <Data name="state">
                        <value>Hong Kong</value>
                    </Data>
                    <Data name="shop">
                        <value>1881 Heritage</value>
                    </Data>
                    <Data name="suburb">
                        <value>Tsim Sha Tsui</value>
                    </Data>
                    <Data name="country_code">
                        <value>cn</value>
                    </Data>
                    <Data name="city_district">
                        <value>Yau Tsim Mong District</value>
                    </Data>
                    <Data name="ISO3166-2-lvl3">
                        <value>CN-HK</value>
                    </Data>
                    <Data name="neighbourhood">
                        <value>Kwun Chung</value>
                    </Data>
                    <Data name="city">
                        <value>Kowloon</value>
                    </Data>
                    <Data name="road">
                        <value>Canton Road</value>
                    </Data>
                    <Data name="country">
                        <value>China</value>
                    </Data>
                </ExtendedData>
            </Placemark>
            <Placemark>
                <address>China Hong Kong City Tower 6, Canton Road, Kwun Chung, Tsim Sha Tsui, Yau Tsim Mong District, Kowloon, Hong Kong, China</address>
                <Point>
                    <coordinates>114.1681306654,22.3005276828</coordinates>
                </Point>
                <ExtendedData>
                    <Data name="building">
                        <value>China Hong Kong City Tower 6</value>
                    </Data>
                    <Data name="state">
                        <value>Hong Kong</value>
                    </Data>
                    <Data name="suburb">
                        <value>Tsim Sha Tsui</value>
                    </Data>
                    <Data name="country_code">
                        <value>cn</value>
                    </Data>
                    <Data name="city_district">
                        <value>Yau Tsim Mong District</value>
                    </Data>
                    <Data name="ISO3166-2-lvl3">
                        <value>CN-HK</value>
                    </Data>
                    <Data name="neighbourhood">
                        <value>Kwun Chung</value>
                    </Data>
                    <Data name="city">
                        <value>Kowloon</value>
                    </Data>
                    <Data name="road">
                        <value>Canton Road</value>
                    </Data>
                    <Data name="country">
                        <value>China</value>
                    </Data>
                </ExtendedData>
            </Placemark>
            <Placemark>
                <address>2, Wui Man Road, Ferry Point, Yau Ma Tei, Yau Tsim Mong District, Kowloon, Hong Kong, China</address>
                <Point>
                    <coordinates>114.1656529945,22.3053816778</coordinates>
                </Point>
                <ExtendedData>
                    <Data name="house_number">
                        <value>2</value>
                    </Data>
                    <Data name="state">
                        <value>Hong Kong</value>
                    </Data>
                    <Data name="suburb">
                        <value>Yau Ma Tei</value>
                    </Data>
                    <Data name="country_code">
                        <value>cn</value>
                    </Data>
                    <Data name="city_district">
                        <value>Yau Tsim Mong District</value>
                    </Data>
                    <Data name="ISO3166-2-lvl3">
                        <value>CN-HK</value>
                    </Data>
                    <Data name="neighbourhood">
                        <value>Ferry Point</value>
                    </Data>
                    <Data name="city">
                        <value>Kowloon</value>
                    </Data>
                    <Data name="road">
                        <value>Wui Man Road</value>
                    </Data>
                    <Data name="country">
                        <value>China</value>
                    </Data>
                </ExtendedData>
            </Placemark>
            <Placemark>
                <address>Golden Comfort Court, Hung Mui Kuk Road, Hung Mui Kuk, Hung Mui Kuk Tsuen, Tin Sam, Sha Tin District, New Territories, Hong Kong, China</address>
                <Point>
                    <coordinates>114.1809739599,22.3673183486</coordinates>
                </Point>
                <ExtendedData>
                    <Data name="county">
                        <value>Sha Tin District</value>
                    </Data>
                    <Data name="building">
                        <value>Golden Comfort Court</value>
                    </Data>
                    <Data name="region">
                        <value>New Territories</value>
                    </Data>
                    <Data name="state">
                        <value>Hong Kong</value>
                    </Data>
                    <Data name="village">
                        <value>Tin Sam</value>
                    </Data>
                    <Data name="isolated_dwelling">
                        <value>Hung Mui Kuk Tsuen</value>
                    </Data>
                    <Data name="country_code">
                        <value>cn</value>
                    </Data>
                    <Data name="ISO3166-2-lvl3">
                        <value>CN-HK</value>
                    </Data>
                    <Data name="quarter">
                        <value>Hung Mui Kuk</value>
                    </Data>
                    <Data name="road">
                        <value>Hung Mui Kuk Road</value>
                    </Data>
                    <Data name="country">
                        <value>China</value>
                    </Data>
                </ExtendedData>
            </Placemark>
            <Placemark>
                <address>Dragon Bridge, Yuen Wo Road, Wo Che, Yuen Chau Kok, Sha Tin, Sha Tin District, New Territories, Hong Kong, China</address>
                <Point>
                    <coordinates>114.2005927361,22.3867281274</coordinates>
                </Point>
                <ExtendedData>
                    <Data name="man_made">
                        <value>Dragon Bridge</value>
                    </Data>
                    <Data name="town">
                        <value>Sha Tin</value>
                    </Data>
                    <Data name="county">
                        <value>Sha Tin District</value>
                    </Data>
                    <Data name="region">
                        <value>New Territories</value>
                    </Data>
                    <Data name="state">
                        <value>Hong Kong</value>
                    </Data>
                    <Data name="suburb">
                        <value>Yuen Chau Kok</value>
                    </Data>
                    <Data name="country_code">
                        <value>cn</value>
                    </Data>
                    <Data name="ISO3166-2-lvl3">
                        <value>CN-HK</value>
                    </Data>
                    <Data name="quarter">
                        <value>Wo Che</value>
                    </Data>
                    <Data name="road">
                        <value>Yuen Wo Road</value>
                    </Data>
                    <Data name="country">
                        <value>China</value>
                    </Data>
                </ExtendedData>
            </Placemark>
            <Placemark>
                <Point>
                    <coordinates>114.2043910252,22.3793239936</coordinates>
                </Point>
            </Placemark>
            <Placemark>
                <Point>
                    <coordinates>114.2091669994,22.3798231143</coordinates>
                </Point>
            </Placemark>
            <Placemark>
                <Point>
                    <coordinates>114.2176611459,22.3823131158</coordinates>
                </Point>
                <ExtendedData>
                    <Data name="routingVisited">
                        <value>false</value>
                    </Data>
                </ExtendedData>
            </Placemark>
        </Folder>
        <Document>
            <name>48.1 km; 01:00 h (OSRM)</name>
            <Placemark>
                <name>Route</name>
                <LineString>
                    <coordinates>114.2175510000,22.3823150000 114.2175510000,22.3823430000 114.2175540000,22.3823790000 114.2175640000,22.3824130000 114.2175860000,22.3824370000 114.2176160000,22.3824470000 114.2176950000,22.3824500000 114.2178060000,22.3824490000 114.2178490000,22.3824260000 114.2178770000,22.3823990000 114.2178840000,22.3823760000 114.2178900000,22.3823490000 114.2178910000,22.3822760000 114.2178930000,22.3822010000 114.2178950000,22.3821430000 114.2178960000,22.3820950000 114.2178940000,22.3819370000 114.2177960000,22.3819170000 114.2177070000,22.3818750000 114.2176290000,22.3818160000 114.2175270000,22.3817340000 114.2173990000,22.3816150000 114.2172480000,22.3814900000 114.2170870000,22.3814230000 114.2169230000,22.3813800000 114.2167180000,22.3813630000 114.2165500000,22.3813730000 114.2163870000,22.3814130000 114.2162250000,22.3814970000 114.2160760000,22.3815960000 114.2159650000,22.3816910000 114.2158730000,22.3817950000 114.2155820000,22.3821540000 114.2152910000,22.3825050000 114.2151140000,22.3826460000 114.2149280000,22.3828210000 114.2147440000,22.3829530000 114.2146200000,22.3830260000 114.2145430000,22.3830680000 114.2144700000,22.3831030000 114.2143910000,22.3831370000 114.2143570000,22.3831480000 114.2143010000,22.3831670000 114.2142780000,22.3831740000 114.2141790000,22.3832020000 114.2141420000,22.3830820000 114.2140990000,22.3828970000 114.2140630000,22.3826840000 114.2140080000,22.3824520000 114.2138490000,22.3818030000 114.2138030000,22.3816020000 114.2137040000,22.3811220000 114.2136670000,22.3810220000 114.2136070000,22.3809200000 114.2135190000,22.3808200000 114.2134470000,22.3807370000 114.2133670000,22.3806700000 114.2132790000,22.3806180000 114.2131970000,22.3805730000 114.2131000000,22.3805400000 114.2130000000,22.3805060000 114.2129000000,22.3804800000 114.2127700000,22.3804600000 114.2126270000,22.3804520000 114.2125380000,22.3804670000 114.2124560000,22.3804840000 114.2122860000,22.3805240000 114.2119740000,22.3806170000 114.2118350000,22.3806690000 114.2117180000,22.3807200000 114.2116230000,22.3807650000 114.2115370000,22.3807930000 114.2114480000,22.3808020000 114.2114100000,22.3808050000 114.2113500000,22.3807950000 114.2112910000,22.3807720000 114.2109800000,22.3806190000 114.2097130000,22.3800240000 114.2088180000,22.3796230000 114.2086800000,22.3795700000 114.2085910000,22.3795400000 114.2085360000,22.3795280000 114.2085200000,22.3795250000 114.2084540000,22.3795220000 114.2084010000,22.3795260000 114.2083220000,22.3795400000 114.2082220000,22.3795730000 114.2080880000,22.3796430000 114.2078630000,22.3798390000 114.2076920000,22.3800470000 114.2076320000,22.3801250000 114.2075430000,22.3802410000 114.2074490000,22.3803010000 114.2074040000,22.3803560000 114.2073900000,22.3803730000 114.2072680000,22.3804860000 114.2071390000,22.3803950000 114.2070850000,22.3803700000 114.2054350000,22.3792670000 114.2052230000,22.3791410000 114.2048850000,22.3789310000 114.2048580000,22.3789150000 114.2048180000,22.3788880000 114.2047190000,22.3788210000 114.2046380000,22.3787370000 114.2045620000,22.3788430000 114.2044750000,22.3789520000 114.2044390000,22.3790010000 114.2044120000,22.3790380000 114.2034970000,22.3802950000 114.2034210000,22.3804000000 114.2033370000,22.3805100000 114.2026080000,22.3814420000 114.2024840000,22.3815920000 114.2024160000,22.3816560000 114.2023720000,22.3817130000 114.2023570000,22.3817320000 114.2022830000,22.3818290000 114.2020970000,22.3820950000 114.2019570000,22.3823350000 114.2018610000,22.3825770000 114.2018070000,22.3827480000 114.2017680000,22.3829370000 114.2017460000,22.3832180000 114.2017440000,22.3833200000 114.2017510000,22.3833830000 114.2017850000,22.3836690000 114.2018090000,22.3837630000 114.2018570000,22.3839480000 114.2019380000,22.3842560000 114.2020030000,22.3847170000 114.2020200000,22.3848920000 114.2020290000,22.3850530000 114.2020350000,22.3851600000 114.2020320000,22.3852880000 114.2020360000,22.3854020000 114.2020580000,22.3854750000 114.2021020000,22.3855540000 114.2021620000,22.3856240000 114.2022480000,22.3857110000 114.2024120000,22.3858710000 114.2027540000,22.3862030000 114.2028570000,22.3863000000 114.2029670000,22.3864000000 114.2030540000,22.3864770000 114.2035690000,22.3869900000 114.2039820000,22.3873870000 114.2041320000,22.3875270000 114.2042040000,22.3875990000 114.2043130000,22.3877070000 114.2043580000,22.3877480000 114.2044230000,22.3878100000 114.2043060000,22.3879200000 114.2041290000,22.3880820000 114.2036690000,22.3885070000 114.2035800000,22.3885660000 114.2033000000,22.3888220000 114.2031970000,22.3889180000 114.2029840000,22.3890180000 114.2029370000,22.3890280000 114.2027040000,22.3890610000 114.2025970000,22.3890160000 114.2024440000,22.3889540000 114.2023030000,22.3888840000 114.2021230000,22.3887760000 114.2020190000,22.3887030000 114.2019260000,22.3886310000 114.2018730000,22.3885900000 114.2016370000,22.3883660000 114.2013350000,22.3880410000 114.2012090000,22.3879200000 114.2009930000,22.3877010000 114.2006990000,22.3874090000 114.2006840000,22.3873240000 114.2006740000,22.3872290000 114.2006770000,22.3871520000 114.2006870000,22.3870910000 114.2006980000,22.3870620000 114.2006980000,22.3870610000 114.2007160000,22.3870120000 114.2007610000,22.3869360000 114.2008220000,22.3868810000 114.2008640000,22.3868480000 114.2010040000,22.3867680000 114.2012210000,22.3866940000 114.2013530000,22.3866410000 114.2014110000,22.3866170000 114.2014740000,22.3865660000 114.2015340000,22.3864890000 114.2015990000,22.3863760000 114.2016200000,22.3863260000 114.2016520000,22.3862360000 114.2016890000,22.3860790000 114.2017260000,22.3859210000 114.2017490000,22.3858000000 114.2017660000,22.3856720000 114.2017930000,22.3854410000 114.2018050000,22.3853250000 114.2018170000,22.3851300000 114.2018110000,22.3849500000 114.2017890000,22.3847510000 114.2017600000,22.3845470000 114.2016370000,22.3842350000 114.2015930000,22.3840380000 114.2013450000,22.3831060000 114.2010010000,22.3818170000 114.2008830000,22.3814070000 114.2007790000,22.3810340000 114.2006650000,22.3807590000 114.2003970000,22.3801290000 114.1998270000,22.3788190000 114.1994210000,22.3779210000 114.1992220000,22.3774800000 114.1990130000,22.3770250000 114.1987990000,22.3765910000 114.1987190000,22.3764510000 114.1986370000,22.3763210000 114.1985480000,22.3761910000 114.1984670000,22.3760820000 114.1983730000,22.3759630000 114.1982710000,22.3758470000 114.1981850000,22.3757500000 114.1980870000,22.3756530000 114.1979820000,22.3755520000 114.1978680000,22.3754480000 114.1977600000,22.3753620000 114.1976640000,22.3752870000 114.1975350000,22.3751980000 114.1973620000,22.3750810000 114.1972300000,22.3750010000 114.1970920000,22.3749230000 114.1968800000,22.3748140000 114.1965940000,22.3746920000 114.1964570000,22.3746410000 114.1963230000,22.3745990000 114.1962130000,22.3745670000 114.1956420000,22.3744120000 114.1955530000,22.3743860000 114.1949580000,22.3742220000 114.1945890000,22.3741220000 114.1942840000,22.3740460000 114.1939300000,22.3739510000 114.1937050000,22.3738920000 114.1934650000,22.3738350000 114.1931790000,22.3737490000 114.1928720000,22.3736480000 114.1924190000,22.3735100000 114.1920060000,22.3733540000 114.1915310000,22.3731640000 114.1911660000,22.3730040000 114.1909660000,22.3729110000 114.1908420000,22.3728490000 114.1907200000,22.3727790000 114.1906110000,22.3727090000 114.1905020000,22.3726320000 114.1903990000,22.3725550000 114.1902980000,22.3724700000 114.1902810000,22.3724530000 114.1902250000,22.3723990000 114.1901640000,22.3723380000 114.1900760000,22.3722380000 114.1899510000,22.3720800000 114.1898570000,22.3719490000 114.1897300000,22.3717530000 114.1896120000,22.3715580000 114.1894250000,22.3712220000 114.1893190000,22.3710590000 114.1891680000,22.3708500000 114.1890670000,22.3707250000 114.1889520000,22.3705910000 114.1888340000,22.3704690000 114.1886250000,22.3702730000 114.1884330000,22.3701180000 114.1882100000,22.3699330000 114.1880410000,22.3697880000 114.1879540000,22.3697020000 114.1878800000,22.3696170000 114.1878240000,22.3695470000 114.1877670000,22.3694610000 114.1877080000,22.3693670000 114.1876540000,22.3692590000 114.1876080000,22.3691400000 114.1875790000,22.3690580000 114.1875470000,22.3689430000 114.1874810000,22.3686040000 114.1874340000,22.3684160000 114.1873910000,22.3682830000 114.1873430000,22.3681710000 114.1872780000,22.3680460000 114.1872020000,22.3679280000 114.1871040000,22.3678120000 114.1870030000,22.3677130000 114.1868580000,22.3675950000 114.1861840000,22.3670450000 114.1859540000,22.3668650000 114.1856940000,22.3666560000 114.1850500000,22.3661330000 114.1848690000,22.3659880000 114.1847310000,22.3658780000 114.1846070000,22.3657970000 114.1845040000,22.3657400000 114.1843680000,22.3656690000 114.1842120000,22.3655990000 114.1840490000,22.3655360000 114.1838630000,22.3654690000 114.1837320000,22.3654240000 114.1835390000,22.3653620000 114.1832750000,22.3652790000 114.1830560000,22.3652020000 114.1827930000,22.3650980000 114.1827290000,22.3650370000 114.1826570000,22.3649810000 114.1825810000,22.3649280000 114.1822970000,22.3647780000 114.1822730000,22.3647600000 114.1822460000,22.3647240000 114.1822290000,22.3646760000 114.1822180000,22.3646190000 114.1822120000,22.3644750000 114.1822060000,22.3643710000 114.1822070000,22.3642930000 114.1822020000,22.3642220000 114.1821750000,22.3641400000 114.1821370000,22.3640640000 114.1820910000,22.3639960000 114.1820180000,22.3639400000 114.1819110000,22.3639100000 114.1818010000,22.3639130000 114.1817120000,22.3639370000 114.1816260000,22.3639840000 114.1815930000,22.3640220000 114.1815570000,22.3640840000 114.1815370000,22.3641060000 114.1815190000,22.3641280000 114.1814910000,22.3641670000 114.1814540000,22.3642270000 114.1814470000,22.3642400000 114.1813190000,22.3644590000 114.1812780000,22.3645280000 114.1810850000,22.3648460000 114.1809460000,22.3650840000 114.1809320000,22.3651070000 114.1808600000,22.3652090000 114.1808290000,22.3652760000 114.1807740000,22.3653300000 114.1807510000,22.3653980000 114.1807200000,22.3655000000 114.1806990000,22.3656240000 114.1806800000,22.3657360000 114.1806750000,22.3657680000 114.1806700000,22.3658010000 114.1806500000,22.3659670000 114.1806540000,22.3661980000 114.1806670000,22.3663190000 114.1806850000,22.3664500000 114.1807520000,22.3669080000 114.1807750000,22.3670690000 114.1807970000,22.3673070000 114.1807940000,22.3675680000 114.1807770000,22.3678750000 114.1807340000,22.3682040000 114.1806470000,22.3685730000 114.1804930000,22.3689690000 114.1803770000,22.3692170000 114.1803680000,22.3692340000 114.1802990000,22.3693630000 114.1802660000,22.3694410000 114.1799830000,22.3699090000 114.1798290000,22.3701470000 114.1797600000,22.3702270000 114.1796310000,22.3703770000 114.1794070000,22.3706280000 114.1792130000,22.3708270000 114.1790850000,22.3709570000 114.1789350000,22.3710460000 114.1788640000,22.3710910000 114.1787760000,22.3711480000 114.1787240000,22.3711460000 114.1786530000,22.3711470000 114.1786030000,22.3711540000 114.1785010000,22.3711300000 114.1784100000,22.3711000000 114.1782740000,22.3710510000 114.1781600000,22.3709890000 114.1780780000,22.3709440000 114.1778600000,22.3707970000 114.1775200000,22.3705670000 114.1774200000,22.3704990000 114.1773200000,22.3704310000 114.1770370000,22.3702360000 114.1768420000,22.3701020000 114.1767100000,22.3700110000 114.1763010000,22.3696960000 114.1756300000,22.3691220000 114.1754820000,22.3689880000 114.1752980000,22.3688210000 114.1752700000,22.3687970000 114.1751700000,22.3687130000 114.1749840000,22.3685720000 114.1748950000,22.3685070000 114.1747850000,22.3684350000 114.1746850000,22.3683760000 114.1745990000,22.3683330000 114.1745080000,22.3682910000 114.1743770000,22.3682430000 114.1742590000,22.3682080000 114.1741290000,22.3681780000 114.1739970000,22.3681550000 114.1738730000,22.3681420000 114.1737220000,22.3681360000 114.1735100000,22.3681380000 114.1731860000,22.3681440000 114.1730830000,22.3681400000 114.1729870000,22.3681320000 114.1728960000,22.3681170000 114.1728120000,22.3680970000 114.1727200000,22.3680690000 114.1726580000,22.3680450000 114.1725990000,22.3680190000 114.1725070000,22.3679710000 114.1724030000,22.3679060000 114.1722270000,22.3677780000 114.1715910000,22.3673030000 114.1712410000,22.3671300000 114.1710830000,22.3669950000 114.1708010000,22.3668090000 114.1707350000,22.3667650000 114.1705850000,22.3666650000 114.1700580000,22.3663920000 114.1696200000,22.3661870000 114.1693700000,22.3660800000 114.1690900000,22.3659700000 114.1688000000,22.3658700000 114.1679000000,22.3655600000 114.1676500000,22.3654680000 114.1674100000,22.3653700000 114.1671510000,22.3652590000 114.1668800000,22.3651200000 114.1666000000,22.3649610000 114.1663400000,22.3648000000 114.1661110000,22.3646300000 114.1658330000,22.3644190000 114.1655700000,22.3641900000 114.1652900000,22.3639200000 114.1650400000,22.3636500000 114.1647950000,22.3633420000 114.1645710000,22.3630290000 114.1644150000,22.3627810000 114.1642800000,22.3625400000 114.1641500000,22.3622800000 114.1640460000,22.3620400000 114.1638700000,22.3615800000 114.1637210000,22.3611110000 114.1635960000,22.3604240000 114.1635340000,22.3601250000 114.1634800000,22.3598630000 114.1633900000,22.3593350000 114.1633360000,22.3591380000 114.1631150000,22.3585280000 114.1629250000,22.3581210000 114.1628900000,22.3580470000 114.1628420000,22.3579440000 114.1627680000,22.3578120000 114.1612200000,22.3548600000 114.1609300000,22.3543480000 114.1606500000,22.3538990000 114.1602900000,22.3533700000 114.1598500000,22.3527830000 114.1593800000,22.3522300000 114.1588600000,22.3516800000 114.1582120000,22.3510800000 114.1575320000,22.3505200000 114.1568480000,22.3500100000 114.1560300000,22.3495000000 114.1552990000,22.3490900000 114.1545000000,22.3487000000 114.1540510000,22.3485090000 114.1536090000,22.3483400000 114.1529600000,22.3481200000 114.1525800000,22.3480000000 114.1521900000,22.3478900000 114.1514300000,22.3477100000 114.1502620000,22.3474600000 114.1501650000,22.3474350000 114.1499190000,22.3473730000 114.1497280000,22.3473150000 114.1496100000,22.3472800000 114.1493680000,22.3471970000 114.1491700000,22.3471300000 114.1490130000,22.3470680000 114.1489200000,22.3470310000 114.1487670000,22.3469630000 114.1486770000,22.3469230000 114.1485300000,22.3468500000 114.1484300000,22.3468000000 114.1482670000,22.3467040000 114.1482100000,22.3466700000 114.1480400000,22.3465580000 114.1476800000,22.3463200000 114.1473860000,22.3460910000 114.1467400000,22.3455350000 114.1464340000,22.3452630000 114.1459170000,22.3448260000 114.1457580000,22.3446850000 114.1448280000,22.3438830000 114.1447810000,22.3438410000 114.1446950000,22.3437580000 114.1443400000,22.3434000000 114.1442300000,22.3432750000 114.1441560000,22.3431830000 114.1441010000,22.3431170000 114.1439850000,22.3429480000 114.1438910000,22.3427920000 114.1438380000,22.3426930000 114.1437440000,22.3425030000 114.1436790000,22.3423470000 114.1436390000,22.3422260000 114.1435950000,22.3420830000 114.1435560000,22.3419220000 114.1435400000,22.3418500000 114.1435250000,22.3417710000 114.1435190000,22.3417290000 114.1435150000,22.3416860000 114.1435060000,22.3416020000 114.1434990000,22.3415250000 114.1434930000,22.3414410000 114.1434900000,22.3413600000 114.1434900000,22.3412740000 114.1434920000,22.3411950000 114.1434960000,22.3411200000 114.1435020000,22.3410470000 114.1435140000,22.3409550000 114.1435270000,22.3408740000 114.1435390000,22.3408140000 114.1435590000,22.3407210000 114.1435800000,22.3406360000 114.1436270000,22.3404810000 114.1437240000,22.3401940000 114.1438100000,22.3399820000 114.1438890000,22.3398040000 114.1440160000,22.3395560000 114.1441260000,22.3393600000 114.1441890000,22.3392460000 114.1442730000,22.3390930000 114.1443360000,22.3389720000 114.1444390000,22.3387750000 114.1444930000,22.3386650000 114.1445600000,22.3385210000 114.1446240000,22.3383580000 114.1447030000,22.3381300000 114.1447480000,22.3379760000 114.1447790000,22.3378470000 114.1447990000,22.3377460000 114.1448290000,22.3375470000 114.1448450000,22.3374170000 114.1448570000,22.3372800000 114.1448640000,22.3371400000 114.1448640000,22.3370970000 114.1448650000,22.3370360000 114.1448550000,22.3368660000 114.1448480000,22.3367820000 114.1448190000,22.3363080000 114.1447990000,22.3359850000 114.1447760000,22.3356030000 114.1447880000,22.3355150000 114.1448000000,22.3354270000 114.1448140000,22.3353290000 114.1448280000,22.3352280000 114.1448400000,22.3351580000 114.1448410000,22.3350380000 114.1448480000,22.3349410000 114.1448610000,22.3347450000 114.1448720000,22.3344950000 114.1448740000,22.3342030000 114.1448660000,22.3339160000 114.1448600000,22.3336460000 114.1448480000,22.3334670000 114.1448420000,22.3332770000 114.1448450000,22.3331250000 114.1448470000,22.3329750000 114.1448500000,22.3327920000 114.1448560000,22.3325910000 114.1448570000,22.3324600000 114.1448680000,22.3322660000 114.1448700000,22.3321190000 114.1449140000,22.3317840000 114.1449270000,22.3316830000 114.1449700000,22.3315250000 114.1450250000,22.3313930000 114.1451020000,22.3312730000 114.1452250000,22.3311440000 114.1453490000,22.3310510000 114.1455680000,22.3309560000 114.1458640000,22.3308150000 114.1463940000,22.3305740000 114.1469190000,22.3303140000 114.1473950000,22.3301400000 114.1478570000,22.3299480000 114.1485500000,22.3297040000 114.1490120000,22.3295020000 114.1497570000,22.3291370000 114.1501000000,22.3289550000 114.1503960000,22.3287860000 114.1507410000,22.3285760000 114.1520550000,22.3277150000 114.1526590000,22.3272860000 114.1531820000,22.3269000000 114.1537150000,22.3264900000 114.1539540000,22.3262910000 114.1542690000,22.3260350000 114.1546560000,22.3256860000 114.1550120000,22.3253750000 114.1552850000,22.3251110000 114.1556570000,22.3247580000 114.1560600000,22.3243000000 114.1567060000,22.3235550000 114.1567430000,22.3235030000 114.1568550000,22.3233440000 114.1569080000,22.3232710000 114.1573880000,22.3226920000 114.1579820000,22.3219540000 114.1583150000,22.3215070000 114.1585590000,22.3211830000 114.1589350000,22.3206510000 114.1591490000,22.3204150000 114.1592700000,22.3202300000 114.1596570000,22.3196390000 114.1597220000,22.3195250000 114.1600670000,22.3188780000 114.1601600000,22.3186780000 114.1603530000,22.3182160000 114.1605700000,22.3176950000 114.1606510000,22.3175050000 114.1607520000,22.3172820000 114.1608430000,22.3171150000 114.1609630000,22.3168040000 114.1610130000,22.3166750000 114.1610580000,22.3165690000 114.1612820000,22.3160930000 114.1615940000,22.3151600000 114.1616210000,22.3150420000 114.1616630000,22.3148470000 114.1617090000,22.3146260000 114.1617180000,22.3145850000 114.1617610000,22.3143630000 114.1617950000,22.3141820000 114.1618400000,22.3139470000 114.1618540000,22.3138860000 114.1619300000,22.3135340000 114.1619620000,22.3132810000 114.1619890000,22.3131180000 114.1620400000,22.3129050000 114.1620910000,22.3127390000 114.1621810000,22.3124970000 114.1623300000,22.3122030000 114.1624120000,22.3120370000 114.1624470000,22.3119660000 114.1624840000,22.3118920000 114.1625150000,22.3118310000 114.1626730000,22.3115750000 114.1627230000,22.3114440000 114.1627410000,22.3113690000 114.1627600000,22.3112920000 114.1628260000,22.3108880000 114.1629370000,22.3105970000 114.1630730000,22.3102810000 114.1631720000,22.3100970000 114.1632650000,22.3099790000 114.1633540000,22.3098870000 114.1634410000,22.3097720000 114.1635140000,22.3095890000 114.1636040000,22.3093920000 114.1637680000,22.3090770000 114.1639050000,22.3087370000 114.1639240000,22.3086800000 114.1639710000,22.3085880000 114.1640530000,22.3084250000 114.1640740000,22.3083150000 114.1640870000,22.3082420000 114.1641080000,22.3081220000 114.1641220000,22.3080040000 114.1641360000,22.3078700000 114.1641410000,22.3077300000 114.1641480000,22.3074180000 114.1641510000,22.3072440000 114.1641330000,22.3071390000 114.1641340000,22.3070360000 114.1641610000,22.3068400000 114.1641630000,22.3067690000 114.1641620000,22.3066140000 114.1649440000,22.3064370000 114.1650850000,22.3064080000 114.1652860000,22.3063690000 114.1653710000,22.3061990000 114.1654540000,22.3060530000 114.1655400000,22.3058730000 114.1657400000,22.3054690000 114.1660700000,22.3048250000 114.1661230000,22.3047260000 114.1662300000,22.3045100000 114.1665630000,22.3045940000 114.1666250000,22.3046100000 114.1667130000,22.3046340000 114.1668080000,22.3046590000 114.1668940000,22.3046910000 114.1670280000,22.3047420000 114.1671790000,22.3048010000 114.1673450000,22.3048890000 114.1674740000,22.3049560000 114.1675430000,22.3048490000 114.1677210000,22.3045350000 114.1678380000,22.3041540000 114.1679720000,22.3037150000 114.1681040000,22.3031780000 114.1681400000,22.3030330000 114.1681430000,22.3029510000 114.1681130000,22.3025490000 114.1681100000,22.3025220000 114.1680750000,22.3022550000 114.1680550000,22.3018880000 114.1680740000,22.3017180000 114.1680770000,22.3017020000 114.1681190000,22.3014780000 114.1682150000,22.3010760000 114.1682860000,22.3007810000 114.1683550000,22.3005640000 114.1684710000,22.3003510000 114.1685590000,22.3002120000 114.1685440000,22.3000600000 114.1685350000,22.3000010000 114.1685140000,22.2999060000 114.1685030000,22.2998440000 114.1684930000,22.2997900000 114.1684990000,22.2996530000 114.1685680000,22.2993120000 114.1688320000,22.2979810000 114.1694340000,22.2980130000 114.1696580000,22.2980240000 114.1697060000,22.2980270000 114.1698390000,22.2980340000 114.1704130000,22.2980650000 114.1705270000,22.2980740000 114.1710530000,22.2981110000 114.1714840000,22.2981340000 114.1715150000,22.2981360000 114.1720040000,22.2981560000 114.1720390000,22.2981570000 114.1720860000,22.2981590000 114.1721680000,22.2981630000 114.1722520000,22.2981650000 114.1726080000,22.2981750000 114.1726350000,22.2981790000 114.1736430000,22.2984750000 114.1736850000,22.2984820000 114.1737330000,22.2984710000 114.1738680000,22.2984170000 114.1739140000,22.2984080000 114.1739510000,22.2984120000 114.1739890000,22.2984150000 114.1753010000,22.2987800000 114.1753530000,22.2987820000 114.1754270000,22.2987750000 114.1754820000,22.2987670000 114.1756120000,22.2987480000 114.1756880000,22.2987410000 114.1757990000,22.2993640000 114.1758150000,22.2994660000 114.1758350000,22.2995630000 114.1759180000,22.2998400000 114.1759430000,22.2999330000 114.1759990000,22.3001370000 114.1760590000,22.3002900000 114.1761350000,22.3005250000 114.1762400000,22.3008380000 114.1762880000,22.3009720000 114.1763510000,22.3011570000 114.1764800000,22.3015460000 114.1766200000,22.3019540000 114.1768430000,22.3025400000 114.1770590000,22.3028470000 114.1771180000,22.3029390000 114.1771680000,22.3029600000 114.1771940000,22.3029690000 114.1772150000,22.3029750000 114.1772340000,22.3029800000 114.1772570000,22.3029820000 114.1774100000,22.3029110000 114.1775450000,22.3028610000 114.1780480000,22.3026490000 114.1782670000,22.3025620000 114.1783360000,22.3025380000 114.1785210000,22.3024470000 114.1786690000,22.3023870000 114.1788540000,22.3023280000 114.1790780000,22.3022770000 114.1791890000,22.3022560000 114.1792950000,22.3022400000 114.1806750000,22.3021140000 114.1808370000,22.3021050000 114.1808950000,22.3021040000 114.1809760000,22.3021120000 114.1810220000,22.3021430000 114.1810580000,22.3021790000 114.1810990000,22.3022830000 114.1811510000,22.3025380000 114.1812110000,22.3031350000 114.1812440000,22.3035020000 114.1812820000,22.3036560000 114.1812990000,22.3037090000 114.1813710000,22.3038440000 114.1814520000,22.3039870000 114.1815220000,22.3040680000 114.1815780000,22.3041080000 114.1816430000,22.3041310000 114.1819190000,22.3041090000 114.1820000000,22.3041690000 114.1820170000,22.3042090000 114.1820400000,22.3042600000 114.1820500000,22.3044200000 114.1820550000,22.3044600000 114.1820660000,22.3045110000 114.1820850000,22.3045800000 114.1821090000,22.3046500000 114.1821390000,22.3047200000 114.1821570000,22.3047500000 114.1821820000,22.3047900000 114.1822400000,22.3048590000 114.1823000000,22.3049100000 114.1823570000,22.3049520000 114.1823890000,22.3049720000 114.1824200000,22.3049890000 114.1824570000,22.3050060000 114.1824890000,22.3050190000 114.1825190000,22.3050300000 114.1826600000,22.3050690000 114.1827250000,22.3050900000 114.1827580000,22.3051020000 114.1827900000,22.3051200000 114.1832110000,22.3054990000 114.1833700000,22.3056400000 114.1834600000,22.3057370000 114.1835430000,22.3058380000 114.1836210000,22.3059430000 114.1836920000,22.3060520000 114.1837580000,22.3061660000 114.1838230000,22.3062810000 114.1838930000,22.3063760000 114.1841930000,22.3068120000 114.1842280000,22.3068570000 114.1842590000,22.3069000000 114.1843660000,22.3070370000 114.1844290000,22.3071240000 114.1846990000,22.3074920000 114.1849860000,22.3078950000 114.1850320000,22.3078660000 114.1850610000,22.3078500000 114.1854610000,22.3075960000 114.1858770000,22.3073360000 114.1859000000,22.3073220000 114.1864450000,22.3069800000 114.1864640000,22.3069680000 114.1865900000,22.3068890000 114.1867010000,22.3068200000 114.1869360000,22.3066680000 114.1871610000,22.3065230000 114.1874730000,22.3063240000 114.1875610000,22.3062680000 114.1876850000,22.3061880000 114.1879860000,22.3060000000 114.1880420000,22.3059650000 114.1881870000,22.3058740000 114.1882340000,22.3058450000 114.1885100000,22.3056720000 114.1885690000,22.3056350000 114.1886140000,22.3056070000 114.1887180000,22.3055420000 114.1888160000,22.3054800000 114.1889290000,22.3054100000 114.1890120000,22.3053570000 114.1900650000,22.3046990000 114.1896350000,22.3041110000 114.1895880000,22.3040470000 114.1893920000,22.3037790000 114.1893660000,22.3037440000 114.1892980000,22.3036520000 114.1892420000,22.3035730000 114.1892140000,22.3035330000 114.1890560000,22.3033170000 114.1888990000,22.3031090000 114.1888610000,22.3029670000 114.1888060000,22.3028750000 114.1886300000,22.3027530000 114.1886310000,22.3027500000 114.1886600000,22.3026710000 114.1886810000,22.3025890000 114.1886940000,22.3025070000 114.1887000000,22.3024240000 114.1886980000,22.3023420000 114.1886890000,22.3022620000 114.1886730000,22.3021940000 114.1886520000,22.3021280000 114.1886240000,22.3020630000 114.1886570000,22.3020520000 114.1887240000,22.3020090000 114.1887500000,22.3019930000 114.1889180000,22.3018810000 114.1891460000,22.3017280000 114.1893370000,22.3016000000 114.1893670000,22.3015810000 114.1893840000,22.3015680000 114.1893950000,22.3015510000 114.1894010000,22.3015310000 114.1894000000,22.3015130000 114.1893930000,22.3014960000 114.1893810000,22.3014810000 114.1893710000,22.3014680000 114.1893360000,22.3014240000 114.1891810000,22.3012270000 114.1887120000,22.3010460000 114.1885650000,22.3009890000 114.1884880000,22.3009590000 114.1884610000,22.3009530000 114.1884330000,22.3009550000 114.1884080000,22.3009640000 114.1883860000,22.3009810000 114.1883720000,22.3010030000 114.1883650000,22.3010280000 114.1883670000,22.3010530000 114.1883780000,22.3010770000 114.1883960000,22.3010960000 114.1884190000,22.3011100000 114.1889630000,22.3013200000 114.1891310000,22.3015340000 114.1891390000,22.3015580000 114.1891420000,22.3015830000 114.1891400000,22.3016080000 114.1891320000,22.3016310000 114.1891190000,22.3016530000 114.1891020000,22.3016720000 114.1889430000,22.3017780000 114.1888890000,22.3017930000 114.1888240000,22.3018110000 114.1887920000,22.3018200000 114.1886750000,22.3018980000 114.1886550000,22.3019110000 114.1886290000,22.3019290000 114.1885700000,22.3019680000 114.1885350000,22.3019160000 114.1885170000,22.3018890000 114.1884920000,22.3018540000 114.1884370000,22.3017900000 114.1883730000,22.3017320000 114.1883040000,22.3016830000 114.1881750000,22.3016010000 114.1880490000,22.3015350000 114.1880380000,22.3015300000 114.1873040000,22.3012180000 114.1871380000,22.3011520000 114.1870200000,22.3011080000 114.1869710000,22.3010900000 114.1868090000,22.3010350000 114.1867000000,22.3010010000 114.1866450000,22.3009850000 114.1865690000,22.3009650000 114.1865040000,22.3009580000 114.1861200000,22.3009570000 114.1857070000,22.3009610000 114.1855180000,22.3009640000 114.1854370000,22.3009580000 114.1852420000,22.3009520000 114.1849680000,22.3009280000 114.1847190000,22.3008860000 114.1845680000,22.3008560000 114.1845300000,22.3008020000 114.1844750000,22.3007620000 114.1844100000,22.3007400000 114.1843400000,22.3007390000 114.1842730000,22.3007580000 114.1842250000,22.3007880000 114.1841870000,22.3008290000 114.1841630000,22.3008770000 114.1841530000,22.3009360000 114.1841620000,22.3009960000 114.1841900000,22.3010500000 114.1842330000,22.3010940000 114.1842890000,22.3011240000 114.1843450000,22.3011370000 114.1844030000,22.3011360000 114.1844450000,22.3011260000 114.1844830000,22.3011090000 114.1846460000,22.3010800000 114.1847500000,22.3010750000 114.1849060000,22.3010900000 114.1850570000,22.3011220000 114.1851720000,22.3011630000 114.1853020000,22.3012300000 114.1854660000,22.3013430000 114.1854990000,22.3013740000 114.1855280000,22.3014010000 114.1855680000,22.3014880000 114.1855860000,22.3015430000 114.1855940000,22.3015960000 114.1856090000,22.3017590000 114.1856020000,22.3018320000 114.1855670000,22.3022200000 114.1855610000,22.3022650000 114.1855540000,22.3023110000 114.1855000000,22.3025450000 114.1854340000,22.3028020000 114.1853560000,22.3029920000 114.1852090000,22.3033340000 114.1848920000,22.3038520000 114.1848140000,22.3039850000 114.1847870000,22.3040300000 114.1848460000,22.3040580000 114.1851590000,22.3042050000 114.1853120000,22.3043080000 114.1854740000,22.3044170000 114.1856450000,22.3045810000 114.1857260000,22.3046760000 114.1858180000,22.3047880000 114.1858370000,22.3048100000 114.1859490000,22.3048920000 114.1859970000,22.3048540000 114.1860270000,22.3048280000 114.1861550000,22.3047180000 114.1862770000,22.3046450000 114.1863920000,22.3045480000 114.1870740000,22.3040200000 114.1871340000,22.3039790000 114.1872010000,22.3039500000 114.1872660000,22.3039410000 114.1873020000,22.3039400000 114.1873300000,22.3039390000 114.1874190000,22.3039540000 114.1874870000,22.3039800000 114.1875250000,22.3039950000 114.1876060000,22.3040640000 114.1877070000,22.3041450000 114.1880540000,22.3046240000 114.1884260000,22.3051380000 114.1886120000,22.3053950000 114.1886400000,22.3054340000 114.1887050000,22.3055230000 114.1887180000,22.3055420000 114.1886140000,22.3056070000 114.1885690000,22.3056350000 114.1885100000,22.3056720000 114.1882340000,22.3058450000 114.1881870000,22.3058740000 114.1880420000,22.3059650000 114.1879860000,22.3060000000 114.1876850000,22.3061880000 114.1875610000,22.3062680000 114.1874730000,22.3063240000 114.1871610000,22.3065230000 114.1867010000,22.3068200000 114.1865900000,22.3068890000 114.1864640000,22.3069680000 114.1864450000,22.3069800000 114.1859000000,22.3073220000 114.1858770000,22.3073360000 114.1854610000,22.3075960000 114.1850610000,22.3078500000 114.1849040000,22.3076360000 114.1847760000,22.3074600000 114.1847120000,22.3073140000 114.1843420000,22.3067920000 114.1838710000,22.3061440000 114.1838370000,22.3060900000 114.1838220000,22.3060660000 114.1837860000,22.3060070000 114.1837320000,22.3059260000 114.1835950000,22.3057760000 114.1834410000,22.3056240000 114.1832480000,22.3054540000 114.1828000000,22.3050900000 114.1827780000,22.3050740000 114.1827500000,22.3050600000 114.1826900000,22.3050400000 114.1825300000,22.3049980000 114.1824900000,22.3049800000 114.1824390000,22.3049500000 114.1823800000,22.3049110000 114.1823270000,22.3048710000 114.1822900000,22.3048400000 114.1822600000,22.3048100000 114.1822100000,22.3047500000 114.1821800000,22.3047100000 114.1821610000,22.3046810000 114.1821450000,22.3046500000 114.1821300000,22.3046140000 114.1821200000,22.3045820000 114.1821040000,22.3045100000 114.1820960000,22.3044650000 114.1820900000,22.3044190000 114.1820870000,22.3042580000 114.1820900000,22.3042380000 114.1821000000,22.3041680000 114.1821820000,22.3041030000 114.1824570000,22.3040900000 114.1825870000,22.3040810000 114.1827420000,22.3040650000 114.1828430000,22.3040190000 114.1828960000,22.3038980000 114.1829170000,22.3036560000 114.1829270000,22.3035180000 114.1829250000,22.3033040000 114.1828980000,22.3026050000 114.1828790000,22.3024910000 114.1828460000,22.3023920000 114.1828210000,22.3023290000 114.1827910000,22.3022560000 114.1827450000,22.3021620000 114.1827110000,22.3021120000 114.1826680000,22.3020600000 114.1826390000,22.3020420000 114.1826060000,22.3020260000 114.1825790000,22.3020170000 114.1825410000,22.3020100000 114.1824640000,22.3020000000 114.1824040000,22.3020030000 114.1823370000,22.3020080000 114.1817490000,22.3020420000 114.1815420000,22.3020510000 114.1812080000,22.3020500000 114.1811220000,22.3020480000 114.1810090000,22.3020540000 114.1808410000,22.3020500000 114.1792990000,22.3021850000 114.1791770000,22.3022050000 114.1790560000,22.3022290000 114.1788480000,22.3022800000 114.1786160000,22.3023520000 114.1784600000,22.3024090000 114.1781090000,22.3025230000 114.1776360000,22.3026960000 114.1775250000,22.3027470000 114.1773340000,22.3027550000 114.1772990000,22.3027510000 114.1772450000,22.3027380000 114.1771760000,22.3027090000 114.1771180000,22.3026810000 114.1770240000,22.3026010000 114.1769630000,22.3024940000 114.1768730000,22.3022870000 114.1767330000,22.3019130000 114.1765970000,22.3015200000 114.1764460000,22.3010740000 114.1763410000,22.3007860000 114.1762520000,22.3005230000 114.1761750000,22.3002470000 114.1759960000,22.2996640000 114.1759630000,22.2995540000 114.1759280000,22.2993880000 114.1759280000,22.2993850000 114.1758680000,22.2989950000 114.1758190000,22.2986710000 114.1757330000,22.2981050000 114.1755820000,22.2972560000 114.1755450000,22.2970480000 114.1753990000,22.2961100000 114.1753540000,22.2958180000 114.1753020000,22.2955270000 114.1753010000,22.2955040000 114.1752980000,22.2954300000 114.1753110000,22.2953000000 114.1753530000,22.2951860000 114.1752390000,22.2951450000 114.1751020000,22.2950780000 114.1747670000,22.2949600000 114.1746590000,22.2949150000 114.1742890000,22.2948160000 114.1739770000,22.2947460000 114.1736990000,22.2946930000 114.1736200000,22.2946840000 114.1735590000,22.2946750000 114.1735110000,22.2946700000 114.1733370000,22.2946620000 114.1732530000,22.2946590000 114.1726750000,22.2946300000 114.1725010000,22.2946290000 114.1724510000,22.2946260000 114.1721840000,22.2946200000 114.1720190000,22.2946120000 114.1717580000,22.2946050000 114.1712830000,22.2945910000 114.1712220000,22.2945970000 114.1711520000,22.2945940000 114.1710800000,22.2946030000 114.1709780000,22.2945930000 114.1708790000,22.2945890000 114.1708050000,22.2946070000 114.1707150000,22.2946360000 114.1706450000,22.2946640000 114.1705820000,22.2949160000 114.1704380000,22.2954400000 114.1704140000,22.2955260000 114.1703290000,22.2958140000 114.1703030000,22.2959040000 114.1702450000,22.2960440000 114.1702110000,22.2961670000 114.1702050000,22.2962680000 114.1700410000,22.2968150000 114.1699350000,22.2971620000 114.1699020000,22.2972720000 114.1698350000,22.2974530000 114.1695200000,22.2983280000 114.1694530000,22.2985460000 114.1693980000,22.2987260000 114.1693600000,22.2988320000 114.1691360000,22.2992500000 114.1689890000,22.2994740000 114.1687780000,22.2997140000 114.1687370000,22.2997660000 114.1686300000,22.2999050000 114.1686030000,22.2999330000 114.1685350000,22.3000010000 114.1684700000,22.3000460000 114.1683890000,22.3001130000 114.1682490000,22.3003720000 114.1682000000,22.3004680000 114.1681740000,22.3005410000 114.1681600000,22.3005820000 114.1681200000,22.3006920000 114.1680970000,22.3008210000 114.1680540000,22.3010540000 114.1679770000,22.3014730000 114.1679560000,22.3017740000 114.1679420000,22.3019940000 114.1679580000,22.3022660000 114.1680080000,22.3025620000 114.1680240000,22.3027200000 114.1680210000,22.3028370000 114.1680190000,22.3029420000 114.1680150000,22.3030250000 114.1679820000,22.3031910000 114.1678930000,22.3035780000 114.1677220000,22.3041460000 114.1675840000,22.3044980000 114.1674470000,22.3045950000 114.1673570000,22.3046360000 114.1671790000,22.3046620000 114.1670490000,22.3045960000 114.1667750000,22.3044840000 114.1667220000,22.3044750000 114.1662820000,22.3044080000 114.1662370000,22.3044050000 114.1661890000,22.3044120000 114.1661450000,22.3044300000 114.1660000000,22.3047200000 114.1656800000,22.3052500000 114.1656190000,22.3053670000 114.1653040000,22.3059740000 114.1652290000,22.3060260000 114.1652040000,22.3060560000 114.1651860000,22.3060780000 114.1650480000,22.3062540000 114.1644760000,22.3063750000 114.1643910000,22.3063910000 114.1641690000,22.3064440000 114.1640500000,22.3064760000 114.1637360000,22.3065630000 114.1637380000,22.3067050000 114.1637420000,22.3068660000 114.1637540000,22.3071500000 114.1637640000,22.3072040000 114.1637800000,22.3072640000 114.1638130000,22.3073440000 114.1638280000,22.3073850000 114.1638400000,22.3074300000 114.1638570000,22.3075500000 114.1638590000,22.3076600000 114.1638040000,22.3084590000 114.1637920000,22.3085900000 114.1637780000,22.3086630000 114.1637610000,22.3087070000 114.1637240000,22.3087750000 114.1636700000,22.3088570000 114.1636360000,22.3090110000 114.1635880000,22.3091170000 114.1635520000,22.3091870000 114.1635200000,22.3092570000 114.1634660000,22.3093580000 114.1633560000,22.3095580000 114.1632220000,22.3097580000 114.1630900000,22.3099330000 114.1629090000,22.3101240000 114.1626600000,22.3102980000 114.1623690000,22.3104570000 114.1620850000,22.3105760000 114.1617760000,22.3107270000 114.1615100000,22.3108940000 114.1613130000,22.3110850000 114.1611670000,22.3112590000 114.1610980000,22.3113730000 114.1610380000,22.3115050000 114.1609640000,22.3117030000 114.1609140000,22.3118610000 114.1608580000,22.3121960000 114.1608170000,22.3125770000 114.1608040000,22.3127590000 114.1608040000,22.3128200000 114.1608000000,22.3128710000 114.1607600000,22.3131410000 114.1607460000,22.3132350000 114.1607780000,22.3136490000 114.1607760000,22.3141790000 114.1607590000,22.3143550000 114.1607260000,22.3146350000 114.1606640000,22.3148920000 114.1605100000,22.3153440000 114.1599910000,22.3166690000 114.1595090000,22.3178700000 114.1593470000,22.3182750000 114.1592870000,22.3184230000 114.1592200000,22.3185920000 114.1588700000,22.3193820000 114.1588380000,22.3194690000 114.1587600000,22.3197010000 114.1587410000,22.3197410000 114.1585730000,22.3201030000 114.1584220000,22.3203760000 114.1582390000,22.3206750000 114.1580410000,22.3209780000 114.1577780000,22.3213580000 114.1566490000,22.3228830000 114.1564660000,22.3230860000 114.1563350000,22.3232210000 114.1560320000,22.3235840000 114.1557220000,22.3239550000 114.1555090000,22.3242060000 114.1550130000,22.3246980000 114.1549550000,22.3247560000 114.1548720000,22.3248380000 114.1548330000,22.3248770000 114.1547880000,22.3249220000 114.1546490000,22.3250360000 114.1545260000,22.3251040000 114.1544890000,22.3251250000 114.1534280000,22.3259320000 114.1530330000,22.3262600000 114.1527240000,22.3265660000 114.1522310000,22.3270260000 114.1519620000,22.3272490000 114.1514500000,22.3276420000 114.1502230000,22.3283500000 114.1500160000,22.3284690000 114.1494760000,22.3287240000 114.1489530000,22.3289840000 114.1484040000,22.3292370000 114.1483030000,22.3292830000 114.1481830000,22.3293360000 114.1480360000,22.3294020000 114.1476850000,22.3295300000 114.1474490000,22.3296140000 114.1469750000,22.3297740000 114.1465430000,22.3299330000 114.1462970000,22.3300340000 114.1460480000,22.3301530000 114.1450650000,22.3305600000 114.1450010000,22.3305670000 114.1446300000,22.3306110000 114.1445550000,22.3306180000 114.1440300000,22.3306290000 114.1439610000,22.3306330000 114.1438970000,22.3306400000 114.1438210000,22.3306540000 114.1437580000,22.3306700000 114.1437010000,22.3306920000 114.1436540000,22.3307150000 114.1436090000,22.3307440000 114.1435690000,22.3307760000 114.1435220000,22.3308200000 114.1434780000,22.3308740000 114.1434510000,22.3309200000 114.1434300000,22.3309640000 114.1434110000,22.3310180000 114.1433980000,22.3310740000 114.1433910000,22.3311320000 114.1433940000,22.3311930000 114.1434610000,22.3313770000 114.1435150000,22.3315150000 114.1435400000,22.3315830000 114.1436340000,22.3317630000 114.1437470000,22.3319210000 114.1439130000,22.3321350000 114.1439340000,22.3321600000 114.1440710000,22.3322940000 114.1441990000,22.3324960000 114.1442660000,22.3326540000 114.1443060000,22.3327790000 114.1443490000,22.3329380000 114.1443760000,22.3330540000 114.1443870000,22.3331790000 114.1443960000,22.3333080000 114.1444190000,22.3336920000 114.1444570000,22.3342870000 114.1444810000,22.3346210000 114.1445310000,22.3351050000 114.1446360000,22.3359980000 114.1446520000,22.3363180000 114.1446850000,22.3367920000 114.1446890000,22.3368740000 114.1446960000,22.3370550000 114.1446970000,22.3370890000 114.1446970000,22.3371400000 114.1446950000,22.3372800000 114.1446800000,22.3375070000 114.1446480000,22.3377430000 114.1446020000,22.3379520000 114.1445570000,22.3381120000 114.1444880000,22.3383240000 114.1444160000,22.3384810000 114.1443360000,22.3386650000 114.1442530000,22.3388380000 114.1441220000,22.3390800000 114.1440060000,22.3392940000 114.1438470000,22.3395670000 114.1437610000,22.3397430000 114.1435790000,22.3401460000 114.1435250000,22.3402860000 114.1435020000,22.3403500000 114.1434780000,22.3404290000 114.1434560000,22.3405060000 114.1434320000,22.3405910000 114.1433940000,22.3407590000 114.1433820000,22.3408210000 114.1433660000,22.3409040000 114.1433550000,22.3409840000 114.1433460000,22.3410680000 114.1433400000,22.3411480000 114.1433360000,22.3412270000 114.1433360000,22.3413120000 114.1433360000,22.3413930000 114.1433390000,22.3414730000 114.1433450000,22.3415560000 114.1433530000,22.3416410000 114.1433610000,22.3417210000 114.1433740000,22.3418210000 114.1434000000,22.3419640000 114.1434490000,22.3421460000 114.1435080000,22.3423430000 114.1435650000,22.3424870000 114.1436200000,22.3426140000 114.1437490000,22.3428530000 114.1438450000,22.3430190000 114.1439070000,22.3431150000 114.1440840000,22.3433430000 114.1442910000,22.3435870000 114.1445780000,22.3438760000 114.1446610000,22.3439560000 114.1447110000,22.3440000000 114.1449880000,22.3442790000 114.1452150000,22.3444900000 114.1456000000,22.3448390000 114.1456900000,22.3449190000 114.1457410000,22.3449710000 114.1459140000,22.3451430000 114.1462330000,22.3454570000 114.1464900000,22.3456890000 114.1466010000,22.3457880000 114.1467550000,22.3459330000 114.1471740000,22.3463210000 114.1472120000,22.3463520000 114.1474870000,22.3465700000 114.1478600000,22.3468200000 114.1480400000,22.3469320000 114.1480950000,22.3469660000 114.1483600000,22.3471100000 114.1485540000,22.3472090000 114.1486310000,22.3472480000 114.1488050000,22.3473230000 114.1488980000,22.3473630000 114.1490750000,22.3474280000 114.1492700000,22.3475000000 114.1495230000,22.3475790000 114.1496380000,22.3476140000 114.1498460000,22.3476690000 114.1500690000,22.3477270000 114.1501670000,22.3477480000 114.1514100000,22.3480100000 114.1518200000,22.3481100000 114.1522400000,22.3482220000 114.1530420000,22.3484880000 114.1535900000,22.3486900000 114.1539920000,22.3488590000 114.1543900000,22.3490400000 114.1551890000,22.3494300000 114.1558680000,22.3498200000 114.1566010000,22.3503100000 114.1572490000,22.3507900000 114.1579200000,22.3513500000 114.1585400000,22.3519300000 114.1590400000,22.3524600000 114.1595110000,22.3530080000 114.1599400000,22.3535800000 114.1602900000,22.3540900000 114.1605600000,22.3545100000 114.1608500000,22.3550100000 114.1624120000,22.3579790000 114.1625420000,22.3582360000 114.1626180000,22.3584330000 114.1627440000,22.3588130000 114.1628590000,22.3592180000 114.1629260000,22.3594490000 114.1629410000,22.3595120000 114.1629790000,22.3596690000 114.1630580000,22.3599340000 114.1631090000,22.3600850000 114.1631850000,22.3602930000 114.1632310000,22.3604250000 114.1633010000,22.3606370000 114.1634310000,22.3611520000 114.1634400000,22.3611800000 114.1635500000,22.3616200000 114.1637400000,22.3621300000 114.1639800000,22.3626430000 114.1642800000,22.3631500000 114.1646150000,22.3636200000 114.1648070000,22.3638500000 114.1650150000,22.3640800000 114.1653090000,22.3643700000 114.1656400000,22.3646600000 114.1659100000,22.3648700000 114.1661810000,22.3650580000 114.1666820000,22.3653600000 114.1670970000,22.3655600000 114.1675900000,22.3657700000 114.1679900000,22.3659120000 114.1688000000,22.3661700000 114.1690800000,22.3662700000 114.1693300000,22.3663700000 114.1695600000,22.3664700000 114.1699900000,22.3666700000 114.1704540000,22.3668960000 114.1706150000,22.3669890000 114.1707080000,22.3670500000 114.1709500000,22.3672100000 114.1710980000,22.3673240000 114.1712510000,22.3674690000 114.1717430000,22.3679880000 114.1718340000,22.3680710000 114.1719110000,22.3681330000 114.1719950000,22.3681890000 114.1720830000,22.3682380000 114.1721720000,22.3682790000 114.1722570000,22.3683090000 114.1723590000,22.3683380000 114.1724860000,22.3683630000 114.1725710000,22.3683710000 114.1726620000,22.3683740000 114.1727850000,22.3683690000 114.1728880000,22.3683570000 114.1734190000,22.3682660000 114.1735270000,22.3682530000 114.1736680000,22.3682420000 114.1737940000,22.3682390000 114.1739040000,22.3682430000 114.1740190000,22.3682560000 114.1741220000,22.3682740000 114.1742300000,22.3682990000 114.1744260000,22.3683620000 114.1745730000,22.3684320000 114.1747450000,22.3685620000 114.1749280000,22.3687150000 114.1750620000,22.3688540000 114.1751200000,22.3689140000 114.1751550000,22.3689510000 114.1753210000,22.3691230000 114.1753940000,22.3691960000 114.1754670000,22.3692690000 114.1757730000,22.3695770000 114.1760990000,22.3698660000 114.1763460000,22.3700620000 114.1765900000,22.3702150000 114.1768890000,22.3703850000 114.1772160000,22.3705730000 114.1773150000,22.3706430000 114.1774120000,22.3707110000 114.1777630000,22.3709200000 114.1779620000,22.3710580000 114.1780270000,22.3711030000 114.1781480000,22.3712030000 114.1782670000,22.3713010000 114.1783410000,22.3713890000 114.1784090000,22.3714600000 114.1784230000,22.3715190000 114.1784530000,22.3715660000 114.1785310000,22.3716230000 114.1786230000,22.3716730000 114.1787270000,22.3716910000 114.1787630000,22.3716950000 114.1788110000,22.3716780000 114.1788830000,22.3716400000 114.1789420000,22.3715860000 114.1789830000,22.3715190000 114.1790240000,22.3714030000 114.1790240000,22.3713690000 114.1790230000,22.3713550000 114.1790160000,22.3713400000 114.1790030000,22.3713130000 114.1790780000,22.3711520000 114.1791450000,22.3710430000 114.1792340000,22.3709520000 114.1792860000,22.3709010000 114.1794300000,22.3707590000 114.1797550000,22.3704180000 114.1801260000,22.3699380000 114.1803400000,22.3695770000 114.1803870000,22.3694910000 114.1804200000,22.3694140000 114.1804680000,22.3693230000 114.1805110000,22.3692270000 114.1806060000,22.3690020000 114.1807410000,22.3685820000 114.1808100000,22.3682200000 114.1808620000,22.3678840000 114.1808780000,22.3675670000 114.1808760000,22.3673190000 114.1808760000,22.3673030000 114.1808560000,22.3670600000 114.1808380000,22.3668940000 114.1807850000,22.3664370000 114.1807730000,22.3663030000 114.1807640000,22.3661890000 114.1807650000,22.3660900000 114.1807660000,22.3659670000 114.1807950000,22.3658080000 114.1808450000,22.3655010000 114.1808670000,22.3654200000 114.1808810000,22.3653590000 114.1808910000,22.3653270000 114.1809010000,22.3652940000 114.1809140000,22.3652590000 114.1809270000,22.3652270000 114.1809320000,22.3651070000 114.1809460000,22.3650840000 114.1810460000,22.3650400000 114.1811350000,22.3649860000 114.1811920000,22.3649540000 114.1812580000,22.3649090000 114.1812850000,22.3648960000 114.1813110000,22.3648840000 114.1813520000,22.3648670000 114.1814000000,22.3648520000 114.1814450000,22.3648400000 114.1814860000,22.3648310000 114.1815310000,22.3648250000 114.1815810000,22.3648190000 114.1816370000,22.3648140000 114.1816940000,22.3648120000 114.1817500000,22.3648120000 114.1818000000,22.3648170000 114.1818420000,22.3648240000 114.1818870000,22.3648340000 114.1819340000,22.3648480000 114.1819720000,22.3648600000 114.1820070000,22.3648750000 114.1821570000,22.3649490000 114.1824280000,22.3650790000 114.1825300000,22.3651150000 114.1826490000,22.3651480000 114.1828600000,22.3652110000 114.1832640000,22.3653610000 114.1834560000,22.3654240000 114.1838310000,22.3655460000 114.1840270000,22.3656150000 114.1841900000,22.3656840000 114.1843330000,22.3657470000 114.1843620000,22.3657590000 114.1844770000,22.3658140000 114.1845980000,22.3658820000 114.1847200000,22.3659720000 114.1848400000,22.3660670000 114.1850110000,22.3662070000 114.1856540000,22.3667190000 114.1859120000,22.3669250000 114.1861480000,22.3671120000 114.1868180000,22.3676420000 114.1869590000,22.3677710000 114.1870620000,22.3678760000 114.1871530000,22.3679990000 114.1872180000,22.3681060000 114.1872640000,22.3682060000 114.1873230000,22.3683420000 114.1873580000,22.3684690000 114.1873820000,22.3686190000 114.1874270000,22.3688700000 114.1874530000,22.3689880000 114.1874930000,22.3691230000 114.1875440000,22.3692490000 114.1875820000,22.3693290000 114.1876300000,22.3694200000 114.1877070000,22.3695380000 114.1877690000,22.3696200000 114.1878430000,22.3697070000 114.1879200000,22.3697890000 114.1879900000,22.3698610000 114.1880900000,22.3699470000 114.1882240000,22.3700540000 114.1883360000,22.3701440000 114.1885560000,22.3703290000 114.1886670000,22.3704210000 114.1887940000,22.3705500000 114.1889120000,22.3706760000 114.1890180000,22.3708020000 114.1890780000,22.3708750000 114.1891460000,22.3709700000 114.1892480000,22.3711230000 114.1896470000,22.3717970000 114.1896590000,22.3718170000 114.1897750000,22.3720040000 114.1898770000,22.3721580000 114.1899760000,22.3722960000 114.1900450000,22.3723780000 114.1901590000,22.3725080000 114.1902460000,22.3725950000 114.1903720000,22.3727080000 114.1904660000,22.3727850000 114.1906030000,22.3728850000 114.1907900000,22.3730040000 114.1909700000,22.3731040000 114.1911140000,22.3731700000 114.1914710000,22.3733250000 114.1919350000,22.3735110000 114.1923520000,22.3736670000 114.1928250000,22.3738170000 114.1931300000,22.3738950000 114.1934450000,22.3739750000 114.1936680000,22.3740290000 114.1938910000,22.3740790000 114.1942040000,22.3741530000 114.1945550000,22.3742420000 114.1949270000,22.3743300000 114.1956460000,22.3745050000 114.1962160000,22.3746440000 114.1963980000,22.3747050000 114.1965730000,22.3747680000 114.1968710000,22.3748960000 114.1970100000,22.3749640000 114.1971800000,22.3750590000 114.1973040000,22.3751340000 114.1974490000,22.3752240000 114.1975790000,22.3753190000 114.1977060000,22.3754170000 114.1978250000,22.3755180000 114.1979490000,22.3756280000 114.1981360000,22.3758120000 114.1983130000,22.3760040000 114.1984320000,22.3761520000 114.1985560000,22.3763290000 114.1987450000,22.3766390000 114.1991400000,22.3775140000 114.1993360000,22.3779480000 114.1997460000,22.3788560000 114.2002190000,22.3799280000 114.2004520000,22.3804550000 114.2005210000,22.3806100000 114.2006020000,22.3808230000 114.2006350000,22.3809700000 114.2006950000,22.3811810000 114.2008220000,22.3816210000 114.2008800000,22.3818290000 114.2010670000,22.3825020000 114.2012370000,22.3831370000 114.2013820000,22.3836900000 114.2014450000,22.3841110000 114.2014710000,22.3842660000 114.2014790000,22.3844020000 114.2014960000,22.3846790000 114.2014740000,22.3850860000 114.2014650000,22.3852130000 114.2014570000,22.3853190000 114.2014390000,22.3854970000 114.2014180000,22.3856630000 114.2013790000,22.3858310000 114.2013360000,22.3859720000 114.2012880000,22.3860940000 114.2012270000,22.3861990000 114.2011720000,22.3862830000 114.2010970000,22.3863900000 114.2010170000,22.3864960000 114.2009660000,22.3865360000 114.2008790000,22.3865880000 114.2007200000,22.3866760000 114.2006080000,22.3867480000 114.2004590000,22.3868450000 114.2004090000,22.3868780000 114.2002730000,22.3869740000 114.2001700000,22.3870570000 114.2002520000,22.3871540000 114.2003410000,22.3872640000 114.2004970000,22.3874170000 114.2007280000,22.3876540000 114.2008750000,22.3878040000 114.2012210000,22.3881570000 114.2015360000,22.3884760000 114.2017690000,22.3886920000 114.2019710000,22.3888540000 114.2022550000,22.3890120000 114.2025290000,22.3891310000 114.2026350000,22.3891730000 114.2027840000,22.3892080000 114.2028790000,22.3892460000 114.2029150000,22.3892610000 114.2030300000,22.3891900000 114.2031330000,22.3891220000 114.2032790000,22.3889910000 114.2033570000,22.3889410000 114.2034340000,22.3888680000 114.2039310000,22.3884080000 114.2044030000,22.3880090000 114.2045230000,22.3879040000 114.2045960000,22.3878580000 114.2044830000,22.3877560000 114.2044170000,22.3876940000 114.2043750000,22.3876550000 114.2040370000,22.3873290000 114.2036570000,22.3869670000 114.2036240000,22.3869360000 114.2030960000,22.3864220000 114.2030180000,22.3863510000 114.2029260000,22.3862740000 114.2028030000,22.3861600000 114.2025950000,22.3859560000 114.2024620000,22.3858330000 114.2022920000,22.3856670000 114.2022170000,22.3855870000 114.2021760000,22.3855330000 114.2021390000,22.3854600000 114.2021270000,22.3853920000 114.2021130000,22.3852840000 114.2021140000,22.3851600000 114.2021090000,22.3848870000 114.2020820000,22.3847050000 114.2020620000,22.3844640000 114.2019810000,22.3840830000 114.2018850000,22.3837150000 114.2018750000,22.3836540000 114.2018380000,22.3833850000 114.2018290000,22.3833180000 114.2018240000,22.3832010000 114.2018370000,22.3829460000 114.2018760000,22.3827600000 114.2019330000,22.3825990000 114.2020440000,22.3823710000 114.2021750000,22.3821470000 114.2023530000,22.3818910000 114.2024350000,22.3817830000 114.2024500000,22.3817630000 114.2024980000,22.3817080000 114.2025510000,22.3816300000 114.2026750000,22.3814830000 114.2034010000,22.3805580000 114.2034880000,22.3804440000 114.2035640000,22.3803380000 114.2042290000,22.3794590000 114.2043480000,22.3792970000 114.2045060000,22.3790800000 114.2045290000,22.3790460000 114.2045660000,22.3789980000 114.2046350000,22.3789100000 114.2047490000,22.3789790000 114.2047890000,22.3790050000 114.2051610000,22.3792380000 114.2053780000,22.3793560000 114.2068270000,22.3803540000 114.2070110000,22.3804720000 114.2070550000,22.3805010000 114.2071670000,22.3805730000 114.2072550000,22.3806300000 114.2073420000,22.3805420000 114.2074520000,22.3804130000 114.2075130000,22.3803410000 114.2075430000,22.3802410000 114.2076320000,22.3801250000 114.2076920000,22.3800470000 114.2078630000,22.3798390000 114.2080880000,22.3796430000 114.2082220000,22.3795730000 114.2083220000,22.3795400000 114.2084010000,22.3795260000 114.2084540000,22.3795220000 114.2085200000,22.3795250000 114.2085910000,22.3795400000 114.2086800000,22.3795700000 114.2088180000,22.3796230000 114.2091860000,22.3797880000 114.2097130000,22.3800240000 114.2109800000,22.3806190000 114.2112910000,22.3807720000 114.2113500000,22.3807950000 114.2114100000,22.3808050000 114.2114480000,22.3808020000 114.2115370000,22.3807930000 114.2116230000,22.3807650000 114.2117180000,22.3807200000 114.2118350000,22.3806690000 114.2119740000,22.3806170000 114.2122860000,22.3805240000 114.2124560000,22.3804840000 114.2125380000,22.3804670000 114.2126270000,22.3804520000 114.2127700000,22.3804600000 114.2129000000,22.3804800000 114.2130000000,22.3805060000 114.2131000000,22.3805400000 114.2131970000,22.3805730000 114.2132790000,22.3806180000 114.2133670000,22.3806700000 114.2134470000,22.3807370000 114.2135190000,22.3808200000 114.2136070000,22.3809200000 114.2136670000,22.3810220000 114.2137040000,22.3811220000 114.2138030000,22.3816020000 114.2138490000,22.3818030000 114.2140080000,22.3824520000 114.2140630000,22.3826840000 114.2140170000,22.3828970000 114.2140410000,22.3830130000 114.2140470000,22.3830480000 114.2140710000,22.3832190000 114.2140860000,22.3833280000 114.2142080000,22.3832970000 114.2143070000,22.3832730000 114.2143310000,22.3832620000 114.2143870000,22.3832380000 114.2144350000,22.3832170000 114.2144950000,22.3831860000 114.2145790000,22.3831370000 114.2146520000,22.3830950000 114.2147950000,22.3830110000 114.2149390000,22.3829130000 114.2150880000,22.3827810000 114.2152090000,22.3826480000 114.2152910000,22.3825050000 114.2155820000,22.3821540000 114.2158730000,22.3817950000 114.2159650000,22.3816910000 114.2160760000,22.3815960000 114.2162250000,22.3814970000 114.2163870000,22.3814130000 114.2165500000,22.3813730000 114.2167180000,22.3813630000 114.2169230000,22.3813800000 114.2170870000,22.3814230000 114.2172480000,22.3814900000 114.2173990000,22.3816150000 114.2175270000,22.3817340000 114.2176290000,22.3818160000 114.2175580000,22.3819500000 114.2175560000,22.3820870000 114.2175550000,22.3821340000 114.2175540000,22.3821930000 114.2175520000,22.3822710000 114.2175510000,22.3823120000</coordinates>
                </LineString>
                <ExtendedData>
                    <Data name="length">
                        <value>48139.58773509592</value>
                    </Data>
                    <Data name="duration">
                        <value>01:00:47</value>
                    </Data>
                </ExtendedData>
            </Placemark>
        </Document>
    </Document>
</kml>