<?xml version="1.0" encoding="UTF-8"?>
<kml xmlns="http://www.opengis.net/kml/2.2" xmlns:gx="http://www.google.com/kml/ext/2.2">
    <Document>
        <name>Route</name>
        <Folder>
            <name>Route Request</name>
            <Placemark>
                <address>11, Hoi Fan Road, Tai Kok Tsui, Yau Tsim Mong District, Kowloon, Hong Kong, 000000, China</address>
                <Point>
                    <coordinates>114.1584112045,22.3188400019</coordinates>
                </Point>
                <ExtendedData>
                    <Data name="city">
                        <value>Kowloon</value>
                    </Data>
                    <Data name="country">
                        <value>China</value>
                    </Data>
                    <Data name="road">
                        <value>Hoi Fan Road</value>
                    </Data>
                    <Data name="state">
                        <value>Hong Kong</value>
                    </Data>
                    <Data name="postcode">
                        <value>000000</value>
                    </Data>
                    <Data name="suburb">
                        <value>Tai Kok Tsui</value>
                    </Data>
                    <Data name="house_number">
                        <value>11</value>
                    </Data>
                    <Data name="city_district">
                        <value>Yau Tsim Mong District</value>
                    </Data>
                    <Data name="country_code">
                        <value>cn</value>
                    </Data>
                    <Data name="ISO3166-2-lvl3">
                        <value>CN-HK</value>
                    </Data>
                </ExtendedData>
            </Placemark>
            <Placemark>
                <address>Tai Kok Tsui Road, Tai Kok Tsui, Yau Tsim Mong District, Kowloon, Hong Kong, 999077, China</address>
                <Point>
                    <coordinates>114.1619348697,22.3187595895</coordinates>
                </Point>
                <ExtendedData>
                    <Data name="city">
                        <value>Kowloon</value>
                    </Data>
                    <Data name="country">
                        <value>China</value>
                    </Data>
                    <Data name="road">
                        <value>Tai Kok Tsui Road</value>
                    </Data>
                    <Data name="state">
                        <value>Hong Kong</value>
                    </Data>
                    <Data name="postcode">
                        <value>999077</value>
                    </Data>
                    <Data name="suburb">
                        <value>Tai Kok Tsui</value>
                    </Data>
                    <Data name="city_district">
                        <value>Yau Tsim Mong District</value>
                    </Data>
                    <Data name="country_code">
                        <value>cn</value>
                    </Data>
                    <Data name="ISO3166-2-lvl3">
                        <value>CN-HK</value>
                    </Data>
                </ExtendedData>
            </Placemark>
            <Placemark>
                <address>210, Tai Kok Tsui Road, Tai Kok Tsui, Yau Tsim Mong District, Kowloon, Hong Kong, 999077, China</address>
                <Point>
                    <coordinates>114.1616667941,22.3248240933</coordinates>
                </Point>
                <ExtendedData>
                    <Data name="city">
                        <value>Kowloon</value>
                    </Data>
                    <Data name="country">
                        <value>China</value>
                    </Data>
                    <Data name="road">
                        <value>Tai Kok Tsui Road</value>
                    </Data>
                    <Data name="state">
                        <value>Hong Kong</value>
                    </Data>
                    <Data name="postcode">
                        <value>999077</value>
                    </Data>
                    <Data name="suburb">
                        <value>Tai Kok Tsui</value>
                    </Data>
                    <Data name="house_number">
                        <value>210</value>
                    </Data>
                    <Data name="city_district">
                        <value>Yau Tsim Mong District</value>
                    </Data>
                    <Data name="country_code">
                        <value>cn</value>
                    </Data>
                    <Data name="ISO3166-2-lvl3">
                        <value>CN-HK</value>
                    </Data>
                </ExtendedData>
            </Placemark>
            <Placemark>
                <address>Nam Cheong Street, Li Cheng Uk, Tai Wo Ping, Sham Shui Po District, Kowloon, Hong Kong, 999077, China</address>
                <Point>
                    <coordinates>114.1634621821,22.3420233430</coordinates>
                </Point>
                <ExtendedData>
                    <Data name="city">
                        <value>Kowloon</value>
                    </Data>
                    <Data name="country">
                        <value>China</value>
                    </Data>
                    <Data name="neighbourhood">
                        <value>Li Cheng Uk</value>
                    </Data>
                    <Data name="road">
                        <value>Nam Cheong Street</value>
                    </Data>
                    <Data name="state">
                        <value>Hong Kong</value>
                    </Data>
                    <Data name="postcode">
                        <value>999077</value>
                    </Data>
                    <Data name="suburb">
                        <value>Tai Wo Ping</value>
                    </Data>
                    <Data name="city_district">
                        <value>Sham Shui Po District</value>
                    </Data>
                    <Data name="country_code">
                        <value>cn</value>
                    </Data>
                    <Data name="ISO3166-2-lvl3">
                        <value>CN-HK</value>
                    </Data>
                </ExtendedData>
            </Placemark>
            <Placemark>
                <address>Nam Lian Garden, Hammer Hill Road, Tai Hom, Ngau Chi Wan, Wong Tai Sin District, Kowloon, Hong Kong, 000000, China</address>
                <Point>
                    <coordinates>114.2036298683,22.3388383179</coordinates>
                </Point>
                <ExtendedData>
                    <Data name="city">
                        <value>Kowloon</value>
                    </Data>
                    <Data name="country">
                        <value>China</value>
                    </Data>
                    <Data name="neighbourhood">
                        <value>Tai Hom</value>
                    </Data>
                    <Data name="road">
                        <value>Hammer Hill Road</value>
                    </Data>
                    <Data name="state">
                        <value>Hong Kong</value>
                    </Data>
                    <Data name="postcode">
                        <value>000000</value>
                    </Data>
                    <Data name="suburb">
                        <value>Ngau Chi Wan</value>
                    </Data>
                    <Data name="city_district">
                        <value>Wong Tai Sin District</value>
                    </Data>
                    <Data name="leisure">
                        <value>Nam Lian Garden</value>
                    </Data>
                    <Data name="country_code">
                        <value>cn</value>
                    </Data>
                    <Data name="ISO3166-2-lvl3">
                        <value>CN-HK</value>
                    </Data>
                </ExtendedData>
            </Placemark>
            <Placemark>
                <Point>
                    <coordinates>114.2181409148,22.3347818506</coordinates>
                </Point>
            </Placemark>
            <Placemark>
                <address>Ching Tat House, On Chui Street, Sau Mau Ping, Kwun Tong District, Kowloon, Hong Kong, 000000, China</address>
                <Point>
                    <coordinates>114.2333418356,22.3274503067</coordinates>
                </Point>
                <ExtendedData>
                    <Data name="routingVisited">
                        <value>false</value>
                    </Data>
                    <Data name="city">
                        <value>Kowloon</value>
                    </Data>
                    <Data name="country">
                        <value>China</value>
                    </Data>
                    <Data name="road">
                        <value>On Chui Street</value>
                    </Data>
                    <Data name="state">
                        <value>Hong Kong</value>
                    </Data>
                    <Data name="postcode">
                        <value>000000</value>
                    </Data>
                    <Data name="suburb">
                        <value>Sau Mau Ping</value>
                    </Data>
                    <Data name="city_district">
                        <value>Kwun Tong District</value>
                    </Data>
                    <Data name="building">
                        <value>Ching Tat House</value>
                    </Data>
                    <Data name="country_code">
                        <value>cn</value>
                    </Data>
                    <Data name="ISO3166-2-lvl3">
                        <value>CN-HK</value>
                    </Data>
                </ExtendedData>
            </Placemark>
            <Placemark>
                <address>Chi Tai House, On Yan Street, Cha Liu Au, Kwun Tong District, Kowloon, Hong Kong, 000000, China</address>
                <Point>
                    <coordinates>114.2290525287,22.3284432002</coordinates>
                </Point>
                <ExtendedData>
                    <Data name="city">
                        <value>Kowloon</value>
                    </Data>
                    <Data name="country">
                        <value>China</value>
                    </Data>
                    <Data name="road">
                        <value>On Yan Street</value>
                    </Data>
                    <Data name="state">
                        <value>Hong Kong</value>
                    </Data>
                    <Data name="postcode">
                        <value>000000</value>
                    </Data>
                    <Data name="suburb">
                        <value>Cha Liu Au</value>
                    </Data>
                    <Data name="city_district">
                        <value>Kwun Tong District</value>
                    </Data>
                    <Data name="building">
                        <value>Chi Tai House</value>
                    </Data>
                    <Data name="country_code">
                        <value>cn</value>
                    </Data>
                    <Data name="ISO3166-2-lvl3">
                        <value>CN-HK</value>
                    </Data>
                </ExtendedData>
            </Placemark>
            <Placemark>
                <address>Nam Cheong Street, Li Cheng Uk, Tai Wo Ping, Sham Shui Po District, Kowloon, Hong Kong, 000000, China</address>
                <Point>
                    <coordinates>114.1651753806,22.3417910959</coordinates>
                </Point>
                <ExtendedData>
                    <Data name="city">
                        <value>Kowloon</value>
                    </Data>
                    <Data name="country">
                        <value>China</value>
                    </Data>
                    <Data name="neighbourhood">
                        <value>Li Cheng Uk</value>
                    </Data>
                    <Data name="road">
                        <value>Nam Cheong Street</value>
                    </Data>
                    <Data name="state">
                        <value>Hong Kong</value>
                    </Data>
                    <Data name="postcode">
                        <value>000000</value>
                    </Data>
                    <Data name="suburb">
                        <value>Tai Wo Ping</value>
                    </Data>
                    <Data name="city_district">
                        <value>Sham Shui Po District</value>
                    </Data>
                    <Data name="country_code">
                        <value>cn</value>
                    </Data>
                    <Data name="ISO3166-2-lvl3">
                        <value>CN-HK</value>
                    </Data>
                </ExtendedData>
            </Placemark>
            <Placemark>
                <address>Fu Kam Building, 5, Pok Hok Lane, Fu Tor Loy Sun Chuen, Tai Kok Tsui, Yau Tsim Mong District, Kowloon, Hong Kong, 999077, China</address>
                <Point>
                    <coordinates>114.1625083287,22.3193804086</coordinates>
                </Point>
                <ExtendedData>
                    <Data name="city">
                        <value>Kowloon</value>
                    </Data>
                    <Data name="country">
                        <value>China</value>
                    </Data>
                    <Data name="road">
                        <value>Pok Hok Lane</value>
                    </Data>
                    <Data name="state">
                        <value>Hong Kong</value>
                    </Data>
                    <Data name="postcode">
                        <value>999077</value>
                    </Data>
                    <Data name="suburb">
                        <value>Tai Kok Tsui</value>
                    </Data>
                    <Data name="house_number">
                        <value>5</value>
                    </Data>
                    <Data name="city_district">
                        <value>Yau Tsim Mong District</value>
                    </Data>
                    <Data name="building">
                        <value>Fu Kam Building</value>
                    </Data>
                    <Data name="country_code">
                        <value>cn</value>
                    </Data>
                    <Data name="residential">
                        <value>Fu Tor Loy Sun Chuen</value>
                    </Data>
                    <Data name="ISO3166-2-lvl3">
                        <value>CN-HK</value>
                    </Data>
                </ExtendedData>
            </Placemark>
            <Placemark>
                <address>11, Hoi Fan Road, Tai Kok Tsui, Yau Tsim Mong District, Kowloon, Hong Kong, 000000, China</address>
                <Point>
                    <coordinates>114.1584006254,22.3188739467</coordinates>
                </Point>
                <ExtendedData>
                    <Data name="city">
                        <value>Kowloon</value>
                    </Data>
                    <Data name="country">
                        <value>China</value>
                    </Data>
                    <Data name="road">
                        <value>Hoi Fan Road</value>
                    </Data>
                    <Data name="state">
                        <value>Hong Kong</value>
                    </Data>
                    <Data name="postcode">
                        <value>000000</value>
                    </Data>
                    <Data name="suburb">
                        <value>Tai Kok Tsui</value>
                    </Data>
                    <Data name="house_number">
                        <value>11</value>
                    </Data>
                    <Data name="city_district">
                        <value>Yau Tsim Mong District</value>
                    </Data>
                    <Data name="country_code">
                        <value>cn</value>
                    </Data>
                    <Data name="ISO3166-2-lvl3">
                        <value>CN-HK</value>
                    </Data>
                </ExtendedData>
            </Placemark>
        </Folder>
        <Document>
            <name>30.3 km; 00:42 h (OSRM)</name>
            <Placemark>
                <name>Route</name>
                <LineString>
                    <coordinates>114.1582130000,22.3187510000 114.1577130000,22.3197050000 114.1576460000,22.3198310000 114.1575240000,22.3200580000 114.1574470000,22.3201720000 114.1573470000,22.3202450000 114.1572260000,22.3202910000 114.1571240000,22.3202990000 114.1568640000,22.3203070000 114.1568520000,22.3203080000 114.1568120000,22.3203090000 114.1566950000,22.3203330000 114.1566100000,22.3203630000 114.1567460000,22.3206170000 114.1567970000,22.3206990000 114.1568400000,22.3207630000 114.1569360000,22.3208920000 114.1570020000,22.3209710000 114.1570760000,22.3210470000 114.1572580000,22.3212110000 114.1572890000,22.3212430000 114.1573240000,22.3212860000 114.1574350000,22.3214580000 114.1574570000,22.3214980000 114.1574590000,22.3215110000 114.1574620000,22.3215230000 114.1574720000,22.3215600000 114.1574890000,22.3215950000 114.1575100000,22.3216290000 114.1575570000,22.3216870000 114.1576120000,22.3217440000 114.1576770000,22.3217950000 114.1577440000,22.3218400000 114.1577940000,22.3218700000 114.1578340000,22.3218900000 114.1579030000,22.3219190000 114.1579680000,22.3219440000 114.1580660000,22.3219650000 114.1581700000,22.3219870000 114.1582200000,22.3219810000 114.1582590000,22.3219700000 114.1583060000,22.3219810000 114.1583530000,22.3219910000 114.1584180000,22.3220050000 114.1584530000,22.3220160000 114.1584860000,22.3220320000 114.1585100000,22.3220470000 114.1585270000,22.3220610000 114.1585750000,22.3221100000 114.1586260000,22.3221690000 114.1586900000,22.3222600000 114.1587800000,22.3224100000 114.1588700000,22.3225800000 114.1589400000,22.3227300000 114.1590660000,22.3230900000 114.1590860000,22.3231210000 114.1591090000,22.3231670000 114.1591380000,22.3232070000 114.1591800000,22.3232500000 114.1592120000,22.3232760000 114.1592480000,22.3233030000 114.1593020000,22.3233400000 114.1593940000,22.3234050000 114.1594540000,22.3233320000 114.1595340000,22.3232070000 114.1595960000,22.3231060000 114.1596640000,22.3229850000 114.1598070000,22.3226080000 114.1598300000,22.3225130000 114.1598530000,22.3224190000 114.1598830000,22.3221970000 114.1598850000,22.3219530000 114.1598720000,22.3216760000 114.1598750000,22.3213900000 114.1598750000,22.3211090000 114.1598560000,22.3209880000 114.1598500000,22.3206810000 114.1598540000,22.3205620000 114.1598410000,22.3202010000 114.1598340000,22.3200370000 114.1598290000,22.3199340000 114.1598340000,22.3198690000 114.1598460000,22.3198000000 114.1598730000,22.3196840000 114.1598890000,22.3196270000 114.1599150000,22.3195670000 114.1599270000,22.3195450000 114.1599610000,22.3194890000 114.1600010000,22.3194220000 114.1600440000,22.3193500000 114.1601080000,22.3192340000 114.1601310000,22.3191910000 114.1602580000,22.3189940000 114.1603260000,22.3188800000 114.1603810000,22.3187710000 114.1604450000,22.3186440000 114.1604710000,22.3185890000 114.1604920000,22.3185450000 114.1605610000,22.3184080000 114.1606670000,22.3181410000 114.1607210000,22.3180280000 114.1607900000,22.3179520000 114.1608130000,22.3179360000 114.1608420000,22.3179160000 114.1608940000,22.3178850000 114.1610060000,22.3178500000 114.1610770000,22.3179390000 114.1614870000,22.3180790000 114.1616590000,22.3181390000 114.1618720000,22.3182250000 114.1619260000,22.3182520000 114.1619580000,22.3182730000 114.1619890000,22.3183140000 114.1619960000,22.3183660000 114.1619960000,22.3184900000 114.1619960000,22.3185560000 114.1619960000,22.3186210000 114.1619960000,22.3186440000 114.1619960000,22.3186770000 114.1619960000,22.3187600000 114.1619960000,22.3187780000 114.1619960000,22.3187910000 114.1619960000,22.3188720000 114.1619910000,22.3189620000 114.1619890000,22.3190590000 114.1619880000,22.3190890000 114.1619880000,22.3191100000 114.1619880000,22.3191430000 114.1619790000,22.3192870000 114.1619780000,22.3193690000 114.1619760000,22.3194600000 114.1619770000,22.3195450000 114.1619670000,22.3200040000 114.1619530000,22.3203110000 114.1619530000,22.3203510000 114.1619520000,22.3204720000 114.1619400000,22.3209250000 114.1619330000,22.3214140000 114.1619330000,22.3214390000 114.1619270000,22.3217900000 114.1619250000,22.3219670000 114.1619180000,22.3224140000 114.1619170000,22.3225300000 114.1619020000,22.3228720000 114.1618890000,22.3231520000 114.1618860000,22.3232160000 114.1618830000,22.3233390000 114.1618780000,22.3235860000 114.1618680000,22.3239680000 114.1618680000,22.3239980000 114.1618650000,22.3241180000 114.1618640000,22.3241670000 114.1618550000,22.3244830000 114.1618340000,22.3246030000 114.1617830000,22.3247540000 114.1617590000,22.3248190000 114.1617410000,22.3248540000 114.1617340000,22.3248640000 114.1616890000,22.3249290000 114.1616420000,22.3249850000 114.1614420000,22.3251540000 114.1613630000,22.3252120000 114.1611190000,22.3253780000 114.1604660000,22.3259030000 114.1603750000,22.3259730000 114.1603640000,22.3260400000 114.1603690000,22.3260840000 114.1603710000,22.3260980000 114.1604070000,22.3261400000 114.1604910000,22.3262410000 114.1605110000,22.3262640000 114.1606140000,22.3263840000 114.1607840000,22.3265820000 114.1608180000,22.3266200000 114.1608950000,22.3267030000 114.1609700000,22.3267810000 114.1611180000,22.3269420000 114.1612380000,22.3270730000 114.1612940000,22.3271340000 114.1613570000,22.3272030000 114.1616260000,22.3274990000 114.1616440000,22.3275200000 114.1617100000,22.3275930000 114.1617750000,22.3276790000 114.1618290000,22.3277400000 114.1620620000,22.3279920000 114.1621340000,22.3280700000 114.1621880000,22.3281290000 114.1624300000,22.3283940000 114.1624850000,22.3284550000 114.1626940000,22.3286830000 114.1627570000,22.3287520000 114.1627850000,22.3287840000 114.1628410000,22.3288540000 114.1629050000,22.3289260000 114.1630930000,22.3291340000 114.1631380000,22.3291860000 114.1632230000,22.3292960000 114.1632840000,22.3293610000 114.1635000000,22.3295940000 114.1635140000,22.3296110000 114.1635750000,22.3296810000 114.1636520000,22.3297700000 114.1637090000,22.3298360000 114.1639630000,22.3301220000 114.1640360000,22.3302050000 114.1640770000,22.3302510000 114.1642640000,22.3304600000 114.1643680000,22.3305760000 114.1644010000,22.3306130000 114.1644360000,22.3306520000 114.1647470000,22.3310000000 114.1647700000,22.3310260000 114.1648510000,22.3311070000 114.1648890000,22.3311450000 114.1650130000,22.3312650000 114.1650340000,22.3312860000 114.1650880000,22.3313220000 114.1651540000,22.3313630000 114.1652180000,22.3314050000 114.1652580000,22.3314340000 114.1653030000,22.3314550000 114.1653300000,22.3314880000 114.1656350000,22.3318370000 114.1657190000,22.3319320000 114.1657970000,22.3320270000 114.1661310000,22.3323970000 114.1662210000,22.3324960000 114.1663350000,22.3326220000 114.1664280000,22.3327250000 114.1664850000,22.3327840000 114.1665400000,22.3328430000 114.1665870000,22.3328930000 114.1666350000,22.3329480000 114.1666720000,22.3329900000 114.1668420000,22.3331810000 114.1668940000,22.3332390000 114.1669450000,22.3332980000 114.1670660000,22.3334340000 114.1672270000,22.3336150000 114.1672680000,22.3336550000 114.1673630000,22.3337710000 114.1674990000,22.3339170000 114.1675440000,22.3339640000 114.1677100000,22.3341340000 114.1677870000,22.3342940000 114.1678160000,22.3343260000 114.1679240000,22.3344470000 114.1679820000,22.3345030000 114.1680590000,22.3345910000 114.1681170000,22.3346530000 114.1682460000,22.3347500000 114.1683640000,22.3348860000 114.1684100000,22.3349410000 114.1687150000,22.3353210000 114.1687910000,22.3354160000 114.1688740000,22.3355200000 114.1689320000,22.3356280000 114.1689530000,22.3356800000 114.1689750000,22.3357500000 114.1689910000,22.3358250000 114.1690710000,22.3362150000 114.1690940000,22.3363470000 114.1691320000,22.3365390000 114.1691840000,22.3367800000 114.1692310000,22.3370090000 114.1692920000,22.3372980000 114.1693250000,22.3374840000 114.1693340000,22.3375600000 114.1693320000,22.3376400000 114.1693140000,22.3377420000 114.1692810000,22.3378780000 114.1692320000,22.3379860000 114.1691990000,22.3380380000 114.1691580000,22.3380990000 114.1690670000,22.3382020000 114.1689610000,22.3382930000 114.1687760000,22.3383980000 114.1687020000,22.3384310000 114.1685330000,22.3384920000 114.1685040000,22.3385020000 114.1683990000,22.3385290000 114.1681960000,22.3385580000 114.1678760000,22.3385840000 114.1676960000,22.3386010000 114.1675770000,22.3386150000 114.1674420000,22.3386340000 114.1671690000,22.3386920000 114.1668340000,22.3387700000 114.1667640000,22.3387860000 114.1665720000,22.3388310000 114.1664400000,22.3388650000 114.1663440000,22.3388880000 114.1662500000,22.3389230000 114.1661570000,22.3389730000 114.1660800000,22.3390240000 114.1659800000,22.3390960000 114.1658160000,22.3392170000 114.1657340000,22.3392650000 114.1657100000,22.3392850000 114.1656500000,22.3393370000 114.1654780000,22.3395070000 114.1654270000,22.3395750000 114.1653710000,22.3396610000 114.1653030000,22.3397510000 114.1652260000,22.3399260000 114.1651570000,22.3401410000 114.1650450000,22.3404970000 114.1650320000,22.3406650000 114.1650040000,22.3408410000 114.1650000000,22.3409000000 114.1649910000,22.3410100000 114.1649540000,22.3413100000 114.1649400000,22.3413740000 114.1649210000,22.3414330000 114.1648930000,22.3414950000 114.1648500000,22.3415650000 114.1647890000,22.3416230000 114.1647410000,22.3416630000 114.1646820000,22.3416950000 114.1646120000,22.3417140000 114.1645190000,22.3417240000 114.1644380000,22.3417260000 114.1643010000,22.3417150000 114.1641830000,22.3416960000 114.1639310000,22.3416200000 114.1638500000,22.3415840000 114.1637370000,22.3415340000 114.1635420000,22.3414270000 114.1634680000,22.3413910000 114.1634270000,22.3413720000 114.1633800000,22.3413570000 114.1633390000,22.3413480000 114.1633050000,22.3413440000 114.1632590000,22.3413530000 114.1632330000,22.3413680000 114.1632080000,22.3413890000 114.1632080000,22.3414060000 114.1632090000,22.3414230000 114.1632060000,22.3414660000 114.1632090000,22.3415430000 114.1632100000,22.3416440000 114.1632180000,22.3417240000 114.1632320000,22.3417680000 114.1632570000,22.3418060000 114.1633050000,22.3418530000 114.1633620000,22.3418910000 114.1634220000,22.3419220000 114.1634860000,22.3419370000 114.1634930000,22.3419390000 114.1635740000,22.3419490000 114.1636880000,22.3419470000 114.1638040000,22.3419530000 114.1641040000,22.3419810000 114.1643040000,22.3419920000 114.1644310000,22.3419900000 114.1645210000,22.3419870000 114.1645810000,22.3419900000 114.1646630000,22.3419930000 114.1647430000,22.3419970000 114.1649050000,22.3420040000 114.1651230000,22.3420130000 114.1652910000,22.3420200000 114.1655110000,22.3420270000 114.1657280000,22.3420290000 114.1658550000,22.3420250000 114.1659710000,22.3420180000 114.1660920000,22.3420050000 114.1662020000,22.3419900000 114.1663100000,22.3419700000 114.1664140000,22.3419460000 114.1665230000,22.3419140000 114.1666280000,22.3418770000 114.1667040000,22.3418480000 114.1667730000,22.3418190000 114.1668460000,22.3417840000 114.1669330000,22.3417400000 114.1670190000,22.3416950000 114.1672110000,22.3415870000 114.1673330000,22.3415170000 114.1674440000,22.3414550000 114.1675110000,22.3414200000 114.1675780000,22.3413870000 114.1676500000,22.3413530000 114.1676790000,22.3413400000 114.1677140000,22.3413240000 114.1677740000,22.3412990000 114.1678460000,22.3412720000 114.1679660000,22.3412330000 114.1680420000,22.3412130000 114.1680950000,22.3412000000 114.1681430000,22.3411900000 114.1681890000,22.3411830000 114.1682410000,22.3411770000 114.1682930000,22.3411730000 114.1683430000,22.3411720000 114.1683990000,22.3411720000 114.1684620000,22.3411730000 114.1685300000,22.3411780000 114.1685820000,22.3411850000 114.1686390000,22.3411970000 114.1686980000,22.3412110000 114.1687620000,22.3412310000 114.1688270000,22.3412540000 114.1688880000,22.3412790000 114.1689490000,22.3413100000 114.1689960000,22.3413360000 114.1690410000,22.3413620000 114.1691070000,22.3414050000 114.1691420000,22.3414280000 114.1691970000,22.3414700000 114.1692540000,22.3415140000 114.1693640000,22.3416070000 114.1694970000,22.3417350000 114.1695610000,22.3418000000 114.1696840000,22.3419210000 114.1697630000,22.3420010000 114.1698320000,22.3420700000 114.1701230000,22.3423780000 114.1707340000,22.3429920000 114.1707950000,22.3430490000 114.1708580000,22.3431030000 114.1709330000,22.3431610000 114.1710070000,22.3432110000 114.1710700000,22.3432490000 114.1712070000,22.3433120000 114.1712940000,22.3433430000 114.1713780000,22.3433650000 114.1714700000,22.3433840000 114.1715620000,22.3433960000 114.1716410000,22.3434010000 114.1717130000,22.3434020000 114.1718170000,22.3433950000 114.1719130000,22.3433830000 114.1720020000,22.3433640000 114.1720900000,22.3433390000 114.1721770000,22.3433070000 114.1722960000,22.3432520000 114.1723840000,22.3432060000 114.1724680000,22.3431590000 114.1725530000,22.3431060000 114.1726380000,22.3430510000 114.1727100000,22.3430030000 114.1727800000,22.3429590000 114.1729770000,22.3428370000 114.1730710000,22.3427870000 114.1731830000,22.3427330000 114.1732370000,22.3427110000 114.1733130000,22.3426840000 114.1733730000,22.3426660000 114.1734610000,22.3426470000 114.1735390000,22.3426360000 114.1736240000,22.3426300000 114.1737020000,22.3426290000 114.1737840000,22.3426340000 114.1738710000,22.3426450000 114.1739520000,22.3426630000 114.1740450000,22.3426900000 114.1741260000,22.3427200000 114.1742190000,22.3427650000 114.1742920000,22.3428070000 114.1743700000,22.3428610000 114.1744420000,22.3429190000 114.1745210000,22.3429980000 114.1745900000,22.3430830000 114.1746570000,22.3431750000 114.1747200000,22.3432750000 114.1747720000,22.3433630000 114.1749710000,22.3437120000 114.1750500000,22.3438320000 114.1751290000,22.3439420000 114.1752260000,22.3440570000 114.1753090000,22.3441410000 114.1753930000,22.3442100000 114.1754790000,22.3442700000 114.1755620000,22.3443190000 114.1756720000,22.3443720000 114.1757620000,22.3444100000 114.1758750000,22.3444510000 114.1769300000,22.3447900000 114.1770250000,22.3448150000 114.1771270000,22.3448360000 114.1772640000,22.3448530000 114.1774120000,22.3448570000 114.1775780000,22.3448470000 114.1777480000,22.3448150000 114.1779050000,22.3447700000 114.1781180000,22.3446880000 114.1783410000,22.3445980000 114.1788090000,22.3444280000 114.1788370000,22.3444190000 114.1790500000,22.3443460000 114.1791310000,22.3443200000 114.1792350000,22.3442910000 114.1793550000,22.3442590000 114.1794210000,22.3442430000 114.1794720000,22.3442320000 114.1795510000,22.3442170000 114.1796030000,22.3442090000 114.1796580000,22.3442000000 114.1798460000,22.3441740000 114.1800610000,22.3441500000 114.1802850000,22.3441480000 114.1804590000,22.3441470000 114.1808300000,22.3441360000 114.1809890000,22.3441380000 114.1811010000,22.3441410000 114.1811720000,22.3441430000 114.1813190000,22.3441480000 114.1819890000,22.3441980000 114.1820980000,22.3442080000 114.1821550000,22.3442090000 114.1822020000,22.3442070000 114.1822850000,22.3442020000 114.1823980000,22.3441920000 114.1824290000,22.3441890000 114.1824550000,22.3441850000 114.1824840000,22.3441790000 114.1825110000,22.3441730000 114.1826160000,22.3441400000 114.1826730000,22.3441200000 114.1827350000,22.3441010000 114.1828030000,22.3440790000 114.1828620000,22.3440480000 114.1829050000,22.3440230000 114.1829470000,22.3439970000 114.1830110000,22.3439550000 114.1831870000,22.3438280000 114.1833240000,22.3437270000 114.1834050000,22.3436720000 114.1834800000,22.3436230000 114.1835750000,22.3435640000 114.1836620000,22.3435110000 114.1837520000,22.3434600000 114.1838360000,22.3434190000 114.1840130000,22.3433340000 114.1841540000,22.3432700000 114.1842620000,22.3432240000 114.1843260000,22.3431960000 114.1844990000,22.3431310000 114.1846460000,22.3430760000 114.1848300000,22.3429970000 114.1850180000,22.3429310000 114.1851350000,22.3428900000 114.1853140000,22.3428270000 114.1854810000,22.3427760000 114.1856410000,22.3427320000 114.1857940000,22.3426980000 114.1859600000,22.3426660000 114.1860320000,22.3426520000 114.1860700000,22.3426450000 114.1862220000,22.3426220000 114.1863840000,22.3425980000 114.1864280000,22.3425940000 114.1865080000,22.3425810000 114.1865990000,22.3425710000 114.1867350000,22.3425610000 114.1868320000,22.3425550000 114.1870010000,22.3425480000 114.1875130000,22.3425350000 114.1877550000,22.3425340000 114.1878600000,22.3425350000 114.1879500000,22.3425360000 114.1882640000,22.3425400000 114.1883540000,22.3425390000 114.1884310000,22.3425380000 114.1884740000,22.3425380000 114.1885520000,22.3425360000 114.1887350000,22.3425310000 114.1887720000,22.3425280000 114.1888110000,22.3425240000 114.1890310000,22.3424950000 114.1891710000,22.3424670000 114.1892400000,22.3424520000 114.1893500000,22.3424270000 114.1894530000,22.3424040000 114.1894980000,22.3423840000 114.1899600000,22.3421820000 114.1900460000,22.3421430000 114.1901150000,22.3421100000 114.1902140000,22.3420630000 114.1904470000,22.3419520000 114.1905380000,22.3419090000 114.1906330000,22.3418690000 114.1907220000,22.3418340000 114.1907820000,22.3418130000 114.1908460000,22.3417930000 114.1909640000,22.3417650000 114.1910150000,22.3417550000 114.1910910000,22.3417420000 114.1911500000,22.3417320000 114.1912040000,22.3417260000 114.1912210000,22.3417240000 114.1912580000,22.3417220000 114.1912820000,22.3417210000 114.1913140000,22.3417200000 114.1913500000,22.3417180000 114.1913960000,22.3417160000 114.1914400000,22.3417150000 114.1915650000,22.3417140000 114.1916090000,22.3417130000 114.1916780000,22.3417130000 114.1917400000,22.3417130000 114.1919160000,22.3417150000 114.1920130000,22.3417160000 114.1927770000,22.3417220000 114.1928860000,22.3417240000 114.1929860000,22.3417240000 114.1935210000,22.3417330000 114.1951750000,22.3417540000 114.1955430000,22.3417590000 114.1955540000,22.3417590000 114.1957670000,22.3417600000 114.1959140000,22.3417610000 114.1960820000,22.3417630000 114.1964300000,22.3417760000 114.1964930000,22.3417790000 114.1967820000,22.3417900000 114.1969490000,22.3417960000 114.1970530000,22.3417890000 114.1971020000,22.3417870000 114.1972370000,22.3417790000 114.1972750000,22.3417780000 114.1975050000,22.3417720000 114.1976140000,22.3417720000 114.1977450000,22.3417630000 114.1979580000,22.3417480000 114.1982630000,22.3416950000 114.1987010000,22.3415590000 114.1987510000,22.3415340000 114.1988410000,22.3414910000 114.1989090000,22.3414580000 114.1989950000,22.3414130000 114.1990540000,22.3413840000 114.1991110000,22.3413540000 114.1991920000,22.3413130000 114.1992270000,22.3412940000 114.1995210000,22.3411350000 114.1996450000,22.3410650000 114.1996880000,22.3410410000 114.1997490000,22.3410380000 114.1998590000,22.3410330000 114.1999750000,22.3409820000 114.2003110000,22.3408550000 114.2006380000,22.3407230000 114.2007560000,22.3406750000 114.2009420000,22.3406020000 114.2010520000,22.3405460000 114.2012790000,22.3404310000 114.2022050000,22.3398660000 114.2022610000,22.3398350000 114.2024040000,22.3397530000 114.2024350000,22.3397350000 114.2025060000,22.3396840000 114.2027850000,22.3394950000 114.2028110000,22.3394780000 114.2030620000,22.3393190000 114.2035020000,22.3389530000 114.2036280000,22.3388360000 114.2036950000,22.3387740000 114.2038150000,22.3386550000 114.2039810000,22.3385010000 114.2044920000,22.3382080000 114.2045710000,22.3381630000 114.2049180000,22.3379640000 114.2052840000,22.3377490000 114.2053430000,22.3377150000 114.2054050000,22.3376790000 114.2057640000,22.3374760000 114.2058990000,22.3374080000 114.2060760000,22.3373200000 114.2062130000,22.3372520000 114.2066060000,22.3370130000 114.2066980000,22.3369560000 114.2068700000,22.3368380000 114.2069610000,22.3367740000 114.2069830000,22.3367580000 114.2069960000,22.3367490000 114.2070810000,22.3366810000 114.2071530000,22.3366230000 114.2072260000,22.3365590000 114.2072650000,22.3365220000 114.2073100000,22.3364680000 114.2073510000,22.3364190000 114.2073980000,22.3363490000 114.2074210000,22.3363160000 114.2074450000,22.3362820000 114.2074570000,22.3362600000 114.2074740000,22.3362340000 114.2074940000,22.3361920000 114.2075110000,22.3361570000 114.2075290000,22.3361170000 114.2075470000,22.3360780000 114.2075580000,22.3360540000 114.2076470000,22.3359770000 114.2076870000,22.3358960000 114.2076950000,22.3358720000 114.2077450000,22.3357330000 114.2078980000,22.3353860000 114.2079280000,22.3353210000 114.2080100000,22.3351430000 114.2080410000,22.3350770000 114.2081290000,22.3348870000 114.2082070000,22.3347140000 114.2082370000,22.3346490000 114.2082550000,22.3346220000 114.2082860000,22.3345920000 114.2083240000,22.3345580000 114.2083500000,22.3345380000 114.2083940000,22.3345030000 114.2084160000,22.3344870000 114.2086020000,22.3343400000 114.2086830000,22.3342710000 114.2087260000,22.3342360000 114.2087620000,22.3342120000 114.2088030000,22.3341930000 114.2088510000,22.3341790000 114.2089090000,22.3341670000 114.2090480000,22.3341590000 114.2091240000,22.3341650000 114.2091910000,22.3341720000 114.2093750000,22.3342290000 114.2097000000,22.3342980000 114.2099930000,22.3343570000 114.2103020000,22.3344120000 114.2105890000,22.3344660000 114.2106840000,22.3344810000 114.2107910000,22.3344900000 114.2108900000,22.3344910000 114.2109970000,22.3344830000 114.2111550000,22.3344620000 114.2112220000,22.3344510000 114.2113490000,22.3344190000 114.2115010000,22.3343730000 114.2116950000,22.3342990000 114.2118800000,22.3342110000 114.2119940000,22.3341360000 114.2120530000,22.3340810000 114.2121990000,22.3339200000 114.2123980000,22.3336670000 114.2125230000,22.3335320000 114.2126150000,22.3335980000 114.2126360000,22.3336150000 114.2126550000,22.3336300000 114.2127420000,22.3336820000 114.2128170000,22.3337170000 114.2129110000,22.3337430000 114.2130000000,22.3337600000 114.2130530000,22.3337650000 114.2131190000,22.3337650000 114.2131850000,22.3337540000 114.2132990000,22.3337180000 114.2134680000,22.3336540000 114.2136130000,22.3335930000 114.2137520000,22.3335420000 114.2138670000,22.3335060000 114.2140340000,22.3334750000 114.2142200000,22.3334740000 114.2144250000,22.3334870000 114.2145920000,22.3335170000 114.2147300000,22.3335420000 114.2150780000,22.3336040000 114.2152540000,22.3336350000 114.2153410000,22.3336460000 114.2155070000,22.3337000000 114.2156700000,22.3337540000 114.2157880000,22.3338020000 114.2158670000,22.3339390000 114.2158790000,22.3339840000 114.2158840000,22.3340130000 114.2158780000,22.3340470000 114.2158690000,22.3340830000 114.2158250000,22.3341690000 114.2156660000,22.3342550000 114.2152460000,22.3344860000 114.2152120000,22.3345140000 114.2153070000,22.3346600000 114.2153710000,22.3347580000 114.2154780000,22.3348430000 114.2156010000,22.3349110000 114.2162080000,22.3349650000 114.2165040000,22.3349730000 114.2168710000,22.3349630000 114.2171860000,22.3349500000 114.2175190000,22.3349370000 114.2177650000,22.3349310000 114.2178320000,22.3349260000 114.2180180000,22.3348940000 114.2180990000,22.3348420000 114.2181420000,22.3348150000 114.2181590000,22.3347980000 114.2182050000,22.3347550000 114.2182520000,22.3346700000 114.2182890000,22.3345800000 114.2182870000,22.3345270000 114.2181940000,22.3342770000 114.2181790000,22.3341740000 114.2181740000,22.3339760000 114.2181670000,22.3339290000 114.2181450000,22.3338600000 114.2182170000,22.3338310000 114.2182370000,22.3338250000 114.2184620000,22.3337510000 114.2186390000,22.3337260000 114.2188060000,22.3337160000 114.2192760000,22.3337490000 114.2196830000,22.3337780000 114.2207350000,22.3338480000 114.2207720000,22.3338500000 114.2208340000,22.3338540000 114.2210910000,22.3338760000 114.2212070000,22.3338830000 114.2212640000,22.3338870000 114.2213630000,22.3338950000 114.2214970000,22.3339030000 114.2215860000,22.3339090000 114.2217870000,22.3339260000 114.2218510000,22.3339380000 114.2224460000,22.3340870000 114.2226090000,22.3341230000 114.2234800000,22.3343810000 114.2237620000,22.3344580000 114.2239130000,22.3344910000 114.2239930000,22.3344960000 114.2240490000,22.3344940000 114.2241320000,22.3344880000 114.2242620000,22.3344420000 114.2243380000,22.3344060000 114.2243960000,22.3343770000 114.2244750000,22.3343300000 114.2245790000,22.3342610000 114.2246900000,22.3342090000 114.2248060000,22.3341700000 114.2248870000,22.3341920000 114.2249170000,22.3341870000 114.2249300000,22.3341850000 114.2249760000,22.3341780000 114.2250160000,22.3341760000 114.2250770000,22.3341770000 114.2251250000,22.3341760000 114.2251670000,22.3341570000 114.2252440000,22.3341650000 114.2252890000,22.3341690000 114.2257710000,22.3342170000 114.2260480000,22.3343320000 114.2262680000,22.3344270000 114.2263490000,22.3344610000 114.2265340000,22.3345130000 114.2266840000,22.3345220000 114.2267930000,22.3345280000 114.2268720000,22.3345280000 114.2269510000,22.3345240000 114.2269760000,22.3345230000 114.2269970000,22.3345210000 114.2270140000,22.3345170000 114.2270340000,22.3345100000 114.2270530000,22.3345010000 114.2270710000,22.3344890000 114.2271030000,22.3344670000 114.2271830000,22.3344340000 114.2272050000,22.3344130000 114.2272280000,22.3343880000 114.2272680000,22.3343370000 114.2275750000,22.3343730000 114.2276950000,22.3343720000 114.2278070000,22.3343710000 114.2279480000,22.3343690000 114.2280470000,22.3343690000 114.2281550000,22.3343380000 114.2282410000,22.3343160000 114.2283290000,22.3343160000 114.2283750000,22.3343100000 114.2284040000,22.3342940000 114.2284340000,22.3342630000 114.2284380000,22.3342300000 114.2284400000,22.3341210000 114.2284420000,22.3340670000 114.2284460000,22.3337100000 114.2284800000,22.3332480000 114.2284830000,22.3331840000 114.2284950000,22.3330350000 114.2285000000,22.3329620000 114.2285120000,22.3328830000 114.2285340000,22.3328050000 114.2286050000,22.3326160000 114.2286520000,22.3325140000 114.2287110000,22.3324010000 114.2287750000,22.3322700000 114.2287930000,22.3321850000 114.2288120000,22.3321010000 114.2288170000,22.3320400000 114.2288200000,22.3319940000 114.2288200000,22.3319460000 114.2288190000,22.3319030000 114.2288170000,22.3318570000 114.2288120000,22.3318140000 114.2288050000,22.3317660000 114.2287940000,22.3317110000 114.2287770000,22.3316500000 114.2287510000,22.3315810000 114.2287090000,22.3314850000 114.2286640000,22.3314040000 114.2284420000,22.3310470000 114.2283980000,22.3309650000 114.2283730000,22.3309090000 114.2283490000,22.3308490000 114.2283320000,22.3308000000 114.2283080000,22.3307030000 114.2282960000,22.3306420000 114.2282890000,22.3305830000 114.2282860000,22.3305250000 114.2282860000,22.3304660000 114.2282890000,22.3304100000 114.2282940000,22.3303560000 114.2283050000,22.3302970000 114.2283160000,22.3302430000 114.2283320000,22.3301880000 114.2283520000,22.3301270000 114.2283780000,22.3300620000 114.2284090000,22.3299990000 114.2284560000,22.3299150000 114.2285060000,22.3298450000 114.2285630000,22.3297730000 114.2286330000,22.3297020000 114.2287100000,22.3296360000 114.2287810000,22.3295820000 114.2288500000,22.3295340000 114.2290220000,22.3294170000 114.2291430000,22.3293330000 114.2292880000,22.3292220000 114.2293930000,22.3291340000 114.2296130000,22.3289310000 114.2296930000,22.3288480000 114.2297620000,22.3287730000 114.2299520000,22.3285490000 114.2300480000,22.3284210000 114.2301300000,22.3283000000 114.2302070000,22.3281780000 114.2302750000,22.3280620000 114.2303250000,22.3279840000 114.2303670000,22.3279260000 114.2303840000,22.3279080000 114.2304040000,22.3278880000 114.2304570000,22.3278350000 114.2304920000,22.3278190000 114.2305210000,22.3277970000 114.2305440000,22.3277680000 114.2305580000,22.3277350000 114.2305630000,22.3277000000 114.2305590000,22.3276640000 114.2305460000,22.3276310000 114.2305500000,22.3275390000 114.2305540000,22.3274900000 114.2305590000,22.3274290000 114.2305700000,22.3273780000 114.2306150000,22.3272230000 114.2306690000,22.3270190000 114.2306950000,22.3268400000 114.2307050000,22.3266980000 114.2307090000,22.3265730000 114.2307110000,22.3264690000 114.2307120000,22.3264240000 114.2307130000,22.3263560000 114.2307160000,22.3262060000 114.2308350000,22.3262040000 114.2308600000,22.3262020000 114.2310850000,22.3262040000 114.2311440000,22.3261950000 114.2312020000,22.3261780000 114.2312570000,22.3261550000 114.2313080000,22.3261250000 114.2313570000,22.3260860000 114.2314000000,22.3260410000 114.2314350000,22.3259900000 114.2315100000,22.3257970000 114.2318840000,22.3249260000 114.2321940000,22.3240970000 114.2324800000,22.3235990000 114.2325270000,22.3235180000 114.2325810000,22.3234420000 114.2326410000,22.3233710000 114.2327260000,22.3232790000 114.2333410000,22.3228730000 114.2335240000,22.3227460000 114.2336290000,22.3227340000 114.2336730000,22.3227280000 114.2336990000,22.3227240000 114.2337470000,22.3227180000 114.2337900000,22.3227360000 114.2338370000,22.3227410000 114.2338840000,22.3227310000 114.2339350000,22.3227540000 114.2339630000,22.3227660000 114.2339960000,22.3227800000 114.2340720000,22.3227970000 114.2344040000,22.3230140000 114.2345730000,22.3231250000 114.2347420000,22.3232380000 114.2347930000,22.3232710000 114.2348370000,22.3233000000 114.2348690000,22.3233210000 114.2349160000,22.3233510000 114.2351940000,22.3235330000 114.2356470000,22.3238220000 114.2358840000,22.3239740000 114.2359320000,22.3240470000 114.2359630000,22.3240690000 114.2359950000,22.3240900000 114.2360590000,22.3241330000 114.2360260000,22.3241850000 114.2359950000,22.3242380000 114.2359780000,22.3242700000 114.2359620000,22.3243110000 114.2359690000,22.3243850000 114.2359320000,22.3244870000 114.2359050000,22.3245920000 114.2358870000,22.3246950000 114.2357570000,22.3256510000 114.2357230000,22.3259910000 114.2356590000,22.3263280000 114.2355640000,22.3266580000 114.2354400000,22.3269800000 114.2352710000,22.3273250000 114.2351060000,22.3275890000 114.2348990000,22.3278720000 114.2346670000,22.3281380000 114.2343450000,22.3284620000 114.2342500000,22.3285570000 114.2341350000,22.3284670000 114.2334380000,22.3279170000 114.2334380000,22.3279170000 114.2341350000,22.3284670000 114.2342500000,22.3285570000 114.2343450000,22.3284620000 114.2346670000,22.3281380000 114.2348990000,22.3278720000 114.2351060000,22.3275890000 114.2352710000,22.3273250000 114.2354400000,22.3269800000 114.2355640000,22.3266580000 114.2356590000,22.3263280000 114.2357230000,22.3259910000 114.2357570000,22.3256510000 114.2358870000,22.3246950000 114.2359050000,22.3245920000 114.2359320000,22.3244870000 114.2359690000,22.3243850000 114.2360310000,22.3243360000 114.2360530000,22.3243030000 114.2360700000,22.3242710000 114.2360970000,22.3242240000 114.2361260000,22.3241780000 114.2361690000,22.3241180000 114.2361360000,22.3240960000 114.2361020000,22.3240730000 114.2360400000,22.3240310000 114.2360090000,22.3240100000 114.2359770000,22.3239890000 114.2358840000,22.3239740000 114.2356470000,22.3238220000 114.2351940000,22.3235330000 114.2349160000,22.3233510000 114.2348690000,22.3233210000 114.2348370000,22.3233000000 114.2347930000,22.3232710000 114.2347420000,22.3232380000 114.2345730000,22.3231250000 114.2344040000,22.3230140000 114.2340720000,22.3227970000 114.2340460000,22.3227290000 114.2340250000,22.3227000000 114.2340060000,22.3226730000 114.2339720000,22.3226300000 114.2339720000,22.3225850000 114.2339560000,22.3225440000 114.2339270000,22.3225090000 114.2338880000,22.3224850000 114.2338420000,22.3224740000 114.2337950000,22.3224770000 114.2337510000,22.3224950000 114.2337160000,22.3225240000 114.2336930000,22.3225620000 114.2336440000,22.3226170000 114.2336160000,22.3226480000 114.2335950000,22.3226720000 114.2335240000,22.3227460000 114.2333410000,22.3228730000 114.2327260000,22.3232790000 114.2326410000,22.3233710000 114.2325810000,22.3234420000 114.2325270000,22.3235180000 114.2324800000,22.3235990000 114.2321940000,22.3240970000 114.2318840000,22.3249260000 114.2315100000,22.3257970000 114.2314350000,22.3259900000 114.2314000000,22.3260410000 114.2313570000,22.3260860000 114.2313080000,22.3261250000 114.2312570000,22.3261550000 114.2312020000,22.3261780000 114.2311440000,22.3261950000 114.2310850000,22.3262040000 114.2308600000,22.3262020000 114.2308350000,22.3262040000 114.2307160000,22.3262060000 114.2306270000,22.3262110000 114.2305110000,22.3262210000 114.2304040000,22.3262260000 114.2303600000,22.3262300000 114.2303000000,22.3262320000 114.2299150000,22.3262530000 114.2297640000,22.3262720000 114.2297280000,22.3262760000 114.2296340000,22.3263050000 114.2292400000,22.3264660000 114.2291470000,22.3265050000 114.2287410000,22.3266580000 114.2285720000,22.3267210000 114.2284790000,22.3267560000 114.2279990000,22.3269430000 114.2279150000,22.3269760000 114.2278560000,22.3270110000 114.2277990000,22.3270510000 114.2277510000,22.3270930000 114.2277150000,22.3271300000 114.2276830000,22.3271730000 114.2276610000,22.3272120000 114.2276390000,22.3272610000 114.2276240000,22.3273100000 114.2276140000,22.3273610000 114.2276100000,22.3274220000 114.2276140000,22.3274970000 114.2276240000,22.3275630000 114.2277000000,22.3279010000 114.2277260000,22.3280160000 114.2277520000,22.3281100000 114.2277820000,22.3282000000 114.2278220000,22.3282900000 114.2278620000,22.3283550000 114.2279010000,22.3284050000 114.2279380000,22.3284450000 114.2279890000,22.3284900000 114.2280340000,22.3285240000 114.2280790000,22.3285520000 114.2281410000,22.3285830000 114.2282130000,22.3286100000 114.2282850000,22.3286290000 114.2283630000,22.3286410000 114.2284390000,22.3286470000 114.2286040000,22.3286310000 114.2286550000,22.3286190000 114.2287480000,22.3285760000 114.2287930000,22.3285560000 114.2288720000,22.3285060000 114.2289740000,22.3284160000 114.2289790000,22.3284070000 114.2290030000,22.3283650000 114.2290500000,22.3282720000 114.2290810000,22.3281790000 114.2291580000,22.3279470000 114.2292210000,22.3278310000 114.2293040000,22.3277270000 114.2293920000,22.3276490000 114.2294570000,22.3276080000 114.2295140000,22.3275790000 114.2295870000,22.3275530000 114.2296710000,22.3275310000 114.2297920000,22.3275200000 114.2298580000,22.3275150000 114.2299380000,22.3275220000 114.2299620000,22.3275270000 114.2299980000,22.3275740000 114.2300210000,22.3275800000 114.2300810000,22.3276020000 114.2301300000,22.3276260000 114.2301740000,22.3276530000 114.2302090000,22.3276760000 114.2302510000,22.3276980000 114.2302540000,22.3277290000 114.2302650000,22.3277590000 114.2302590000,22.3278240000 114.2302540000,22.3278590000 114.2302440000,22.3278990000 114.2302250000,22.3279600000 114.2301970000,22.3280220000 114.2301640000,22.3280860000 114.2301280000,22.3281460000 114.2300540000,22.3282610000 114.2299290000,22.3284380000 114.2297020000,22.3287150000 114.2295860000,22.3288430000 114.2294800000,22.3289460000 114.2293640000,22.3290510000 114.2292640000,22.3291350000 114.2290920000,22.3292730000 114.2289180000,22.3293940000 114.2288030000,22.3294720000 114.2286880000,22.3295560000 114.2286090000,22.3296190000 114.2285710000,22.3296540000 114.2285340000,22.3296930000 114.2284960000,22.3297400000 114.2284560000,22.3297920000 114.2284170000,22.3298460000 114.2283880000,22.3298910000 114.2283510000,22.3299580000 114.2283170000,22.3300370000 114.2282900000,22.3301060000 114.2282640000,22.3301830000 114.2282440000,22.3302670000 114.2282330000,22.3303380000 114.2282270000,22.3303910000 114.2282220000,22.3304630000 114.2282230000,22.3305640000 114.2282310000,22.3306600000 114.2282420000,22.3307420000 114.2282590000,22.3308240000 114.2282880000,22.3309110000 114.2283070000,22.3309590000 114.2283290000,22.3310090000 114.2283510000,22.3310560000 114.2283750000,22.3310990000 114.2284060000,22.3311500000 114.2284350000,22.3311970000 114.2284630000,22.3312440000 114.2284900000,22.3312890000 114.2285180000,22.3313390000 114.2285440000,22.3313830000 114.2285710000,22.3314320000 114.2285970000,22.3314790000 114.2286240000,22.3315260000 114.2286500000,22.3315770000 114.2286710000,22.3316240000 114.2286880000,22.3316760000 114.2287000000,22.3317260000 114.2287100000,22.3317800000 114.2287190000,22.3318350000 114.2287240000,22.3318850000 114.2287250000,22.3319320000 114.2287240000,22.3319780000 114.2287200000,22.3320340000 114.2287100000,22.3320890000 114.2286950000,22.3321700000 114.2286820000,22.3322400000 114.2286240000,22.3323670000 114.2285640000,22.3324750000 114.2284990000,22.3325850000 114.2284280000,22.3327850000 114.2284030000,22.3328660000 114.2283900000,22.3329500000 114.2283820000,22.3330320000 114.2283710000,22.3331780000 114.2283670000,22.3332510000 114.2283480000,22.3337090000 114.2283370000,22.3339070000 114.2283320000,22.3339710000 114.2282490000,22.3340920000 114.2282230000,22.3341220000 114.2282060000,22.3341420000 114.2281310000,22.3341940000 114.2280750000,22.3342400000 114.2277940000,22.3342420000 114.2276810000,22.3342430000 114.2275880000,22.3342410000 114.2274470000,22.3342370000 114.2273070000,22.3342530000 114.2272540000,22.3342680000 114.2271550000,22.3343140000 114.2271210000,22.3343710000 114.2271140000,22.3343850000 114.2271070000,22.3343990000 114.2271030000,22.3344670000 114.2270710000,22.3344890000 114.2270530000,22.3345010000 114.2270340000,22.3345100000 114.2270140000,22.3345170000 114.2269970000,22.3345210000 114.2269760000,22.3345230000 114.2269510000,22.3345240000 114.2268390000,22.3344910000 114.2266300000,22.3343890000 114.2264630000,22.3343140000 114.2264060000,22.3342910000 114.2263740000,22.3342800000 114.2263350000,22.3342690000 114.2262910000,22.3342590000 114.2257710000,22.3342170000 114.2252890000,22.3341690000 114.2252440000,22.3341650000 114.2251670000,22.3341570000 114.2251250000,22.3341370000 114.2251100000,22.3341330000 114.2250640000,22.3341280000 114.2250120000,22.3341230000 114.2249720000,22.3341230000 114.2249280000,22.3341240000 114.2249170000,22.3341260000 114.2248840000,22.3341290000 114.2248060000,22.3341700000 114.2246900000,22.3342090000 114.2245790000,22.3342610000 114.2244750000,22.3343300000 114.2243960000,22.3343770000 114.2243380000,22.3344060000 114.2242620000,22.3344420000 114.2241320000,22.3344880000 114.2240490000,22.3344940000 114.2239930000,22.3344960000 114.2239130000,22.3344910000 114.2237620000,22.3344580000 114.2234800000,22.3343810000 114.2226090000,22.3341230000 114.2224460000,22.3340870000 114.2218510000,22.3339380000 114.2217870000,22.3339260000 114.2215860000,22.3339090000 114.2214970000,22.3339030000 114.2213630000,22.3338950000 114.2212640000,22.3338870000 114.2212070000,22.3338830000 114.2210910000,22.3338760000 114.2208340000,22.3338540000 114.2207720000,22.3338500000 114.2207350000,22.3338480000 114.2196830000,22.3337780000 114.2192760000,22.3337490000 114.2188060000,22.3337160000 114.2186390000,22.3337260000 114.2184620000,22.3337510000 114.2182370000,22.3338250000 114.2182170000,22.3338310000 114.2181450000,22.3338600000 114.2180180000,22.3339350000 114.2179590000,22.3339670000 114.2177640000,22.3341050000 114.2176050000,22.3342170000 114.2174840000,22.3342770000 114.2173080000,22.3343340000 114.2170840000,22.3343890000 114.2168050000,22.3344410000 114.2166530000,22.3344440000 114.2164920000,22.3344010000 114.2163890000,22.3343370000 114.2163010000,22.3342620000 114.2161270000,22.3340920000 114.2160690000,22.3340350000 114.2159710000,22.3339410000 114.2159150000,22.3338880000 114.2157880000,22.3338020000 114.2156700000,22.3337540000 114.2155070000,22.3337000000 114.2153410000,22.3336460000 114.2152540000,22.3336350000 114.2150780000,22.3336040000 114.2147300000,22.3335420000 114.2145920000,22.3335170000 114.2144250000,22.3334870000 114.2142200000,22.3334740000 114.2140340000,22.3334750000 114.2138670000,22.3335060000 114.2137520000,22.3335420000 114.2136130000,22.3335930000 114.2134680000,22.3336540000 114.2132990000,22.3337180000 114.2131850000,22.3337540000 114.2131190000,22.3337650000 114.2130530000,22.3337650000 114.2130000000,22.3337600000 114.2129110000,22.3337430000 114.2128170000,22.3337170000 114.2127420000,22.3336820000 114.2126550000,22.3336300000 114.2126360000,22.3336150000 114.2126150000,22.3335980000 114.2125230000,22.3335320000 114.2124270000,22.3334660000 114.2122090000,22.3337590000 114.2120330000,22.3339410000 114.2119050000,22.3340380000 114.2116770000,22.3341500000 114.2115060000,22.3342190000 114.2113180000,22.3342760000 114.2110930000,22.3343140000 114.2110010000,22.3343230000 114.2108550000,22.3343290000 114.2107120000,22.3343220000 114.2106140000,22.3343170000 114.2104470000,22.3343000000 114.2102250000,22.3342630000 114.2098980000,22.3341950000 114.2097940000,22.3341720000 114.2092650000,22.3340640000 114.2090910000,22.3340490000 114.2087050000,22.3340720000 114.2085150000,22.3341390000 114.2083270000,22.3342060000 114.2081940000,22.3342530000 114.2081090000,22.3342900000 114.2080000000,22.3343360000 114.2080050000,22.3344320000 114.2080030000,22.3345270000 114.2079940000,22.3345770000 114.2079880000,22.3346070000 114.2079790000,22.3346360000 114.2079570000,22.3346940000 114.2078730000,22.3348950000 114.2077320000,22.3351980000 114.2077250000,22.3352110000 114.2076860000,22.3352950000 114.2076510000,22.3353700000 114.2076190000,22.3354420000 114.2075480000,22.3355980000 114.2074350000,22.3358460000 114.2074100000,22.3359010000 114.2074010000,22.3359970000 114.2073760000,22.3360480000 114.2073560000,22.3360870000 114.2073230000,22.3361410000 114.2072850000,22.3361990000 114.2072740000,22.3362150000 114.2072580000,22.3362400000 114.2072210000,22.3362940000 114.2071800000,22.3363450000 114.2071440000,22.3363850000 114.2071020000,22.3364290000 114.2070320000,22.3364970000 114.2069650000,22.3365610000 114.2068930000,22.3366200000 114.2068400000,22.3366590000 114.2067850000,22.3366990000 114.2067040000,22.3367530000 114.2065980000,22.3368240000 114.2065370000,22.3368620000 114.2065140000,22.3368770000 114.2064720000,22.3369040000 114.2063830000,22.3369600000 114.2063260000,22.3369950000 114.2062660000,22.3370330000 114.2061340000,22.3371140000 114.2060170000,22.3371880000 114.2058320000,22.3372900000 114.2056660000,22.3373870000 114.2053080000,22.3375820000 114.2052620000,22.3376170000 114.2051970000,22.3376710000 114.2046310000,22.3379940000 114.2045110000,22.3380630000 114.2044400000,22.3381040000 114.2042370000,22.3382210000 114.2038960000,22.3384230000 114.2037480000,22.3385110000 114.2035800000,22.3385870000 114.2034540000,22.3386670000 114.2031670000,22.3388460000 114.2030800000,22.3389010000 114.2029090000,22.3389990000 114.2028670000,22.3390220000 114.2024520000,22.3392660000 114.2024210000,22.3392840000 114.2024040000,22.3392940000 114.2023920000,22.3393020000 114.2023130000,22.3393480000 114.2022820000,22.3393660000 114.2019180000,22.3395740000 114.2016920000,22.3397040000 114.2015860000,22.3397640000 114.2005870000,22.3403520000 114.2002070000,22.3405730000 114.2000820000,22.3406460000 114.1999480000,22.3407320000 114.1998280000,22.3408090000 114.1997410000,22.3408640000 114.1996590000,22.3409170000 114.1991570000,22.3411960000 114.1991050000,22.3412240000 114.1990500000,22.3412500000 114.1989960000,22.3412730000 114.1989460000,22.3412920000 114.1988480000,22.3413400000 114.1987770000,22.3413730000 114.1987090000,22.3414070000 114.1986420000,22.3414410000 114.1982380000,22.3415650000 114.1979200000,22.3416220000 114.1977250000,22.3416480000 114.1976250000,22.3416510000 114.1975060000,22.3416560000 114.1972930000,22.3416600000 114.1972320000,22.3416580000 114.1970870000,22.3416580000 114.1970380000,22.3416570000 114.1969470000,22.3416540000 114.1967600000,22.3416500000 114.1965190000,22.3416470000 114.1959190000,22.3416530000 114.1958270000,22.3416540000 114.1956690000,22.3416520000 114.1955420000,22.3416510000 114.1954050000,22.3416500000 114.1951760000,22.3416480000 114.1947310000,22.3416450000 114.1943230000,22.3416420000 114.1938970000,22.3416380000 114.1935070000,22.3416360000 114.1929920000,22.3416320000 114.1928820000,22.3416310000 114.1927790000,22.3416300000 114.1925840000,22.3416290000 114.1924800000,22.3416270000 114.1919230000,22.3416100000 114.1917630000,22.3416040000 114.1916880000,22.3416020000 114.1915670000,22.3415980000 114.1914890000,22.3415970000 114.1914770000,22.3415970000 114.1914060000,22.3416000000 114.1912840000,22.3416100000 114.1912020000,22.3416220000 114.1911890000,22.3416230000 114.1911290000,22.3416310000 114.1910710000,22.3416400000 114.1909990000,22.3416520000 114.1909380000,22.3416640000 114.1908750000,22.3416780000 114.1908050000,22.3416960000 114.1907460000,22.3417140000 114.1906810000,22.3417360000 114.1905830000,22.3417720000 114.1904490000,22.3418280000 114.1901520000,22.3419540000 114.1900510000,22.3419920000 114.1899700000,22.3420340000 114.1898810000,22.3420760000 114.1898510000,22.3420900000 114.1897800000,22.3421200000 114.1896660000,22.3421710000 114.1894440000,22.3422660000 114.1893840000,22.3422900000 114.1893030000,22.3423130000 114.1892040000,22.3423410000 114.1891480000,22.3423540000 114.1890060000,22.3423890000 114.1888130000,22.3424180000 114.1887750000,22.3424220000 114.1887240000,22.3424260000 114.1885530000,22.3424320000 114.1884710000,22.3424320000 114.1884320000,22.3424330000 114.1883540000,22.3424330000 114.1882600000,22.3424330000 114.1879490000,22.3424360000 114.1878590000,22.3424360000 114.1877510000,22.3424370000 114.1875180000,22.3424390000 114.1868290000,22.3424490000 114.1867070000,22.3424570000 114.1864960000,22.3424760000 114.1864220000,22.3424860000 114.1863650000,22.3424940000 114.1862190000,22.3425170000 114.1860620000,22.3425420000 114.1860200000,22.3425500000 114.1859350000,22.3425660000 114.1857820000,22.3425950000 114.1856100000,22.3426270000 114.1854390000,22.3426680000 114.1852740000,22.3427080000 114.1850600000,22.3427730000 114.1849790000,22.3428080000 114.1847780000,22.3428900000 114.1846040000,22.3429620000 114.1844620000,22.3430210000 114.1842890000,22.3430920000 114.1842210000,22.3431200000 114.1841100000,22.3431670000 114.1838610000,22.3432790000 114.1837910000,22.3433140000 114.1836940000,22.3433680000 114.1836130000,22.3434040000 114.1834870000,22.3434610000 114.1833620000,22.3435430000 114.1829390000,22.3438570000 114.1828280000,22.3439280000 114.1827760000,22.3439580000 114.1827340000,22.3439810000 114.1826350000,22.3440280000 114.1824790000,22.3440810000 114.1824200000,22.3440970000 114.1823620000,22.3441070000 114.1822470000,22.3441150000 114.1822020000,22.3441150000 114.1821490000,22.3441100000 114.1820800000,22.3441020000 114.1820300000,22.3441010000 114.1815930000,22.3440780000 114.1813330000,22.3440620000 114.1811760000,22.3440510000 114.1811030000,22.3440470000 114.1810330000,22.3440420000 114.1807890000,22.3440280000 114.1806000000,22.3440270000 114.1803340000,22.3440360000 114.1801880000,22.3440400000 114.1800690000,22.3440470000 114.1799690000,22.3440550000 114.1798530000,22.3440670000 114.1797140000,22.3440860000 114.1796190000,22.3441010000 114.1795290000,22.3441160000 114.1795050000,22.3441210000 114.1794590000,22.3441300000 114.1793400000,22.3441540000 114.1792030000,22.3441850000 114.1791020000,22.3442100000 114.1790020000,22.3442390000 114.1788880000,22.3442750000 114.1788200000,22.3442990000 114.1787280000,22.3443320000 114.1779650000,22.3446170000 114.1778500000,22.3446550000 114.1777300000,22.3446880000 114.1776380000,22.3447090000 114.1775450000,22.3447230000 114.1774560000,22.3447300000 114.1773570000,22.3447320000 114.1772560000,22.3447280000 114.1771440000,22.3447110000 114.1770370000,22.3446870000 114.1769310000,22.3446580000 114.1760270000,22.3443730000 114.1758970000,22.3443260000 114.1757900000,22.3442840000 114.1756890000,22.3442350000 114.1756020000,22.3441890000 114.1755200000,22.3441350000 114.1754390000,22.3440740000 114.1753570000,22.3439970000 114.1752930000,22.3439290000 114.1752160000,22.3438340000 114.1751290000,22.3437080000 114.1750460000,22.3435720000 114.1748620000,22.3432480000 114.1748020000,22.3431500000 114.1747460000,22.3430670000 114.1746930000,22.3429980000 114.1746350000,22.3429270000 114.1745910000,22.3428790000 114.1745290000,22.3428200000 114.1744570000,22.3427570000 114.1743840000,22.3427010000 114.1743100000,22.3426510000 114.1742380000,22.3426120000 114.1741600000,22.3425760000 114.1740780000,22.3425430000 114.1739920000,22.3425200000 114.1738940000,22.3425000000 114.1738220000,22.3424900000 114.1737410000,22.3424840000 114.1736670000,22.3424820000 114.1735570000,22.3424900000 114.1734600000,22.3425060000 114.1733120000,22.3425460000 114.1732180000,22.3425780000 114.1731380000,22.3426130000 114.1730830000,22.3426360000 114.1730470000,22.3426540000 114.1729460000,22.3427090000 114.1728380000,22.3427740000 114.1726230000,22.3429130000 114.1724420000,22.3430290000 114.1723370000,22.3430920000 114.1722310000,22.3431460000 114.1720850000,22.3432060000 114.1719330000,22.3432470000 114.1718010000,22.3432680000 114.1716830000,22.3432730000 114.1715530000,22.3432670000 114.1714280000,22.3432440000 114.1713080000,22.3432110000 114.1712060000,22.3431700000 114.1711080000,22.3431210000 114.1710190000,22.3430650000 114.1709170000,22.3429920000 114.1708120000,22.3429020000 114.1707170000,22.3428080000 114.1705000000,22.3425770000 114.1700810000,22.3421510000 114.1699250000,22.3419880000 114.1698460000,22.3419060000 114.1695820000,22.3416760000 114.1694490000,22.3415410000 114.1693270000,22.3414250000 114.1692720000,22.3413790000 114.1692000000,22.3413250000 114.1691670000,22.3413020000 114.1691110000,22.3412610000 114.1690610000,22.3412280000 114.1690110000,22.3411990000 114.1689460000,22.3411650000 114.1688790000,22.3411350000 114.1688110000,22.3411110000 114.1687380000,22.3410890000 114.1686710000,22.3410730000 114.1686080000,22.3410620000 114.1685460000,22.3410530000 114.1684730000,22.3410460000 114.1684060000,22.3410410000 114.1683460000,22.3410400000 114.1682870000,22.3410410000 114.1682290000,22.3410450000 114.1681730000,22.3410530000 114.1681150000,22.3410640000 114.1680640000,22.3410770000 114.1680070000,22.3410940000 114.1679210000,22.3411250000 114.1678030000,22.3411730000 114.1677290000,22.3412040000 114.1676730000,22.3412280000 114.1676400000,22.3412430000 114.1676060000,22.3412580000 114.1675370000,22.3412910000 114.1674660000,22.3413260000 114.1673940000,22.3413630000 114.1672770000,22.3414240000 114.1671530000,22.3414910000 114.1669690000,22.3415970000 114.1668570000,22.3416580000 114.1667980000,22.3416890000 114.1667300000,22.3417210000 114.1666590000,22.3417520000 114.1665870000,22.3417830000 114.1664910000,22.3418180000 114.1663840000,22.3418500000 114.1662870000,22.3418730000 114.1661860000,22.3418930000 114.1660880000,22.3419070000 114.1659670000,22.3419200000 114.1658600000,22.3419270000 114.1657250000,22.3419320000 114.1655880000,22.3419080000 114.1655510000,22.3419010000 114.1654240000,22.3418790000 114.1653110000,22.3418450000 114.1652370000,22.3418140000 114.1651930000,22.3417860000 114.1651850000,22.3417800000 114.1651620000,22.3417630000 114.1651440000,22.3417460000 114.1651180000,22.3417130000 114.1651010000,22.3416720000 114.1650830000,22.3416260000 114.1650740000,22.3415850000 114.1650680000,22.3415420000 114.1650700000,22.3414800000 114.1651030000,22.3411350000 114.1651270000,22.3409130000 114.1651350000,22.3408510000 114.1651580000,22.3406760000 114.1651800000,22.3405320000 114.1651940000,22.3404740000 114.1652010000,22.3404450000 114.1652760000,22.3401760000 114.1653230000,22.3400470000 114.1653510000,22.3399670000 114.1654010000,22.3398740000 114.1654140000,22.3398530000 114.1654790000,22.3397750000 114.1656650000,22.3394930000 114.1657180000,22.3394310000 114.1657800000,22.3393590000 114.1658020000,22.3393340000 114.1659800000,22.3390960000 114.1660800000,22.3390240000 114.1661570000,22.3389730000 114.1662500000,22.3389230000 114.1663440000,22.3388880000 114.1664400000,22.3388650000 114.1665720000,22.3388310000 114.1667640000,22.3387860000 114.1668340000,22.3387700000 114.1671690000,22.3386920000 114.1674420000,22.3386340000 114.1675770000,22.3386150000 114.1676960000,22.3386010000 114.1678760000,22.3385840000 114.1681960000,22.3385580000 114.1683990000,22.3385290000 114.1685040000,22.3385020000 114.1685330000,22.3384920000 114.1687020000,22.3384310000 114.1687760000,22.3383980000 114.1689610000,22.3382930000 114.1690670000,22.3382020000 114.1691580000,22.3380990000 114.1691990000,22.3380380000 114.1692320000,22.3379860000 114.1692810000,22.3378780000 114.1693140000,22.3377420000 114.1693320000,22.3376400000 114.1693340000,22.3375600000 114.1693250000,22.3374840000 114.1692920000,22.3372980000 114.1692310000,22.3370090000 114.1691840000,22.3367800000 114.1691320000,22.3365390000 114.1690940000,22.3363470000 114.1690710000,22.3362150000 114.1689910000,22.3358250000 114.1689750000,22.3357500000 114.1689530000,22.3356800000 114.1689320000,22.3356280000 114.1688740000,22.3355200000 114.1687910000,22.3354160000 114.1687150000,22.3353210000 114.1684100000,22.3349410000 114.1683640000,22.3348860000 114.1682460000,22.3347500000 114.1681840000,22.3346020000 114.1681610000,22.3345660000 114.1680600000,22.3344500000 114.1680000000,22.3343890000 114.1679300000,22.3343170000 114.1678560000,22.3342470000 114.1677470000,22.3341630000 114.1677100000,22.3341340000 114.1675440000,22.3339640000 114.1674990000,22.3339170000 114.1673630000,22.3337710000 114.1672680000,22.3336550000 114.1672270000,22.3336150000 114.1670660000,22.3334340000 114.1669450000,22.3332980000 114.1668940000,22.3332390000 114.1668420000,22.3331810000 114.1666720000,22.3329900000 114.1666350000,22.3329480000 114.1665870000,22.3328930000 114.1666920000,22.3328120000 114.1673280000,22.3323000000 114.1673850000,22.3322540000 114.1674540000,22.3321980000 114.1674090000,22.3321480000 114.1669610000,22.3316880000 114.1666730000,22.3313920000 114.1666210000,22.3313420000 114.1665730000,22.3312960000 114.1664540000,22.3311820000 114.1661560000,22.3308420000 114.1660600000,22.3307310000 114.1659710000,22.3306270000 114.1659490000,22.3306040000 114.1659290000,22.3305830000 114.1658700000,22.3305440000 114.1658440000,22.3305270000 114.1658060000,22.3305040000 114.1657800000,22.3304970000 114.1657560000,22.3304940000 114.1657310000,22.3304950000 114.1656970000,22.3304990000 114.1656590000,22.3305060000 114.1655860000,22.3305240000 114.1652210000,22.3308120000 114.1651410000,22.3308760000 114.1651100000,22.3309000000 114.1650120000,22.3309770000 114.1649380000,22.3308940000 114.1646150000,22.3305370000 114.1645900000,22.3305090000 114.1645660000,22.3304830000 114.1644220000,22.3303230000 114.1642710000,22.3301560000 114.1642070000,22.3300840000 114.1638960000,22.3297370000 114.1638660000,22.3297040000 114.1638180000,22.3296400000 114.1637310000,22.3295540000 114.1636700000,22.3294900000 114.1633540000,22.3291380000 114.1632980000,22.3290760000 114.1630930000,22.3288480000 114.1630570000,22.3288090000 114.1629910000,22.3287330000 114.1629300000,22.3286640000 114.1627870000,22.3285060000 114.1626280000,22.3283290000 114.1625820000,22.3282770000 114.1623430000,22.3280110000 114.1622750000,22.3279350000 114.1620170000,22.3276430000 114.1619920000,22.3276150000 114.1619280000,22.3275450000 114.1618480000,22.3274540000 114.1618000000,22.3274000000 114.1615150000,22.3270830000 114.1614520000,22.3270120000 114.1613980000,22.3269510000 114.1612680000,22.3268030000 114.1611640000,22.3266860000 114.1611350000,22.3266530000 114.1610550000,22.3265740000 114.1609830000,22.3264940000 114.1608730000,22.3263730000 114.1608550000,22.3263510000 114.1608330000,22.3263140000 114.1608160000,22.3262560000 114.1608110000,22.3262230000 114.1608060000,22.3261440000 114.1608070000,22.3260420000 114.1615950000,22.3254400000 114.1616480000,22.3254000000 114.1616980000,22.3253610000 114.1617650000,22.3253100000 114.1619340000,22.3251810000 114.1619450000,22.3249980000 114.1619500000,22.3249270000 114.1619550000,22.3248370000 114.1619620000,22.3244830000 114.1619690000,22.3242450000 114.1619700000,22.3241870000 114.1619810000,22.3241150000 114.1619830000,22.3240520000 114.1619840000,22.3240250000 114.1619900000,22.3237450000 114.1619830000,22.3236030000 114.1619820000,22.3233400000 114.1619810000,22.3232840000 114.1619810000,22.3232170000 114.1619850000,22.3229350000 114.1619860000,22.3229040000 114.1619860000,22.3228760000 114.1619870000,22.3228260000 114.1619890000,22.3227000000 114.1619930000,22.3224150000 114.1620070000,22.3214770000 114.1620070000,22.3214400000 114.1620340000,22.3208200000 114.1620460000,22.3204720000 114.1620580000,22.3203150000 114.1620720000,22.3202110000 114.1620820000,22.3201610000 114.1621460000,22.3198740000 114.1621630000,22.3198150000 114.1621850000,22.3197590000 114.1622410000,22.3196140000 114.1622470000,22.3195980000 114.1622720000,22.3195480000 114.1623090000,22.3194950000 114.1623500000,22.3194510000 114.1624670000,22.3193420000 114.1626280000,22.3191940000 114.1627130000,22.3191090000 114.1627460000,22.3190770000 114.1628380000,22.3189590000 114.1629460000,22.3188900000 114.1630540000,22.3188050000 114.1631020000,22.3187690000 114.1631430000,22.3187220000 114.1631790000,22.3186710000 114.1632060000,22.3186270000 114.1632080000,22.3185530000 114.1632030000,22.3184890000 114.1631870000,22.3184270000 114.1631630000,22.3183670000 114.1631290000,22.3183110000 114.1630450000,22.3182690000 114.1629550000,22.3181870000 114.1628890000,22.3181590000 114.1628410000,22.3181500000 114.1627870000,22.3181390000 114.1623560000,22.3180450000 114.1620650000,22.3179530000 114.1616780000,22.3178800000 114.1615040000,22.3178130000 114.1609530000,22.3176240000 114.1606000000,22.3175150000 114.1604580000,22.3174610000 114.1603760000,22.3174380000 114.1602650000,22.3174130000 114.1598760000,22.3173460000 114.1594480000,22.3173210000 114.1586340000,22.3173080000 114.1585330000,22.3173010000 114.1584270000,22.3172930000 114.1582950000,22.3172840000 114.1581880000,22.3172790000 114.1578260000,22.3172890000 114.1574600000,22.3173020000 114.1572560000,22.3173090000 114.1571400000,22.3173130000 114.1570500000,22.3172970000 114.1569920000,22.3172830000 114.1569780000,22.3172490000 114.1569570000,22.3172180000 114.1569100000,22.3171760000 114.1568510000,22.3171490000 114.1567850000,22.3171400000 114.1567140000,22.3171530000 114.1566540000,22.3171840000 114.1566040000,22.3172370000 114.1565780000,22.3173040000 114.1565790000,22.3173740000 114.1566060000,22.3174400000 114.1566570000,22.3174920000 114.1566990000,22.3175160000 114.1567460000,22.3175300000 114.1567950000,22.3175340000 114.1568430000,22.3175270000 114.1568900000,22.3175100000 114.1569550000,22.3174450000 114.1570600000,22.3174250000 114.1571500000,22.3174230000 114.1572590000,22.3174210000 114.1574600000,22.3174220000 114.1578330000,22.3174210000 114.1582090000,22.3174160000 114.1582880000,22.3174300000 114.1584260000,22.3174560000 114.1585260000,22.3174740000 114.1585270000,22.3175060000 114.1585350000,22.3176910000 114.1585400000,22.3178190000 114.1585380000,22.3178830000 114.1585330000,22.3180210000 114.1584980000,22.3181410000 114.1584890000,22.3181710000 114.1584560000,22.3182880000 114.1581970000,22.3187820000</coordinates>
                </LineString>
                <ExtendedData>
                    <Data name="duration">
                        <value>00:42:25</value>
                    </Data>
                    <Data name="length">
                        <value>30285.77993485094</value>
                    </Data>
                </ExtendedData>
            </Placemark>
        </Document>
    </Document>
</kml>