<?xml version="1.0" encoding="UTF-8"?>
<kml xmlns="http://www.opengis.net/kml/2.2" xmlns:gx="http://www.google.com/kml/ext/2.2">
    <Document>
        <name>Route</name>
        <Folder>
            <name>Route Request</name>
            <Placemark>
                <address>Bus Terminus Rooftop Garden, Lin Cheung Road, Yau Ma Tei, Yau Tsim Mong District, Hong Kong, KIL 3348, PRC</address>
                <Point>
                    <coordinates>114.1643822071,22.3093831116</coordinates>
                </Point>
                <ExtendedData>
                    <Data name="suburb">
                        <value>Yau Ma Tei</value>
                    </Data>
                    <Data name="county">
                        <value>Yau Tsim Mong District</value>
                    </Data>
                    <Data name="country_code">
                        <value>cn</value>
                    </Data>
                    <Data name="building">
                        <value>Bus Terminus Rooftop Garden</value>
                    </Data>
                    <Data name="postcode">
                        <value>KIL 3348</value>
                    </Data>
                    <Data name="country">
                        <value>PRC</value>
                    </Data>
                    <Data name="road">
                        <value>Lin Cheung Road</value>
                    </Data>
                </ExtendedData>
            </Placemark>
            <Placemark>
                <address>Harilela Mansion, 81, Nathan Road, Tsim Sha Tsui, Yau Tsim Mong District, Hong Kong, 00000, PRC</address>
                <Point>
                    <coordinates>114.1725049068,22.2951519693</coordinates>
                </Point>
                <ExtendedData>
                    <Data name="suburb">
                        <value>Tsim Sha Tsui</value>
                    </Data>
                    <Data name="county">
                        <value>Yau Tsim Mong District</value>
                    </Data>
                    <Data name="country_code">
                        <value>cn</value>
                    </Data>
                    <Data name="routingVisited">
                        <value>false</value>
                    </Data>
                    <Data name="building">
                        <value>Harilela Mansion</value>
                    </Data>
                    <Data name="postcode">
                        <value>00000</value>
                    </Data>
                    <Data name="country">
                        <value>PRC</value>
                    </Data>
                    <Data name="road">
                        <value>Nathan Road</value>
                    </Data>
                    <Data name="house_number">
                        <value>81</value>
                    </Data>
                </ExtendedData>
            </Placemark>
            <Placemark>
                <Point>
                    <coordinates>114.1765228947,22.2962725586</coordinates>
                </Point>
            </Placemark>
            <Placemark>
                <address>Hung Hom Station, Cheong Wan Road, Hung Hom, Kowloon, Kowloon City District, Hong Kong, 00000, PRC</address>
                <Point>
                    <coordinates>114.1813087524,22.3080342015</coordinates>
                </Point>
                <ExtendedData>
                    <Data name="suburb">
                        <value>Hung Hom</value>
                    </Data>
                    <Data name="county">
                        <value>Kowloon City District</value>
                    </Data>
                    <Data name="country_code">
                        <value>cn</value>
                    </Data>
                    <Data name="bus_stop">
                        <value>Hung Hom Station</value>
                    </Data>
                    <Data name="city">
                        <value>Kowloon</value>
                    </Data>
                    <Data name="postcode">
                        <value>00000</value>
                    </Data>
                    <Data name="routingVisited">
                        <value>false</value>
                    </Data>
                    <Data name="country">
                        <value>PRC</value>
                    </Data>
                    <Data name="road">
                        <value>Cheong Wan Road</value>
                    </Data>
                </ExtendedData>
            </Placemark>
            <Placemark>
                <address>Kai Tak Tunnel, Kau Pui Shek, Ma Tau Chung, Kowloon City District, Kowloon, Hong Kong, China</address>
                <Point>
                    <coordinates>114.1991150668,22.3241395530</coordinates>
                </Point>
                <ExtendedData>
                    <Data name="suburb">
                        <value>Ma Tau Chung</value>
                    </Data>
                    <Data name="ISO3166-2-lvl3">
                        <value>CN-HK</value>
                    </Data>
                    <Data name="city_district">
                        <value>Kowloon City District</value>
                    </Data>
                    <Data name="country_code">
                        <value>cn</value>
                    </Data>
                    <Data name="neighbourhood">
                        <value>Kau Pui Shek</value>
                    </Data>
                    <Data name="city">
                        <value>Kowloon</value>
                    </Data>
                    <Data name="country">
                        <value>China</value>
                    </Data>
                    <Data name="state">
                        <value>Hong Kong</value>
                    </Data>
                    <Data name="road">
                        <value>Kai Tak Tunnel</value>
                    </Data>
                </ExtendedData>
            </Placemark>
            <Placemark>
                <address>Kwun Tong Bypass, Ping Shek, Kwun Tong District, Kowloon, Hong Kong, China</address>
                <Point>
                    <coordinates>114.2046475719,22.3308996876</coordinates>
                </Point>
                <ExtendedData>
                    <Data name="suburb">
                        <value>Ping Shek</value>
                    </Data>
                    <Data name="ISO3166-2-lvl3">
                        <value>CN-HK</value>
                    </Data>
                    <Data name="city_district">
                        <value>Kwun Tong District</value>
                    </Data>
                    <Data name="country_code">
                        <value>cn</value>
                    </Data>
                    <Data name="city">
                        <value>Kowloon</value>
                    </Data>
                    <Data name="country">
                        <value>China</value>
                    </Data>
                    <Data name="state">
                        <value>Hong Kong</value>
                    </Data>
                    <Data name="road">
                        <value>Kwun Tong Bypass</value>
                    </Data>
                </ExtendedData>
            </Placemark>
            <Placemark>
                <address>Block 21, Wang Chiu Road, Kowloon Bay, Kwun Tong District, Hong Kong, 350, PRC</address>
                <Point>
                    <coordinates>114.2083862743,22.3291896253</coordinates>
                </Point>
                <ExtendedData>
                    <Data name="suburb">
                        <value>Kowloon Bay</value>
                    </Data>
                    <Data name="county">
                        <value>Kwun Tong District</value>
                    </Data>
                    <Data name="country_code">
                        <value>cn</value>
                    </Data>
                    <Data name="building">
                        <value>Block 21</value>
                    </Data>
                    <Data name="postcode">
                        <value>350</value>
                    </Data>
                    <Data name="country">
                        <value>PRC</value>
                    </Data>
                    <Data name="road">
                        <value>Wang Chiu Road</value>
                    </Data>
                </ExtendedData>
            </Placemark>
            <Placemark>
                <address>Sau Mau Ping Police Station, Hong Ning Road, Ngau Tau Kok, Kwun Tong District, Hong Kong, 350, PRC</address>
                <Point>
                    <coordinates>114.2250182580,22.3224142745</coordinates>
                </Point>
                <ExtendedData>
                    <Data name="suburb">
                        <value>Ngau Tau Kok</value>
                    </Data>
                    <Data name="police">
                        <value>Sau Mau Ping Police Station</value>
                    </Data>
                    <Data name="county">
                        <value>Kwun Tong District</value>
                    </Data>
                    <Data name="country_code">
                        <value>cn</value>
                    </Data>
                    <Data name="postcode">
                        <value>350</value>
                    </Data>
                    <Data name="country">
                        <value>PRC</value>
                    </Data>
                    <Data name="road">
                        <value>Hong Ning Road</value>
                    </Data>
                </ExtendedData>
            </Placemark>
            <Placemark>
                <address>Sau Wong House, Sau Ming Road, Sau Mau Ping Estate, Sau Mau Ping, Kwun Tong District, Kowloon, Hong Kong, China</address>
                <Point>
                    <coordinates>114.2246072747,22.3305445044</coordinates>
                </Point>
                <ExtendedData>
                    <Data name="suburb">
                        <value>Sau Mau Ping</value>
                    </Data>
                    <Data name="ISO3166-2-lvl3">
                        <value>CN-HK</value>
                    </Data>
                    <Data name="city_district">
                        <value>Kwun Tong District</value>
                    </Data>
                    <Data name="country_code">
                        <value>cn</value>
                    </Data>
                    <Data name="city">
                        <value>Kowloon</value>
                    </Data>
                    <Data name="routingVisited">
                        <value>false</value>
                    </Data>
                    <Data name="building">
                        <value>Sau Wong House</value>
                    </Data>
                    <Data name="residential">
                        <value>Sau Mau Ping Estate</value>
                    </Data>
                    <Data name="country">
                        <value>China</value>
                    </Data>
                    <Data name="state">
                        <value>Hong Kong</value>
                    </Data>
                    <Data name="road">
                        <value>Sau Ming Road</value>
                    </Data>
                </ExtendedData>
            </Placemark>
            <Placemark>
                <address>Tak Tai House, On Yan Street, Cha Liu Au, Kwun Tong District, Kowloon, Hong Kong, China</address>
                <Point>
                    <coordinates>114.2343233230,22.3259072505</coordinates>
                </Point>
                <ExtendedData>
                    <Data name="suburb">
                        <value>Cha Liu Au</value>
                    </Data>
                    <Data name="ISO3166-2-lvl3">
                        <value>CN-HK</value>
                    </Data>
                    <Data name="city_district">
                        <value>Kwun Tong District</value>
                    </Data>
                    <Data name="country_code">
                        <value>cn</value>
                    </Data>
                    <Data name="city">
                        <value>Kowloon</value>
                    </Data>
                    <Data name="building">
                        <value>Tak Tai House</value>
                    </Data>
                    <Data name="routingVisited">
                        <value>false</value>
                    </Data>
                    <Data name="country">
                        <value>China</value>
                    </Data>
                    <Data name="state">
                        <value>Hong Kong</value>
                    </Data>
                    <Data name="road">
                        <value>On Yan Street</value>
                    </Data>
                </ExtendedData>
            </Placemark>
            <Placemark>
                <address>Kwun Tong Government Primary School (Sau Ming Road), 130, Sau Ming Road, Sau Mau Ping Estate, Sau Mau Ping, Kwun Tong District, Kowloon, Hong Kong, China</address>
                <Point>
                    <coordinates>114.2238941717,22.3315892535</coordinates>
                </Point>
                <ExtendedData>
                    <Data name="suburb">
                        <value>Sau Mau Ping</value>
                    </Data>
                    <Data name="ISO3166-2-lvl3">
                        <value>CN-HK</value>
                    </Data>
                    <Data name="city_district">
                        <value>Kwun Tong District</value>
                    </Data>
                    <Data name="country_code">
                        <value>cn</value>
                    </Data>
                    <Data name="city">
                        <value>Kowloon</value>
                    </Data>
                    <Data name="amenity">
                        <value>Kwun Tong Government Primary School (Sau Ming Road)</value>
                    </Data>
                    <Data name="routingVisited">
                        <value>false</value>
                    </Data>
                    <Data name="residential">
                        <value>Sau Mau Ping Estate</value>
                    </Data>
                    <Data name="country">
                        <value>China</value>
                    </Data>
                    <Data name="state">
                        <value>Hong Kong</value>
                    </Data>
                    <Data name="road">
                        <value>Sau Ming Road</value>
                    </Data>
                    <Data name="house_number">
                        <value>130</value>
                    </Data>
                </ExtendedData>
            </Placemark>
            <Placemark>
                <address>Seafood Restaurant, On Wah Street, Ngau Tau Kok, On Li Sai Tsuen, Kwun Tong District, Hong Kong, 350, PRC</address>
                <Point>
                    <coordinates>114.2167773604,22.3226237808</coordinates>
                </Point>
                <ExtendedData>
                    <Data name="suburb">
                        <value>Ngau Tau Kok</value>
                    </Data>
                    <Data name="hamlet">
                        <value>On Li Sai Tsuen</value>
                    </Data>
                    <Data name="restaurant">
                        <value>Seafood Restaurant</value>
                    </Data>
                    <Data name="county">
                        <value>Kwun Tong District</value>
                    </Data>
                    <Data name="country_code">
                        <value>cn</value>
                    </Data>
                    <Data name="postcode">
                        <value>350</value>
                    </Data>
                    <Data name="country">
                        <value>PRC</value>
                    </Data>
                    <Data name="road">
                        <value>On Wah Street</value>
                    </Data>
                </ExtendedData>
            </Placemark>
            <Placemark>
                <address>Block 8, Wang Chiu Road, Kowloon Bay, Kwun Tong District, Hong Kong, 350, PRC</address>
                <Point>
                    <coordinates>114.2057616617,22.3310368436</coordinates>
                </Point>
                <ExtendedData>
                    <Data name="suburb">
                        <value>Kowloon Bay</value>
                    </Data>
                    <Data name="county">
                        <value>Kwun Tong District</value>
                    </Data>
                    <Data name="country_code">
                        <value>cn</value>
                    </Data>
                    <Data name="building">
                        <value>Block 8</value>
                    </Data>
                    <Data name="postcode">
                        <value>350</value>
                    </Data>
                    <Data name="country">
                        <value>PRC</value>
                    </Data>
                    <Data name="road">
                        <value>Wang Chiu Road</value>
                    </Data>
                </ExtendedData>
            </Placemark>
            <Placemark>
                <address>SKH Kowloon Bay Kei Lok Primary School, 6, Kai Yan Street, Kowloon Bay Business Area, Kowloon Bay, Kwun Tong District, Kowloon, Hong Kong, China</address>
                <Point>
                    <coordinates>114.2058401446,22.3282916106</coordinates>
                </Point>
                <ExtendedData>
                    <Data name="suburb">
                        <value>Kowloon Bay</value>
                    </Data>
                    <Data name="ISO3166-2-lvl3">
                        <value>CN-HK</value>
                    </Data>
                    <Data name="city_district">
                        <value>Kwun Tong District</value>
                    </Data>
                    <Data name="country_code">
                        <value>cn</value>
                    </Data>
                    <Data name="city">
                        <value>Kowloon</value>
                    </Data>
                    <Data name="amenity">
                        <value>SKH Kowloon Bay Kei Lok Primary School</value>
                    </Data>
                    <Data name="country">
                        <value>China</value>
                    </Data>
                    <Data name="state">
                        <value>Hong Kong</value>
                    </Data>
                    <Data name="quarter">
                        <value>Kowloon Bay Business Area</value>
                    </Data>
                    <Data name="road">
                        <value>Kai Yan Street</value>
                    </Data>
                    <Data name="house_number">
                        <value>6</value>
                    </Data>
                </ExtendedData>
            </Placemark>
            <Placemark>
                <address>East Kowloon Corridor, Kau Pui Lung, Ma Tau Kok, Kowloon City District, Kowloon, Hong Kong, China</address>
                <Point>
                    <coordinates>114.1902328250,22.3202188432</coordinates>
                </Point>
                <ExtendedData>
                    <Data name="suburb">
                        <value>Ma Tau Kok</value>
                    </Data>
                    <Data name="ISO3166-2-lvl3">
                        <value>CN-HK</value>
                    </Data>
                    <Data name="city_district">
                        <value>Kowloon City District</value>
                    </Data>
                    <Data name="country_code">
                        <value>cn</value>
                    </Data>
                    <Data name="neighbourhood">
                        <value>Kau Pui Lung</value>
                    </Data>
                    <Data name="city">
                        <value>Kowloon</value>
                    </Data>
                    <Data name="country">
                        <value>China</value>
                    </Data>
                    <Data name="state">
                        <value>Hong Kong</value>
                    </Data>
                    <Data name="road">
                        <value>East Kowloon Corridor</value>
                    </Data>
                </ExtendedData>
            </Placemark>
            <Placemark>
                <address>Hung Hom Station, Cheong Wan Road, Hung Hom, Kowloon, Kowloon City District, Hong Kong, 00000, PRC</address>
                <Point>
                    <coordinates>114.1808193654,22.2997970340</coordinates>
                </Point>
                <ExtendedData>
                    <Data name="suburb">
                        <value>Hung Hom</value>
                    </Data>
                    <Data name="county">
                        <value>Kowloon City District</value>
                    </Data>
                    <Data name="country_code">
                        <value>cn</value>
                    </Data>
                    <Data name="bus_stop">
                        <value>Hung Hom Station</value>
                    </Data>
                    <Data name="city">
                        <value>Kowloon</value>
                    </Data>
                    <Data name="postcode">
                        <value>00000</value>
                    </Data>
                    <Data name="routingVisited">
                        <value>false</value>
                    </Data>
                    <Data name="country">
                        <value>PRC</value>
                    </Data>
                    <Data name="road">
                        <value>Cheong Wan Road</value>
                    </Data>
                </ExtendedData>
            </Placemark>
            <Placemark>
                <Point>
                    <coordinates>114.1686514633,22.2943458119</coordinates>
                </Point>
            </Placemark>
            <Placemark>
                <address>China Hong Kong City Tower 6, Canton Road, Kwun Chung, Tsim Sha Tsui, Yau Tsim Mong District, Kowloon, Hong Kong, China</address>
                <Point>
                    <coordinates>114.1672994345,22.3007759322</coordinates>
                </Point>
                <ExtendedData>
                    <Data name="suburb">
                        <value>Tsim Sha Tsui</value>
                    </Data>
                    <Data name="ISO3166-2-lvl3">
                        <value>CN-HK</value>
                    </Data>
                    <Data name="city_district">
                        <value>Yau Tsim Mong District</value>
                    </Data>
                    <Data name="country_code">
                        <value>cn</value>
                    </Data>
                    <Data name="neighbourhood">
                        <value>Kwun Chung</value>
                    </Data>
                    <Data name="city">
                        <value>Kowloon</value>
                    </Data>
                    <Data name="building">
                        <value>China Hong Kong City Tower 6</value>
                    </Data>
                    <Data name="routingVisited">
                        <value>false</value>
                    </Data>
                    <Data name="country">
                        <value>China</value>
                    </Data>
                    <Data name="state">
                        <value>Hong Kong</value>
                    </Data>
                    <Data name="road">
                        <value>Canton Road</value>
                    </Data>
                </ExtendedData>
            </Placemark>
            <Placemark>
                <address>Bus Terminus Rooftop Garden, Lin Cheung Road, Yau Ma Tei, Yau Tsim Mong District, Hong Kong, KIL 3348, PRC</address>
                <Point>
                    <coordinates>114.1643822623,22.3093694606</coordinates>
                </Point>
                <ExtendedData>
                    <Data name="suburb">
                        <value>Yau Ma Tei</value>
                    </Data>
                    <Data name="county">
                        <value>Yau Tsim Mong District</value>
                    </Data>
                    <Data name="country_code">
                        <value>cn</value>
                    </Data>
                    <Data name="building">
                        <value>Bus Terminus Rooftop Garden</value>
                    </Data>
                    <Data name="postcode">
                        <value>KIL 3348</value>
                    </Data>
                    <Data name="country">
                        <value>PRC</value>
                    </Data>
                    <Data name="road">
                        <value>Lin Cheung Road</value>
                    </Data>
                </ExtendedData>
            </Placemark>
        </Folder>
        <Document>
            <name>35.3 km; 00:49 h (OSRM)</name>
            <Placemark>
                <name>Route</name>
                <LineString>
                    <coordinates>114.1643660000,22.3092830000 114.1646720000,22.3092410000 114.1648680000,22.3092100000 114.1649170000,22.3092030000 114.1649540000,22.3092000000 114.1650670000,22.3091810000 114.1652170000,22.3091560000 114.1651950000,22.3090360000 114.1651760000,22.3089480000 114.1651690000,22.3089170000 114.1651420000,22.3087820000 114.1651200000,22.3087100000 114.1650980000,22.3086380000 114.1650700000,22.3084500000 114.1650330000,22.3081900000 114.1650310000,22.3081650000 114.1650230000,22.3078750000 114.1650170000,22.3077450000 114.1650210000,22.3074230000 114.1650540000,22.3071000000 114.1650740000,22.3069190000 114.1651000000,22.3068240000 114.1651450000,22.3067130000 114.1652270000,22.3064880000 114.1652860000,22.3063690000 114.1653710000,22.3061990000 114.1654540000,22.3060530000 114.1655400000,22.3058730000 114.1657400000,22.3054690000 114.1660700000,22.3048250000 114.1661230000,22.3047260000 114.1662300000,22.3045100000 114.1665630000,22.3045940000 114.1667130000,22.3046340000 114.1668080000,22.3046590000 114.1668940000,22.3046910000 114.1670280000,22.3047420000 114.1671790000,22.3048010000 114.1673450000,22.3048890000 114.1674740000,22.3049560000 114.1675430000,22.3048490000 114.1677000000,22.3045720000 114.1677710000,22.3043700000 114.1678820000,22.3040580000 114.1679400000,22.3039040000 114.1679830000,22.3037150000 114.1680160000,22.3035190000 114.1680490000,22.3033940000 114.1680940000,22.3031880000 114.1681170000,22.3030320000 114.1682550000,22.3030400000 114.1687360000,22.3030680000 114.1690760000,22.3030960000 114.1692550000,22.3031100000 114.1692750000,22.3031130000 114.1693120000,22.3031150000 114.1697710000,22.3031570000 114.1702120000,22.3031850000 114.1702440000,22.3031870000 114.1702900000,22.3031880000 114.1705980000,22.3032060000 114.1707530000,22.3032130000 114.1711570000,22.3032410000 114.1716020000,22.3032620000 114.1716580000,22.3032660000 114.1717330000,22.3032690000 114.1718150000,22.3032750000 114.1718210000,22.3031980000 114.1718240000,22.3031060000 114.1718560000,22.3026380000 114.1718770000,22.3023540000 114.1719040000,22.3018840000 114.1719120000,22.3017800000 114.1719190000,22.3016810000 114.1719220000,22.3016350000 114.1719430000,22.3013670000 114.1719510000,22.3012700000 114.1719640000,22.3010760000 114.1719690000,22.3009930000 114.1719980000,22.3005630000 114.1720020000,22.3005150000 114.1720040000,22.3004900000 114.1720180000,22.3003630000 114.1720200000,22.3003140000 114.1720250000,22.3002690000 114.1720670000,22.2996820000 114.1720710000,22.2996040000 114.1720780000,22.2995230000 114.1721020000,22.2993330000 114.1721210000,22.2989770000 114.1721340000,22.2987170000 114.1721650000,22.2982150000 114.1721680000,22.2981630000 114.1721790000,22.2980150000 114.1722070000,22.2976340000 114.1722600000,22.2969500000 114.1722800000,22.2966250000 114.1722900000,22.2964890000 114.1722950000,22.2964050000 114.1723030000,22.2963010000 114.1723120000,22.2961880000 114.1723300000,22.2959640000 114.1723400000,22.2958250000 114.1723450000,22.2957400000 114.1723460000,22.2957130000 114.1723470000,22.2956990000 114.1723480000,22.2956820000 114.1723500000,22.2956450000 114.1723660000,22.2956020000 114.1723680000,22.2955700000 114.1723690000,22.2955470000 114.1723770000,22.2953900000 114.1723880000,22.2952440000 114.1723970000,22.2951440000 114.1724070000,22.2950330000 114.1724100000,22.2949980000 114.1724150000,22.2949500000 114.1724280000,22.2947870000 114.1725530000,22.2947960000 114.1726050000,22.2948000000 114.1726570000,22.2948040000 114.1732110000,22.2948460000 114.1732990000,22.2948650000 114.1734670000,22.2949010000 114.1735640000,22.2949160000 114.1737810000,22.2949410000 114.1739220000,22.2949710000 114.1740630000,22.2950030000 114.1742060000,22.2950370000 114.1743300000,22.2950720000 114.1744790000,22.2951130000 114.1745820000,22.2951420000 114.1746280000,22.2951550000 114.1746490000,22.2951610000 114.1747400000,22.2951850000 114.1748580000,22.2952230000 114.1749600000,22.2952630000 114.1750440000,22.2952920000 114.1751190000,22.2953250000 114.1752100000,22.2953770000 114.1752980000,22.2954300000 114.1753760000,22.2954950000 114.1754790000,22.2955830000 114.1755460000,22.2956130000 114.1755840000,22.2956300000 114.1756720000,22.2956660000 114.1757210000,22.2956910000 114.1758880000,22.2957900000 114.1759380000,22.2958160000 114.1760390000,22.2958990000 114.1763350000,22.2960820000 114.1763660000,22.2961020000 114.1764580000,22.2961560000 114.1765050000,22.2962000000 114.1765540000,22.2962360000 114.1765680000,22.2962460000 114.1766540000,22.2962830000 114.1767330000,22.2963180000 114.1768790000,22.2964370000 114.1769500000,22.2965010000 114.1769860000,22.2965340000 114.1770130000,22.2965570000 114.1771320000,22.2966590000 114.1774040000,22.2968920000 114.1777850000,22.2972180000 114.1779640000,22.2973880000 114.1783670000,22.2977190000 114.1783990000,22.2977430000 114.1784270000,22.2977680000 114.1785060000,22.2978270000 114.1785590000,22.2978700000 114.1785800000,22.2978860000 114.1786260000,22.2979290000 114.1787040000,22.2979920000 114.1787530000,22.2980330000 114.1789500000,22.2982260000 114.1790280000,22.2982910000 114.1791010000,22.2983490000 114.1797420000,22.2989120000 114.1798980000,22.2990520000 114.1799780000,22.2991220000 114.1800900000,22.2992350000 114.1801320000,22.2993010000 114.1801620000,22.2993480000 114.1802120000,22.2994520000 114.1802260000,22.2994760000 114.1802410000,22.2995050000 114.1802610000,22.2995400000 114.1802710000,22.2996370000 114.1802830000,22.2996870000 114.1802990000,22.2997890000 114.1803080000,22.2999350000 114.1803000000,22.3000050000 114.1802670000,22.3001330000 114.1802470000,22.3002170000 114.1801630000,22.3006400000 114.1800990000,22.3008600000 114.1800370000,22.3010270000 114.1798880000,22.3013220000 114.1798410000,22.3014150000 114.1798000000,22.3014900000 114.1797900000,22.3015250000 114.1797640000,22.3016200000 114.1797420000,22.3016800000 114.1797060000,22.3018370000 114.1796880000,22.3019650000 114.1796810000,22.3020970000 114.1796830000,22.3021940000 114.1797010000,22.3022860000 114.1797190000,22.3023990000 114.1797610000,22.3025210000 114.1798100000,22.3026380000 114.1798640000,22.3027720000 114.1801030000,22.3030870000 114.1801860000,22.3031970000 114.1802480000,22.3032700000 114.1803180000,22.3033420000 114.1804080000,22.3034230000 114.1805580000,22.3035370000 114.1807410000,22.3036910000 114.1808830000,22.3040220000 114.1809580000,22.3042040000 114.1810410000,22.3044040000 114.1810810000,22.3045000000 114.1812550000,22.3049180000 114.1813230000,22.3050740000 114.1813360000,22.3051100000 114.1813800000,22.3052320000 114.1814070000,22.3053050000 114.1814280000,22.3053970000 114.1814380000,22.3054730000 114.1814440000,22.3055590000 114.1814390000,22.3056370000 114.1814300000,22.3057050000 114.1814090000,22.3057990000 114.1813920000,22.3058580000 114.1813690000,22.3059310000 114.1813510000,22.3059780000 114.1813150000,22.3060570000 114.1812740000,22.3061340000 114.1812300000,22.3062010000 114.1811750000,22.3062730000 114.1810960000,22.3063670000 114.1810260000,22.3064440000 114.1809730000,22.3064970000 114.1808990000,22.3065600000 114.1807830000,22.3066570000 114.1806750000,22.3067490000 114.1805110000,22.3068830000 114.1804130000,22.3069540000 114.1802810000,22.3070420000 114.1802240000,22.3070820000 114.1800700000,22.3071880000 114.1799980000,22.3072410000 114.1799320000,22.3073020000 114.1798810000,22.3073680000 114.1798390000,22.3074420000 114.1798170000,22.3075080000 114.1798030000,22.3075910000 114.1797990000,22.3076830000 114.1798130000,22.3077670000 114.1798360000,22.3078310000 114.1798650000,22.3078860000 114.1799090000,22.3079450000 114.1799560000,22.3079910000 114.1800310000,22.3080490000 114.1800900000,22.3080800000 114.1801770000,22.3081130000 114.1802520000,22.3081310000 114.1803370000,22.3081400000 114.1804120000,22.3081360000 114.1811270000,22.3080310000 114.1812380000,22.3080210000 114.1813080000,22.3080180000 114.1813510000,22.3080160000 114.1814820000,22.3080200000 114.1816560000,22.3080420000 114.1818170000,22.3080830000 114.1820140000,22.3081470000 114.1822940000,22.3082440000 114.1824900000,22.3083530000 114.1826890000,22.3084680000 114.1829570000,22.3086170000 114.1830040000,22.3086480000 114.1830710000,22.3086910000 114.1832440000,22.3087990000 114.1833890000,22.3088890000 114.1835460000,22.3090140000 114.1836370000,22.3090810000 114.1837090000,22.3091350000 114.1837760000,22.3091890000 114.1838920000,22.3092840000 114.1839140000,22.3093020000 114.1839910000,22.3093640000 114.1840360000,22.3094010000 114.1841810000,22.3095220000 114.1842980000,22.3096210000 114.1844680000,22.3097610000 114.1845800000,22.3098570000 114.1846330000,22.3099030000 114.1846840000,22.3099530000 114.1847310000,22.3100070000 114.1847730000,22.3100620000 114.1849020000,22.3101790000 114.1849770000,22.3102550000 114.1850510000,22.3103390000 114.1851360000,22.3104450000 114.1852160000,22.3105510000 114.1852780000,22.3106430000 114.1853400000,22.3107440000 114.1854100000,22.3108740000 114.1855040000,22.3110530000 114.1855760000,22.3111870000 114.1856390000,22.3112990000 114.1857100000,22.3114190000 114.1858090000,22.3115800000 114.1869730000,22.3133850000 114.1870470000,22.3135050000 114.1871120000,22.3136190000 114.1871660000,22.3137200000 114.1872190000,22.3138300000 114.1872640000,22.3139300000 114.1873040000,22.3140340000 114.1873410000,22.3141370000 114.1873680000,22.3142210000 114.1874010000,22.3143290000 114.1874330000,22.3144550000 114.1874610000,22.3145850000 114.1874990000,22.3148100000 114.1875370000,22.3150830000 114.1875540000,22.3151950000 114.1875720000,22.3153010000 114.1875910000,22.3154000000 114.1876200000,22.3155210000 114.1876510000,22.3156390000 114.1876870000,22.3157540000 114.1877310000,22.3158830000 114.1877820000,22.3160100000 114.1878290000,22.3161180000 114.1878940000,22.3162510000 114.1891160000,22.3186930000 114.1891930000,22.3188380000 114.1892560000,22.3189520000 114.1893130000,22.3190470000 114.1893640000,22.3191280000 114.1894140000,22.3191990000 114.1894790000,22.3192890000 114.1898260000,22.3197670000 114.1898890000,22.3198540000 114.1899460000,22.3199380000 114.1900010000,22.3200250000 114.1900630000,22.3201280000 114.1901150000,22.3202200000 114.1901620000,22.3203120000 114.1902110000,22.3204190000 114.1902560000,22.3205250000 114.1902910000,22.3206210000 114.1903230000,22.3207130000 114.1903570000,22.3208310000 114.1904520000,22.3211520000 114.1904790000,22.3212540000 114.1905230000,22.3214340000 114.1905880000,22.3216490000 114.1906400000,22.3217910000 114.1909340000,22.3223840000 114.1909500000,22.3224180000 114.1913460000,22.3232190000 114.1915650000,22.3236020000 114.1917140000,22.3237870000 114.1923230000,22.3241530000 114.1926970000,22.3242800000 114.1929850000,22.3243250000 114.1970240000,22.3242210000 114.1991160000,22.3241670000 114.2004980000,22.3241320000 114.2005920000,22.3241290000 114.2008220000,22.3241230000 114.2010760000,22.3241070000 114.2011660000,22.3241060000 114.2013000000,22.3240850000 114.2017420000,22.3240020000 114.2018780000,22.3240290000 114.2019930000,22.3240560000 114.2020660000,22.3240920000 114.2023030000,22.3242550000 114.2024650000,22.3243750000 114.2026200000,22.3244960000 114.2028800000,22.3246810000 114.2030730000,22.3247950000 114.2032050000,22.3248630000 114.2033160000,22.3249120000 114.2034650000,22.3249840000 114.2038480000,22.3250700000 114.2040360000,22.3251090000 114.2041970000,22.3251310000 114.2043940000,22.3251590000 114.2045870000,22.3251810000 114.2046540000,22.3252350000 114.2047050000,22.3252940000 114.2047300000,22.3253830000 114.2046810000,22.3259150000 114.2046570000,22.3262440000 114.2046000000,22.3263900000 114.2045500000,22.3265000000 114.2044600000,22.3266400000 114.2043450000,22.3267990000 114.2043110000,22.3268290000 114.2041640000,22.3269620000 114.2039580000,22.3271460000 114.2039390000,22.3271610000 114.2038290000,22.3272630000 114.2037280000,22.3273510000 114.2038030000,22.3274190000 114.2038790000,22.3274900000 114.2041650000,22.3277610000 114.2042560000,22.3278600000 114.2042970000,22.3279110000 114.2043210000,22.3279410000 114.2043460000,22.3279720000 114.2044230000,22.3280800000 114.2044870000,22.3281890000 114.2045430000,22.3282970000 114.2045940000,22.3284060000 114.2046720000,22.3286180000 114.2046950000,22.3287300000 114.2047050000,22.3287810000 114.2047140000,22.3289370000 114.2047280000,22.3292720000 114.2047450000,22.3296300000 114.2047600000,22.3298960000 114.2047670000,22.3300350000 114.2047770000,22.3303270000 114.2047830000,22.3305340000 114.2047830000,22.3306970000 114.2047800000,22.3309020000 114.2047790000,22.3309430000 114.2047780000,22.3309850000 114.2047720000,22.3311390000 114.2047680000,22.3312200000 114.2048770000,22.3312170000 114.2053360000,22.3312100000 114.2053860000,22.3311950000 114.2054670000,22.3311690000 114.2055110000,22.3312180000 114.2055300000,22.3312310000 114.2055660000,22.3312570000 114.2056600000,22.3312890000 114.2058070000,22.3313040000 114.2058540000,22.3313060000 114.2060440000,22.3313150000 114.2060850000,22.3313130000 114.2061830000,22.3313090000 114.2062490000,22.3313060000 114.2064360000,22.3312370000 114.2066250000,22.3311160000 114.2069030000,22.3309120000 114.2069710000,22.3308610000 114.2070300000,22.3308180000 114.2071770000,22.3307100000 114.2074980000,22.3304600000 114.2080250000,22.3300230000 114.2080900000,22.3299620000 114.2081260000,22.3299150000 114.2081560000,22.3298620000 114.2081920000,22.3297740000 114.2081980000,22.3297460000 114.2082120000,22.3296660000 114.2082380000,22.3293990000 114.2082600000,22.3291790000 114.2082620000,22.3291580000 114.2082820000,22.3289500000 114.2083150000,22.3286200000 114.2083540000,22.3282260000 114.2083950000,22.3278020000 114.2084110000,22.3276460000 114.2084240000,22.3275090000 114.2084940000,22.3268070000 114.2085030000,22.3267090000 114.2085110000,22.3266280000 114.2085150000,22.3265930000 114.2085240000,22.3264940000 114.2085480000,22.3262600000 114.2085850000,22.3258850000 114.2086780000,22.3257790000 114.2087690000,22.3256900000 114.2087990000,22.3256720000 114.2088440000,22.3256440000 114.2089810000,22.3255640000 114.2091520000,22.3255750000 114.2093080000,22.3255650000 114.2097660000,22.3256120000 114.2098310000,22.3256000000 114.2106740000,22.3256890000 114.2109180000,22.3257070000 114.2109770000,22.3257130000 114.2113300000,22.3257480000 114.2116780000,22.3257830000 114.2119450000,22.3257940000 114.2120350000,22.3258020000 114.2121520000,22.3258130000 114.2122710000,22.3258340000 114.2123760000,22.3258630000 114.2124770000,22.3259010000 114.2125730000,22.3259390000 114.2127800000,22.3260270000 114.2128880000,22.3260700000 114.2129730000,22.3261010000 114.2130490000,22.3261240000 114.2131110000,22.3261400000 114.2131760000,22.3261540000 114.2132340000,22.3261640000 114.2132930000,22.3261710000 114.2133480000,22.3261760000 114.2134080000,22.3261780000 114.2134800000,22.3261770000 114.2135450000,22.3261750000 114.2136640000,22.3261670000 114.2137230000,22.3261600000 114.2137570000,22.3261540000 114.2138000000,22.3261440000 114.2139880000,22.3260850000 114.2140430000,22.3260640000 114.2140870000,22.3260450000 114.2141790000,22.3260010000 114.2142180000,22.3259810000 114.2142720000,22.3259490000 114.2143190000,22.3259170000 114.2143690000,22.3258810000 114.2144760000,22.3257940000 114.2145420000,22.3257350000 114.2146020000,22.3256740000 114.2146820000,22.3255920000 114.2147450000,22.3255240000 114.2147860000,22.3254760000 114.2148130000,22.3254440000 114.2148670000,22.3253770000 114.2149220000,22.3252990000 114.2149900000,22.3252010000 114.2153660000,22.3246690000 114.2155190000,22.3244540000 114.2155830000,22.3243650000 114.2156620000,22.3242950000 114.2158160000,22.3240740000 114.2161230000,22.3236810000 114.2161750000,22.3236000000 114.2161960000,22.3235680000 114.2162160000,22.3234970000 114.2162280000,22.3234580000 114.2162210000,22.3233910000 114.2162360000,22.3233280000 114.2162810000,22.3231420000 114.2163150000,22.3230260000 114.2164130000,22.3226950000 114.2164280000,22.3226370000 114.2164400000,22.3226000000 114.2166030000,22.3226490000 114.2166850000,22.3226670000 114.2167380000,22.3226780000 114.2168770000,22.3227090000 114.2170540000,22.3227530000 114.2174960000,22.3228720000 114.2175590000,22.3228880000 114.2176110000,22.3229010000 114.2176550000,22.3229120000 114.2177010000,22.3229180000 114.2177440000,22.3229160000 114.2177860000,22.3229020000 114.2178530000,22.3228710000 114.2179210000,22.3228210000 114.2179600000,22.3227820000 114.2181270000,22.3225720000 114.2181810000,22.3225180000 114.2182360000,22.3224710000 114.2182970000,22.3224310000 114.2183540000,22.3224000000 114.2184150000,22.3223750000 114.2184810000,22.3223560000 114.2185660000,22.3223440000 114.2186690000,22.3223420000 114.2187520000,22.3223540000 114.2188260000,22.3223720000 114.2188980000,22.3224000000 114.2189560000,22.3224320000 114.2190120000,22.3224720000 114.2190730000,22.3225270000 114.2191240000,22.3225850000 114.2191710000,22.3226570000 114.2192020000,22.3227200000 114.2192230000,22.3227920000 114.2192850000,22.3231290000 114.2193070000,22.3232170000 114.2193330000,22.3232940000 114.2193700000,22.3233750000 114.2194160000,22.3234420000 114.2194750000,22.3235110000 114.2195440000,22.3235740000 114.2196230000,22.3236300000 114.2196960000,22.3236700000 114.2197630000,22.3236990000 114.2198370000,22.3237230000 114.2199070000,22.3237380000 114.2199870000,22.3237480000 114.2200620000,22.3237490000 114.2201480000,22.3237430000 114.2202470000,22.3237260000 114.2203390000,22.3236960000 114.2204250000,22.3236580000 114.2205110000,22.3236050000 114.2205880000,22.3235400000 114.2206520000,22.3234720000 114.2207040000,22.3234000000 114.2207460000,22.3233220000 114.2207800000,22.3232380000 114.2208050000,22.3231490000 114.2208220000,22.3230620000 114.2208640000,22.3226960000 114.2208810000,22.3225370000 114.2208830000,22.3225120000 114.2208850000,22.3224890000 114.2208980000,22.3223150000 114.2209300000,22.3219950000 114.2209480000,22.3219070000 114.2209670000,22.3218200000 114.2210010000,22.3217250000 114.2210410000,22.3216400000 114.2210890000,22.3215630000 114.2211470000,22.3214890000 114.2212130000,22.3214180000 114.2212940000,22.3213440000 114.2213940000,22.3212710000 114.2215460000,22.3211920000 114.2217630000,22.3211060000 114.2219790000,22.3210420000 114.2220630000,22.3210460000 114.2222990000,22.3209790000 114.2225570000,22.3208900000 114.2227910000,22.3208000000 114.2229500000,22.3207240000 114.2230370000,22.3206380000 114.2231330000,22.3205900000 114.2234940000,22.3204520000 114.2235800000,22.3204090000 114.2237940000,22.3203010000 114.2241160000,22.3209080000 114.2241930000,22.3210470000 114.2242320000,22.3211210000 114.2243940000,22.3214230000 114.2244260000,22.3214840000 114.2246340000,22.3218730000 114.2248180000,22.3221000000 114.2249980000,22.3222420000 114.2250980000,22.3223040000 114.2251870000,22.3223600000 114.2253730000,22.3224380000 114.2255660000,22.3225350000 114.2256570000,22.3226390000 114.2256590000,22.3226450000 114.2256730000,22.3226760000 114.2256870000,22.3227200000 114.2256950000,22.3227980000 114.2257000000,22.3229170000 114.2256760000,22.3229940000 114.2256720000,22.3231410000 114.2256750000,22.3232280000 114.2256970000,22.3233130000 114.2257490000,22.3234170000 114.2257350000,22.3236020000 114.2256970000,22.3237620000 114.2256410000,22.3238970000 114.2253660000,22.3243700000 114.2253220000,22.3245000000 114.2251870000,22.3246990000 114.2251510000,22.3247520000 114.2251300000,22.3247820000 114.2250980000,22.3248990000 114.2243500000,22.3260020000 114.2242450000,22.3261730000 114.2241950000,22.3262590000 114.2241270000,22.3263770000 114.2241070000,22.3264690000 114.2240840000,22.3265240000 114.2240560000,22.3266650000 114.2240440000,22.3268120000 114.2240640000,22.3269760000 114.2240880000,22.3271220000 114.2241270000,22.3272240000 114.2242330000,22.3274450000 114.2245140000,22.3278180000 114.2251750000,22.3285800000 114.2252400000,22.3287070000 114.2254100000,22.3289240000 114.2254930000,22.3290200000 114.2255840000,22.3291250000 114.2256200000,22.3291720000 114.2257140000,22.3292900000 114.2257480000,22.3293500000 114.2257610000,22.3293730000 114.2258090000,22.3294590000 114.2258800000,22.3296550000 114.2259070000,22.3298900000 114.2258780000,22.3301350000 114.2258200000,22.3302700000 114.2257690000,22.3303790000 114.2257040000,22.3304900000 114.2256070000,22.3306050000 114.2254790000,22.3306890000 114.2253190000,22.3307680000 114.2251230000,22.3308130000 114.2248890000,22.3308350000 114.2246560000,22.3308090000 114.2245760000,22.3307780000 114.2244960000,22.3307470000 114.2244790000,22.3307370000 114.2243440000,22.3306600000 114.2243000000,22.3306320000 114.2242520000,22.3306030000 114.2241730000,22.3305620000 114.2241010000,22.3305180000 114.2240470000,22.3304630000 114.2239030000,22.3303420000 114.2238670000,22.3303200000 114.2237570000,22.3302460000 114.2236700000,22.3301850000 114.2235080000,22.3301000000 114.2232730000,22.3300120000 114.2231540000,22.3299870000 114.2230040000,22.3299690000 114.2228140000,22.3299680000 114.2226410000,22.3300120000 114.2225880000,22.3300310000 114.2224750000,22.3300770000 114.2224250000,22.3301030000 114.2222620000,22.3302100000 114.2221960000,22.3302630000 114.2220740000,22.3302990000 114.2220190000,22.3303430000 114.2218500000,22.3304960000 114.2217750000,22.3305630000 114.2217430000,22.3305930000 114.2216550000,22.3306670000 114.2216130000,22.3307030000 114.2215590000,22.3307500000 114.2214740000,22.3308330000 114.2214170000,22.3309070000 114.2213220000,22.3310240000 114.2212000000,22.3311570000 114.2211360000,22.3312280000 114.2210830000,22.3312950000 114.2210220000,22.3313830000 114.2209770000,22.3314570000 114.2209350000,22.3315300000 114.2209000000,22.3316010000 114.2208700000,22.3316800000 114.2208530000,22.3317540000 114.2208370000,22.3318350000 114.2208300000,22.3319040000 114.2208310000,22.3319800000 114.2208370000,22.3320660000 114.2208470000,22.3321390000 114.2208700000,22.3322160000 114.2209020000,22.3322920000 114.2209710000,22.3324270000 114.2210430000,22.3325460000 114.2210710000,22.3325850000 114.2211330000,22.3326650000 114.2213570000,22.3329370000 114.2215660000,22.3331830000 114.2216190000,22.3332460000 114.2217550000,22.3334020000 114.2218720000,22.3335170000 114.2219520000,22.3335810000 114.2220940000,22.3336750000 114.2221560000,22.3337110000 114.2222070000,22.3337380000 114.2222590000,22.3337600000 114.2223180000,22.3337830000 114.2223850000,22.3338080000 114.2224520000,22.3338270000 114.2225250000,22.3338490000 114.2227150000,22.3339070000 114.2228690000,22.3339410000 114.2229600000,22.3339640000 114.2230560000,22.3339850000 114.2231370000,22.3340010000 114.2232160000,22.3340170000 114.2233070000,22.3340310000 114.2233910000,22.3340430000 114.2234770000,22.3340540000 114.2235500000,22.3340600000 114.2236140000,22.3340640000 114.2236980000,22.3340670000 114.2237840000,22.3340650000 114.2238720000,22.3340640000 114.2239520000,22.3340580000 114.2240370000,22.3340490000 114.2241890000,22.3340310000 114.2247960000,22.3339400000 114.2248990000,22.3339240000 114.2250190000,22.3339100000 114.2251680000,22.3338980000 114.2252530000,22.3338910000 114.2253580000,22.3338880000 114.2254320000,22.3338870000 114.2255330000,22.3338940000 114.2257030000,22.3339120000 114.2258160000,22.3339300000 114.2259220000,22.3339470000 114.2260620000,22.3339790000 114.2263610000,22.3340680000 114.2269330000,22.3342500000 114.2269880000,22.3342750000 114.2270260000,22.3342860000 114.2271940000,22.3343620000 114.2275800000,22.3343990000 114.2277470000,22.3343940000 114.2279800000,22.3343310000 114.2281680000,22.3343170000 114.2282410000,22.3343160000 114.2283290000,22.3343160000 114.2284350000,22.3343150000 114.2284380000,22.3342300000 114.2284400000,22.3341210000 114.2284420000,22.3340670000 114.2284460000,22.3337100000 114.2284800000,22.3332480000 114.2284830000,22.3331840000 114.2284950000,22.3330350000 114.2285000000,22.3329620000 114.2285120000,22.3328830000 114.2285340000,22.3328050000 114.2286050000,22.3326160000 114.2286520000,22.3325140000 114.2287110000,22.3324010000 114.2287750000,22.3322700000 114.2287930000,22.3321850000 114.2288120000,22.3321010000 114.2288170000,22.3320400000 114.2288200000,22.3319940000 114.2288200000,22.3319460000 114.2288190000,22.3319030000 114.2288170000,22.3318570000 114.2288120000,22.3318140000 114.2288050000,22.3317660000 114.2287940000,22.3317110000 114.2287770000,22.3316500000 114.2287510000,22.3315810000 114.2287090000,22.3314850000 114.2286640000,22.3314040000 114.2284420000,22.3310470000 114.2283980000,22.3309650000 114.2283730000,22.3309090000 114.2283490000,22.3308490000 114.2283320000,22.3308000000 114.2283080000,22.3307030000 114.2282960000,22.3306420000 114.2282890000,22.3305830000 114.2282860000,22.3305250000 114.2282860000,22.3304660000 114.2282890000,22.3304100000 114.2282940000,22.3303560000 114.2283050000,22.3302970000 114.2283160000,22.3302430000 114.2283320000,22.3301880000 114.2283520000,22.3301270000 114.2283780000,22.3300620000 114.2284090000,22.3299990000 114.2284560000,22.3299150000 114.2285060000,22.3298450000 114.2285630000,22.3297730000 114.2286330000,22.3297020000 114.2287100000,22.3296360000 114.2287810000,22.3295820000 114.2288500000,22.3295340000 114.2290220000,22.3294170000 114.2291430000,22.3293330000 114.2292880000,22.3292220000 114.2293930000,22.3291340000 114.2296130000,22.3289310000 114.2296930000,22.3288480000 114.2297620000,22.3287730000 114.2299520000,22.3285490000 114.2300480000,22.3284210000 114.2301300000,22.3283000000 114.2302070000,22.3281780000 114.2302750000,22.3280620000 114.2303250000,22.3279840000 114.2303670000,22.3279260000 114.2303840000,22.3279080000 114.2304040000,22.3278880000 114.2304570000,22.3278350000 114.2304920000,22.3278190000 114.2305210000,22.3277970000 114.2305440000,22.3277680000 114.2305580000,22.3277350000 114.2305630000,22.3277000000 114.2305590000,22.3276640000 114.2305460000,22.3276310000 114.2305500000,22.3275390000 114.2305540000,22.3274900000 114.2305590000,22.3274290000 114.2305700000,22.3273780000 114.2306150000,22.3272230000 114.2306690000,22.3270190000 114.2306950000,22.3268400000 114.2307050000,22.3266980000 114.2307090000,22.3265730000 114.2307110000,22.3264690000 114.2307120000,22.3264240000 114.2307130000,22.3263560000 114.2307160000,22.3262030000 114.2307630000,22.3262030000 114.2310850000,22.3262040000 114.2311440000,22.3261950000 114.2312020000,22.3261780000 114.2312570000,22.3261550000 114.2313080000,22.3261250000 114.2313570000,22.3260860000 114.2314000000,22.3260410000 114.2314350000,22.3259900000 114.2315100000,22.3257970000 114.2318840000,22.3249260000 114.2321940000,22.3240970000 114.2324800000,22.3235990000 114.2325270000,22.3235180000 114.2325810000,22.3234420000 114.2326410000,22.3233710000 114.2327260000,22.3232790000 114.2333410000,22.3228730000 114.2335240000,22.3227460000 114.2336290000,22.3227340000 114.2336730000,22.3227280000 114.2336990000,22.3227240000 114.2337470000,22.3227180000 114.2337900000,22.3227360000 114.2338370000,22.3227410000 114.2338840000,22.3227310000 114.2339350000,22.3227540000 114.2339630000,22.3227660000 114.2339960000,22.3227800000 114.2340720000,22.3227970000 114.2344040000,22.3230140000 114.2345730000,22.3231250000 114.2346740000,22.3231920000 114.2348380000,22.3232990000 114.2351940000,22.3235330000 114.2356470000,22.3238220000 114.2358840000,22.3239740000 114.2359320000,22.3240470000 114.2359630000,22.3240690000 114.2359950000,22.3240900000 114.2360590000,22.3241330000 114.2360260000,22.3241850000 114.2359950000,22.3242380000 114.2359780000,22.3242700000 114.2359740000,22.3243280000 114.2359690000,22.3243850000 114.2359320000,22.3244870000 114.2359050000,22.3245920000 114.2358870000,22.3246950000 114.2357570000,22.3256510000 114.2357230000,22.3259910000 114.2356970000,22.3261300000 114.2356590000,22.3263280000 114.2355640000,22.3266580000 114.2354400000,22.3269800000 114.2352870000,22.3272910000 114.2351060000,22.3275890000 114.2348990000,22.3278720000 114.2346670000,22.3281380000 114.2343450000,22.3284620000 114.2342500000,22.3285570000 114.2341350000,22.3284670000 114.2333680000,22.3278640000 114.2341350000,22.3284670000 114.2342500000,22.3285570000 114.2343450000,22.3284620000 114.2346670000,22.3281380000 114.2348990000,22.3278720000 114.2351060000,22.3275890000 114.2352870000,22.3272910000 114.2354400000,22.3269800000 114.2355640000,22.3266580000 114.2356590000,22.3263280000 114.2357230000,22.3259910000 114.2357570000,22.3256510000 114.2358870000,22.3246950000 114.2359050000,22.3245920000 114.2359320000,22.3244870000 114.2359690000,22.3243850000 114.2360110000,22.3243440000 114.2360530000,22.3243030000 114.2360700000,22.3242710000 114.2360970000,22.3242240000 114.2361260000,22.3241780000 114.2361690000,22.3241180000 114.2361360000,22.3240960000 114.2361020000,22.3240730000 114.2360400000,22.3240310000 114.2360090000,22.3240100000 114.2359770000,22.3239890000 114.2358840000,22.3239740000 114.2356470000,22.3238220000 114.2351940000,22.3235330000 114.2348380000,22.3232990000 114.2346740000,22.3231920000 114.2345730000,22.3231250000 114.2344040000,22.3230140000 114.2340720000,22.3227970000 114.2340460000,22.3227290000 114.2340250000,22.3227000000 114.2340060000,22.3226730000 114.2339720000,22.3226300000 114.2339720000,22.3225850000 114.2339560000,22.3225440000 114.2339270000,22.3225090000 114.2338880000,22.3224850000 114.2338420000,22.3224740000 114.2337950000,22.3224770000 114.2337510000,22.3224950000 114.2337160000,22.3225240000 114.2336930000,22.3225620000 114.2336440000,22.3226170000 114.2336160000,22.3226480000 114.2335950000,22.3226720000 114.2335240000,22.3227460000 114.2333410000,22.3228730000 114.2327260000,22.3232790000 114.2326410000,22.3233710000 114.2325810000,22.3234420000 114.2325270000,22.3235180000 114.2324800000,22.3235990000 114.2321940000,22.3240970000 114.2318840000,22.3249260000 114.2315100000,22.3257970000 114.2314350000,22.3259900000 114.2314000000,22.3260410000 114.2313570000,22.3260860000 114.2313080000,22.3261250000 114.2312570000,22.3261550000 114.2312020000,22.3261780000 114.2311440000,22.3261950000 114.2310850000,22.3262040000 114.2307630000,22.3262030000 114.2307160000,22.3262030000 114.2306270000,22.3262110000 114.2306220000,22.3263620000 114.2306240000,22.3264270000 114.2306250000,22.3264660000 114.2306260000,22.3264970000 114.2306240000,22.3265780000 114.2306160000,22.3266940000 114.2306030000,22.3268420000 114.2305790000,22.3270050000 114.2305320000,22.3272120000 114.2304890000,22.3273540000 114.2304610000,22.3274100000 114.2304430000,22.3274460000 114.2304140000,22.3275020000 114.2303740000,22.3275560000 114.2303400000,22.3275670000 114.2303090000,22.3275850000 114.2302830000,22.3276090000 114.2302650000,22.3276380000 114.2302540000,22.3276670000 114.2302510000,22.3276980000 114.2302540000,22.3277290000 114.2302650000,22.3277590000 114.2302590000,22.3278240000 114.2302540000,22.3278590000 114.2302440000,22.3278990000 114.2302250000,22.3279600000 114.2301970000,22.3280220000 114.2301640000,22.3280860000 114.2301280000,22.3281460000 114.2300540000,22.3282610000 114.2299290000,22.3284380000 114.2297020000,22.3287150000 114.2295860000,22.3288430000 114.2294800000,22.3289460000 114.2293640000,22.3290510000 114.2292640000,22.3291350000 114.2290920000,22.3292730000 114.2289180000,22.3293940000 114.2288030000,22.3294720000 114.2286880000,22.3295560000 114.2286090000,22.3296190000 114.2285710000,22.3296540000 114.2285340000,22.3296930000 114.2284960000,22.3297400000 114.2284560000,22.3297920000 114.2284170000,22.3298460000 114.2283880000,22.3298910000 114.2283510000,22.3299580000 114.2283170000,22.3300370000 114.2282900000,22.3301060000 114.2282640000,22.3301830000 114.2282440000,22.3302670000 114.2282330000,22.3303380000 114.2282270000,22.3303910000 114.2282220000,22.3304630000 114.2282230000,22.3305640000 114.2282310000,22.3306600000 114.2282420000,22.3307420000 114.2282590000,22.3308240000 114.2282880000,22.3309110000 114.2283070000,22.3309590000 114.2283290000,22.3310090000 114.2283510000,22.3310560000 114.2283750000,22.3310990000 114.2284060000,22.3311500000 114.2284350000,22.3311970000 114.2284630000,22.3312440000 114.2284900000,22.3312890000 114.2285180000,22.3313390000 114.2285440000,22.3313830000 114.2285710000,22.3314320000 114.2285970000,22.3314790000 114.2286240000,22.3315260000 114.2286500000,22.3315770000 114.2286710000,22.3316240000 114.2286880000,22.3316760000 114.2287000000,22.3317260000 114.2287100000,22.3317800000 114.2287190000,22.3318350000 114.2287240000,22.3318850000 114.2287250000,22.3319320000 114.2287240000,22.3319780000 114.2287200000,22.3320340000 114.2287100000,22.3320890000 114.2286950000,22.3321700000 114.2286820000,22.3322400000 114.2286240000,22.3323670000 114.2285640000,22.3324750000 114.2284990000,22.3325850000 114.2284280000,22.3327850000 114.2284030000,22.3328660000 114.2283900000,22.3329500000 114.2283820000,22.3330320000 114.2283710000,22.3331780000 114.2283670000,22.3332510000 114.2283480000,22.3337090000 114.2283370000,22.3339070000 114.2283320000,22.3339710000 114.2282490000,22.3340920000 114.2282230000,22.3341220000 114.2282060000,22.3341420000 114.2281110000,22.3341910000 114.2280140000,22.3342400000 114.2275110000,22.3342370000 114.2274470000,22.3342370000 114.2271140000,22.3341630000 114.2270910000,22.3341570000 114.2270640000,22.3341520000 114.2269880000,22.3341360000 114.2266790000,22.3340960000 114.2260620000,22.3339790000 114.2259220000,22.3339470000 114.2258160000,22.3339300000 114.2257030000,22.3339120000 114.2255330000,22.3338940000 114.2254320000,22.3338870000 114.2253580000,22.3338880000 114.2252530000,22.3338910000 114.2251680000,22.3338980000 114.2250190000,22.3339100000 114.2248990000,22.3339240000 114.2247960000,22.3339400000 114.2241890000,22.3340310000 114.2240370000,22.3340490000 114.2239520000,22.3340580000 114.2238720000,22.3340640000 114.2237840000,22.3340650000 114.2236980000,22.3340670000 114.2236140000,22.3340640000 114.2235500000,22.3340600000 114.2234770000,22.3340540000 114.2233910000,22.3340430000 114.2233070000,22.3340310000 114.2232160000,22.3340170000 114.2231370000,22.3340010000 114.2230560000,22.3339850000 114.2229600000,22.3339640000 114.2228690000,22.3339410000 114.2227150000,22.3339070000 114.2225250000,22.3338490000 114.2224520000,22.3338270000 114.2223850000,22.3338080000 114.2223180000,22.3337830000 114.2222590000,22.3337600000 114.2222070000,22.3337380000 114.2221560000,22.3337110000 114.2220940000,22.3336750000 114.2219520000,22.3335810000 114.2218720000,22.3335170000 114.2217550000,22.3334020000 114.2216190000,22.3332460000 114.2215660000,22.3331830000 114.2213570000,22.3329370000 114.2211330000,22.3326650000 114.2210710000,22.3325850000 114.2210430000,22.3325460000 114.2209710000,22.3324270000 114.2209020000,22.3322920000 114.2208700000,22.3322160000 114.2208470000,22.3321390000 114.2208370000,22.3320660000 114.2208310000,22.3319800000 114.2208300000,22.3319040000 114.2208370000,22.3318350000 114.2208530000,22.3317540000 114.2208700000,22.3316800000 114.2209000000,22.3316010000 114.2209350000,22.3315300000 114.2209770000,22.3314570000 114.2210220000,22.3313830000 114.2210830000,22.3312950000 114.2211360000,22.3312280000 114.2212000000,22.3311570000 114.2213220000,22.3310240000 114.2214570000,22.3309630000 114.2215300000,22.3308920000 114.2216040000,22.3308270000 114.2216200000,22.3308130000 114.2216760000,22.3307690000 114.2217310000,22.3307230000 114.2218070000,22.3306490000 114.2219400000,22.3305150000 114.2221280000,22.3303600000 114.2221960000,22.3302630000 114.2222620000,22.3302100000 114.2224250000,22.3301030000 114.2224750000,22.3300770000 114.2225880000,22.3300310000 114.2226410000,22.3300120000 114.2228140000,22.3299680000 114.2230040000,22.3299690000 114.2231540000,22.3299870000 114.2232730000,22.3300120000 114.2235080000,22.3301000000 114.2236700000,22.3301850000 114.2237570000,22.3302460000 114.2238670000,22.3303200000 114.2239030000,22.3303420000 114.2240470000,22.3304630000 114.2241010000,22.3305180000 114.2241880000,22.3306270000 114.2242240000,22.3306840000 114.2243270000,22.3308430000 114.2243810000,22.3310130000 114.2244140000,22.3311970000 114.2244050000,22.3313250000 114.2243620000,22.3315230000 114.2242860000,22.3316310000 114.2242040000,22.3317450000 114.2241430000,22.3317910000 114.2240840000,22.3318290000 114.2240430000,22.3318470000 114.2240080000,22.3318590000 114.2239690000,22.3318690000 114.2239330000,22.3318750000 114.2239100000,22.3318760000 114.2238900000,22.3318770000 114.2238450000,22.3318760000 114.2238030000,22.3318690000 114.2237620000,22.3318560000 114.2237210000,22.3318380000 114.2236840000,22.3318150000 114.2236560000,22.3317920000 114.2236310000,22.3317680000 114.2236120000,22.3317420000 114.2235950000,22.3317160000 114.2235810000,22.3316870000 114.2235700000,22.3316570000 114.2235630000,22.3316280000 114.2235600000,22.3315950000 114.2235610000,22.3315640000 114.2235660000,22.3315340000 114.2235750000,22.3315020000 114.2235870000,22.3314720000 114.2236010000,22.3314410000 114.2236190000,22.3314120000 114.2236420000,22.3313820000 114.2236660000,22.3313560000 114.2236910000,22.3313340000 114.2237190000,22.3313130000 114.2237490000,22.3312960000 114.2237810000,22.3312800000 114.2238170000,22.3312650000 114.2238490000,22.3312540000 114.2238840000,22.3312440000 114.2239190000,22.3312350000 114.2239600000,22.3312260000 114.2242310000,22.3311780000 114.2245680000,22.3311180000 114.2251680000,22.3310120000 114.2252410000,22.3309960000 114.2252990000,22.3309790000 114.2254260000,22.3309330000 114.2256410000,22.3307960000 114.2257950000,22.3306360000 114.2258650000,22.3305200000 114.2258910000,22.3304640000 114.2259020000,22.3304310000 114.2259100000,22.3304050000 114.2259170000,22.3303750000 114.2259550000,22.3301910000 114.2259920000,22.3299460000 114.2259920000,22.3296760000 114.2259410000,22.3294770000 114.2259100000,22.3294230000 114.2258930000,22.3293940000 114.2258640000,22.3293420000 114.2256960000,22.3291250000 114.2256610000,22.3290850000 114.2254790000,22.3288760000 114.2252970000,22.3286680000 114.2251750000,22.3285800000 114.2245140000,22.3278180000 114.2242330000,22.3274450000 114.2241270000,22.3272240000 114.2240880000,22.3271220000 114.2240640000,22.3269760000 114.2240440000,22.3268120000 114.2240560000,22.3266650000 114.2240840000,22.3265240000 114.2241070000,22.3264690000 114.2241270000,22.3263770000 114.2241950000,22.3262590000 114.2242450000,22.3261730000 114.2243500000,22.3260020000 114.2250980000,22.3248990000 114.2252050000,22.3248320000 114.2252280000,22.3247990000 114.2252670000,22.3247420000 114.2254000000,22.3245630000 114.2254410000,22.3245070000 114.2256080000,22.3243480000 114.2257500000,22.3242340000 114.2259390000,22.3241380000 114.2260490000,22.3240960000 114.2260100000,22.3240020000 114.2259760000,22.3239210000 114.2259520000,22.3238680000 114.2257490000,22.3234170000 114.2256970000,22.3233130000 114.2256750000,22.3232280000 114.2256720000,22.3231410000 114.2256760000,22.3229940000 114.2257000000,22.3229170000 114.2257760000,22.3228210000 114.2258160000,22.3227690000 114.2258250000,22.3227490000 114.2258600000,22.3226720000 114.2258780000,22.3226370000 114.2258950000,22.3226030000 114.2258090000,22.3225670000 114.2257350000,22.3225390000 114.2255760000,22.3224790000 114.2253730000,22.3224380000 114.2251870000,22.3223600000 114.2249980000,22.3222420000 114.2248180000,22.3221000000 114.2246340000,22.3218730000 114.2244260000,22.3214840000 114.2243940000,22.3214230000 114.2242320000,22.3211210000 114.2241930000,22.3210470000 114.2241160000,22.3209080000 114.2237940000,22.3203010000 114.2237580000,22.3202320000 114.2235970000,22.3203130000 114.2234550000,22.3203840000 114.2231330000,22.3205900000 114.2230370000,22.3206380000 114.2229250000,22.3206750000 114.2227650000,22.3207410000 114.2225380000,22.3208330000 114.2222750000,22.3209250000 114.2220470000,22.3209920000 114.2219790000,22.3210420000 114.2217630000,22.3211060000 114.2215460000,22.3211920000 114.2213940000,22.3212710000 114.2212940000,22.3213440000 114.2212130000,22.3214180000 114.2211470000,22.3214890000 114.2210890000,22.3215630000 114.2210410000,22.3216400000 114.2210010000,22.3217250000 114.2209670000,22.3218200000 114.2209480000,22.3219070000 114.2209300000,22.3219950000 114.2208980000,22.3223150000 114.2208850000,22.3224890000 114.2208830000,22.3225120000 114.2208810000,22.3225370000 114.2208640000,22.3226960000 114.2208220000,22.3230620000 114.2208050000,22.3231490000 114.2207800000,22.3232380000 114.2207460000,22.3233220000 114.2207040000,22.3234000000 114.2206520000,22.3234720000 114.2205880000,22.3235400000 114.2205110000,22.3236050000 114.2204250000,22.3236580000 114.2203390000,22.3236960000 114.2202470000,22.3237260000 114.2201480000,22.3237430000 114.2200620000,22.3237490000 114.2199870000,22.3237480000 114.2199070000,22.3237380000 114.2198370000,22.3237230000 114.2197630000,22.3236990000 114.2196960000,22.3236700000 114.2196230000,22.3236300000 114.2195440000,22.3235740000 114.2194750000,22.3235110000 114.2194160000,22.3234420000 114.2193700000,22.3233750000 114.2193330000,22.3232940000 114.2193070000,22.3232170000 114.2192850000,22.3231290000 114.2192230000,22.3227920000 114.2192020000,22.3227200000 114.2191710000,22.3226570000 114.2191240000,22.3225850000 114.2190730000,22.3225270000 114.2190120000,22.3224720000 114.2189560000,22.3224320000 114.2188980000,22.3224000000 114.2188260000,22.3223720000 114.2187520000,22.3223540000 114.2186690000,22.3223420000 114.2185660000,22.3223440000 114.2184810000,22.3223560000 114.2184150000,22.3223750000 114.2183540000,22.3224000000 114.2182970000,22.3224310000 114.2182360000,22.3224710000 114.2181810000,22.3225180000 114.2181270000,22.3225720000 114.2179600000,22.3227820000 114.2179210000,22.3228210000 114.2178530000,22.3228710000 114.2177860000,22.3229020000 114.2177440000,22.3229160000 114.2177010000,22.3229180000 114.2176550000,22.3229120000 114.2176110000,22.3229010000 114.2175590000,22.3228880000 114.2174960000,22.3228720000 114.2170540000,22.3227530000 114.2168770000,22.3227090000 114.2167620000,22.3226830000 114.2167380000,22.3226780000 114.2166850000,22.3226670000 114.2166030000,22.3226490000 114.2164400000,22.3226000000 114.2164280000,22.3226370000 114.2164130000,22.3226950000 114.2163150000,22.3230260000 114.2162810000,22.3231420000 114.2162360000,22.3233280000 114.2162210000,22.3233910000 114.2161620000,22.3234320000 114.2161500000,22.3234650000 114.2161170000,22.3235260000 114.2161010000,22.3235570000 114.2160130000,22.3236950000 114.2159490000,22.3237790000 114.2158990000,22.3238410000 114.2156500000,22.3241560000 114.2155820000,22.3242430000 114.2155190000,22.3243340000 114.2154560000,22.3244240000 114.2153110000,22.3246320000 114.2149340000,22.3251600000 114.2148810000,22.3252610000 114.2148140000,22.3253630000 114.2147480000,22.3254540000 114.2147230000,22.3254880000 114.2145640000,22.3256670000 114.2143910000,22.3258210000 114.2143370000,22.3258620000 114.2142870000,22.3258980000 114.2142140000,22.3259450000 114.2141820000,22.3259640000 114.2141510000,22.3259800000 114.2141030000,22.3260020000 114.2140460000,22.3260250000 114.2139760000,22.3260510000 114.2138200000,22.3261040000 114.2137850000,22.3261140000 114.2137520000,22.3261230000 114.2137190000,22.3261280000 114.2136620000,22.3261350000 114.2136020000,22.3261400000 114.2135400000,22.3261440000 114.2134660000,22.3261470000 114.2133860000,22.3261470000 114.2133180000,22.3261420000 114.2132530000,22.3261330000 114.2131940000,22.3261230000 114.2131470000,22.3261140000 114.2131070000,22.3261040000 114.2130450000,22.3260850000 114.2129700000,22.3260600000 114.2128300000,22.3260070000 114.2126440000,22.3259340000 114.2123790000,22.3258310000 114.2122680000,22.3257970000 114.2121780000,22.3257760000 114.2120890000,22.3257600000 114.2119650000,22.3257390000 114.2118280000,22.3257260000 114.2115200000,22.3257040000 114.2109900000,22.3256500000 114.2109360000,22.3256230000 114.2106840000,22.3256040000 114.2098290000,22.3255230000 114.2096740000,22.3254690000 114.2095290000,22.3254570000 114.2093990000,22.3254480000 114.2093300000,22.3254360000 114.2092410000,22.3254410000 114.2091450000,22.3254450000 114.2089940000,22.3254410000 114.2089370000,22.3254400000 114.2088960000,22.3254410000 114.2088590000,22.3254430000 114.2087480000,22.3254340000 114.2086280000,22.3254190000 114.2086130000,22.3255360000 114.2086040000,22.3256480000 114.2086000000,22.3256960000 114.2085850000,22.3258850000 114.2085480000,22.3262600000 114.2085240000,22.3264940000 114.2085150000,22.3265930000 114.2085110000,22.3266280000 114.2085030000,22.3267090000 114.2084940000,22.3268070000 114.2084240000,22.3275090000 114.2084110000,22.3276460000 114.2083950000,22.3278020000 114.2083540000,22.3282260000 114.2083150000,22.3286200000 114.2082820000,22.3289500000 114.2082620000,22.3291580000 114.2082380000,22.3293990000 114.2082120000,22.3296660000 114.2081980000,22.3297460000 114.2081920000,22.3297740000 114.2081560000,22.3298620000 114.2081260000,22.3299150000 114.2080900000,22.3299620000 114.2080250000,22.3300230000 114.2074980000,22.3304600000 114.2071770000,22.3307100000 114.2070300000,22.3308180000 114.2069710000,22.3308610000 114.2069030000,22.3309120000 114.2066250000,22.3311160000 114.2064360000,22.3312370000 114.2062490000,22.3313060000 114.2061830000,22.3313090000 114.2060850000,22.3313130000 114.2060440000,22.3313150000 114.2058540000,22.3313060000 114.2058070000,22.3313040000 114.2057310000,22.3312960000 114.2056600000,22.3312890000 114.2055660000,22.3312570000 114.2055300000,22.3312310000 114.2055110000,22.3312180000 114.2054670000,22.3311690000 114.2054460000,22.3311300000 114.2054330000,22.3310940000 114.2054170000,22.3310590000 114.2054030000,22.3309900000 114.2054080000,22.3308910000 114.2054410000,22.3305810000 114.2055230000,22.3298140000 114.2055340000,22.3297110000 114.2055480000,22.3295840000 114.2055800000,22.3292890000 114.2055940000,22.3291540000 114.2056760000,22.3282790000 114.2056900000,22.3281330000 114.2057050000,22.3279700000 114.2057460000,22.3275020000 114.2057540000,22.3274140000 114.2058130000,22.3268850000 114.2058280000,22.3267540000 114.2058360000,22.3266840000 114.2058510000,22.3265270000 114.2058950000,22.3260260000 114.2059360000,22.3256010000 114.2059540000,22.3254680000 114.2059600000,22.3254240000 114.2059780000,22.3253090000 114.2059890000,22.3251890000 114.2058090000,22.3251740000 114.2055840000,22.3251550000 114.2046620000,22.3250800000 114.2044260000,22.3250510000 114.2042170000,22.3250280000 114.2040640000,22.3249750000 114.2037040000,22.3248870000 114.2033440000,22.3247630000 114.2031530000,22.3246470000 114.2030120000,22.3245430000 114.2028220000,22.3244190000 114.2025890000,22.3241480000 114.2024660000,22.3239790000 114.2023780000,22.3238420000 114.2022600000,22.3236420000 114.2022150000,22.3235550000 114.2021960000,22.3234570000 114.2021820000,22.3233780000 114.2021750000,22.3232950000 114.2021770000,22.3232500000 114.2021920000,22.3231980000 114.2022110000,22.3231570000 114.2022360000,22.3231130000 114.2022670000,22.3230680000 114.2023020000,22.3230280000 114.2023510000,22.3229850000 114.2023990000,22.3229600000 114.2024470000,22.3229430000 114.2024970000,22.3229340000 114.2025460000,22.3229340000 114.2025940000,22.3229450000 114.2026400000,22.3229630000 114.2026850000,22.3229870000 114.2027250000,22.3230230000 114.2027590000,22.3230650000 114.2027830000,22.3231110000 114.2027980000,22.3231570000 114.2028030000,22.3232050000 114.2028000000,22.3232470000 114.2027890000,22.3232860000 114.2027750000,22.3233160000 114.2027160000,22.3234080000 114.2026550000,22.3234850000 114.2023890000,22.3236230000 114.2022250000,22.3237000000 114.2020750000,22.3237620000 114.2019440000,22.3238110000 114.2017830000,22.3238620000 114.2016440000,22.3239020000 114.2014970000,22.3239370000 114.2013210000,22.3239730000 114.2010740000,22.3240060000 114.2009280000,22.3240210000 114.2007980000,22.3240310000 114.2005720000,22.3240420000 114.2004670000,22.3240460000 114.1981480000,22.3240740000 114.1969720000,22.3240900000 114.1931910000,22.3242060000 114.1929760000,22.3241900000 114.1927100000,22.3241580000 114.1924060000,22.3240540000 114.1919930000,22.3238190000 114.1917780000,22.3236810000 114.1916420000,22.3235340000 114.1914650000,22.3232640000 114.1909270000,22.3221170000 114.1907080000,22.3216680000 114.1906320000,22.3214540000 114.1905980000,22.3213270000 114.1905760000,22.3212280000 114.1905530000,22.3211330000 114.1905300000,22.3210450000 114.1904540000,22.3208050000 114.1903970000,22.3206400000 114.1903530000,22.3205180000 114.1903160000,22.3204260000 114.1902650000,22.3203170000 114.1902180000,22.3202250000 114.1902060000,22.3202010000 114.1901430000,22.3200830000 114.1900660000,22.3199610000 114.1899780000,22.3198240000 114.1899060000,22.3197210000 114.1897880000,22.3195560000 114.1896400000,22.3193570000 114.1895210000,22.3191930000 114.1894550000,22.3190990000 114.1894140000,22.3190380000 114.1893840000,22.3189900000 114.1893490000,22.3189280000 114.1893080000,22.3188520000 114.1892700000,22.3187800000 114.1891320000,22.3185030000 114.1885480000,22.3173290000 114.1881990000,22.3166390000 114.1880140000,22.3162710000 114.1879760000,22.3161940000 114.1879320000,22.3160990000 114.1878900000,22.3160040000 114.1878560000,22.3159210000 114.1878170000,22.3158200000 114.1877810000,22.3157200000 114.1877470000,22.3156140000 114.1877250000,22.3155370000 114.1877050000,22.3154550000 114.1876730000,22.3152820000 114.1876130000,22.3148810000 114.1876010000,22.3147950000 114.1875880000,22.3147130000 114.1875570000,22.3145620000 114.1875370000,22.3144630000 114.1875200000,22.3143820000 114.1874970000,22.3143040000 114.1874770000,22.3142420000 114.1873840000,22.3139840000 114.1873530000,22.3139010000 114.1873140000,22.3138090000 114.1872720000,22.3137180000 114.1872170000,22.3136100000 114.1871700000,22.3135250000 114.1871250000,22.3134500000 114.1869880000,22.3132340000 114.1865460000,22.3125520000 114.1860760000,22.3118220000 114.1859480000,22.3116210000 114.1858010000,22.3113940000 114.1857270000,22.3112690000 114.1856850000,22.3111940000 114.1854880000,22.3108360000 114.1854410000,22.3107540000 114.1853870000,22.3106640000 114.1853200000,22.3105530000 114.1852550000,22.3104580000 114.1851860000,22.3103670000 114.1851140000,22.3102800000 114.1848710000,22.3099790000 114.1847480000,22.3098390000 114.1845920000,22.3096680000 114.1844260000,22.3094970000 114.1844110000,22.3094800000 114.1842420000,22.3092930000 114.1841190000,22.3091860000 114.1838820000,22.3089980000 114.1837520000,22.3089020000 114.1835540000,22.3088030000 114.1834750000,22.3087620000 114.1832990000,22.3086690000 114.1830920000,22.3085460000 114.1828020000,22.3083920000 114.1825850000,22.3082650000 114.1825560000,22.3082480000 114.1824680000,22.3081960000 114.1821720000,22.3080070000 114.1818500000,22.3077770000 114.1815670000,22.3075690000 114.1812500000,22.3072970000 114.1811670000,22.3071420000 114.1811510000,22.3070250000 114.1811510000,22.3068800000 114.1811650000,22.3067970000 114.1811800000,22.3067440000 114.1812080000,22.3066490000 114.1812470000,22.3065950000 114.1813120000,22.3065030000 114.1813620000,22.3064260000 114.1814120000,22.3063370000 114.1814360000,22.3062840000 114.1814520000,22.3062400000 114.1814840000,22.3061160000 114.1815140000,22.3060580000 114.1815420000,22.3059900000 114.1815670000,22.3059130000 114.1815920000,22.3058110000 114.1816060000,22.3056980000 114.1816080000,22.3055890000 114.1816010000,22.3054770000 114.1815650000,22.3052920000 114.1815260000,22.3051840000 114.1814670000,22.3050200000 114.1814080000,22.3048800000 114.1812890000,22.3045890000 114.1812230000,22.3044290000 114.1811770000,22.3043200000 114.1811690000,22.3040960000 114.1811620000,22.3039990000 114.1811400000,22.3038590000 114.1811190000,22.3037110000 114.1810990000,22.3035630000 114.1810820000,22.3034320000 114.1810720000,22.3033400000 114.1810640000,22.3032580000 114.1810550000,22.3031450000 114.1809820000,22.3025630000 114.1809270000,22.3021540000 114.1808730000,22.3017750000 114.1808340000,22.3014760000 114.1807540000,22.3008240000 114.1807430000,22.3007040000 114.1807410000,22.3006170000 114.1807430000,22.3004890000 114.1807630000,22.3002650000 114.1808070000,22.3000340000 114.1808120000,22.2998490000 114.1808080000,22.2997980000 114.1808030000,22.2997300000 114.1807910000,22.2996610000 114.1807860000,22.2996390000 114.1807590000,22.2995340000 114.1807000000,22.2994280000 114.1806670000,22.2993690000 114.1805980000,22.2992910000 114.1803880000,22.2990750000 114.1801030000,22.2988290000 114.1797050000,22.2984870000 114.1792820000,22.2981370000 114.1790670000,22.2980780000 114.1789300000,22.2979570000 114.1787380000,22.2977870000 114.1787140000,22.2977670000 114.1785990000,22.2976620000 114.1785510000,22.2976210000 114.1784710000,22.2975560000 114.1781150000,22.2973120000 114.1778950000,22.2971350000 114.1776740000,22.2969570000 114.1774830000,22.2968020000 114.1774020000,22.2967340000 114.1773210000,22.2966640000 114.1772990000,22.2966440000 114.1772440000,22.2965930000 114.1772200000,22.2965710000 114.1772010000,22.2965540000 114.1770250000,22.2963960000 114.1769710000,22.2963370000 114.1768730000,22.2962280000 114.1768180000,22.2961680000 114.1766010000,22.2959830000 114.1762220000,22.2956940000 114.1761760000,22.2956640000 114.1760590000,22.2955860000 114.1759260000,22.2954980000 114.1758610000,22.2954450000 114.1757260000,22.2953780000 114.1756810000,22.2953580000 114.1756010000,22.2953240000 114.1754430000,22.2952360000 114.1753430000,22.2951790000 114.1752390000,22.2951450000 114.1751020000,22.2950780000 114.1748800000,22.2949940000 114.1746380000,22.2949190000 114.1745140000,22.2948810000 114.1744310000,22.2948550000 114.1743150000,22.2948230000 114.1741970000,22.2947940000 114.1740730000,22.2947640000 114.1740360000,22.2947560000 114.1739470000,22.2947340000 114.1736990000,22.2946930000 114.1736200000,22.2946840000 114.1735590000,22.2946750000 114.1735110000,22.2946700000 114.1734700000,22.2946700000 114.1733380000,22.2946800000 114.1732530000,22.2946820000 114.1732060000,22.2946800000 114.1730690000,22.2946790000 114.1728200000,22.2946600000 114.1727250000,22.2946290000 114.1726240000,22.2946050000 114.1725630000,22.2946030000 114.1724380000,22.2945970000 114.1723130000,22.2946120000 114.1721830000,22.2946050000 114.1720950000,22.2946020000 114.1720520000,22.2946010000 114.1719760000,22.2946110000 114.1717580000,22.2946050000 114.1716390000,22.2946010000 114.1715000000,22.2945970000 114.1713480000,22.2945930000 114.1712830000,22.2945910000 114.1712170000,22.2945920000 114.1711520000,22.2945940000 114.1710770000,22.2945750000 114.1709850000,22.2945530000 114.1709050000,22.2945340000 114.1708270000,22.2945240000 114.1706590000,22.2945070000 114.1705620000,22.2945080000 114.1704440000,22.2945130000 114.1702890000,22.2945060000 114.1697930000,22.2944290000 114.1697220000,22.2944140000 114.1696660000,22.2943960000 114.1696180000,22.2943730000 114.1695740000,22.2943490000 114.1695320000,22.2943250000 114.1694850000,22.2942900000 114.1694380000,22.2942420000 114.1694010000,22.2941880000 114.1693730000,22.2940240000 114.1693290000,22.2938930000 114.1693140000,22.2938480000 114.1692860000,22.2937950000 114.1692530000,22.2937470000 114.1691930000,22.2937050000 114.1691530000,22.2936910000 114.1691070000,22.2936810000 114.1690520000,22.2936820000 114.1690460000,22.2936840000 114.1690330000,22.2936870000 114.1689700000,22.2937110000 114.1689480000,22.2937270000 114.1689330000,22.2937430000 114.1689000000,22.2937770000 114.1688520000,22.2938310000 114.1688460000,22.2938390000 114.1688270000,22.2938660000 114.1688120000,22.2938870000 114.1687820000,22.2939290000 114.1687490000,22.2939660000 114.1687320000,22.2939850000 114.1687160000,22.2940040000 114.1686820000,22.2940410000 114.1686720000,22.2940790000 114.1686770000,22.2941020000 114.1686810000,22.2941180000 114.1687320000,22.2941800000 114.1687890000,22.2942510000 114.1688120000,22.2942790000 114.1688180000,22.2942830000 114.1688330000,22.2942970000 114.1688460000,22.2943080000 114.1688900000,22.2943340000 114.1689360000,22.2943520000 114.1690130000,22.2943690000 114.1690910000,22.2943850000 114.1691590000,22.2944000000 114.1691680000,22.2944020000 114.1691910000,22.2944040000 114.1692360000,22.2944080000 114.1694200000,22.2944230000 114.1694750000,22.2944440000 114.1695170000,22.2944610000 114.1696060000,22.2944960000 114.1701180000,22.2945840000 114.1702870000,22.2946130000 114.1704400000,22.2946400000 114.1704680000,22.2946800000 114.1704980000,22.2947230000 114.1705310000,22.2947670000 114.1705650000,22.2948220000 114.1705770000,22.2948530000 114.1705900000,22.2948820000 114.1704380000,22.2954400000 114.1704140000,22.2955260000 114.1703030000,22.2959040000 114.1702450000,22.2960440000 114.1702110000,22.2961670000 114.1702050000,22.2962670000 114.1700410000,22.2968150000 114.1699350000,22.2971620000 114.1699110000,22.2972370000 114.1699010000,22.2972720000 114.1698350000,22.2974530000 114.1695200000,22.2983280000 114.1694530000,22.2985460000 114.1693980000,22.2987260000 114.1693600000,22.2988320000 114.1691630000,22.2992010000 114.1689890000,22.2994740000 114.1687780000,22.2997140000 114.1687370000,22.2997660000 114.1686280000,22.2998980000 114.1686000000,22.2999280000 114.1685320000,22.2999880000 114.1684940000,22.2999920000 114.1684680000,22.2999930000 114.1684390000,22.2999910000 114.1684070000,22.2999870000 114.1682890000,22.2999670000 114.1682660000,22.2999630000 114.1679200000,22.2999010000 114.1678300000,22.2998820000 114.1677250000,22.2998590000 114.1676210000,22.2998370000 114.1675160000,22.2998150000 114.1673500000,22.3006990000 114.1673500000,22.3006990000 114.1674510000,22.3007170000 114.1675520000,22.3007340000 114.1676550000,22.3007520000 114.1677560000,22.3007700000 114.1679470000,22.3007980000 114.1679900000,22.3008050000 114.1680290000,22.3008110000 114.1680530000,22.3008150000 114.1680030000,22.3010470000 114.1679710000,22.3012440000 114.1679670000,22.3014440000 114.1679170000,22.3017760000 114.1679000000,22.3019880000 114.1679170000,22.3022510000 114.1679540000,22.3025530000 114.1679630000,22.3026800000 114.1679690000,22.3028280000 114.1679670000,22.3029380000 114.1679570000,22.3030230000 114.1679230000,22.3032180000 114.1678570000,22.3036210000 114.1677750000,22.3039330000 114.1677520000,22.3040220000 114.1675840000,22.3044980000 114.1675000000,22.3046390000 114.1674130000,22.3047800000 114.1673450000,22.3048890000 114.1672930000,22.3049700000 114.1671370000,22.3052070000 114.1670160000,22.3054110000 114.1669380000,22.3055620000 114.1668690000,22.3057350000 114.1668470000,22.3058560000 114.1660510000,22.3060430000 114.1657230000,22.3061140000 114.1654450000,22.3061820000 114.1653710000,22.3061990000 114.1651490000,22.3062310000 114.1650850000,22.3064080000 114.1649880000,22.3066540000 114.1649390000,22.3068200000 114.1649220000,22.3069260000 114.1648950000,22.3071020000 114.1648710000,22.3073840000 114.1648670000,22.3077490000 114.1648700000,22.3079300000 114.1648450000,22.3079710000 114.1647900000,22.3080020000 114.1647810000,22.3080070000 114.1647700000,22.3080100000 114.1645100000,22.3080360000 114.1644310000,22.3080520000 114.1643480000,22.3080930000 114.1643120000,22.3081450000 114.1642800000,22.3082180000 114.1642520000,22.3083170000 114.1640800000,22.3089820000 114.1640650000,22.3090680000 114.1640600000,22.3091360000 114.1640740000,22.3092250000 114.1641260000,22.3092800000 114.1642040000,22.3093050000 114.1643680000,22.3092830000</coordinates>
                </LineString>
                <ExtendedData>
                    <Data name="length">
                        <value>35310.65641285709</value>
                    </Data>
                    <Data name="duration">
                        <value>00:49:17</value>
                    </Data>
                </ExtendedData>
            </Placemark>
        </Document>
    </Document>
</kml>