<?xml version="1.0" encoding="UTF-8"?>
<kml xmlns="http://www.opengis.net/kml/2.2" xmlns:gx="http://www.google.com/kml/ext/2.2">
    <Document>
        <name>Route</name>
        <Folder>
            <name>Route Request</name>
            <Placemark>
                <address>HSBC Centre Tower 2, 1, Sham Mong Road, Tai Kok Tsui, Yau Tsim Mong District, Kowloon, Hong Kong, 000000, China</address>
                <Point>
                    <coordinates>114.1607486013,22.3186418560</coordinates>
                </Point>
                <ExtendedData>
                    <Data name="city">
                        <value>Kowloon</value>
                    </Data>
                    <Data name="office">
                        <value>HSBC Centre Tower 2</value>
                    </Data>
                    <Data name="country">
                        <value>China</value>
                    </Data>
                    <Data name="road">
                        <value>Sham Mong Road</value>
                    </Data>
                    <Data name="postcode">
                        <value>000000</value>
                    </Data>
                    <Data name="state">
                        <value>Hong Kong</value>
                    </Data>
                    <Data name="suburb">
                        <value>Tai Kok Tsui</value>
                    </Data>
                    <Data name="house_number">
                        <value>1</value>
                    </Data>
                    <Data name="city_district">
                        <value>Yau Tsim Mong District</value>
                    </Data>
                    <Data name="country_code">
                        <value>cn</value>
                    </Data>
                    <Data name="ISO3166-2-lvl3">
                        <value>CN-HK</value>
                    </Data>
                </ExtendedData>
            </Placemark>
            <Placemark>
                <address>Fu Luen Building, 8, Beech Street, Tai Kok Tsui, Yau Tsim Mong District, Kowloon, Hong Kong, 000000, China</address>
                <Point>
                    <coordinates>114.1628356048,22.3193282807</coordinates>
                </Point>
                <ExtendedData>
                    <Data name="city">
                        <value>Kowloon</value>
                    </Data>
                    <Data name="country">
                        <value>China</value>
                    </Data>
                    <Data name="road">
                        <value>Beech Street</value>
                    </Data>
                    <Data name="postcode">
                        <value>000000</value>
                    </Data>
                    <Data name="state">
                        <value>Hong Kong</value>
                    </Data>
                    <Data name="suburb">
                        <value>Tai Kok Tsui</value>
                    </Data>
                    <Data name="house_number">
                        <value>8</value>
                    </Data>
                    <Data name="city_district">
                        <value>Yau Tsim Mong District</value>
                    </Data>
                    <Data name="building">
                        <value>Fu Luen Building</value>
                    </Data>
                    <Data name="country_code">
                        <value>cn</value>
                    </Data>
                    <Data name="ISO3166-2-lvl3">
                        <value>CN-HK</value>
                    </Data>
                </ExtendedData>
            </Placemark>
            <Placemark>
                <address>Prince Edward Road West, Kau Pui Shek, Kowloon City, Kowloon City District, Kowloon, Hong Kong, 000000, China</address>
                <Point>
                    <coordinates>114.1903847278,22.3275777924</coordinates>
                </Point>
                <ExtendedData>
                    <Data name="city">
                        <value>Kowloon</value>
                    </Data>
                    <Data name="country">
                        <value>China</value>
                    </Data>
                    <Data name="road">
                        <value>Prince Edward Road West</value>
                    </Data>
                    <Data name="neighbourhood">
                        <value>Kau Pui Shek</value>
                    </Data>
                    <Data name="postcode">
                        <value>000000</value>
                    </Data>
                    <Data name="state">
                        <value>Hong Kong</value>
                    </Data>
                    <Data name="suburb">
                        <value>Kowloon City</value>
                    </Data>
                    <Data name="city_district">
                        <value>Kowloon City District</value>
                    </Data>
                    <Data name="country_code">
                        <value>cn</value>
                    </Data>
                    <Data name="ISO3166-2-lvl3">
                        <value>CN-HK</value>
                    </Data>
                </ExtendedData>
            </Placemark>
            <Placemark>
                <Point>
                    <coordinates>114.2179465896,22.3349464176</coordinates>
                </Point>
            </Placemark>
            <Placemark>
                <address>Anderson Road Quarry, Sau Ming Road, Kwun Tong Mid-Levels, Sau Mau Ping, Kwun Tong District, Kowloon, Hong Kong, 000000, China</address>
                <Point>
                    <coordinates>114.2343310202,22.3271410560</coordinates>
                </Point>
                <ExtendedData>
                    <Data name="city">
                        <value>Kowloon</value>
                    </Data>
                    <Data name="country">
                        <value>China</value>
                    </Data>
                    <Data name="road">
                        <value>Sau Ming Road</value>
                    </Data>
                    <Data name="postcode">
                        <value>000000</value>
                    </Data>
                    <Data name="state">
                        <value>Hong Kong</value>
                    </Data>
                    <Data name="suburb">
                        <value>Sau Mau Ping</value>
                    </Data>
                    <Data name="historic">
                        <value>Anderson Road Quarry</value>
                    </Data>
                    <Data name="city_district">
                        <value>Kwun Tong District</value>
                    </Data>
                    <Data name="quarter">
                        <value>Kwun Tong Mid-Levels</value>
                    </Data>
                    <Data name="country_code">
                        <value>cn</value>
                    </Data>
                    <Data name="ISO3166-2-lvl3">
                        <value>CN-HK</value>
                    </Data>
                </ExtendedData>
            </Placemark>
            <Placemark>
                <Point>
                    <coordinates>114.2140404171,22.3324399977</coordinates>
                </Point>
            </Placemark>
            <Placemark>
                <address>Choi Ha Road, Ping Shek, Kwun Tong District, Kowloon, Hong Kong, 000000, China</address>
                <Point>
                    <coordinates>114.2130772029,22.3286878083</coordinates>
                </Point>
                <ExtendedData>
                    <Data name="city">
                        <value>Kowloon</value>
                    </Data>
                    <Data name="country">
                        <value>China</value>
                    </Data>
                    <Data name="road">
                        <value>Choi Ha Road</value>
                    </Data>
                    <Data name="postcode">
                        <value>000000</value>
                    </Data>
                    <Data name="state">
                        <value>Hong Kong</value>
                    </Data>
                    <Data name="suburb">
                        <value>Ping Shek</value>
                    </Data>
                    <Data name="city_district">
                        <value>Kwun Tong District</value>
                    </Data>
                    <Data name="country_code">
                        <value>cn</value>
                    </Data>
                    <Data name="ISO3166-2-lvl3">
                        <value>CN-HK</value>
                    </Data>
                </ExtendedData>
            </Placemark>
            <Placemark>
                <address>Argyle Street, Kau Pui Shek, Ma Tau Wai, Kowloon City District, Kowloon, Hong Kong, 000000, China</address>
                <Point>
                    <coordinates>114.1896315770,22.3271270102</coordinates>
                </Point>
                <ExtendedData>
                    <Data name="city">
                        <value>Kowloon</value>
                    </Data>
                    <Data name="country">
                        <value>China</value>
                    </Data>
                    <Data name="road">
                        <value>Argyle Street</value>
                    </Data>
                    <Data name="neighbourhood">
                        <value>Kau Pui Shek</value>
                    </Data>
                    <Data name="postcode">
                        <value>000000</value>
                    </Data>
                    <Data name="state">
                        <value>Hong Kong</value>
                    </Data>
                    <Data name="suburb">
                        <value>Ma Tau Wai</value>
                    </Data>
                    <Data name="city_district">
                        <value>Kowloon City District</value>
                    </Data>
                    <Data name="country_code">
                        <value>cn</value>
                    </Data>
                    <Data name="ISO3166-2-lvl3">
                        <value>CN-HK</value>
                    </Data>
                </ExtendedData>
            </Placemark>
            <Placemark>
                <address>HSBC Centre Tower 2, 1, Sham Mong Road, Tai Kok Tsui, Yau Tsim Mong District, Kowloon, Hong Kong, 000000, China</address>
                <Point>
                    <coordinates>114.1608052273,22.3186104539</coordinates>
                </Point>
                <ExtendedData>
                    <Data name="city">
                        <value>Kowloon</value>
                    </Data>
                    <Data name="office">
                        <value>HSBC Centre Tower 2</value>
                    </Data>
                    <Data name="country">
                        <value>China</value>
                    </Data>
                    <Data name="road">
                        <value>Sham Mong Road</value>
                    </Data>
                    <Data name="postcode">
                        <value>000000</value>
                    </Data>
                    <Data name="state">
                        <value>Hong Kong</value>
                    </Data>
                    <Data name="suburb">
                        <value>Tai Kok Tsui</value>
                    </Data>
                    <Data name="house_number">
                        <value>1</value>
                    </Data>
                    <Data name="city_district">
                        <value>Yau Tsim Mong District</value>
                    </Data>
                    <Data name="country_code">
                        <value>cn</value>
                    </Data>
                    <Data name="ISO3166-2-lvl3">
                        <value>CN-HK</value>
                    </Data>
                </ExtendedData>
            </Placemark>
        </Folder>
        <Document>
            <name>22.7 km; 00:32 h (OSRM)</name>
            <Placemark>
                <name>Route</name>
                <LineString>
                    <coordinates>114.1606740000,22.3184130000 114.1606500000,22.3184200000 114.1606300000,22.3184220000 114.1606100000,22.3184210000 114.1605900000,22.3184170000 114.1605780000,22.3184130000 114.1605720000,22.3184110000 114.1605610000,22.3184080000 114.1606670000,22.3181410000 114.1607210000,22.3180280000 114.1607900000,22.3179520000 114.1608130000,22.3179360000 114.1608420000,22.3179160000 114.1608940000,22.3178850000 114.1610060000,22.3178500000 114.1610770000,22.3179390000 114.1614870000,22.3180790000 114.1616590000,22.3181390000 114.1618720000,22.3182250000 114.1619260000,22.3182520000 114.1619580000,22.3182730000 114.1619890000,22.3183140000 114.1619960000,22.3183660000 114.1619960000,22.3184900000 114.1619960000,22.3185560000 114.1619960000,22.3186210000 114.1619960000,22.3186440000 114.1619960000,22.3186770000 114.1619960000,22.3187780000 114.1619960000,22.3187910000 114.1619960000,22.3188720000 114.1619910000,22.3189620000 114.1619890000,22.3190590000 114.1619880000,22.3190890000 114.1619880000,22.3191100000 114.1619880000,22.3191430000 114.1620280000,22.3194560000 114.1622320000,22.3194610000 114.1622930000,22.3194610000 114.1623500000,22.3194510000 114.1626280000,22.3191940000 114.1627010000,22.3191750000 114.1627720000,22.3191830000 114.1628110000,22.3192020000 114.1628420000,22.3192300000 114.1628640000,22.3192650000 114.1628770000,22.3193200000 114.1629180000,22.3194990000 114.1629230000,22.3195230000 114.1629380000,22.3195940000 114.1629620000,22.3197100000 114.1629890000,22.3198440000 114.1630540000,22.3201550000 114.1630690000,22.3202300000 114.1630830000,22.3202960000 114.1635600000,22.3202130000 114.1636600000,22.3201950000 114.1639530000,22.3201440000 114.1640290000,22.3201310000 114.1641170000,22.3201150000 114.1646220000,22.3200260000 114.1647290000,22.3200130000 114.1648100000,22.3200140000 114.1648940000,22.3200220000 114.1652330000,22.3200960000 114.1656100000,22.3201580000 114.1656460000,22.3201660000 114.1657600000,22.3201830000 114.1659070000,22.3202160000 114.1659160000,22.3202170000 114.1659660000,22.3202600000 114.1659910000,22.3202650000 114.1660560000,22.3202780000 114.1661350000,22.3203340000 114.1662940000,22.3203590000 114.1663720000,22.3204170000 114.1665080000,22.3204400000 114.1665580000,22.3204480000 114.1666080000,22.3204570000 114.1668750000,22.3205060000 114.1672110000,22.3205680000 114.1672540000,22.3205760000 114.1673590000,22.3205500000 114.1676930000,22.3206100000 114.1677170000,22.3206140000 114.1677920000,22.3206260000 114.1679060000,22.3206450000 114.1680890000,22.3206760000 114.1682360000,22.3207000000 114.1683060000,22.3207120000 114.1683320000,22.3207160000 114.1684150000,22.3207300000 114.1684760000,22.3207390000 114.1686900000,22.3207710000 114.1688560000,22.3207970000 114.1688960000,22.3208030000 114.1690010000,22.3208190000 114.1691070000,22.3208330000 114.1691930000,22.3208490000 114.1692930000,22.3208660000 114.1695650000,22.3209200000 114.1696760000,22.3208810000 114.1696830000,22.3208300000 114.1697330000,22.3205770000 114.1697400000,22.3205420000 114.1697600000,22.3204450000 114.1697660000,22.3204200000 114.1697770000,22.3203660000 114.1697900000,22.3203090000 114.1698130000,22.3202010000 114.1698380000,22.3200790000 114.1698490000,22.3200310000 114.1698510000,22.3200180000 114.1698810000,22.3198770000 114.1699010000,22.3197840000 114.1699180000,22.3197020000 114.1699510000,22.3196460000 114.1699680000,22.3195820000 114.1699770000,22.3195490000 114.1700030000,22.3195240000 114.1700350000,22.3195080000 114.1700710000,22.3195020000 114.1701000000,22.3195070000 114.1705470000,22.3195840000 114.1707690000,22.3196290000 114.1708690000,22.3196490000 114.1708950000,22.3196540000 114.1709810000,22.3196700000 114.1710810000,22.3196890000 114.1713170000,22.3197350000 114.1714280000,22.3197560000 114.1714900000,22.3197670000 114.1715990000,22.3197880000 114.1716880000,22.3198050000 114.1723150000,22.3199280000 114.1724730000,22.3199590000 114.1725920000,22.3199820000 114.1726740000,22.3199920000 114.1732990000,22.3200840000 114.1736340000,22.3201460000 114.1737730000,22.3201700000 114.1737960000,22.3201740000 114.1738780000,22.3201890000 114.1740500000,22.3202220000 114.1742060000,22.3202510000 114.1744300000,22.3202940000 114.1746660000,22.3203390000 114.1746920000,22.3203440000 114.1752490000,22.3204490000 114.1755350000,22.3204690000 114.1758450000,22.3205500000 114.1767440000,22.3208990000 114.1770230000,22.3210170000 114.1773110000,22.3211530000 114.1775310000,22.3212680000 114.1781180000,22.3215580000 114.1783690000,22.3216800000 114.1792790000,22.3220890000 114.1802220000,22.3225230000 114.1805470000,22.3226810000 114.1806120000,22.3227110000 114.1814350000,22.3230860000 114.1814730000,22.3231040000 114.1828410000,22.3237190000 114.1828490000,22.3237230000 114.1831400000,22.3238500000 114.1834250000,22.3239770000 114.1835590000,22.3240400000 114.1836700000,22.3240910000 114.1838870000,22.3242090000 114.1843340000,22.3244210000 114.1848650000,22.3246550000 114.1852570000,22.3248310000 114.1854710000,22.3249280000 114.1855090000,22.3249450000 114.1856430000,22.3250130000 114.1857740000,22.3250880000 114.1859310000,22.3251820000 114.1861450000,22.3253030000 114.1867510000,22.3256670000 114.1868280000,22.3257130000 114.1869240000,22.3257690000 114.1869610000,22.3257910000 114.1870380000,22.3258360000 114.1871470000,22.3259010000 114.1871850000,22.3259230000 114.1872550000,22.3259640000 114.1874720000,22.3260910000 114.1875920000,22.3261590000 114.1876840000,22.3262100000 114.1877900000,22.3262750000 114.1880320000,22.3264230000 114.1881260000,22.3264590000 114.1882020000,22.3264900000 114.1882910000,22.3265270000 114.1884310000,22.3265840000 114.1889430000,22.3268710000 114.1890660000,22.3269280000 114.1892870000,22.3270440000 114.1895120000,22.3271520000 114.1897400000,22.3272550000 114.1899720000,22.3273500000 114.1902070000,22.3274390000 114.1904120000,22.3275210000 114.1910460000,22.3277760000 114.1911340000,22.3278500000 114.1913320000,22.3279760000 114.1914050000,22.3280230000 114.1914510000,22.3280790000 114.1915210000,22.3281600000 114.1915650000,22.3281990000 114.1916460000,22.3282680000 114.1917150000,22.3283260000 114.1918480000,22.3284390000 114.1919310000,22.3285090000 114.1920190000,22.3285830000 114.1920990000,22.3286510000 114.1921880000,22.3287260000 114.1922850000,22.3288080000 114.1923800000,22.3288890000 114.1924150000,22.3289200000 114.1924910000,22.3289940000 114.1925510000,22.3290440000 114.1926090000,22.3290970000 114.1926460000,22.3291330000 114.1928810000,22.3293500000 114.1929100000,22.3293780000 114.1942640000,22.3306620000 114.1954070000,22.3318070000 114.1955660000,22.3319550000 114.1957650000,22.3321480000 114.1958990000,22.3322740000 114.1961310000,22.3324900000 114.1962140000,22.3325700000 114.1962650000,22.3326140000 114.1963820000,22.3327060000 114.1964180000,22.3327340000 114.1964650000,22.3327710000 114.1965590000,22.3328410000 114.1967160000,22.3329580000 114.1967900000,22.3330080000 114.1968410000,22.3330430000 114.1969560000,22.3331280000 114.1969620000,22.3331320000 114.1970030000,22.3331580000 114.1970440000,22.3331860000 114.1970850000,22.3332100000 114.1972760000,22.3333240000 114.1974910000,22.3334590000 114.1977180000,22.3335940000 114.1978060000,22.3336170000 114.1978910000,22.3336600000 114.1979900000,22.3336940000 114.1981260000,22.3337410000 114.1981850000,22.3337610000 114.1986910000,22.3339330000 114.1988950000,22.3340100000 114.1991540000,22.3341020000 114.1992640000,22.3341410000 114.1993280000,22.3341650000 114.1994550000,22.3342120000 114.1998680000,22.3343640000 114.2000180000,22.3344280000 114.2002080000,22.3345080000 114.2005340000,22.3346320000 114.2007040000,22.3346980000 114.2009530000,22.3347760000 114.2011370000,22.3348340000 114.2013210000,22.3349070000 114.2016770000,22.3350390000 114.2019720000,22.3351490000 114.2021230000,22.3352120000 114.2023480000,22.3352960000 114.2023910000,22.3353060000 114.2024360000,22.3353170000 114.2025230000,22.3353340000 114.2026170000,22.3353530000 114.2027740000,22.3353770000 114.2029200000,22.3353860000 114.2030780000,22.3353910000 114.2031400000,22.3353910000 114.2031950000,22.3353880000 114.2033130000,22.3353850000 114.2035570000,22.3353730000 114.2037150000,22.3353530000 114.2038460000,22.3353320000 114.2039990000,22.3352990000 114.2041520000,22.3352580000 114.2042290000,22.3352370000 114.2043690000,22.3351950000 114.2044020000,22.3351800000 114.2044850000,22.3351440000 114.2045710000,22.3351080000 114.2046630000,22.3350520000 114.2048500000,22.3349380000 114.2050340000,22.3348040000 114.2052230000,22.3346590000 114.2053560000,22.3345560000 114.2054330000,22.3344970000 114.2055420000,22.3344110000 114.2059740000,22.3340710000 114.2061260000,22.3339500000 114.2063700000,22.3337660000 114.2065510000,22.3336300000 114.2065940000,22.3335990000 114.2066380000,22.3335660000 114.2066570000,22.3335520000 114.2067710000,22.3334680000 114.2068630000,22.3334290000 114.2069050000,22.3334120000 114.2069600000,22.3333920000 114.2069950000,22.3333810000 114.2070620000,22.3333600000 114.2071010000,22.3333550000 114.2071440000,22.3333550000 114.2072150000,22.3333610000 114.2072870000,22.3333740000 114.2073310000,22.3333870000 114.2073900000,22.3334110000 114.2074460000,22.3334390000 114.2074850000,22.3334660000 114.2075340000,22.3335060000 114.2075840000,22.3335520000 114.2076270000,22.3335960000 114.2077610000,22.3337660000 114.2078320000,22.3338530000 114.2078940000,22.3339400000 114.2079370000,22.3340260000 114.2079670000,22.3341100000 114.2079780000,22.3341630000 114.2079950000,22.3342350000 114.2080000000,22.3343360000 114.2080050000,22.3344320000 114.2080430000,22.3344710000 114.2080680000,22.3344900000 114.2080940000,22.3345080000 114.2081480000,22.3345410000 114.2082180000,22.3345650000 114.2082420000,22.3345680000 114.2082580000,22.3345690000 114.2082730000,22.3345680000 114.2082970000,22.3345650000 114.2083240000,22.3345580000 114.2083500000,22.3345380000 114.2083940000,22.3345030000 114.2084160000,22.3344870000 114.2086020000,22.3343400000 114.2086830000,22.3342710000 114.2087260000,22.3342360000 114.2087620000,22.3342120000 114.2088030000,22.3341930000 114.2088510000,22.3341790000 114.2089090000,22.3341670000 114.2090480000,22.3341590000 114.2091240000,22.3341650000 114.2091910000,22.3341720000 114.2093750000,22.3342290000 114.2097000000,22.3342980000 114.2099930000,22.3343570000 114.2103020000,22.3344120000 114.2105890000,22.3344660000 114.2106840000,22.3344810000 114.2107910000,22.3344900000 114.2108900000,22.3344910000 114.2109970000,22.3344830000 114.2111550000,22.3344620000 114.2112220000,22.3344510000 114.2113490000,22.3344190000 114.2115010000,22.3343730000 114.2116950000,22.3342990000 114.2118800000,22.3342110000 114.2119940000,22.3341360000 114.2120530000,22.3340810000 114.2121990000,22.3339200000 114.2123980000,22.3336670000 114.2125230000,22.3335320000 114.2126150000,22.3335980000 114.2126360000,22.3336150000 114.2126550000,22.3336300000 114.2127420000,22.3336820000 114.2128170000,22.3337170000 114.2129110000,22.3337430000 114.2130000000,22.3337600000 114.2130530000,22.3337650000 114.2131190000,22.3337650000 114.2131850000,22.3337540000 114.2132990000,22.3337180000 114.2134680000,22.3336540000 114.2136130000,22.3335930000 114.2137520000,22.3335420000 114.2138670000,22.3335060000 114.2140340000,22.3334750000 114.2142200000,22.3334740000 114.2144250000,22.3334870000 114.2145920000,22.3335170000 114.2147300000,22.3335420000 114.2150780000,22.3336040000 114.2152540000,22.3336350000 114.2153410000,22.3336460000 114.2155070000,22.3337000000 114.2156700000,22.3337540000 114.2157880000,22.3338020000 114.2158670000,22.3339390000 114.2158790000,22.3339840000 114.2158840000,22.3340130000 114.2158780000,22.3340470000 114.2158690000,22.3340830000 114.2158250000,22.3341690000 114.2156660000,22.3342550000 114.2152460000,22.3344860000 114.2152120000,22.3345140000 114.2153070000,22.3346600000 114.2153710000,22.3347580000 114.2154780000,22.3348430000 114.2156010000,22.3349110000 114.2162080000,22.3349650000 114.2165040000,22.3349730000 114.2168710000,22.3349630000 114.2171860000,22.3349500000 114.2175190000,22.3349370000 114.2177650000,22.3349310000 114.2178320000,22.3349260000 114.2179390000,22.3349080000 114.2180180000,22.3348940000 114.2180990000,22.3348420000 114.2181420000,22.3348150000 114.2182050000,22.3347550000 114.2182520000,22.3346700000 114.2182890000,22.3345800000 114.2182870000,22.3345270000 114.2181940000,22.3342770000 114.2181790000,22.3341740000 114.2181740000,22.3339760000 114.2181670000,22.3339290000 114.2181450000,22.3338600000 114.2182170000,22.3338310000 114.2182370000,22.3338250000 114.2184620000,22.3337510000 114.2186390000,22.3337260000 114.2188060000,22.3337160000 114.2192760000,22.3337490000 114.2196830000,22.3337780000 114.2207350000,22.3338480000 114.2207720000,22.3338500000 114.2208340000,22.3338540000 114.2210910000,22.3338760000 114.2212070000,22.3338830000 114.2212640000,22.3338870000 114.2213630000,22.3338950000 114.2214970000,22.3339030000 114.2215860000,22.3339090000 114.2217870000,22.3339260000 114.2218510000,22.3339380000 114.2224460000,22.3340870000 114.2226090000,22.3341230000 114.2234800000,22.3343810000 114.2237620000,22.3344580000 114.2239130000,22.3344910000 114.2239930000,22.3344960000 114.2240490000,22.3344940000 114.2241320000,22.3344880000 114.2242620000,22.3344420000 114.2243380000,22.3344060000 114.2243960000,22.3343770000 114.2244750000,22.3343300000 114.2245790000,22.3342610000 114.2246900000,22.3342090000 114.2248060000,22.3341700000 114.2248870000,22.3341920000 114.2249170000,22.3341870000 114.2249300000,22.3341850000 114.2249760000,22.3341780000 114.2250160000,22.3341760000 114.2250770000,22.3341770000 114.2251250000,22.3341760000 114.2251670000,22.3341570000 114.2252440000,22.3341650000 114.2252890000,22.3341690000 114.2257710000,22.3342170000 114.2260480000,22.3343320000 114.2262680000,22.3344270000 114.2263490000,22.3344610000 114.2265340000,22.3345130000 114.2266840000,22.3345220000 114.2267930000,22.3345280000 114.2268720000,22.3345280000 114.2269510000,22.3345240000 114.2269760000,22.3345230000 114.2269970000,22.3345210000 114.2270140000,22.3345170000 114.2270340000,22.3345100000 114.2270530000,22.3345010000 114.2270710000,22.3344890000 114.2271030000,22.3344670000 114.2271830000,22.3344340000 114.2272050000,22.3344130000 114.2272280000,22.3343880000 114.2272680000,22.3343370000 114.2275750000,22.3343730000 114.2276950000,22.3343720000 114.2278070000,22.3343710000 114.2279480000,22.3343690000 114.2280470000,22.3343690000 114.2281550000,22.3343380000 114.2282410000,22.3343160000 114.2283290000,22.3343160000 114.2283750000,22.3343100000 114.2284040000,22.3342940000 114.2284340000,22.3342630000 114.2284380000,22.3342300000 114.2284400000,22.3341210000 114.2284420000,22.3340670000 114.2284460000,22.3337100000 114.2284800000,22.3332480000 114.2284830000,22.3331840000 114.2284950000,22.3330350000 114.2285000000,22.3329620000 114.2285120000,22.3328830000 114.2285340000,22.3328050000 114.2286050000,22.3326160000 114.2286520000,22.3325140000 114.2287110000,22.3324010000 114.2287750000,22.3322700000 114.2287930000,22.3321850000 114.2288120000,22.3321010000 114.2288170000,22.3320400000 114.2288200000,22.3319940000 114.2288200000,22.3319460000 114.2288190000,22.3319030000 114.2288170000,22.3318570000 114.2288120000,22.3318140000 114.2288050000,22.3317660000 114.2287940000,22.3317110000 114.2287770000,22.3316500000 114.2287510000,22.3315810000 114.2287090000,22.3314850000 114.2286640000,22.3314040000 114.2284420000,22.3310470000 114.2283980000,22.3309650000 114.2283730000,22.3309090000 114.2283490000,22.3308490000 114.2283320000,22.3308000000 114.2283080000,22.3307030000 114.2282960000,22.3306420000 114.2282890000,22.3305830000 114.2282860000,22.3305250000 114.2282860000,22.3304660000 114.2282890000,22.3304100000 114.2282940000,22.3303560000 114.2283050000,22.3302970000 114.2283160000,22.3302430000 114.2283320000,22.3301880000 114.2283520000,22.3301270000 114.2283780000,22.3300620000 114.2284090000,22.3299990000 114.2284560000,22.3299150000 114.2285060000,22.3298450000 114.2285630000,22.3297730000 114.2286330000,22.3297020000 114.2287100000,22.3296360000 114.2287810000,22.3295820000 114.2288500000,22.3295340000 114.2290220000,22.3294170000 114.2291430000,22.3293330000 114.2292880000,22.3292220000 114.2293930000,22.3291340000 114.2296130000,22.3289310000 114.2296930000,22.3288480000 114.2297620000,22.3287730000 114.2299520000,22.3285490000 114.2300480000,22.3284210000 114.2301300000,22.3283000000 114.2302070000,22.3281780000 114.2302750000,22.3280620000 114.2303250000,22.3279840000 114.2303670000,22.3279260000 114.2303840000,22.3279080000 114.2304040000,22.3278880000 114.2304570000,22.3278350000 114.2304920000,22.3278190000 114.2305210000,22.3277970000 114.2305440000,22.3277680000 114.2305580000,22.3277350000 114.2305630000,22.3277000000 114.2305590000,22.3276640000 114.2305460000,22.3276310000 114.2305500000,22.3275390000 114.2305540000,22.3274900000 114.2305590000,22.3274290000 114.2305700000,22.3273780000 114.2306150000,22.3272230000 114.2306690000,22.3270190000 114.2306950000,22.3268400000 114.2307050000,22.3266980000 114.2307090000,22.3265730000 114.2307110000,22.3264690000 114.2307120000,22.3264240000 114.2307130000,22.3263560000 114.2307160000,22.3262060000 114.2308350000,22.3262040000 114.2308600000,22.3262020000 114.2310850000,22.3262040000 114.2311440000,22.3261950000 114.2312020000,22.3261780000 114.2312570000,22.3261550000 114.2313080000,22.3261250000 114.2313570000,22.3260860000 114.2314000000,22.3260410000 114.2314350000,22.3259900000 114.2315100000,22.3257970000 114.2318840000,22.3249260000 114.2321940000,22.3240970000 114.2324800000,22.3235990000 114.2325270000,22.3235180000 114.2325810000,22.3234420000 114.2326410000,22.3233710000 114.2327260000,22.3232790000 114.2333410000,22.3228730000 114.2335240000,22.3227460000 114.2336290000,22.3227340000 114.2336730000,22.3227280000 114.2336990000,22.3227240000 114.2337470000,22.3227180000 114.2337900000,22.3227360000 114.2338370000,22.3227410000 114.2338840000,22.3227310000 114.2339350000,22.3227540000 114.2339630000,22.3227660000 114.2339960000,22.3227800000 114.2340720000,22.3227970000 114.2344040000,22.3230140000 114.2345730000,22.3231250000 114.2347420000,22.3232380000 114.2347930000,22.3232710000 114.2348370000,22.3233000000 114.2348690000,22.3233210000 114.2349160000,22.3233510000 114.2351940000,22.3235330000 114.2356470000,22.3238220000 114.2358840000,22.3239740000 114.2359320000,22.3240470000 114.2359630000,22.3240690000 114.2359950000,22.3240900000 114.2360590000,22.3241330000 114.2360260000,22.3241850000 114.2359950000,22.3242380000 114.2359780000,22.3242700000 114.2359620000,22.3243110000 114.2359690000,22.3243850000 114.2359320000,22.3244870000 114.2359050000,22.3245920000 114.2358870000,22.3246950000 114.2357570000,22.3256510000 114.2357230000,22.3259910000 114.2356590000,22.3263280000 114.2355640000,22.3266580000 114.2354400000,22.3269800000 114.2352710000,22.3273250000 114.2351060000,22.3275890000 114.2350870000,22.3276140000 114.2348990000,22.3278720000 114.2346670000,22.3281380000 114.2343450000,22.3284620000 114.2342500000,22.3285570000 114.2341350000,22.3284670000 114.2334380000,22.3279170000 114.2341350000,22.3284670000 114.2342500000,22.3285570000 114.2343450000,22.3284620000 114.2346670000,22.3281380000 114.2348990000,22.3278720000 114.2351060000,22.3275890000 114.2352710000,22.3273250000 114.2354400000,22.3269800000 114.2355640000,22.3266580000 114.2356590000,22.3263280000 114.2357230000,22.3259910000 114.2357570000,22.3256510000 114.2358870000,22.3246950000 114.2359050000,22.3245920000 114.2359320000,22.3244870000 114.2359690000,22.3243850000 114.2360310000,22.3243360000 114.2360530000,22.3243030000 114.2360700000,22.3242710000 114.2360970000,22.3242240000 114.2361260000,22.3241780000 114.2361690000,22.3241180000 114.2361360000,22.3240960000 114.2361020000,22.3240730000 114.2360400000,22.3240310000 114.2360090000,22.3240100000 114.2359770000,22.3239890000 114.2358840000,22.3239740000 114.2356470000,22.3238220000 114.2351940000,22.3235330000 114.2349160000,22.3233510000 114.2348690000,22.3233210000 114.2348370000,22.3233000000 114.2347930000,22.3232710000 114.2347420000,22.3232380000 114.2345730000,22.3231250000 114.2344040000,22.3230140000 114.2340720000,22.3227970000 114.2340460000,22.3227290000 114.2340250000,22.3227000000 114.2340060000,22.3226730000 114.2339720000,22.3226300000 114.2339720000,22.3225850000 114.2339560000,22.3225440000 114.2339270000,22.3225090000 114.2338880000,22.3224850000 114.2338420000,22.3224740000 114.2337950000,22.3224770000 114.2337510000,22.3224950000 114.2337160000,22.3225240000 114.2336930000,22.3225620000 114.2336440000,22.3226170000 114.2336160000,22.3226480000 114.2335950000,22.3226720000 114.2335240000,22.3227460000 114.2333410000,22.3228730000 114.2327260000,22.3232790000 114.2326410000,22.3233710000 114.2325810000,22.3234420000 114.2325270000,22.3235180000 114.2324800000,22.3235990000 114.2321940000,22.3240970000 114.2318840000,22.3249260000 114.2315100000,22.3257970000 114.2314350000,22.3259900000 114.2314000000,22.3260410000 114.2313570000,22.3260860000 114.2313080000,22.3261250000 114.2312570000,22.3261550000 114.2312020000,22.3261780000 114.2311440000,22.3261950000 114.2310850000,22.3262040000 114.2308600000,22.3262020000 114.2308350000,22.3262040000 114.2307160000,22.3262060000 114.2306270000,22.3262110000 114.2306220000,22.3263620000 114.2306240000,22.3264270000 114.2306250000,22.3264660000 114.2306260000,22.3264970000 114.2306240000,22.3265780000 114.2306160000,22.3266940000 114.2306030000,22.3268420000 114.2305790000,22.3270050000 114.2305320000,22.3272120000 114.2304890000,22.3273540000 114.2304610000,22.3274100000 114.2304430000,22.3274460000 114.2304140000,22.3275020000 114.2303740000,22.3275560000 114.2303400000,22.3275670000 114.2303090000,22.3275850000 114.2302830000,22.3276090000 114.2302650000,22.3276380000 114.2302540000,22.3276670000 114.2302510000,22.3276980000 114.2302540000,22.3277290000 114.2302650000,22.3277590000 114.2302590000,22.3278240000 114.2302540000,22.3278590000 114.2302440000,22.3278990000 114.2302250000,22.3279600000 114.2301970000,22.3280220000 114.2301640000,22.3280860000 114.2301280000,22.3281460000 114.2300540000,22.3282610000 114.2299290000,22.3284380000 114.2297020000,22.3287150000 114.2295860000,22.3288430000 114.2294800000,22.3289460000 114.2293640000,22.3290510000 114.2292640000,22.3291350000 114.2290920000,22.3292730000 114.2289180000,22.3293940000 114.2288030000,22.3294720000 114.2286880000,22.3295560000 114.2286090000,22.3296190000 114.2285710000,22.3296540000 114.2285340000,22.3296930000 114.2284960000,22.3297400000 114.2284560000,22.3297920000 114.2284170000,22.3298460000 114.2283880000,22.3298910000 114.2283510000,22.3299580000 114.2283170000,22.3300370000 114.2282900000,22.3301060000 114.2282640000,22.3301830000 114.2282440000,22.3302670000 114.2282330000,22.3303380000 114.2282270000,22.3303910000 114.2282220000,22.3304630000 114.2282230000,22.3305640000 114.2282310000,22.3306600000 114.2282420000,22.3307420000 114.2282590000,22.3308240000 114.2282880000,22.3309110000 114.2283070000,22.3309590000 114.2283290000,22.3310090000 114.2283510000,22.3310560000 114.2283750000,22.3310990000 114.2284060000,22.3311500000 114.2284350000,22.3311970000 114.2284630000,22.3312440000 114.2284900000,22.3312890000 114.2285180000,22.3313390000 114.2285440000,22.3313830000 114.2285710000,22.3314320000 114.2285970000,22.3314790000 114.2286240000,22.3315260000 114.2286500000,22.3315770000 114.2286710000,22.3316240000 114.2286880000,22.3316760000 114.2287000000,22.3317260000 114.2287100000,22.3317800000 114.2287190000,22.3318350000 114.2287240000,22.3318850000 114.2287250000,22.3319320000 114.2287240000,22.3319780000 114.2287200000,22.3320340000 114.2287100000,22.3320890000 114.2286950000,22.3321700000 114.2286820000,22.3322400000 114.2286240000,22.3323670000 114.2285640000,22.3324750000 114.2284990000,22.3325850000 114.2284280000,22.3327850000 114.2284030000,22.3328660000 114.2283900000,22.3329500000 114.2283820000,22.3330320000 114.2283710000,22.3331780000 114.2283670000,22.3332510000 114.2283480000,22.3337090000 114.2283370000,22.3339070000 114.2283320000,22.3339710000 114.2282490000,22.3340920000 114.2282230000,22.3341220000 114.2282060000,22.3341420000 114.2281310000,22.3341940000 114.2280750000,22.3342400000 114.2277940000,22.3342420000 114.2276810000,22.3342430000 114.2275880000,22.3342410000 114.2274470000,22.3342370000 114.2273070000,22.3342530000 114.2272540000,22.3342680000 114.2271550000,22.3343140000 114.2271210000,22.3343710000 114.2271140000,22.3343850000 114.2271070000,22.3343990000 114.2271030000,22.3344670000 114.2270710000,22.3344890000 114.2270530000,22.3345010000 114.2270340000,22.3345100000 114.2270140000,22.3345170000 114.2269970000,22.3345210000 114.2269760000,22.3345230000 114.2269510000,22.3345240000 114.2268390000,22.3344910000 114.2266300000,22.3343890000 114.2264630000,22.3343140000 114.2264060000,22.3342910000 114.2263740000,22.3342800000 114.2263350000,22.3342690000 114.2262910000,22.3342590000 114.2257710000,22.3342170000 114.2252890000,22.3341690000 114.2252440000,22.3341650000 114.2251670000,22.3341570000 114.2251250000,22.3341370000 114.2251100000,22.3341330000 114.2250640000,22.3341280000 114.2250120000,22.3341230000 114.2249720000,22.3341230000 114.2249280000,22.3341240000 114.2249170000,22.3341260000 114.2248840000,22.3341290000 114.2248060000,22.3341700000 114.2246900000,22.3342090000 114.2245790000,22.3342610000 114.2244750000,22.3343300000 114.2243960000,22.3343770000 114.2243380000,22.3344060000 114.2242620000,22.3344420000 114.2241320000,22.3344880000 114.2240490000,22.3344940000 114.2239930000,22.3344960000 114.2239130000,22.3344910000 114.2237620000,22.3344580000 114.2234800000,22.3343810000 114.2226090000,22.3341230000 114.2224460000,22.3340870000 114.2218510000,22.3339380000 114.2217870000,22.3339260000 114.2215860000,22.3339090000 114.2214970000,22.3339030000 114.2213630000,22.3338950000 114.2212640000,22.3338870000 114.2212070000,22.3338830000 114.2210910000,22.3338760000 114.2208340000,22.3338540000 114.2207720000,22.3338500000 114.2207350000,22.3338480000 114.2196830000,22.3337780000 114.2192760000,22.3337490000 114.2188060000,22.3337160000 114.2186390000,22.3337260000 114.2184620000,22.3337510000 114.2182370000,22.3338250000 114.2182170000,22.3338310000 114.2181450000,22.3338600000 114.2180180000,22.3339350000 114.2179590000,22.3339670000 114.2177640000,22.3341050000 114.2176050000,22.3342170000 114.2174840000,22.3342770000 114.2173080000,22.3343340000 114.2170840000,22.3343890000 114.2168050000,22.3344410000 114.2166530000,22.3344440000 114.2164920000,22.3344010000 114.2163890000,22.3343370000 114.2163010000,22.3342620000 114.2161270000,22.3340920000 114.2160690000,22.3340350000 114.2159710000,22.3339410000 114.2159150000,22.3338880000 114.2157880000,22.3338020000 114.2156700000,22.3337540000 114.2155070000,22.3337000000 114.2153410000,22.3336460000 114.2152540000,22.3336350000 114.2150780000,22.3336040000 114.2147300000,22.3335420000 114.2145920000,22.3335170000 114.2144250000,22.3334870000 114.2142200000,22.3334740000 114.2140340000,22.3334750000 114.2138670000,22.3335060000 114.2137520000,22.3335420000 114.2136130000,22.3335930000 114.2134680000,22.3336540000 114.2132990000,22.3337180000 114.2131850000,22.3337540000 114.2131190000,22.3337650000 114.2130530000,22.3337650000 114.2130000000,22.3337600000 114.2129110000,22.3337430000 114.2128170000,22.3337170000 114.2127420000,22.3336820000 114.2126550000,22.3336300000 114.2126360000,22.3336150000 114.2126150000,22.3335980000 114.2125230000,22.3335320000 114.2129630000,22.3329650000 114.2130680000,22.3328510000 114.2131870000,22.3327420000 114.2133110000,22.3326480000 114.2134220000,22.3325730000 114.2135330000,22.3325040000 114.2136590000,22.3324520000 114.2139280000,22.3323870000 114.2140300000,22.3323740000 114.2140740000,22.3323680000 114.2142170000,22.3323670000 114.2143550000,22.3323650000 114.2143700000,22.3323650000 114.2144810000,22.3322210000 114.2145410000,22.3320830000 114.2145650000,22.3320300000 114.2147750000,22.3315390000 114.2148330000,22.3314070000 114.2146340000,22.3313540000 114.2144370000,22.3313040000 114.2142370000,22.3312630000 114.2140310000,22.3312310000 114.2139250000,22.3312190000 114.2138230000,22.3312080000 114.2136140000,22.3311960000 114.2133520000,22.3312110000 114.2132360000,22.3312170000 114.2128080000,22.3312410000 114.2128070000,22.3311940000 114.2128070000,22.3311170000 114.2128040000,22.3310980000 114.2128010000,22.3310810000 114.2127880000,22.3310460000 114.2127680000,22.3310140000 114.2127420000,22.3309870000 114.2127100000,22.3309650000 114.2126740000,22.3309490000 114.2122940000,22.3308020000 114.2120450000,22.3307140000 114.2119480000,22.3306700000 114.2118690000,22.3305980000 114.2118040000,22.3305150000 114.2117650000,22.3304210000 114.2117450000,22.3303240000 114.2117470000,22.3302420000 114.2117520000,22.3302050000 114.2117650000,22.3301630000 114.2117960000,22.3300870000 114.2118330000,22.3300210000 114.2118780000,22.3299620000 114.2119480000,22.3299100000 114.2120960000,22.3298310000 114.2121680000,22.3297880000 114.2121100000,22.3296640000 114.2120720000,22.3295740000 114.2120690000,22.3295570000 114.2120680000,22.3295400000 114.2120690000,22.3295220000 114.2120730000,22.3294980000 114.2120810000,22.3294690000 114.2120940000,22.3294430000 114.2121230000,22.3293990000 114.2121460000,22.3293700000 114.2121810000,22.3293400000 114.2122200000,22.3293150000 114.2125600000,22.3291660000 114.2129710000,22.3289930000 114.2130710000,22.3289580000 114.2131240000,22.3289450000 114.2131890000,22.3289330000 114.2132860000,22.3289170000 114.2134210000,22.3288940000 114.2134560000,22.3288800000 114.2134860000,22.3288610000 114.2135150000,22.3288340000 114.2135400000,22.3288060000 114.2135690000,22.3287580000 114.2135600000,22.3286720000 114.2135510000,22.3286250000 114.2135330000,22.3285890000 114.2134860000,22.3285300000 114.2134250000,22.3284560000 114.2133660000,22.3284980000 114.2132270000,22.3286060000 114.2131130000,22.3286800000 114.2130830000,22.3286970000 114.2130070000,22.3287420000 114.2128970000,22.3287950000 114.2127900000,22.3288370000 114.2127110000,22.3288610000 114.2126060000,22.3288860000 114.2125290000,22.3288990000 114.2124420000,22.3289080000 114.2123020000,22.3289130000 114.2117810000,22.3289250000 114.2116950000,22.3289380000 114.2115960000,22.3289700000 114.2115240000,22.3290090000 114.2113760000,22.3291080000 114.2111650000,22.3292780000 114.2109200000,22.3295020000 114.2108270000,22.3296060000 114.2107730000,22.3296900000 114.2107160000,22.3297990000 114.2102920000,22.3302080000 114.2101630000,22.3303200000 114.2101430000,22.3303570000 114.2101060000,22.3304280000 114.2100020000,22.3305170000 114.2099570000,22.3305570000 114.2098360000,22.3306550000 114.2096500000,22.3307950000 114.2095690000,22.3308540000 114.2094000000,22.3309520000 114.2093640000,22.3309740000 114.2093180000,22.3310020000 114.2091910000,22.3310790000 114.2088910000,22.3313180000 114.2086380000,22.3314940000 114.2084350000,22.3316350000 114.2083550000,22.3316930000 114.2082460000,22.3317760000 114.2080320000,22.3319370000 114.2076570000,22.3321810000 114.2074600000,22.3323030000 114.2074020000,22.3323440000 114.2071030000,22.3325640000 114.2070240000,22.3326310000 114.2069780000,22.3326700000 114.2069130000,22.3327250000 114.2061870000,22.3333260000 114.2061290000,22.3333740000 114.2060530000,22.3334470000 114.2059330000,22.3335640000 114.2057790000,22.3337130000 114.2055060000,22.3339760000 114.2053330000,22.3341520000 114.2052060000,22.3342850000 114.2051570000,22.3343310000 114.2051210000,22.3343650000 114.2050450000,22.3344350000 114.2048890000,22.3345750000 114.2047290000,22.3346990000 114.2046620000,22.3347390000 114.2045950000,22.3347810000 114.2045260000,22.3348230000 114.2044590000,22.3348640000 114.2043870000,22.3349080000 114.2043030000,22.3349520000 114.2042690000,22.3349700000 114.2041350000,22.3350290000 114.2040840000,22.3350470000 114.2039300000,22.3351000000 114.2038130000,22.3351400000 114.2036690000,22.3351720000 114.2034800000,22.3352090000 114.2032930000,22.3352270000 114.2031800000,22.3352340000 114.2031350000,22.3352330000 114.2030850000,22.3352320000 114.2028130000,22.3352210000 114.2026490000,22.3351990000 114.2025490000,22.3351780000 114.2024920000,22.3351660000 114.2024340000,22.3351540000 114.2023890000,22.3351440000 114.2022590000,22.3351000000 114.2021770000,22.3350730000 114.2020210000,22.3350220000 114.2019130000,22.3349860000 114.2017220000,22.3349160000 114.2016470000,22.3348880000 114.2011550000,22.3347070000 114.2010510000,22.3346660000 114.2007670000,22.3345580000 114.2006990000,22.3345310000 114.2006550000,22.3345000000 114.2004480000,22.3344210000 114.2002500000,22.3343640000 114.2002080000,22.3343480000 114.2000860000,22.3343020000 114.1996580000,22.3341420000 114.1995880000,22.3341080000 114.1994840000,22.3340610000 114.1990200000,22.3338940000 114.1985170000,22.3337140000 114.1983950000,22.3336800000 114.1982790000,22.3336390000 114.1981620000,22.3335940000 114.1980650000,22.3335480000 114.1979820000,22.3335070000 114.1978350000,22.3333870000 114.1977400000,22.3333060000 114.1977130000,22.3332810000 114.1976850000,22.3332540000 114.1976030000,22.3331780000 114.1975420000,22.3331140000 114.1974980000,22.3330640000 114.1974340000,22.3329850000 114.1973780000,22.3329060000 114.1970300000,22.3323440000 114.1969810000,22.3322760000 114.1969250000,22.3322150000 114.1968410000,22.3321460000 114.1967470000,22.3320920000 114.1965880000,22.3320380000 114.1961480000,22.3319140000 114.1959780000,22.3318570000 114.1957720000,22.3317670000 114.1956350000,22.3316390000 114.1925430000,22.3286200000 114.1918840000,22.3280990000 114.1918150000,22.3280800000 114.1917280000,22.3280510000 114.1914630000,22.3279270000 114.1911540000,22.3278120000 114.1910460000,22.3277760000 114.1902070000,22.3274390000 114.1899720000,22.3273500000 114.1897400000,22.3272550000 114.1895980000,22.3271910000 114.1895120000,22.3271520000 114.1892870000,22.3270440000 114.1890660000,22.3269280000 114.1889430000,22.3268710000 114.1884310000,22.3265840000 114.1883250000,22.3265000000 114.1882300000,22.3264390000 114.1881760000,22.3263960000 114.1881050000,22.3263400000 114.1880370000,22.3262860000 114.1878530000,22.3261790000 114.1877470000,22.3261180000 114.1876470000,22.3260600000 114.1875270000,22.3259900000 114.1873200000,22.3258710000 114.1872380000,22.3258230000 114.1872100000,22.3258070000 114.1870950000,22.3257400000 114.1870200000,22.3256960000 114.1869820000,22.3256750000 114.1868790000,22.3256140000 114.1858660000,22.3250030000 114.1858250000,22.3249790000 114.1856710000,22.3248940000 114.1856170000,22.3248670000 114.1855990000,22.3248580000 114.1855560000,22.3248380000 114.1853300000,22.3247310000 114.1853160000,22.3247240000 114.1853050000,22.3247190000 114.1849810000,22.3245700000 114.1847230000,22.3244510000 114.1846980000,22.3244400000 114.1840630000,22.3241470000 114.1839430000,22.3240920000 114.1839120000,22.3240780000 114.1838670000,22.3240560000 114.1837310000,22.3239890000 114.1828980000,22.3235990000 114.1827120000,22.3235120000 114.1823360000,22.3233350000 114.1820900000,22.3232210000 114.1815900000,22.3229930000 114.1815470000,22.3229730000 114.1814480000,22.3229260000 114.1809750000,22.3227280000 114.1806330000,22.3225870000 114.1802530000,22.3224760000 114.1793020000,22.3220480000 114.1783940000,22.3216360000 114.1781460000,22.3215170000 114.1775490000,22.3212230000 114.1773340000,22.3211060000 114.1770470000,22.3209760000 114.1767540000,22.3208570000 114.1758630000,22.3205070000 114.1755530000,22.3204260000 114.1752450000,22.3203480000 114.1750540000,22.3203090000 114.1748840000,22.3202820000 114.1748270000,22.3202710000 114.1747010000,22.3202460000 114.1746390000,22.3202330000 114.1744050000,22.3201870000 114.1742340000,22.3201530000 114.1740720000,22.3201210000 114.1738950000,22.3200820000 114.1738170000,22.3200660000 114.1737590000,22.3200560000 114.1736200000,22.3200320000 114.1734590000,22.3200050000 114.1732160000,22.3199630000 114.1728530000,22.3199010000 114.1728000000,22.3198900000 114.1727320000,22.3198770000 114.1726230000,22.3198550000 114.1723140000,22.3197940000 114.1722280000,22.3197790000 114.1717560000,22.3197080000 114.1717120000,22.3197000000 114.1716360000,22.3196880000 114.1715140000,22.3196660000 114.1710860000,22.3195900000 114.1709030000,22.3195590000 114.1708930000,22.3195570000 114.1708050000,22.3195410000 114.1707540000,22.3195320000 114.1706820000,22.3195190000 114.1706690000,22.3195160000 114.1705260000,22.3194920000 114.1703930000,22.3194670000 114.1702460000,22.3194430000 114.1702260000,22.3194390000 114.1701140000,22.3194200000 114.1699770000,22.3193950000 114.1699280000,22.3193930000 114.1698850000,22.3193890000 114.1696920000,22.3193570000 114.1695810000,22.3193390000 114.1695360000,22.3193310000 114.1694290000,22.3193120000 114.1693200000,22.3192930000 114.1692430000,22.3192790000 114.1688230000,22.3192090000 114.1687900000,22.3192030000 114.1687660000,22.3191980000 114.1686730000,22.3191850000 114.1685700000,22.3191660000 114.1683980000,22.3191380000 114.1682790000,22.3191210000 114.1682250000,22.3191130000 114.1681820000,22.3191040000 114.1681320000,22.3190940000 114.1680250000,22.3190690000 114.1679760000,22.3190600000 114.1678410000,22.3190360000 114.1677880000,22.3190280000 114.1676800000,22.3190060000 114.1675610000,22.3189840000 114.1671990000,22.3189160000 114.1670290000,22.3188840000 114.1670190000,22.3188830000 114.1669680000,22.3188730000 114.1669500000,22.3188700000 114.1667760000,22.3188370000 114.1665110000,22.3187870000 114.1662740000,22.3187430000 114.1662570000,22.3187410000 114.1662220000,22.3187350000 114.1660610000,22.3187120000 114.1655450000,22.3186950000 114.1653130000,22.3186880000 114.1651780000,22.3186840000 114.1646800000,22.3186630000 114.1643930000,22.3186500000 114.1643170000,22.3186460000 114.1642870000,22.3186450000 114.1641230000,22.3186310000 114.1639600000,22.3186090000 114.1637720000,22.3185630000 114.1636480000,22.3185360000 114.1635180000,22.3184940000 114.1634340000,22.3184590000 114.1633990000,22.3184440000 114.1633210000,22.3184080000 114.1631290000,22.3183110000 114.1630450000,22.3182690000 114.1629550000,22.3181870000 114.1628890000,22.3181590000 114.1628410000,22.3181500000 114.1627870000,22.3181390000 114.1623560000,22.3180450000 114.1620650000,22.3179530000 114.1620150000,22.3179260000 114.1619120000,22.3178690000 114.1617770000,22.3178200000 114.1611740000,22.3176000000 114.1609760000,22.3175350000 114.1609090000,22.3175250000 114.1608490000,22.3175310000 114.1607920000,22.3175640000 114.1607800000,22.3176520000 114.1607860000,22.3177060000 114.1608100000,22.3177500000 114.1608470000,22.3177820000 114.1610060000,22.3178500000 114.1610770000,22.3179390000 114.1611320000,22.3180310000 114.1611880000,22.3181460000 114.1612160000,22.3182470000 114.1611710000,22.3182690000 114.1611490000,22.3182800000 114.1607350000,22.3183960000</coordinates>
                </LineString>
                <ExtendedData>
                    <Data name="duration">
                        <value>00:32:34</value>
                    </Data>
                    <Data name="length">
                        <value>22719.812758890348</value>
                    </Data>
                </ExtendedData>
            </Placemark>
        </Document>
    </Document>
</kml>