<?xml version="1.0" encoding="UTF-8"?>
<kml xmlns="http://www.opengis.net/kml/2.2" xmlns:gx="http://www.google.com/kml/ext/2.2">
    <Document>
        <name>Route</name>
        <Folder>
            <name>Route Request</name>
            <Placemark>
                <address>Tsz Wan Shan Road, Fung Wong New Village, Tsz Wan Shan, Wong Tai Sin District, Kowloon, Hong Kong, 000000, China</address>
                <Point>
                    <coordinates>114.1981631051,22.3511995063</coordinates>
                </Point>
                <ExtendedData>
                    <Data name="suburb">
                        <value>Tsz Wan Shan</value>
                    </Data>
                    <Data name="neighbourhood">
                        <value>Fung Wong New Village</value>
                    </Data>
                    <Data name="city_district">
                        <value>Wong Tai Sin District</value>
                    </Data>
                    <Data name="city">
                        <value>Kowloon</value>
                    </Data>
                    <Data name="road">
                        <value>Tsz Wan Shan Road</value>
                    </Data>
                    <Data name="country">
                        <value>China</value>
                    </Data>
                    <Data name="postcode">
                        <value>000000</value>
                    </Data>
                    <Data name="ISO3166-2-lvl3">
                        <value>CN-HK</value>
                    </Data>
                    <Data name="country_code">
                        <value>cn</value>
                    </Data>
                    <Data name="state">
                        <value>Hong Kong</value>
                    </Data>
                </ExtendedData>
            </Placemark>
            <Placemark>
                <address>Ma Chai Hang Ventilation Building, Ma Chai Hang Road, Chuk Yuen, Ma Chai Hang, Wong Tai Sin District, Kowloon, Hong Kong, China</address>
                <Point>
                    <coordinates>114.1881297438,22.3448166001</coordinates>
                </Point>
                <ExtendedData>
                    <Data name="quarter">
                        <value>Chuk Yuen</value>
                    </Data>
                    <Data name="suburb">
                        <value>Ma Chai Hang</value>
                    </Data>
                    <Data name="city_district">
                        <value>Wong Tai Sin District</value>
                    </Data>
                    <Data name="city">
                        <value>Kowloon</value>
                    </Data>
                    <Data name="road">
                        <value>Ma Chai Hang Road</value>
                    </Data>
                    <Data name="country">
                        <value>China</value>
                    </Data>
                    <Data name="railway">
                        <value>Ma Chai Hang Ventilation Building</value>
                    </Data>
                    <Data name="ISO3166-2-lvl3">
                        <value>CN-HK</value>
                    </Data>
                    <Data name="country_code">
                        <value>cn</value>
                    </Data>
                    <Data name="state">
                        <value>Hong Kong</value>
                    </Data>
                </ExtendedData>
            </Placemark>
            <Placemark>
                <address>Fu Mei Street, Lok Fu, Wang Tau Hom, Wong Tai Sin District, Kowloon, Hong Kong, China</address>
                <Point>
                    <coordinates>114.1838673529,22.3405885098</coordinates>
                </Point>
                <ExtendedData>
                    <Data name="suburb">
                        <value>Wang Tau Hom</value>
                    </Data>
                    <Data name="neighbourhood">
                        <value>Lok Fu</value>
                    </Data>
                    <Data name="city_district">
                        <value>Wong Tai Sin District</value>
                    </Data>
                    <Data name="city">
                        <value>Kowloon</value>
                    </Data>
                    <Data name="road">
                        <value>Fu Mei Street</value>
                    </Data>
                    <Data name="country">
                        <value>China</value>
                    </Data>
                    <Data name="ISO3166-2-lvl3">
                        <value>CN-HK</value>
                    </Data>
                    <Data name="country_code">
                        <value>cn</value>
                    </Data>
                    <Data name="state">
                        <value>Hong Kong</value>
                    </Data>
                </ExtendedData>
            </Placemark>
            <Placemark>
                <address>Holy Family Canossian School, 102, Junction Road, Kau Pui Shek, Kowloon City, Kowloon City District, Kowloon, Hong Kong, China</address>
                <Point>
                    <coordinates>114.1872004966,22.3313189259</coordinates>
                </Point>
                <ExtendedData>
                    <Data name="suburb">
                        <value>Kowloon City</value>
                    </Data>
                    <Data name="amenity">
                        <value>Holy Family Canossian School</value>
                    </Data>
                    <Data name="neighbourhood">
                        <value>Kau Pui Shek</value>
                    </Data>
                    <Data name="city_district">
                        <value>Kowloon City District</value>
                    </Data>
                    <Data name="city">
                        <value>Kowloon</value>
                    </Data>
                    <Data name="road">
                        <value>Junction Road</value>
                    </Data>
                    <Data name="country">
                        <value>China</value>
                    </Data>
                    <Data name="house_number">
                        <value>102</value>
                    </Data>
                    <Data name="ISO3166-2-lvl3">
                        <value>CN-HK</value>
                    </Data>
                    <Data name="country_code">
                        <value>cn</value>
                    </Data>
                    <Data name="state">
                        <value>Hong Kong</value>
                    </Data>
                </ExtendedData>
            </Placemark>
            <Placemark>
                <address>Kwun Tong Road, Ping Shek, Kwun Tong District, Kowloon, Hong Kong, China</address>
                <Point>
                    <coordinates>114.2098576796,22.3310458039</coordinates>
                </Point>
                <ExtendedData>
                    <Data name="suburb">
                        <value>Ping Shek</value>
                    </Data>
                    <Data name="city_district">
                        <value>Kwun Tong District</value>
                    </Data>
                    <Data name="city">
                        <value>Kowloon</value>
                    </Data>
                    <Data name="road">
                        <value>Kwun Tong Road</value>
                    </Data>
                    <Data name="country">
                        <value>China</value>
                    </Data>
                    <Data name="ISO3166-2-lvl3">
                        <value>CN-HK</value>
                    </Data>
                    <Data name="country_code">
                        <value>cn</value>
                    </Data>
                    <Data name="state">
                        <value>Hong Kong</value>
                    </Data>
                </ExtendedData>
            </Placemark>
            <Placemark>
                <address>Bank of East Asia, Hoi Yuen Road, Kwun Tong Business Area, Kwun Tong, Kwun Tong District, Kowloon, Hong Kong, China</address>
                <Point>
                    <coordinates>114.2236110508,22.3096137012</coordinates>
                </Point>
                <ExtendedData>
                    <Data name="quarter">
                        <value>Kwun Tong Business Area</value>
                    </Data>
                    <Data name="suburb">
                        <value>Kwun Tong</value>
                    </Data>
                    <Data name="amenity">
                        <value>Bank of East Asia</value>
                    </Data>
                    <Data name="city_district">
                        <value>Kwun Tong District</value>
                    </Data>
                    <Data name="city">
                        <value>Kowloon</value>
                    </Data>
                    <Data name="road">
                        <value>Hoi Yuen Road</value>
                    </Data>
                    <Data name="country">
                        <value>China</value>
                    </Data>
                    <Data name="ISO3166-2-lvl3">
                        <value>CN-HK</value>
                    </Data>
                    <Data name="country_code">
                        <value>cn</value>
                    </Data>
                    <Data name="state">
                        <value>Hong Kong</value>
                    </Data>
                </ExtendedData>
            </Placemark>
            <Placemark>
                <address>Cha Kwo Ling Road, Yau Tong Bay, Cha Kwo Ling, Kwun Tong District, Kowloon, Hong Kong, China</address>
                <Point>
                    <coordinates>114.2282802630,22.3005523256</coordinates>
                </Point>
                <ExtendedData>
                    <Data name="suburb">
                        <value>Cha Kwo Ling</value>
                    </Data>
                    <Data name="neighbourhood">
                        <value>Yau Tong Bay</value>
                    </Data>
                    <Data name="city_district">
                        <value>Kwun Tong District</value>
                    </Data>
                    <Data name="city">
                        <value>Kowloon</value>
                    </Data>
                    <Data name="road">
                        <value>Cha Kwo Ling Road</value>
                    </Data>
                    <Data name="country">
                        <value>China</value>
                    </Data>
                    <Data name="ISO3166-2-lvl3">
                        <value>CN-HK</value>
                    </Data>
                    <Data name="country_code">
                        <value>cn</value>
                    </Data>
                    <Data name="state">
                        <value>Hong Kong</value>
                    </Data>
                </ExtendedData>
            </Placemark>
            <Placemark>
                <address>Sheung Tak Plaza, 2, Tong Ming Street, Tseung Kwan O Town Centre, Tseung Kwan O, Sai Kung District, New Territories, Hong Kong, China</address>
                <Point>
                    <coordinates>114.2593167389,22.3115805191</coordinates>
                </Point>
                <ExtendedData>
                    <Data name="suburb">
                        <value>Tseung Kwan O Town Centre</value>
                    </Data>
                    <Data name="town">
                        <value>Tseung Kwan O</value>
                    </Data>
                    <Data name="municipality">
                        <value>New Territories</value>
                    </Data>
                    <Data name="city">
                        <value>Sai Kung District</value>
                    </Data>
                    <Data name="road">
                        <value>Tong Ming Street</value>
                    </Data>
                    <Data name="country">
                        <value>China</value>
                    </Data>
                    <Data name="house_number">
                        <value>2</value>
                    </Data>
                    <Data name="ISO3166-2-lvl3">
                        <value>CN-HK</value>
                    </Data>
                    <Data name="shop">
                        <value>Sheung Tak Plaza</value>
                    </Data>
                    <Data name="country_code">
                        <value>cn</value>
                    </Data>
                    <Data name="state">
                        <value>Hong Kong</value>
                    </Data>
                </ExtendedData>
            </Placemark>
            <Placemark>
                <address>Wai Yip Street, Kwun Tong Business Area, Cha Kwo Ling, Kwun Tong District, Kowloon, Hong Kong, China</address>
                <Point>
                    <coordinates>114.2249136102,22.3057731920</coordinates>
                </Point>
                <ExtendedData>
                    <Data name="quarter">
                        <value>Kwun Tong Business Area</value>
                    </Data>
                    <Data name="suburb">
                        <value>Cha Kwo Ling</value>
                    </Data>
                    <Data name="city_district">
                        <value>Kwun Tong District</value>
                    </Data>
                    <Data name="city">
                        <value>Kowloon</value>
                    </Data>
                    <Data name="road">
                        <value>Wai Yip Street</value>
                    </Data>
                    <Data name="country">
                        <value>China</value>
                    </Data>
                    <Data name="ISO3166-2-lvl3">
                        <value>CN-HK</value>
                    </Data>
                    <Data name="country_code">
                        <value>cn</value>
                    </Data>
                    <Data name="state">
                        <value>Hong Kong</value>
                    </Data>
                </ExtendedData>
            </Placemark>
            <Placemark>
                <address>Kwun Tong Vehicular Ferry Pier, Kwun Tong Bypass, Kwun Tong Business Area, Kwun Tong, Kwun Tong District, Kowloon, Hong Kong, China</address>
                <Point>
                    <coordinates>114.2213430882,22.3079802353</coordinates>
                </Point>
                <ExtendedData>
                    <Data name="quarter">
                        <value>Kwun Tong Business Area</value>
                    </Data>
                    <Data name="suburb">
                        <value>Kwun Tong</value>
                    </Data>
                    <Data name="city_district">
                        <value>Kwun Tong District</value>
                    </Data>
                    <Data name="city">
                        <value>Kowloon</value>
                    </Data>
                    <Data name="road">
                        <value>Kwun Tong Bypass</value>
                    </Data>
                    <Data name="country">
                        <value>China</value>
                    </Data>
                    <Data name="ISO3166-2-lvl3">
                        <value>CN-HK</value>
                    </Data>
                    <Data name="country_code">
                        <value>cn</value>
                    </Data>
                    <Data name="state">
                        <value>Hong Kong</value>
                    </Data>
                    <Data name="man_made">
                        <value>Kwun Tong Vehicular Ferry Pier</value>
                    </Data>
                </ExtendedData>
            </Placemark>
            <Placemark>
                <address>Levertech Centre, 69-71, King Yip Street, Yuet Wah Street Area, Sai Tso Wan, Kwun Tong District, Kowloon, Hong Kong, China</address>
                <Point>
                    <coordinates>114.2271475718,22.3091805879</coordinates>
                </Point>
                <ExtendedData>
                    <Data name="suburb">
                        <value>Sai Tso Wan</value>
                    </Data>
                    <Data name="neighbourhood">
                        <value>Yuet Wah Street Area</value>
                    </Data>
                    <Data name="city_district">
                        <value>Kwun Tong District</value>
                    </Data>
                    <Data name="city">
                        <value>Kowloon</value>
                    </Data>
                    <Data name="building">
                        <value>Levertech Centre</value>
                    </Data>
                    <Data name="road">
                        <value>King Yip Street</value>
                    </Data>
                    <Data name="country">
                        <value>China</value>
                    </Data>
                    <Data name="house_number">
                        <value>69-71</value>
                    </Data>
                    <Data name="ISO3166-2-lvl3">
                        <value>CN-HK</value>
                    </Data>
                    <Data name="country_code">
                        <value>cn</value>
                    </Data>
                    <Data name="state">
                        <value>Hong Kong</value>
                    </Data>
                </ExtendedData>
            </Placemark>
            <Placemark>
                <address>Choi Hung Interchange, Ping Shek, Kwun Tong District, Kowloon, Hong Kong, China</address>
                <Point>
                    <coordinates>114.2065923839,22.3329542695</coordinates>
                </Point>
                <ExtendedData>
                    <Data name="suburb">
                        <value>Ping Shek</value>
                    </Data>
                    <Data name="city_district">
                        <value>Kwun Tong District</value>
                    </Data>
                    <Data name="city">
                        <value>Kowloon</value>
                    </Data>
                    <Data name="road">
                        <value>Choi Hung Interchange</value>
                    </Data>
                    <Data name="country">
                        <value>China</value>
                    </Data>
                    <Data name="ISO3166-2-lvl3">
                        <value>CN-HK</value>
                    </Data>
                    <Data name="country_code">
                        <value>cn</value>
                    </Data>
                    <Data name="state">
                        <value>Hong Kong</value>
                    </Data>
                </ExtendedData>
            </Placemark>
            <Placemark>
                <address>Prince Edward Road West, Kau Pui Shek, Ma Tau Wai, Kowloon City District, Kowloon, Hong Kong, China</address>
                <Point>
                    <coordinates>114.1891943238,22.3273956102</coordinates>
                </Point>
                <ExtendedData>
                    <Data name="suburb">
                        <value>Ma Tau Wai</value>
                    </Data>
                    <Data name="neighbourhood">
                        <value>Kau Pui Shek</value>
                    </Data>
                    <Data name="city_district">
                        <value>Kowloon City District</value>
                    </Data>
                    <Data name="city">
                        <value>Kowloon</value>
                    </Data>
                    <Data name="road">
                        <value>Prince Edward Road West</value>
                    </Data>
                    <Data name="country">
                        <value>China</value>
                    </Data>
                    <Data name="ISO3166-2-lvl3">
                        <value>CN-HK</value>
                    </Data>
                    <Data name="country_code">
                        <value>cn</value>
                    </Data>
                    <Data name="state">
                        <value>Hong Kong</value>
                    </Data>
                </ExtendedData>
            </Placemark>
            <Placemark>
                <address>Iu Shan School, 24, Grampian Road, Kau Pui Shek, Kowloon City, Kowloon City District, Kowloon, Hong Kong, China</address>
                <Point>
                    <coordinates>114.1868782999,22.3298553597</coordinates>
                </Point>
                <ExtendedData>
                    <Data name="suburb">
                        <value>Kowloon City</value>
                    </Data>
                    <Data name="amenity">
                        <value>Iu Shan School</value>
                    </Data>
                    <Data name="neighbourhood">
                        <value>Kau Pui Shek</value>
                    </Data>
                    <Data name="city_district">
                        <value>Kowloon City District</value>
                    </Data>
                    <Data name="city">
                        <value>Kowloon</value>
                    </Data>
                    <Data name="road">
                        <value>Grampian Road</value>
                    </Data>
                    <Data name="country">
                        <value>China</value>
                    </Data>
                    <Data name="house_number">
                        <value>24</value>
                    </Data>
                    <Data name="ISO3166-2-lvl3">
                        <value>CN-HK</value>
                    </Data>
                    <Data name="country_code">
                        <value>cn</value>
                    </Data>
                    <Data name="state">
                        <value>Hong Kong</value>
                    </Data>
                </ExtendedData>
            </Placemark>
            <Placemark>
                <address>Fu Mei Street, Wang Tau Hom Estate, Wang Tau Hom, Wong Tai Sin District, Kowloon, Hong Kong, China</address>
                <Point>
                    <coordinates>114.1878911142,22.3406823408</coordinates>
                </Point>
                <ExtendedData>
                    <Data name="suburb">
                        <value>Wang Tau Hom</value>
                    </Data>
                    <Data name="residential">
                        <value>Wang Tau Hom Estate</value>
                    </Data>
                    <Data name="city_district">
                        <value>Wong Tai Sin District</value>
                    </Data>
                    <Data name="city">
                        <value>Kowloon</value>
                    </Data>
                    <Data name="road">
                        <value>Fu Mei Street</value>
                    </Data>
                    <Data name="country">
                        <value>China</value>
                    </Data>
                    <Data name="ISO3166-2-lvl3">
                        <value>CN-HK</value>
                    </Data>
                    <Data name="country_code">
                        <value>cn</value>
                    </Data>
                    <Data name="state">
                        <value>Hong Kong</value>
                    </Data>
                </ExtendedData>
            </Placemark>
            <Placemark>
                <address>Chuk Yuen Shopping Centre, Chuk Yuen Road, Chuk Yuen, Chuk Yuen United Village, Wong Tai Sin District, Kowloon, Hong Kong, China</address>
                <Point>
                    <coordinates>114.1925121334,22.3453240466</coordinates>
                </Point>
                <ExtendedData>
                    <Data name="quarter">
                        <value>Chuk Yuen</value>
                    </Data>
                    <Data name="city_district">
                        <value>Wong Tai Sin District</value>
                    </Data>
                    <Data name="city">
                        <value>Kowloon</value>
                    </Data>
                    <Data name="road">
                        <value>Chuk Yuen Road</value>
                    </Data>
                    <Data name="country">
                        <value>China</value>
                    </Data>
                    <Data name="ISO3166-2-lvl3">
                        <value>CN-HK</value>
                    </Data>
                    <Data name="shop">
                        <value>Chuk Yuen Shopping Centre</value>
                    </Data>
                    <Data name="country_code">
                        <value>cn</value>
                    </Data>
                    <Data name="state">
                        <value>Hong Kong</value>
                    </Data>
                    <Data name="hamlet">
                        <value>Chuk Yuen United Village</value>
                    </Data>
                </ExtendedData>
            </Placemark>
            <Placemark>
                <address>Tsz Wan Shan Road, Fung Wong New Village, Tsz Wan Shan, Wong Tai Sin District, Kowloon, Hong Kong, 000000, China</address>
                <Point>
                    <coordinates>114.1981706442,22.3512267911</coordinates>
                </Point>
                <ExtendedData>
                    <Data name="suburb">
                        <value>Tsz Wan Shan</value>
                    </Data>
                    <Data name="neighbourhood">
                        <value>Fung Wong New Village</value>
                    </Data>
                    <Data name="city_district">
                        <value>Wong Tai Sin District</value>
                    </Data>
                    <Data name="city">
                        <value>Kowloon</value>
                    </Data>
                    <Data name="road">
                        <value>Tsz Wan Shan Road</value>
                    </Data>
                    <Data name="country">
                        <value>China</value>
                    </Data>
                    <Data name="postcode">
                        <value>000000</value>
                    </Data>
                    <Data name="ISO3166-2-lvl3">
                        <value>CN-HK</value>
                    </Data>
                    <Data name="country_code">
                        <value>cn</value>
                    </Data>
                    <Data name="state">
                        <value>Hong Kong</value>
                    </Data>
                </ExtendedData>
            </Placemark>
        </Folder>
        <Document>
            <name>37.5 km; 00:48 h (OSRM)</name>
            <Placemark>
                <name>Route</name>
                <LineString>
                    <coordinates>114.1982930000,22.3511250000 114.1983200000,22.3511260000 114.1983450000,22.3511150000 114.1983670000,22.3510990000 114.1984700000,22.3509640000 114.1984940000,22.3509220000 114.1985030000,22.3508960000 114.1985090000,22.3508810000 114.1985200000,22.3508500000 114.1984490000,22.3508360000 114.1983110000,22.3507890000 114.1981560000,22.3507250000 114.1980130000,22.3506550000 114.1978440000,22.3505370000 114.1976530000,22.3503660000 114.1975150000,22.3502170000 114.1973630000,22.3500990000 114.1971410000,22.3499920000 114.1969410000,22.3499360000 114.1967170000,22.3498900000 114.1961860000,22.3497960000 114.1961380000,22.3497870000 114.1960050000,22.3497560000 114.1958880000,22.3497290000 114.1958330000,22.3497060000 114.1957790000,22.3496830000 114.1956460000,22.3496190000 114.1945890000,22.3489090000 114.1948290000,22.3486080000 114.1948750000,22.3485510000 114.1948870000,22.3485350000 114.1955260000,22.3477390000 114.1955950000,22.3476360000 114.1956040000,22.3476200000 114.1957200000,22.3474110000 114.1957860000,22.3472560000 114.1958090000,22.3471800000 114.1958690000,22.3469480000 114.1958900000,22.3467770000 114.1959060000,22.3466230000 114.1959240000,22.3463940000 114.1959640000,22.3459010000 114.1959670000,22.3457720000 114.1959560000,22.3457270000 114.1959420000,22.3456710000 114.1959140000,22.3456150000 114.1958710000,22.3455440000 114.1957360000,22.3454010000 114.1956430000,22.3453440000 114.1955100000,22.3452890000 114.1954140000,22.3452610000 114.1953250000,22.3452390000 114.1951480000,22.3452150000 114.1949680000,22.3451910000 114.1948860000,22.3451830000 114.1948500000,22.3451800000 114.1948330000,22.3451800000 114.1936050000,22.3451640000 114.1928500000,22.3451550000 114.1925710000,22.3451490000 114.1925390000,22.3451490000 114.1920500000,22.3451380000 114.1913160000,22.3451230000 114.1911830000,22.3451190000 114.1909950000,22.3451170000 114.1903910000,22.3451080000 114.1901110000,22.3451030000 114.1897260000,22.3450960000 114.1896100000,22.3450940000 114.1894780000,22.3450920000 114.1888000000,22.3450800000 114.1886990000,22.3450750000 114.1886000000,22.3450630000 114.1880960000,22.3449610000 114.1878210000,22.3449060000 114.1876900000,22.3448800000 114.1876940000,22.3447900000 114.1876960000,22.3447380000 114.1877200000,22.3444070000 114.1877310000,22.3442970000 114.1877410000,22.3441930000 114.1877470000,22.3441310000 114.1877570000,22.3440520000 114.1877800000,22.3439680000 114.1878180000,22.3438610000 114.1878690000,22.3437620000 114.1879210000,22.3436930000 114.1879980000,22.3436160000 114.1880750000,22.3435610000 114.1881520000,22.3435160000 114.1883110000,22.3434470000 114.1884650000,22.3434050000 114.1886030000,22.3433860000 114.1888330000,22.3433660000 114.1889560000,22.3433540000 114.1889960000,22.3433640000 114.1890240000,22.3433690000 114.1890700000,22.3433690000 114.1891250000,22.3433680000 114.1891460000,22.3433670000 114.1891640000,22.3433660000 114.1891840000,22.3433650000 114.1892350000,22.3433620000 114.1892590000,22.3433680000 114.1892830000,22.3433680000 114.1893070000,22.3433620000 114.1893280000,22.3433510000 114.1893430000,22.3433390000 114.1893550000,22.3433250000 114.1893590000,22.3433170000 114.1893640000,22.3433080000 114.1893690000,22.3432820000 114.1893670000,22.3432660000 114.1893640000,22.3432520000 114.1893880000,22.3432070000 114.1893940000,22.3431960000 114.1894040000,22.3431780000 114.1894170000,22.3431560000 114.1894250000,22.3431340000 114.1894420000,22.3430980000 114.1895590000,22.3429720000 114.1895820000,22.3429350000 114.1895990000,22.3428940000 114.1896130000,22.3428490000 114.1896220000,22.3428070000 114.1896440000,22.3427440000 114.1896490000,22.3426810000 114.1896480000,22.3426170000 114.1896470000,22.3425830000 114.1896440000,22.3425480000 114.1896390000,22.3425010000 114.1895810000,22.3421090000 114.1895440000,22.3418800000 114.1894550000,22.3413790000 114.1894320000,22.3411900000 114.1894460000,22.3410680000 114.1894340000,22.3409100000 114.1894250000,22.3407680000 114.1894230000,22.3407060000 114.1894150000,22.3405630000 114.1893180000,22.3405680000 114.1891740000,22.3405720000 114.1891190000,22.3405740000 114.1890800000,22.3405750000 114.1888240000,22.3405830000 114.1887530000,22.3405850000 114.1887170000,22.3405860000 114.1884610000,22.3406070000 114.1884340000,22.3406080000 114.1882930000,22.3406180000 114.1881260000,22.3406270000 114.1880770000,22.3406300000 114.1878060000,22.3406350000 114.1875760000,22.3406410000 114.1868550000,22.3406570000 114.1864210000,22.3406640000 114.1862900000,22.3406660000 114.1858120000,22.3406750000 114.1857490000,22.3406750000 114.1856310000,22.3406740000 114.1854950000,22.3406760000 114.1854470000,22.3406770000 114.1852260000,22.3406870000 114.1848910000,22.3406810000 114.1846350000,22.3407130000 114.1843610000,22.3407670000 114.1840800000,22.3406950000 114.1839140000,22.3406430000 114.1838590000,22.3406000000 114.1838570000,22.3405980000 114.1836980000,22.3404500000 114.1836420000,22.3403160000 114.1835520000,22.3401420000 114.1834810000,22.3400370000 114.1834980000,22.3398870000 114.1835310000,22.3397890000 114.1835440000,22.3397680000 114.1835820000,22.3397190000 114.1836180000,22.3396910000 114.1837080000,22.3396460000 114.1838860000,22.3396290000 114.1839460000,22.3396210000 114.1840180000,22.3396070000 114.1840800000,22.3395920000 114.1841440000,22.3395700000 114.1842020000,22.3395460000 114.1842870000,22.3394700000 114.1844070000,22.3394020000 114.1844990000,22.3393410000 114.1845870000,22.3392760000 114.1847250000,22.3391560000 114.1848790000,22.3390230000 114.1850090000,22.3389100000 114.1852640000,22.3386890000 114.1852990000,22.3386570000 114.1854870000,22.3384970000 114.1855840000,22.3384160000 114.1858900000,22.3381490000 114.1861510000,22.3379300000 114.1862690000,22.3378320000 114.1865970000,22.3375520000 114.1866310000,22.3375220000 114.1867530000,22.3374200000 114.1868770000,22.3373140000 114.1869860000,22.3372220000 114.1870720000,22.3371330000 114.1871350000,22.3370470000 114.1871870000,22.3369570000 114.1872270000,22.3368730000 114.1872560000,22.3367930000 114.1873060000,22.3366540000 114.1873640000,22.3364650000 114.1873690000,22.3364480000 114.1873830000,22.3364000000 114.1874480000,22.3361090000 114.1874780000,22.3358770000 114.1874810000,22.3358020000 114.1874850000,22.3357040000 114.1874810000,22.3355300000 114.1874780000,22.3354150000 114.1874730000,22.3352360000 114.1874330000,22.3342770000 114.1874310000,22.3342440000 114.1874250000,22.3341020000 114.1874200000,22.3339720000 114.1874040000,22.3336350000 114.1873840000,22.3335130000 114.1873310000,22.3331930000 114.1872280000,22.3327790000 114.1871960000,22.3326700000 114.1871910000,22.3326530000 114.1871620000,22.3324930000 114.1871520000,22.3323190000 114.1871510000,22.3322840000 114.1871310000,22.3318280000 114.1871280000,22.3317650000 114.1871220000,22.3315600000 114.1871200000,22.3315230000 114.1871120000,22.3313220000 114.1871030000,22.3311100000 114.1870920000,22.3308190000 114.1870910000,22.3307980000 114.1870870000,22.3307030000 114.1870840000,22.3305910000 114.1870690000,22.3302280000 114.1870640000,22.3301030000 114.1870560000,22.3299090000 114.1870510000,22.3297820000 114.1870260000,22.3291280000 114.1870240000,22.3290870000 114.1870210000,22.3289970000 114.1870170000,22.3289100000 114.1870150000,22.3288580000 114.1870030000,22.3285970000 114.1869950000,22.3284250000 114.1869900000,22.3283140000 114.1869870000,22.3282380000 114.1869830000,22.3281460000 114.1869800000,22.3280680000 114.1869650000,22.3277370000 114.1869530000,22.3274760000 114.1869520000,22.3274470000 114.1869540000,22.3273490000 114.1871580000,22.3273800000 114.1875540000,22.3274480000 114.1878370000,22.3274950000 114.1879380000,22.3275100000 114.1881100000,22.3275360000 114.1886930000,22.3276240000 114.1887630000,22.3276350000 114.1889700000,22.3276660000 114.1890010000,22.3276710000 114.1895520000,22.3277540000 114.1898050000,22.3277920000 114.1903010000,22.3278860000 114.1904220000,22.3279080000 114.1907220000,22.3279590000 114.1909830000,22.3280050000 114.1910290000,22.3280150000 114.1910690000,22.3280270000 114.1912530000,22.3280760000 114.1913520000,22.3281050000 114.1914190000,22.3281260000 114.1915210000,22.3281600000 114.1915650000,22.3281990000 114.1916460000,22.3282680000 114.1917150000,22.3283260000 114.1918480000,22.3284390000 114.1919310000,22.3285090000 114.1920190000,22.3285830000 114.1920990000,22.3286510000 114.1921880000,22.3287260000 114.1922850000,22.3288080000 114.1923800000,22.3288890000 114.1924150000,22.3289200000 114.1924910000,22.3289940000 114.1925510000,22.3290440000 114.1926090000,22.3290970000 114.1926460000,22.3291330000 114.1928810000,22.3293500000 114.1929100000,22.3293780000 114.1942640000,22.3306620000 114.1954070000,22.3318070000 114.1955660000,22.3319550000 114.1957650000,22.3321480000 114.1958990000,22.3322740000 114.1961310000,22.3324900000 114.1962140000,22.3325700000 114.1962650000,22.3326140000 114.1963820000,22.3327060000 114.1964180000,22.3327340000 114.1964650000,22.3327710000 114.1965590000,22.3328410000 114.1967160000,22.3329580000 114.1967900000,22.3330080000 114.1968410000,22.3330430000 114.1969560000,22.3331280000 114.1969620000,22.3331320000 114.1970030000,22.3331580000 114.1970440000,22.3331860000 114.1970850000,22.3332100000 114.1972760000,22.3333240000 114.1974910000,22.3334590000 114.1977180000,22.3335940000 114.1978060000,22.3336170000 114.1978910000,22.3336600000 114.1979900000,22.3336940000 114.1981260000,22.3337410000 114.1981850000,22.3337610000 114.1986910000,22.3339330000 114.1988950000,22.3340100000 114.1991540000,22.3341020000 114.1992640000,22.3341410000 114.1993280000,22.3341650000 114.1994550000,22.3342120000 114.1998680000,22.3343640000 114.2000180000,22.3344280000 114.2002080000,22.3345080000 114.2005340000,22.3346320000 114.2007040000,22.3346980000 114.2009530000,22.3347760000 114.2011370000,22.3348340000 114.2013210000,22.3349070000 114.2016770000,22.3350390000 114.2019720000,22.3351490000 114.2021230000,22.3352120000 114.2023480000,22.3352960000 114.2023910000,22.3353060000 114.2024360000,22.3353170000 114.2025230000,22.3353340000 114.2026170000,22.3353530000 114.2027740000,22.3353770000 114.2029200000,22.3353860000 114.2030780000,22.3353910000 114.2031400000,22.3353910000 114.2031950000,22.3353880000 114.2033130000,22.3353850000 114.2035570000,22.3353730000 114.2037150000,22.3353530000 114.2038460000,22.3353320000 114.2039990000,22.3352990000 114.2041520000,22.3352580000 114.2042290000,22.3352370000 114.2043690000,22.3351950000 114.2044020000,22.3351800000 114.2044850000,22.3351440000 114.2045710000,22.3351080000 114.2046630000,22.3350520000 114.2048500000,22.3349380000 114.2050340000,22.3348040000 114.2052230000,22.3346590000 114.2053560000,22.3345560000 114.2054330000,22.3344970000 114.2055420000,22.3344110000 114.2059740000,22.3340710000 114.2061260000,22.3339500000 114.2063700000,22.3337660000 114.2065510000,22.3336300000 114.2065940000,22.3335990000 114.2066380000,22.3335660000 114.2066570000,22.3335520000 114.2067710000,22.3334680000 114.2068330000,22.3334100000 114.2068500000,22.3333940000 114.2068680000,22.3333780000 114.2069180000,22.3333330000 114.2069460000,22.3333090000 114.2070850000,22.3331880000 114.2071570000,22.3331280000 114.2072300000,22.3330680000 114.2076200000,22.3327450000 114.2079930000,22.3324540000 114.2085780000,22.3319880000 114.2087610000,22.3318380000 114.2088810000,22.3317400000 114.2089630000,22.3316750000 114.2091620000,22.3315210000 114.2092420000,22.3314590000 114.2093950000,22.3313390000 114.2095740000,22.3312000000 114.2096870000,22.3311130000 114.2098220000,22.3310070000 114.2101370000,22.3307590000 114.2102780000,22.3306450000 114.2104090000,22.3305380000 114.2105000000,22.3304640000 114.2105620000,22.3304130000 114.2106480000,22.3303270000 114.2107940000,22.3301810000 114.2109610000,22.3300290000 114.2110440000,22.3299540000 114.2112750000,22.3297410000 114.2115750000,22.3295180000 114.2116080000,22.3294910000 114.2116580000,22.3294450000 114.2117160000,22.3293910000 114.2118870000,22.3292670000 114.2120170000,22.3291790000 114.2124190000,22.3288910000 114.2126010000,22.3287240000 114.2127480000,22.3285510000 114.2128560000,22.3283830000 114.2132780000,22.3277190000 114.2133370000,22.3276270000 114.2134010000,22.3275270000 114.2135140000,22.3273490000 114.2136210000,22.3271950000 114.2137050000,22.3270750000 114.2137840000,22.3269500000 114.2138760000,22.3268070000 114.2139780000,22.3266470000 114.2140790000,22.3264880000 114.2141190000,22.3263910000 114.2141400000,22.3263430000 114.2141570000,22.3262850000 114.2141720000,22.3262400000 114.2141920000,22.3261680000 114.2142060000,22.3261000000 114.2142150000,22.3260610000 114.2142210000,22.3260220000 114.2142320000,22.3259530000 114.2142400000,22.3258690000 114.2142420000,22.3258200000 114.2142430000,22.3257400000 114.2142430000,22.3256140000 114.2142400000,22.3255530000 114.2142350000,22.3254370000 114.2142320000,22.3253760000 114.2142300000,22.3253260000 114.2142290000,22.3252750000 114.2142300000,22.3252060000 114.2142340000,22.3251230000 114.2142390000,22.3250490000 114.2142470000,22.3249650000 114.2142860000,22.3245720000 114.2143180000,22.3244750000 114.2143590000,22.3240830000 114.2143670000,22.3240050000 114.2143750000,22.3239450000 114.2144190000,22.3234140000 114.2144220000,22.3233880000 114.2144320000,22.3232630000 114.2144400000,22.3231850000 114.2144440000,22.3231140000 114.2144740000,22.3228290000 114.2144750000,22.3227130000 114.2144840000,22.3226050000 114.2145110000,22.3223120000 114.2145700000,22.3216590000 114.2145820000,22.3215600000 114.2145950000,22.3214540000 114.2146030000,22.3213830000 114.2146150000,22.3212850000 114.2146210000,22.3212320000 114.2146330000,22.3211330000 114.2147400000,22.3202260000 114.2148280000,22.3194540000 114.2148530000,22.3191100000 114.2149060000,22.3186270000 114.2149220000,22.3184930000 114.2149330000,22.3184190000 114.2149530000,22.3183120000 114.2149890000,22.3181510000 114.2150030000,22.3180950000 114.2150170000,22.3180450000 114.2150350000,22.3179920000 114.2150700000,22.3178930000 114.2151350000,22.3177310000 114.2151680000,22.3176600000 114.2152080000,22.3175760000 114.2152730000,22.3174540000 114.2152940000,22.3174130000 114.2153510000,22.3173180000 114.2153930000,22.3172520000 114.2154360000,22.3171870000 114.2154740000,22.3171370000 114.2155070000,22.3170940000 114.2155420000,22.3170510000 114.2155940000,22.3169900000 114.2156300000,22.3169510000 114.2156890000,22.3168940000 114.2157830000,22.3168080000 114.2158690000,22.3167340000 114.2159540000,22.3166610000 114.2160110000,22.3166160000 114.2161500000,22.3165160000 114.2161980000,22.3164840000 114.2162560000,22.3164430000 114.2162720000,22.3164320000 114.2163170000,22.3164080000 114.2163710000,22.3163810000 114.2164760000,22.3163290000 114.2165300000,22.3163020000 114.2166430000,22.3162370000 114.2168000000,22.3161580000 114.2168990000,22.3161100000 114.2170130000,22.3160590000 114.2171280000,22.3160140000 114.2174620000,22.3158950000 114.2180590000,22.3156710000 114.2183510000,22.3155550000 114.2184180000,22.3155330000 114.2184930000,22.3155070000 114.2186200000,22.3154580000 114.2187890000,22.3154040000 114.2189020000,22.3153340000 114.2193490000,22.3151600000 114.2194160000,22.3151340000 114.2194390000,22.3151250000 114.2195160000,22.3150940000 114.2196060000,22.3150590000 114.2196270000,22.3150510000 114.2199670000,22.3149150000 114.2201660000,22.3148360000 114.2202750000,22.3147880000 114.2203250000,22.3147560000 114.2204440000,22.3146800000 114.2205270000,22.3146270000 114.2205840000,22.3146070000 114.2206800000,22.3145730000 114.2208620000,22.3145090000 114.2211590000,22.3144050000 114.2213650000,22.3143330000 114.2215830000,22.3142570000 114.2219280000,22.3141360000 114.2220970000,22.3140730000 114.2223190000,22.3139900000 114.2225340000,22.3139080000 114.2226020000,22.3138830000 114.2226560000,22.3138650000 114.2227490000,22.3138320000 114.2227780000,22.3138210000 114.2228600000,22.3137920000 114.2229220000,22.3137690000 114.2231650000,22.3136910000 114.2231840000,22.3136850000 114.2232990000,22.3136320000 114.2233670000,22.3136070000 114.2237080000,22.3134830000 114.2238130000,22.3134450000 114.2239090000,22.3134080000 114.2240110000,22.3133700000 114.2241680000,22.3133100000 114.2242430000,22.3132820000 114.2244240000,22.3132150000 114.2245850000,22.3131510000 114.2246210000,22.3131400000 114.2247630000,22.3130960000 114.2248640000,22.3130630000 114.2249640000,22.3130300000 114.2250100000,22.3130140000 114.2250880000,22.3129830000 114.2252490000,22.3129280000 114.2255410000,22.3128100000 114.2256240000,22.3127710000 114.2259640000,22.3126040000 114.2260780000,22.3125700000 114.2261630000,22.3125540000 114.2262650000,22.3125410000 114.2263120000,22.3125600000 114.2263590000,22.3125750000 114.2264590000,22.3125750000 114.2265550000,22.3125540000 114.2266400000,22.3125100000 114.2267100000,22.3124460000 114.2267490000,22.3123850000 114.2267730000,22.3123190000 114.2267810000,22.3122490000 114.2267740000,22.3121950000 114.2267700000,22.3121640000 114.2267350000,22.3120860000 114.2266800000,22.3120180000 114.2266380000,22.3119870000 114.2266080000,22.3119650000 114.2265730000,22.3119480000 114.2265370000,22.3119350000 114.2265000000,22.3119260000 114.2264610000,22.3119200000 114.2264230000,22.3119180000 114.2263840000,22.3119190000 114.2263280000,22.3119070000 114.2262760000,22.3118830000 114.2262310000,22.3118490000 114.2262210000,22.3118350000 114.2262120000,22.3118220000 114.2261810000,22.3117800000 114.2261660000,22.3117480000 114.2261140000,22.3116180000 114.2260910000,22.3115760000 114.2260620000,22.3115360000 114.2260300000,22.3114970000 114.2259950000,22.3114630000 114.2257940000,22.3113120000 114.2257520000,22.3112800000 114.2255830000,22.3111510000 114.2251350000,22.3108080000 114.2250810000,22.3107660000 114.2250410000,22.3107350000 114.2243350000,22.3101930000 114.2241430000,22.3100450000 114.2240100000,22.3099430000 114.2236580000,22.3096710000 114.2236000000,22.3096260000 114.2234830000,22.3095360000 114.2233330000,22.3094190000 114.2232160000,22.3093270000 114.2230730000,22.3092180000 114.2229110000,22.3090920000 114.2226050000,22.3088750000 114.2225490000,22.3088310000 114.2225140000,22.3088060000 114.2224590000,22.3087690000 114.2224890000,22.3087270000 114.2225050000,22.3086850000 114.2225340000,22.3086160000 114.2225600000,22.3085560000 114.2225820000,22.3085130000 114.2227060000,22.3083460000 114.2227400000,22.3083030000 114.2229870000,22.3080330000 114.2230780000,22.3079330000 114.2231210000,22.3078800000 114.2231630000,22.3078390000 114.2232220000,22.3077750000 114.2232520000,22.3077480000 114.2232790000,22.3077200000 114.2233020000,22.3076950000 114.2233450000,22.3076530000 114.2234090000,22.3075830000 114.2234320000,22.3075580000 114.2234620000,22.3075200000 114.2234710000,22.3074630000 114.2236630000,22.3072590000 114.2238570000,22.3070340000 114.2239380000,22.3069450000 114.2240240000,22.3068590000 114.2240790000,22.3068340000 114.2241100000,22.3068230000 114.2241370000,22.3068130000 114.2241840000,22.3067660000 114.2242050000,22.3067460000 114.2242470000,22.3067060000 114.2242620000,22.3066870000 114.2242850000,22.3066500000 114.2243030000,22.3066220000 114.2243160000,22.3066100000 114.2243340000,22.3065930000 114.2243570000,22.3065680000 114.2243830000,22.3065420000 114.2244130000,22.3065110000 114.2245540000,22.3063590000 114.2246340000,22.3062720000 114.2246650000,22.3062350000 114.2247100000,22.3061860000 114.2247530000,22.3061420000 114.2247870000,22.3061010000 114.2248740000,22.3060090000 114.2249580000,22.3059160000 114.2250960000,22.3057500000 114.2251730000,22.3056570000 114.2255190000,22.3052610000 114.2255440000,22.3052330000 114.2255790000,22.3051930000 114.2261490000,22.3045420000 114.2263350000,22.3043330000 114.2265220000,22.3041240000 114.2265510000,22.3040900000 114.2266750000,22.3039520000 114.2267320000,22.3038900000 114.2268920000,22.3036890000 114.2269590000,22.3035710000 114.2270010000,22.3034480000 114.2270250000,22.3032480000 114.2270590000,22.3030990000 114.2270720000,22.3029560000 114.2270820000,22.3027540000 114.2270750000,22.3026470000 114.2271570000,22.3024730000 114.2272360000,22.3023190000 114.2275250000,22.3018620000 114.2278240000,22.3013960000 114.2279120000,22.3012390000 114.2282800000,22.3005520000 114.2285030000,22.3001340000 114.2285790000,22.3000100000 114.2286940000,22.2998440000 114.2287730000,22.2997450000 114.2288710000,22.2996350000 114.2289040000,22.2996040000 114.2289790000,22.2995320000 114.2291260000,22.2994060000 114.2292380000,22.2993150000 114.2293360000,22.2992490000 114.2294230000,22.2991990000 114.2295540000,22.2991420000 114.2296360000,22.2991190000 114.2297120000,22.2991030000 114.2297900000,22.2990930000 114.2298680000,22.2990910000 114.2299480000,22.2991020000 114.2300520000,22.2991290000 114.2301730000,22.2991680000 114.2301910000,22.2992140000 114.2302220000,22.2992540000 114.2302640000,22.2992850000 114.2304580000,22.2999510000 114.2305460000,22.3002040000 114.2306190000,22.3003270000 114.2306650000,22.3004070000 114.2307110000,22.3004820000 114.2307600000,22.3005480000 114.2308130000,22.3006100000 114.2308760000,22.3006730000 114.2309450000,22.3007340000 114.2310340000,22.3008010000 114.2311030000,22.3008460000 114.2312010000,22.3009000000 114.2312970000,22.3009440000 114.2313930000,22.3009800000 114.2314980000,22.3010140000 114.2325790000,22.3013230000 114.2326740000,22.3013540000 114.2327640000,22.3013880000 114.2328480000,22.3014300000 114.2329230000,22.3014750000 114.2329970000,22.3015280000 114.2330530000,22.3015760000 114.2330990000,22.3016280000 114.2331460000,22.3016920000 114.2331820000,22.3017560000 114.2332080000,22.3018200000 114.2332190000,22.3018820000 114.2332240000,22.3019480000 114.2332190000,22.3020190000 114.2332070000,22.3020680000 114.2331890000,22.3021170000 114.2331620000,22.3021720000 114.2331250000,22.3022250000 114.2330780000,22.3022780000 114.2330230000,22.3023240000 114.2329600000,22.3023650000 114.2328880000,22.3024030000 114.2328240000,22.3024290000 114.2327570000,22.3024520000 114.2326860000,22.3024700000 114.2326140000,22.3024820000 114.2325090000,22.3024940000 114.2324350000,22.3025080000 114.2323280000,22.3025440000 114.2319010000,22.3025450000 114.2316380000,22.3025460000 114.2311970000,22.3025000000 114.2310310000,22.3024540000 114.2309070000,22.3024060000 114.2308130000,22.3023470000 114.2307340000,22.3022840000 114.2306730000,22.3021920000 114.2306270000,22.3021000000 114.2306260000,22.3019770000 114.2306510000,22.3018730000 114.2306960000,22.3017660000 114.2307610000,22.3016930000 114.2308200000,22.3016410000 114.2309250000,22.3015910000 114.2310430000,22.3015550000 114.2312140000,22.3015460000 114.2313660000,22.3015630000 114.2315760000,22.3016140000 114.2318180000,22.3016950000 114.2319610000,22.3017500000 114.2321120000,22.3017970000 114.2323520000,22.3018620000 114.2327970000,22.3021250000 114.2329030000,22.3021980000 114.2332570000,22.3024120000 114.2334350000,22.3025210000 114.2336050000,22.3026330000 114.2337230000,22.3027040000 114.2338530000,22.3027700000 114.2339480000,22.3028360000 114.2350390000,22.3035570000 114.2355600000,22.3038460000 114.2361150000,22.3041060000 114.2365270000,22.3042620000 114.2369690000,22.3044030000 114.2378330000,22.3045890000 114.2384770000,22.3046690000 114.2389000000,22.3046890000 114.2393090000,22.3046920000 114.2398120000,22.3046420000 114.2402990000,22.3045780000 114.2409200000,22.3044530000 114.2415050000,22.3042620000 114.2420710000,22.3040460000 114.2426220000,22.3037960000 114.2430420000,22.3035640000 114.2435100000,22.3033130000 114.2441200000,22.3029960000 114.2447780000,22.3026500000 114.2450770000,22.3024930000 114.2454880000,22.3022770000 114.2460480000,22.3019840000 114.2493190000,22.3002670000 114.2495190000,22.3001510000 114.2497220000,22.3000320000 114.2500460000,22.2998260000 114.2503440000,22.2996220000 114.2506000000,22.2994330000 114.2507840000,22.2992910000 114.2509620000,22.2991440000 114.2511500000,22.2989840000 114.2514050000,22.2987510000 114.2527120000,22.2975060000 114.2528250000,22.2974010000 114.2528650000,22.2973630000 114.2529660000,22.2972660000 114.2530570000,22.2971800000 114.2532530000,22.2969940000 114.2534600000,22.2968170000 114.2535910000,22.2967110000 114.2536620000,22.2966580000 114.2537400000,22.2966010000 114.2540740000,22.2964550000 114.2541940000,22.2963900000 114.2542940000,22.2963400000 114.2543370000,22.2963240000 114.2543810000,22.2963090000 114.2544320000,22.2962960000 114.2544780000,22.2962880000 114.2545330000,22.2962840000 114.2545910000,22.2962840000 114.2546450000,22.2962880000 114.2547110000,22.2962990000 114.2547670000,22.2963140000 114.2548200000,22.2963330000 114.2548760000,22.2963580000 114.2549270000,22.2963880000 114.2549790000,22.2964240000 114.2550310000,22.2964710000 114.2550760000,22.2965190000 114.2551130000,22.2965660000 114.2551470000,22.2966190000 114.2551770000,22.2966730000 114.2552050000,22.2967280000 114.2552310000,22.2967870000 114.2552520000,22.2968390000 114.2553820000,22.2972090000 114.2554220000,22.2973200000 114.2554670000,22.2974490000 114.2555010000,22.2975630000 114.2555360000,22.2976880000 114.2555600000,22.2977990000 114.2555890000,22.2979500000 114.2556140000,22.2981250000 114.2556520000,22.2983640000 114.2556370000,22.2985570000 114.2556420000,22.2992790000 114.2556280000,22.2995970000 114.2556290000,22.3000160000 114.2556400000,22.3019860000 114.2556410000,22.3021250000 114.2556520000,22.3022060000 114.2556590000,22.3023060000 114.2556580000,22.3023890000 114.2556570000,22.3028100000 114.2556620000,22.3036100000 114.2556660000,22.3048020000 114.2556760000,22.3050110000 114.2556740000,22.3052270000 114.2556730000,22.3054430000 114.2556730000,22.3054980000 114.2556730000,22.3055650000 114.2556700000,22.3056820000 114.2556690000,22.3057710000 114.2556480000,22.3069330000 114.2556270000,22.3076450000 114.2556080000,22.3081850000 114.2556060000,22.3088520000 114.2555910000,22.3089510000 114.2555780000,22.3090010000 114.2555670000,22.3090480000 114.2555450000,22.3091250000 114.2555400000,22.3091410000 114.2555130000,22.3092220000 114.2554920000,22.3092360000 114.2554700000,22.3092520000 114.2554300000,22.3093040000 114.2553960000,22.3093780000 114.2553810000,22.3094570000 114.2553800000,22.3095740000 114.2554320000,22.3096710000 114.2554990000,22.3097190000 114.2556050000,22.3097820000 114.2557270000,22.3098070000 114.2558520000,22.3097920000 114.2559530000,22.3097520000 114.2559670000,22.3097380000 114.2559700000,22.3097350000 114.2559890000,22.3097150000 114.2560680000,22.3097020000 114.2561050000,22.3096970000 114.2561440000,22.3096960000 114.2561730000,22.3096980000 114.2562510000,22.3097090000 114.2563980000,22.3097490000 114.2565020000,22.3097840000 114.2570360000,22.3099630000 114.2572390000,22.3100310000 114.2575250000,22.3101230000 114.2576500000,22.3101630000 114.2579670000,22.3102750000 114.2582110000,22.3103560000 114.2587510000,22.3105440000 114.2588680000,22.3105840000 114.2590070000,22.3106320000 114.2591550000,22.3106840000 114.2592160000,22.3107020000 114.2592910000,22.3107290000 114.2594420000,22.3107830000 114.2597880000,22.3109070000 114.2598520000,22.3109300000 114.2600070000,22.3109770000 114.2599720000,22.3110780000 114.2599510000,22.3112370000 114.2598990000,22.3113720000 114.2598660000,22.3114470000 114.2597850000,22.3115280000 114.2597360000,22.3115300000 114.2596780000,22.3115280000 114.2596300000,22.3115210000 114.2593810000,22.3114470000 114.2593810000,22.3114470000 114.2596300000,22.3115210000 114.2596220000,22.3115690000 114.2596920000,22.3116060000 114.2597680000,22.3116260000 114.2598850000,22.3116430000 114.2598480000,22.3115990000 114.2598450000,22.3115350000 114.2598660000,22.3114470000 114.2598990000,22.3113720000 114.2599510000,22.3112370000 114.2600580000,22.3111300000 114.2600780000,22.3110850000 114.2601050000,22.3110100000 114.2601470000,22.3109100000 114.2600450000,22.3108780000 114.2598860000,22.3108320000 114.2597290000,22.3107750000 114.2590760000,22.3105660000 114.2590270000,22.3105480000 114.2589380000,22.3105190000 114.2587850000,22.3104660000 114.2577340000,22.3101040000 114.2574460000,22.3100060000 114.2572160000,22.3099280000 114.2570650000,22.3098760000 114.2568030000,22.3097850000 114.2565220000,22.3096950000 114.2564140000,22.3096550000 114.2563830000,22.3096400000 114.2563340000,22.3096160000 114.2562840000,22.3095830000 114.2561780000,22.3094960000 114.2561340000,22.3094470000 114.2561010000,22.3094090000 114.2560830000,22.3093520000 114.2560550000,22.3092980000 114.2559770000,22.3090760000 114.2559520000,22.3090050000 114.2558750000,22.3087870000 114.2558510000,22.3086990000 114.2558400000,22.3085900000 114.2558160000,22.3080270000 114.2557930000,22.3071750000 114.2557620000,22.3066620000 114.2557780000,22.3062220000 114.2557780000,22.3057850000 114.2557820000,22.3057200000 114.2557790000,22.3056010000 114.2557750000,22.3055180000 114.2557740000,22.3054590000 114.2557770000,22.3052330000 114.2557830000,22.3050260000 114.2557850000,22.3044590000 114.2557700000,22.3043590000 114.2557610000,22.3042390000 114.2557790000,22.3036030000 114.2557860000,22.3027970000 114.2557840000,22.3023830000 114.2557740000,22.3000230000 114.2557720000,22.2996040000 114.2557540000,22.2992850000 114.2557520000,22.2985650000 114.2557510000,22.2983190000 114.2557520000,22.2982280000 114.2557350000,22.2979550000 114.2557340000,22.2977900000 114.2557360000,22.2976670000 114.2557410000,22.2975200000 114.2557560000,22.2973940000 114.2557730000,22.2972800000 114.2557870000,22.2972050000 114.2558130000,22.2970990000 114.2558450000,22.2969850000 114.2558940000,22.2968450000 114.2559460000,22.2967260000 114.2560080000,22.2966010000 114.2560640000,22.2965000000 114.2561230000,22.2964060000 114.2561680000,22.2963380000 114.2562480000,22.2962320000 114.2563970000,22.2960580000 114.2564900000,22.2959460000 114.2565430000,22.2958800000 114.2565750000,22.2958330000 114.2566040000,22.2957830000 114.2566280000,22.2957370000 114.2566500000,22.2956850000 114.2566670000,22.2956360000 114.2566760000,22.2955870000 114.2566800000,22.2955390000 114.2566790000,22.2954880000 114.2566730000,22.2954400000 114.2566600000,22.2953880000 114.2566400000,22.2953390000 114.2566160000,22.2952970000 114.2565850000,22.2952570000 114.2565420000,22.2952140000 114.2565020000,22.2951810000 114.2564530000,22.2951480000 114.2564040000,22.2951260000 114.2563550000,22.2951100000 114.2562940000,22.2950980000 114.2562430000,22.2950930000 114.2561710000,22.2950930000 114.2560870000,22.2951010000 114.2560250000,22.2951150000 114.2559580000,22.2951340000 114.2558980000,22.2951580000 114.2558180000,22.2951940000 114.2557500000,22.2952300000 114.2556830000,22.2952700000 114.2553940000,22.2954680000 114.2552950000,22.2955270000 114.2552310000,22.2955630000 114.2550940000,22.2956310000 114.2545890000,22.2958550000 114.2544850000,22.2959150000 114.2542320000,22.2960920000 114.2540570000,22.2961890000 114.2538050000,22.2963340000 114.2535700000,22.2964930000 114.2532800000,22.2966860000 114.2531260000,22.2968010000 114.2528860000,22.2969930000 114.2528100000,22.2970620000 114.2526890000,22.2971720000 114.2526500000,22.2972080000 114.2525190000,22.2973310000 114.2512450000,22.2985380000 114.2509820000,22.2987870000 114.2508090000,22.2989350000 114.2506230000,22.2990860000 114.2504510000,22.2992260000 114.2501900000,22.2994110000 114.2498810000,22.2996270000 114.2496140000,22.2997960000 114.2493950000,22.2999280000 114.2491130000,22.3000860000 114.2476780000,22.3008400000 114.2458770000,22.3017750000 114.2454150000,22.3020140000 114.2449620000,22.3022250000 114.2445750000,22.3024380000 114.2438610000,22.3028180000 114.2436240000,22.3029760000 114.2433630000,22.3031500000 114.2432850000,22.3031870000 114.2430810000,22.3032830000 114.2428730000,22.3033820000 114.2425170000,22.3035510000 114.2419210000,22.3038330000 114.2409940000,22.3041660000 114.2401190000,22.3043420000 114.2396590000,22.3044010000 114.2390970000,22.3044190000 114.2384820000,22.3044110000 114.2376890000,22.3042980000 114.2369830000,22.3041320000 114.2365850000,22.3040070000 114.2361950000,22.3038510000 114.2356950000,22.3036110000 114.2352210000,22.3033410000 114.2341920000,22.3026940000 114.2340320000,22.3026050000 114.2335980000,22.3023120000 114.2334150000,22.3021010000 114.2332450000,22.3019870000 114.2329740000,22.3018130000 114.2324710000,22.3015120000 114.2322280000,22.3013640000 114.2320470000,22.3012540000 114.2318230000,22.3011110000 114.2317050000,22.3009960000 114.2316490000,22.3009500000 114.2315730000,22.3008820000 114.2314190000,22.3007540000 114.2312450000,22.3006140000 114.2311400000,22.3005200000 114.2310410000,22.3004240000 114.2310050000,22.3003900000 114.2309660000,22.3003470000 114.2309250000,22.3003020000 114.2308540000,22.3002280000 114.2307490000,22.3000930000 114.2306610000,22.2999770000 114.2305920000,22.2999040000 114.2305100000,22.2996130000 114.2304630000,22.2994510000 114.2304530000,22.2992860000 114.2305020000,22.2992490000 114.2305360000,22.2992000000 114.2305500000,22.2991430000 114.2305440000,22.2990850000 114.2305260000,22.2990450000 114.2304990000,22.2990110000 114.2304630000,22.2989830000 114.2304100000,22.2989610000 114.2303510000,22.2989550000 114.2302930000,22.2989660000 114.2302410000,22.2989930000 114.2302010000,22.2990330000 114.2301590000,22.2990160000 114.2301000000,22.2989930000 114.2300310000,22.2989770000 114.2296790000,22.2990200000 114.2295830000,22.2990460000 114.2294920000,22.2990770000 114.2294110000,22.2991090000 114.2292390000,22.2992010000 114.2291490000,22.2992610000 114.2290560000,22.2993280000 114.2289040000,22.2994620000 114.2288130000,22.2995560000 114.2287290000,22.2996530000 114.2286700000,22.2997300000 114.2284620000,22.3000590000 114.2284410000,22.3000970000 114.2278400000,22.3012090000 114.2277540000,22.3013600000 114.2277100000,22.3014320000 114.2274540000,22.3018210000 114.2273530000,22.3019650000 114.2271420000,22.3022610000 114.2270860000,22.3023560000 114.2270540000,22.3024430000 114.2270750000,22.3026470000 114.2270820000,22.3027540000 114.2270720000,22.3029560000 114.2270590000,22.3030990000 114.2270250000,22.3032480000 114.2269170000,22.3034220000 114.2267890000,22.3036240000 114.2266900000,22.3037660000 114.2266390000,22.3038370000 114.2265850000,22.3039010000 114.2264750000,22.3040300000 114.2260500000,22.3045180000 114.2254460000,22.3051990000 114.2253940000,22.3052580000 114.2253360000,22.3053240000 114.2251030000,22.3055870000 114.2249200000,22.3057780000 114.2249080000,22.3057900000 114.2248560000,22.3058450000 114.2246850000,22.3060370000 114.2246440000,22.3060820000 114.2246200000,22.3061280000 114.2245870000,22.3061830000 114.2245460000,22.3062190000 114.2244700000,22.3062940000 114.2243190000,22.3064430000 114.2242650000,22.3065030000 114.2242460000,22.3065210000 114.2242260000,22.3065390000 114.2242100000,22.3065540000 114.2241820000,22.3065840000 114.2241540000,22.3066110000 114.2241340000,22.3066370000 114.2240510000,22.3067410000 114.2240450000,22.3067680000 114.2240330000,22.3068150000 114.2240240000,22.3068590000 114.2239380000,22.3069450000 114.2238570000,22.3070340000 114.2236630000,22.3072590000 114.2234710000,22.3074630000 114.2234000000,22.3074780000 114.2233690000,22.3075160000 114.2233410000,22.3075450000 114.2232900000,22.3075940000 114.2232250000,22.3076490000 114.2232000000,22.3076680000 114.2231620000,22.3077000000 114.2231310000,22.3077240000 114.2230840000,22.3077790000 114.2230520000,22.3078150000 114.2230100000,22.3078630000 114.2228970000,22.3079920000 114.2226030000,22.3083150000 114.2225060000,22.3084140000 114.2224780000,22.3084450000 114.2224190000,22.3084720000 114.2223540000,22.3084990000 114.2223040000,22.3085190000 114.2221650000,22.3085480000 114.2221230000,22.3085240000 114.2217950000,22.3082850000 114.2218270000,22.3082480000 114.2218510000,22.3082060000 114.2218840000,22.3081480000 114.2220040000,22.3081670000 114.2222710000,22.3078310000 114.2223060000,22.3077880000 114.2223450000,22.3077390000 114.2223740000,22.3077030000 114.2224110000,22.3076560000 114.2224370000,22.3076240000 114.2224980000,22.3075470000 114.2225520000,22.3074790000 114.2225780000,22.3074290000 114.2225920000,22.3073800000 114.2225940000,22.3072900000 114.2225920000,22.3072310000 114.2225720000,22.3071760000 114.2224380000,22.3070730000 114.2223580000,22.3070370000 114.2222910000,22.3070190000 114.2221960000,22.3070180000 114.2220990000,22.3070270000 114.2220370000,22.3070520000 114.2219690000,22.3070950000 114.2219170000,22.3071430000 114.2218150000,22.3072750000 114.2218000000,22.3072940000 114.2217300000,22.3073840000 114.2216710000,22.3075190000 114.2216580000,22.3075470000 114.2216440000,22.3075810000 114.2216240000,22.3076260000 114.2216040000,22.3076710000 114.2215770000,22.3077330000 114.2215500000,22.3077950000 114.2215310000,22.3078400000 114.2215040000,22.3079020000 114.2214760000,22.3079630000 114.2214570000,22.3080080000 114.2214510000,22.3080210000 114.2214370000,22.3080530000 114.2214290000,22.3081170000 114.2214700000,22.3081650000 114.2216790000,22.3083000000 114.2216950000,22.3083110000 114.2217220000,22.3083240000 114.2217520000,22.3083360000 114.2217950000,22.3082850000 114.2218270000,22.3082480000 114.2218510000,22.3082060000 114.2218840000,22.3081480000 114.2220040000,22.3081670000 114.2222710000,22.3078310000 114.2223060000,22.3077880000 114.2223450000,22.3077390000 114.2223740000,22.3077030000 114.2224110000,22.3076560000 114.2224370000,22.3076240000 114.2224980000,22.3075470000 114.2225520000,22.3074790000 114.2226490000,22.3074600000 114.2227560000,22.3074720000 114.2229720000,22.3076290000 114.2230250000,22.3076620000 114.2230530000,22.3076800000 114.2230940000,22.3077030000 114.2231310000,22.3077240000 114.2231770000,22.3077500000 114.2232220000,22.3077750000 114.2232520000,22.3077480000 114.2232790000,22.3077200000 114.2233020000,22.3076950000 114.2233450000,22.3076530000 114.2234090000,22.3075830000 114.2234320000,22.3075580000 114.2234620000,22.3075200000 114.2234710000,22.3074630000 114.2236630000,22.3072590000 114.2238570000,22.3070340000 114.2239380000,22.3069450000 114.2239710000,22.3069370000 114.2240070000,22.3069280000 114.2240300000,22.3069250000 114.2240610000,22.3069240000 114.2240890000,22.3069270000 114.2241180000,22.3069310000 114.2241400000,22.3069360000 114.2241620000,22.3069430000 114.2244280000,22.3071480000 114.2246250000,22.3073000000 114.2249830000,22.3075750000 114.2255320000,22.3080030000 114.2256430000,22.3080900000 114.2257880000,22.3082030000 114.2258620000,22.3082600000 114.2259840000,22.3083550000 114.2261820000,22.3085110000 114.2262660000,22.3085750000 114.2263820000,22.3086630000 114.2265990000,22.3087870000 114.2267470000,22.3088670000 114.2269100000,22.3089560000 114.2270660000,22.3090410000 114.2271240000,22.3090920000 114.2271690000,22.3091510000 114.2271780000,22.3091690000 114.2272010000,22.3092190000 114.2272160000,22.3092760000 114.2272160000,22.3093310000 114.2266270000,22.3099880000 114.2260730000,22.3106050000 114.2260090000,22.3106760000 114.2259970000,22.3106890000 114.2257950000,22.3109140000 114.2256610000,22.3110640000 114.2256260000,22.3111040000 114.2255830000,22.3111510000 114.2251350000,22.3108080000 114.2250810000,22.3107660000 114.2250470000,22.3108030000 114.2249960000,22.3108610000 114.2246480000,22.3112540000 114.2245740000,22.3113410000 114.2242580000,22.3116880000 114.2237940000,22.3121880000 114.2237530000,22.3122240000 114.2236690000,22.3122650000 114.2236020000,22.3122980000 114.2232910000,22.3124260000 114.2230360000,22.3125230000 114.2229730000,22.3125470000 114.2228560000,22.3125910000 114.2228150000,22.3126070000 114.2227710000,22.3126250000 114.2223510000,22.3127870000 114.2218740000,22.3129710000 114.2218320000,22.3129890000 114.2217870000,22.3130070000 114.2217300000,22.3130280000 114.2213880000,22.3131520000 114.2212110000,22.3132160000 114.2209780000,22.3132940000 114.2208240000,22.3133570000 114.2207920000,22.3133700000 114.2207540000,22.3133850000 114.2207130000,22.3134170000 114.2206770000,22.3134520000 114.2199560000,22.3141460000 114.2197640000,22.3143180000 114.2197190000,22.3143380000 114.2196850000,22.3143440000 114.2196500000,22.3143420000 114.2196580000,22.3143750000 114.2196640000,22.3143980000 114.2196870000,22.3144850000 114.2197420000,22.3146950000 114.2197450000,22.3147070000 114.2197390000,22.3147260000 114.2197280000,22.3147430000 114.2197040000,22.3147710000 114.2196300000,22.3147990000 114.2193310000,22.3149130000 114.2189470000,22.3150600000 114.2187690000,22.3151280000 114.2186400000,22.3151730000 114.2185410000,22.3152090000 114.2184000000,22.3152610000 114.2180370000,22.3153840000 114.2175210000,22.3155660000 114.2173230000,22.3156480000 114.2169360000,22.3157980000 114.2167860000,22.3158610000 114.2166890000,22.3159140000 114.2166400000,22.3159380000 114.2165760000,22.3159770000 114.2164760000,22.3160360000 114.2164010000,22.3160810000 114.2163690000,22.3161010000 114.2163190000,22.3161320000 114.2162140000,22.3161960000 114.2161870000,22.3162170000 114.2161470000,22.3162490000 114.2160840000,22.3162990000 114.2160330000,22.3163390000 114.2159480000,22.3164060000 114.2158710000,22.3164660000 114.2158000000,22.3165230000 114.2156690000,22.3166440000 114.2156250000,22.3166830000 114.2155020000,22.3167930000 114.2153290000,22.3169920000 114.2152300000,22.3171410000 114.2151940000,22.3171960000 114.2151090000,22.3173450000 114.2150440000,22.3174740000 114.2149780000,22.3176290000 114.2149150000,22.3178050000 114.2148580000,22.3179800000 114.2148220000,22.3181040000 114.2147950000,22.3182230000 114.2147730000,22.3183510000 114.2147420000,22.3185550000 114.2147090000,22.3189020000 114.2147040000,22.3189730000 114.2146790000,22.3193310000 114.2146640000,22.3195560000 114.2146290000,22.3199060000 114.2146160000,22.3200310000 114.2146030000,22.3201610000 114.2144300000,22.3216710000 114.2144190000,22.3217670000 114.2144070000,22.3218760000 114.2143950000,22.3219840000 114.2143910000,22.3220140000 114.2143790000,22.3221170000 114.2143550000,22.3223310000 114.2143390000,22.3224820000 114.2143310000,22.3225550000 114.2143230000,22.3226320000 114.2142660000,22.3231640000 114.2142580000,22.3232480000 114.2142490000,22.3233260000 114.2142440000,22.3233730000 114.2142410000,22.3234060000 114.2141360000,22.3243970000 114.2141300000,22.3244490000 114.2141280000,22.3244710000 114.2141240000,22.3245100000 114.2141230000,22.3245120000 114.2141170000,22.3245730000 114.2141160000,22.3245850000 114.2141160000,22.3245850000 114.2141050000,22.3247520000 114.2141010000,22.3248140000 114.2140920000,22.3249480000 114.2140850000,22.3250440000 114.2140800000,22.3251220000 114.2140750000,22.3251990000 114.2140730000,22.3252350000 114.2140730000,22.3252390000 114.2140690000,22.3253000000 114.2140630000,22.3253730000 114.2140590000,22.3254370000 114.2140560000,22.3254640000 114.2140330000,22.3255960000 114.2139970000,22.3257440000 114.2139800000,22.3258030000 114.2139430000,22.3259030000 114.2138820000,22.3260440000 114.2138130000,22.3261910000 114.2136480000,22.3265480000 114.2134370000,22.3270090000 114.2133740000,22.3271680000 114.2133410000,22.3272510000 114.2133010000,22.3273440000 114.2132670000,22.3274240000 114.2131800000,22.3275570000 114.2131280000,22.3276370000 114.2129520000,22.3278720000 114.2128610000,22.3279840000 114.2126100000,22.3282630000 114.2125500000,22.3283300000 114.2124890000,22.3283950000 114.2123930000,22.3284830000 114.2123140000,22.3285510000 114.2122360000,22.3286190000 114.2121840000,22.3286590000 114.2120040000,22.3287760000 114.2119080000,22.3288490000 114.2118120000,22.3289220000 114.2116900000,22.3290120000 114.2115880000,22.3290940000 114.2115000000,22.3291650000 114.2114450000,22.3291940000 114.2113770000,22.3292300000 114.2109910000,22.3295430000 114.2107160000,22.3297990000 114.2102920000,22.3302080000 114.2101630000,22.3303200000 114.2101430000,22.3303570000 114.2101060000,22.3304280000 114.2100020000,22.3305170000 114.2099570000,22.3305570000 114.2098360000,22.3306550000 114.2096500000,22.3307950000 114.2095690000,22.3308540000 114.2094000000,22.3309520000 114.2093640000,22.3309740000 114.2093180000,22.3310020000 114.2091910000,22.3310790000 114.2088910000,22.3313180000 114.2086380000,22.3314940000 114.2084350000,22.3316350000 114.2083550000,22.3316930000 114.2082460000,22.3317760000 114.2080320000,22.3319370000 114.2076570000,22.3321810000 114.2074600000,22.3323030000 114.2074020000,22.3323440000 114.2071030000,22.3325640000 114.2070240000,22.3326310000 114.2069780000,22.3326700000 114.2069130000,22.3327250000 114.2066120000,22.3329740000 114.2061870000,22.3333260000 114.2061290000,22.3333740000 114.2060530000,22.3334470000 114.2059330000,22.3335640000 114.2057790000,22.3337130000 114.2055060000,22.3339760000 114.2053330000,22.3341520000 114.2052060000,22.3342850000 114.2051570000,22.3343310000 114.2051210000,22.3343650000 114.2050450000,22.3344350000 114.2048890000,22.3345750000 114.2047290000,22.3346990000 114.2046620000,22.3347390000 114.2045950000,22.3347810000 114.2045260000,22.3348230000 114.2044590000,22.3348640000 114.2043870000,22.3349080000 114.2043030000,22.3349520000 114.2042690000,22.3349700000 114.2041350000,22.3350290000 114.2040840000,22.3350470000 114.2039300000,22.3351000000 114.2038130000,22.3351400000 114.2036690000,22.3351720000 114.2034800000,22.3352090000 114.2032930000,22.3352270000 114.2031800000,22.3352340000 114.2031350000,22.3352330000 114.2030850000,22.3352320000 114.2028130000,22.3352210000 114.2026490000,22.3351990000 114.2025490000,22.3351780000 114.2024920000,22.3351660000 114.2024340000,22.3351540000 114.2023890000,22.3351440000 114.2022590000,22.3351000000 114.2021770000,22.3350730000 114.2020210000,22.3350220000 114.2019130000,22.3349860000 114.2017220000,22.3349160000 114.2016470000,22.3348880000 114.2011550000,22.3347070000 114.2010510000,22.3346660000 114.2007670000,22.3345580000 114.2006990000,22.3345310000 114.2006550000,22.3345000000 114.2004480000,22.3344210000 114.2002500000,22.3343640000 114.2002080000,22.3343480000 114.2000860000,22.3343020000 114.1996580000,22.3341420000 114.1995880000,22.3341080000 114.1994840000,22.3340610000 114.1990200000,22.3338940000 114.1985170000,22.3337140000 114.1983950000,22.3336800000 114.1982790000,22.3336390000 114.1981620000,22.3335940000 114.1980650000,22.3335480000 114.1979820000,22.3335070000 114.1978350000,22.3333870000 114.1977400000,22.3333060000 114.1977130000,22.3332810000 114.1976850000,22.3332540000 114.1976030000,22.3331780000 114.1975420000,22.3331140000 114.1974980000,22.3330640000 114.1974340000,22.3329850000 114.1973780000,22.3329060000 114.1970300000,22.3323440000 114.1969810000,22.3322760000 114.1969250000,22.3322150000 114.1968410000,22.3321460000 114.1967470000,22.3320920000 114.1965880000,22.3320380000 114.1961480000,22.3319140000 114.1959780000,22.3318570000 114.1957720000,22.3317670000 114.1956350000,22.3316390000 114.1925430000,22.3286200000 114.1918840000,22.3280990000 114.1918310000,22.3280490000 114.1917730000,22.3279960000 114.1917270000,22.3279620000 114.1915950000,22.3278670000 114.1915530000,22.3277960000 114.1914830000,22.3277420000 114.1914580000,22.3277280000 114.1913550000,22.3276780000 114.1912450000,22.3276250000 114.1911490000,22.3275780000 114.1911250000,22.3275660000 114.1910290000,22.3275160000 114.1909200000,22.3274580000 114.1907990000,22.3273940000 114.1907660000,22.3273760000 114.1906880000,22.3273250000 114.1905810000,22.3272560000 114.1905080000,22.3271910000 114.1903140000,22.3270140000 114.1902440000,22.3269520000 114.1901790000,22.3268850000 114.1901180000,22.3268150000 114.1900620000,22.3267410000 114.1899550000,22.3267090000 114.1899080000,22.3266970000 114.1898620000,22.3266930000 114.1898160000,22.3266970000 114.1897720000,22.3267090000 114.1897310000,22.3267290000 114.1896980000,22.3267530000 114.1896850000,22.3267640000 114.1896330000,22.3268040000 114.1895860000,22.3268480000 114.1895440000,22.3268980000 114.1895080000,22.3269360000 114.1894730000,22.3269750000 114.1894410000,22.3270170000 114.1894140000,22.3270620000 114.1893910000,22.3271080000 114.1893720000,22.3271560000 114.1893570000,22.3272060000 114.1893470000,22.3272560000 114.1893290000,22.3273730000 114.1893090000,22.3273980000 114.1892850000,22.3274210000 114.1892530000,22.3274470000 114.1892400000,22.3274550000 114.1892170000,22.3274710000 114.1891810000,22.3274870000 114.1891430000,22.3274980000 114.1891040000,22.3275050000 114.1890640000,22.3275070000 114.1890250000,22.3275030000 114.1885640000,22.3274040000 114.1884310000,22.3273780000 114.1884100000,22.3273770000 114.1883760000,22.3273750000 114.1882510000,22.3273680000 114.1882050000,22.3273640000 114.1880990000,22.3273670000 114.1880090000,22.3273660000 114.1877860000,22.3273510000 114.1875460000,22.3273120000 114.1872480000,22.3272520000 114.1871590000,22.3272360000 114.1871160000,22.3272270000 114.1869510000,22.3271970000 114.1869540000,22.3273490000 114.1869520000,22.3274470000 114.1869530000,22.3274760000 114.1869650000,22.3277370000 114.1869800000,22.3280680000 114.1869830000,22.3281460000 114.1869870000,22.3282380000 114.1869900000,22.3283140000 114.1869950000,22.3284250000 114.1870030000,22.3285970000 114.1870150000,22.3288580000 114.1870170000,22.3289100000 114.1870210000,22.3289970000 114.1870240000,22.3290870000 114.1870260000,22.3291280000 114.1870510000,22.3297820000 114.1870540000,22.3298490000 114.1870560000,22.3299090000 114.1870640000,22.3301030000 114.1870690000,22.3302280000 114.1870840000,22.3305910000 114.1870870000,22.3307030000 114.1870910000,22.3307980000 114.1870920000,22.3308190000 114.1871030000,22.3311100000 114.1871200000,22.3315230000 114.1871220000,22.3315600000 114.1871280000,22.3317650000 114.1871310000,22.3318280000 114.1871510000,22.3322840000 114.1871520000,22.3323190000 114.1871620000,22.3324930000 114.1871910000,22.3326530000 114.1871960000,22.3326700000 114.1872280000,22.3327790000 114.1873310000,22.3331930000 114.1873840000,22.3335130000 114.1874040000,22.3336350000 114.1874200000,22.3339720000 114.1874250000,22.3341020000 114.1874310000,22.3342440000 114.1874330000,22.3342770000 114.1874730000,22.3352360000 114.1874780000,22.3354150000 114.1874810000,22.3355300000 114.1874850000,22.3357040000 114.1874810000,22.3358020000 114.1874780000,22.3358770000 114.1874480000,22.3361090000 114.1873830000,22.3364000000 114.1873690000,22.3364480000 114.1873640000,22.3364650000 114.1873060000,22.3366540000 114.1872560000,22.3367930000 114.1872270000,22.3368730000 114.1871870000,22.3369570000 114.1871350000,22.3370470000 114.1870720000,22.3371330000 114.1869860000,22.3372220000 114.1868770000,22.3373140000 114.1867530000,22.3374200000 114.1866310000,22.3375220000 114.1865970000,22.3375520000 114.1862690000,22.3378320000 114.1861510000,22.3379300000 114.1858900000,22.3381490000 114.1855840000,22.3384160000 114.1854870000,22.3384970000 114.1852990000,22.3386570000 114.1852640000,22.3386890000 114.1850090000,22.3389100000 114.1848790000,22.3390230000 114.1847250000,22.3391560000 114.1845870000,22.3392760000 114.1844990000,22.3393410000 114.1844070000,22.3394020000 114.1842870000,22.3394700000 114.1841770000,22.3394870000 114.1841310000,22.3395040000 114.1840710000,22.3395200000 114.1839950000,22.3395400000 114.1839300000,22.3395510000 114.1838810000,22.3395560000 114.1838140000,22.3395580000 114.1837290000,22.3395610000 114.1836170000,22.3395690000 114.1835690000,22.3395750000 114.1834180000,22.3395960000 114.1833400000,22.3396080000 114.1832980000,22.3396180000 114.1832310000,22.3396480000 114.1831170000,22.3397060000 114.1831640000,22.3397690000 114.1831980000,22.3398150000 114.1833360000,22.3400060000 114.1834600000,22.3401920000 114.1835350000,22.3403220000 114.1835910000,22.3404390000 114.1836730000,22.3406810000 114.1836860000,22.3407180000 114.1837150000,22.3408210000 114.1838000000,22.3408350000 114.1838830000,22.3408200000 114.1843610000,22.3407670000 114.1846350000,22.3407130000 114.1848910000,22.3406810000 114.1852260000,22.3406870000 114.1854470000,22.3406770000 114.1854950000,22.3406760000 114.1856310000,22.3406740000 114.1857490000,22.3406750000 114.1858120000,22.3406750000 114.1862900000,22.3406660000 114.1864210000,22.3406640000 114.1868550000,22.3406570000 114.1875760000,22.3406410000 114.1878060000,22.3406350000 114.1878900000,22.3406330000 114.1880770000,22.3406300000 114.1881260000,22.3406270000 114.1882930000,22.3406180000 114.1884340000,22.3406080000 114.1884610000,22.3406070000 114.1887170000,22.3405860000 114.1887530000,22.3405850000 114.1888240000,22.3405830000 114.1890800000,22.3405750000 114.1891190000,22.3405740000 114.1891740000,22.3405720000 114.1893180000,22.3405680000 114.1893330000,22.3407830000 114.1893610000,22.3409100000 114.1894300000,22.3413870000 114.1895150000,22.3418860000 114.1895520000,22.3421070000 114.1896100000,22.3425070000 114.1896150000,22.3425520000 114.1896200000,22.3426210000 114.1896200000,22.3426810000 114.1896190000,22.3427030000 114.1896180000,22.3427370000 114.1896190000,22.3427600000 114.1896220000,22.3428070000 114.1896130000,22.3428490000 114.1895990000,22.3428940000 114.1895820000,22.3429350000 114.1895590000,22.3429720000 114.1894420000,22.3430980000 114.1893980000,22.3431070000 114.1893730000,22.3431170000 114.1893500000,22.3431260000 114.1893200000,22.3431430000 114.1893060000,22.3431510000 114.1892910000,22.3431650000 114.1892630000,22.3431870000 114.1892330000,22.3431940000 114.1892210000,22.3432020000 114.1892070000,22.3432120000 114.1891910000,22.3432280000 114.1891800000,22.3432480000 114.1891800000,22.3432500000 114.1891760000,22.3432920000 114.1891520000,22.3433060000 114.1891210000,22.3433200000 114.1890860000,22.3433310000 114.1890570000,22.3433380000 114.1890160000,22.3433460000 114.1889560000,22.3433540000 114.1888330000,22.3433660000 114.1886030000,22.3433860000 114.1884650000,22.3434050000 114.1883110000,22.3434470000 114.1881520000,22.3435160000 114.1880750000,22.3435610000 114.1879980000,22.3436160000 114.1879210000,22.3436930000 114.1878690000,22.3437620000 114.1878180000,22.3438610000 114.1877800000,22.3439680000 114.1877570000,22.3440520000 114.1877470000,22.3441310000 114.1877410000,22.3441930000 114.1877310000,22.3442970000 114.1877200000,22.3444070000 114.1876960000,22.3447380000 114.1876940000,22.3447900000 114.1876900000,22.3448800000 114.1876900000,22.3449670000 114.1878010000,22.3449880000 114.1886500000,22.3451490000 114.1887500000,22.3451600000 114.1888500000,22.3451650000 114.1895850000,22.3451800000 114.1897030000,22.3451820000 114.1902530000,22.3451900000 114.1905000000,22.3451930000 114.1910560000,22.3452010000 114.1911890000,22.3452040000 114.1913680000,22.3452070000 114.1920300000,22.3452200000 114.1925130000,22.3452260000 114.1925710000,22.3452270000 114.1929220000,22.3452320000 114.1936030000,22.3452410000 114.1947680000,22.3452570000 114.1948220000,22.3452580000 114.1949700000,22.3452600000 114.1952590000,22.3452740000 114.1955100000,22.3452890000 114.1956430000,22.3453440000 114.1957360000,22.3454010000 114.1958710000,22.3455440000 114.1959140000,22.3456150000 114.1959420000,22.3456710000 114.1959560000,22.3457270000 114.1959670000,22.3457720000 114.1959640000,22.3459010000 114.1959240000,22.3463940000 114.1959060000,22.3466230000 114.1958900000,22.3467770000 114.1958690000,22.3469480000 114.1958090000,22.3471800000 114.1957860000,22.3472560000 114.1957200000,22.3474110000 114.1956040000,22.3476200000 114.1955950000,22.3476360000 114.1955260000,22.3477390000 114.1948870000,22.3485350000 114.1948750000,22.3485510000 114.1948290000,22.3486080000 114.1945890000,22.3489090000 114.1956460000,22.3496190000 114.1957790000,22.3496830000 114.1958330000,22.3497060000 114.1958880000,22.3497290000 114.1960050000,22.3497560000 114.1961380000,22.3497870000 114.1961860000,22.3497960000 114.1967170000,22.3498900000 114.1969410000,22.3499360000 114.1971410000,22.3499920000 114.1973630000,22.3500990000 114.1975150000,22.3502170000 114.1976530000,22.3503660000 114.1978440000,22.3505370000 114.1980130000,22.3506550000 114.1981560000,22.3507250000 114.1983110000,22.3507890000 114.1984490000,22.3508360000 114.1985200000,22.3508500000 114.1985090000,22.3508810000 114.1985030000,22.3508960000 114.1984940000,22.3509220000 114.1984700000,22.3509640000 114.1983670000,22.3510990000 114.1983450000,22.3511150000 114.1983200000,22.3511260000 114.1982930000,22.3511250000</coordinates>
                </LineString>
                <ExtendedData>
                    <Data name="duration">
                        <value>00:48:49</value>
                    </Data>
                    <Data name="length">
                        <value>37469.804648624275</value>
                    </Data>
                </ExtendedData>
            </Placemark>
        </Document>
    </Document>
</kml>