<?xml version="1.0" encoding="UTF-8"?>
<kml xmlns="http://www.opengis.net/kml/2.2" xmlns:gx="http://www.google.com/kml/ext/2.2">
    <Document>
        <name>Route</name>
        <Folder>
            <name>Route Request</name>
            <Placemark>
                <address>226, Wa Shun Street, Hung Hom, Kowloon City District, Kowloon, Hong Kong, KINGSFIELD MANSION LEVEL B, China</address>
                <Point>
                    <coordinates>114.1902013069,22.3013544682</coordinates>
                </Point>
                <ExtendedData>
                    <Data name="county">
                        <value>Kowloon City District</value>
                    </Data>
                    <Data name="suburb">
                        <value>Hung Hom</value>
                    </Data>
                    <Data name="road">
                        <value>Wa Shun Street</value>
                    </Data>
                    <Data name="postcode">
                        <value>KINGSFIELD MANSION LEVEL B</value>
                    </Data>
                    <Data name="post_box">
                        <value>226</value>
                    </Data>
                    <Data name="region">
                        <value>Kowloon</value>
                    </Data>
                    <Data name="country">
                        <value>China</value>
                    </Data>
                    <Data name="country_code">
                        <value>cn</value>
                    </Data>
                    <Data name="state">
                        <value>Hong Kong</value>
                    </Data>
                </ExtendedData>
            </Placemark>
            <Placemark>
                <address>Club House, Yan Yung Street, Hung Hom, Kowloon City District, Kowloon, Hong Kong, KIL 3348, PRC</address>
                <Point>
                    <coordinates>114.1872235667,22.3038256866</coordinates>
                </Point>
                <ExtendedData>
                    <Data name="county">
                        <value>Kowloon City District</value>
                    </Data>
                    <Data name="suburb">
                        <value>Hung Hom</value>
                    </Data>
                    <Data name="road">
                        <value>Yan Yung Street</value>
                    </Data>
                    <Data name="postcode">
                        <value>KIL 3348</value>
                    </Data>
                    <Data name="building">
                        <value>Club House</value>
                    </Data>
                    <Data name="region">
                        <value>Kowloon</value>
                    </Data>
                    <Data name="country">
                        <value>PRC</value>
                    </Data>
                    <Data name="country_code">
                        <value>cn</value>
                    </Data>
                    <Data name="state">
                        <value>Hong Kong</value>
                    </Data>
                </ExtendedData>
            </Placemark>
            <Placemark>
                <address>Ka Lim Lau, 46, Ma Tau Wai Road, Hung Hom, Kowloon City District, Kowloon, Hong Kong, KIL 3348, PRC</address>
                <Point>
                    <coordinates>114.1870868434,22.3076909319</coordinates>
                </Point>
                <ExtendedData>
                    <Data name="house_number">
                        <value>46</value>
                    </Data>
                    <Data name="county">
                        <value>Kowloon City District</value>
                    </Data>
                    <Data name="suburb">
                        <value>Hung Hom</value>
                    </Data>
                    <Data name="road">
                        <value>Ma Tau Wai Road</value>
                    </Data>
                    <Data name="postcode">
                        <value>KIL 3348</value>
                    </Data>
                    <Data name="building">
                        <value>Ka Lim Lau</value>
                    </Data>
                    <Data name="region">
                        <value>Kowloon</value>
                    </Data>
                    <Data name="country">
                        <value>PRC</value>
                    </Data>
                    <Data name="country_code">
                        <value>cn</value>
                    </Data>
                </ExtendedData>
            </Placemark>
            <Placemark>
                <address>Block 2, Farm Road, Ma Tau Wai, Kowloon City District, Kowloon, Hong Kong, KIL 3348, PRC</address>
                <Point>
                    <coordinates>114.1874393570,22.3210991021</coordinates>
                </Point>
                <ExtendedData>
                    <Data name="county">
                        <value>Kowloon City District</value>
                    </Data>
                    <Data name="suburb">
                        <value>Ma Tau Wai</value>
                    </Data>
                    <Data name="road">
                        <value>Farm Road</value>
                    </Data>
                    <Data name="postcode">
                        <value>KIL 3348</value>
                    </Data>
                    <Data name="building">
                        <value>Block 2</value>
                    </Data>
                    <Data name="region">
                        <value>Kowloon</value>
                    </Data>
                    <Data name="country">
                        <value>PRC</value>
                    </Data>
                    <Data name="country_code">
                        <value>cn</value>
                    </Data>
                </ExtendedData>
            </Placemark>
            <Placemark>
                <address>Mau Wu Tsai, Po Lam Road, Tsui Lam, Mau Wu Tsai Village, New Territories, Hong Kong, DD253 1209, PRC</address>
                <Point>
                    <coordinates>114.2516523860,22.3174759545</coordinates>
                </Point>
                <ExtendedData>
                    <Data name="suburb">
                        <value>Tsui Lam</value>
                    </Data>
                    <Data name="road">
                        <value>Po Lam Road</value>
                    </Data>
                    <Data name="hamlet">
                        <value>Mau Wu Tsai Village</value>
                    </Data>
                    <Data name="postcode">
                        <value>DD253 1209</value>
                    </Data>
                    <Data name="bus_stop">
                        <value>Mau Wu Tsai</value>
                    </Data>
                    <Data name="region">
                        <value>New Territories</value>
                    </Data>
                    <Data name="country">
                        <value>PRC</value>
                    </Data>
                    <Data name="country_code">
                        <value>cn</value>
                    </Data>
                </ExtendedData>
            </Placemark>
            <Placemark>
                <address>Kowloon East Regional Headquarters &amp; Tseung Kwan O Division Police Station, 110, Po Lam Road North, Po Lam, Yau Yue Wan Village, New Territories, Hong Kong, DD253 1209, PRC</address>
                <Point>
                    <coordinates>114.2600697479,22.3235952642</coordinates>
                </Point>
                <ExtendedData>
                    <Data name="police">
                        <value>Kowloon East Regional Headquarters &amp; Tseung Kwan O Division Police Station</value>
                    </Data>
                    <Data name="house_number">
                        <value>110</value>
                    </Data>
                    <Data name="suburb">
                        <value>Po Lam</value>
                    </Data>
                    <Data name="road">
                        <value>Po Lam Road North</value>
                    </Data>
                    <Data name="hamlet">
                        <value>Yau Yue Wan Village</value>
                    </Data>
                    <Data name="postcode">
                        <value>DD253 1209</value>
                    </Data>
                    <Data name="region">
                        <value>New Territories</value>
                    </Data>
                    <Data name="country">
                        <value>PRC</value>
                    </Data>
                    <Data name="country_code">
                        <value>cn</value>
                    </Data>
                </ExtendedData>
            </Placemark>
            <Placemark>
                <address>Tseung Kwan O Hospital, 2, Po Ning Lane, Hang Hau, Shui Bin Tsuen, New Territories, Hong Kong, DD225 859, PRC</address>
                <Point>
                    <coordinates>114.2692452086,22.3181652952</coordinates>
                </Point>
                <ExtendedData>
                    <Data name="hospital">
                        <value>Tseung Kwan O Hospital</value>
                    </Data>
                    <Data name="house_number">
                        <value>2</value>
                    </Data>
                    <Data name="suburb">
                        <value>Hang Hau</value>
                    </Data>
                    <Data name="road">
                        <value>Po Ning Lane</value>
                    </Data>
                    <Data name="hamlet">
                        <value>Shui Bin Tsuen</value>
                    </Data>
                    <Data name="postcode">
                        <value>DD225 859</value>
                    </Data>
                    <Data name="region">
                        <value>New Territories</value>
                    </Data>
                    <Data name="country">
                        <value>PRC</value>
                    </Data>
                    <Data name="country_code">
                        <value>cn</value>
                    </Data>
                </ExtendedData>
            </Placemark>
            <Placemark>
                <address>Tower 5, Ming Shing Street, Hang Hau, 田下灣村, New Territories, Hong Kong, DD225 859, PRC</address>
                <Point>
                    <coordinates>114.2647118475,22.3154196572</coordinates>
                </Point>
                <ExtendedData>
                    <Data name="suburb">
                        <value>Hang Hau</value>
                    </Data>
                    <Data name="road">
                        <value>Ming Shing Street</value>
                    </Data>
                    <Data name="hamlet">
                        <value>田下灣村</value>
                    </Data>
                    <Data name="postcode">
                        <value>DD225 859</value>
                    </Data>
                    <Data name="building">
                        <value>Tower 5</value>
                    </Data>
                    <Data name="region">
                        <value>New Territories</value>
                    </Data>
                    <Data name="country">
                        <value>PRC</value>
                    </Data>
                    <Data name="country_code">
                        <value>cn</value>
                    </Data>
                </ExtendedData>
            </Placemark>
            <Placemark>
                <address>獅子會－青年會將軍澳青年營, Po Lam Road South, Tsui Lam, Mau Wu Tsai Village, New Territories, Hong Kong, DD253 1209, PRC</address>
                <Point>
                    <coordinates>114.2547531690,22.3181315440</coordinates>
                </Point>
                <ExtendedData>
                    <Data name="suburb">
                        <value>Tsui Lam</value>
                    </Data>
                    <Data name="road">
                        <value>Po Lam Road South</value>
                    </Data>
                    <Data name="hamlet">
                        <value>Mau Wu Tsai Village</value>
                    </Data>
                    <Data name="postcode">
                        <value>DD253 1209</value>
                    </Data>
                    <Data name="building">
                        <value>獅子會－青年會將軍澳青年營</value>
                    </Data>
                    <Data name="region">
                        <value>New Territories</value>
                    </Data>
                    <Data name="country">
                        <value>PRC</value>
                    </Data>
                    <Data name="country_code">
                        <value>cn</value>
                    </Data>
                </ExtendedData>
            </Placemark>
            <Placemark>
                <address>Kowloon City Ferry, San Ma Tau Street, Ma Tau Kok, Kowloon City District, Kowloon, Hong Kong, KIL 3348, PRC</address>
                <Point>
                    <coordinates>114.1935388563,22.3181626390</coordinates>
                </Point>
                <ExtendedData>
                    <Data name="county">
                        <value>Kowloon City District</value>
                    </Data>
                    <Data name="suburb">
                        <value>Ma Tau Kok</value>
                    </Data>
                    <Data name="bus_station">
                        <value>Kowloon City Ferry</value>
                    </Data>
                    <Data name="road">
                        <value>San Ma Tau Street</value>
                    </Data>
                    <Data name="postcode">
                        <value>KIL 3348</value>
                    </Data>
                    <Data name="region">
                        <value>Kowloon</value>
                    </Data>
                    <Data name="country">
                        <value>PRC</value>
                    </Data>
                    <Data name="country_code">
                        <value>cn</value>
                    </Data>
                </ExtendedData>
            </Placemark>
            <Placemark>
                <address>Ka Lim Lau, 46, Ma Tau Wai Road, Hung Hom, Kowloon City District, Kowloon, Hong Kong, KIL 3348, PRC</address>
                <Point>
                    <coordinates>114.1874741735,22.3077002579</coordinates>
                </Point>
                <ExtendedData>
                    <Data name="house_number">
                        <value>46</value>
                    </Data>
                    <Data name="county">
                        <value>Kowloon City District</value>
                    </Data>
                    <Data name="suburb">
                        <value>Hung Hom</value>
                    </Data>
                    <Data name="road">
                        <value>Ma Tau Wai Road</value>
                    </Data>
                    <Data name="postcode">
                        <value>KIL 3348</value>
                    </Data>
                    <Data name="building">
                        <value>Ka Lim Lau</value>
                    </Data>
                    <Data name="region">
                        <value>Kowloon</value>
                    </Data>
                    <Data name="country">
                        <value>PRC</value>
                    </Data>
                    <Data name="country_code">
                        <value>cn</value>
                    </Data>
                </ExtendedData>
            </Placemark>
            <Placemark>
                <address>226, Wa Shun Street, Hung Hom, Kowloon City District, Kowloon, Hong Kong, KINGSFIELD MANSION LEVEL B, PRC</address>
                <Point>
                    <coordinates>114.1902308384,22.3014091088</coordinates>
                </Point>
                <ExtendedData>
                    <Data name="county">
                        <value>Kowloon City District</value>
                    </Data>
                    <Data name="suburb">
                        <value>Hung Hom</value>
                    </Data>
                    <Data name="road">
                        <value>Wa Shun Street</value>
                    </Data>
                    <Data name="postcode">
                        <value>KINGSFIELD MANSION LEVEL B</value>
                    </Data>
                    <Data name="post_box">
                        <value>226</value>
                    </Data>
                    <Data name="region">
                        <value>Kowloon</value>
                    </Data>
                    <Data name="country">
                        <value>PRC</value>
                    </Data>
                    <Data name="country_code">
                        <value>cn</value>
                    </Data>
                </ExtendedData>
            </Placemark>
        </Folder>
        <Document>
            <name>37.5 km; 01:07 h (OSRM)</name>
            <Placemark>
                <name>Route</name>
                <LineString>
                    <coordinates>114.1903140000,22.3014870000 114.1902710000,22.3015560000 114.1902310000,22.3016280000 114.1900300000,22.3020120000 114.1899270000,22.3022420000 114.1898700000,22.3022780000 114.1898040000,22.3023010000 114.1897140000,22.3023010000 114.1895990000,22.3022670000 114.1894560000,22.3021580000 114.1893080000,22.3020690000 114.1891550000,22.3020480000 114.1890080000,22.3021020000 114.1888290000,22.3022310000 114.1887210000,22.3022590000 114.1886070000,22.3022700000 114.1886270000,22.3023570000 114.1886390000,22.3024750000 114.1886380000,22.3025700000 114.1886180000,22.3026490000 114.1885900000,22.3027410000 114.1885590000,22.3028090000 114.1885390000,22.3028400000 114.1883880000,22.3030490000 114.1876200000,22.3035540000 114.1872200000,22.3038200000 114.1872170000,22.3038220000 114.1863290000,22.3044520000 114.1859770000,22.3046870000 114.1858710000,22.3047700000 114.1856810000,22.3049040000 114.1855270000,22.3050070000 114.1851290000,22.3052130000 114.1848340000,22.3053650000 114.1843940000,22.3055710000 114.1841680000,22.3056840000 114.1840180000,22.3054700000 114.1837410000,22.3050750000 114.1836540000,22.3049990000 114.1834460000,22.3049300000 114.1832650000,22.3048950000 114.1831020000,22.3049210000 114.1828810000,22.3050530000 114.1828360000,22.3051660000 114.1828460000,22.3052870000 114.1828890000,22.3055180000 114.1829600000,22.3055910000 114.1830730000,22.3056910000 114.1832870000,22.3058270000 114.1833720000,22.3058910000 114.1835660000,22.3060350000 114.1838310000,22.3062700000 114.1839190000,22.3063670000 114.1842310000,22.3067900000 114.1842590000,22.3068330000 114.1842910000,22.3068780000 114.1843940000,22.3070210000 114.1844580000,22.3071100000 114.1847210000,22.3074740000 114.1850190000,22.3078840000 114.1850900000,22.3078410000 114.1854620000,22.3076090000 114.1858770000,22.3073350000 114.1859030000,22.3073180000 114.1864610000,22.3069640000 114.1865830000,22.3069410000 114.1866170000,22.3069410000 114.1866520000,22.3069470000 114.1866760000,22.3069610000 114.1867020000,22.3069850000 114.1868760000,22.3072000000 114.1871740000,22.3076410000 114.1874440000,22.3080410000 114.1875050000,22.3081370000 114.1875330000,22.3083070000 114.1875510000,22.3085740000 114.1875630000,22.3088220000 114.1875580000,22.3089320000 114.1875760000,22.3098030000 114.1876020000,22.3106180000 114.1875950000,22.3111360000 114.1876200000,22.3122700000 114.1875270000,22.3122520000 114.1873560000,22.3122200000 114.1872930000,22.3121540000 114.1865650000,22.3125200000 114.1864030000,22.3125980000 114.1868790000,22.3133080000 114.1870720000,22.3136520000 114.1872500000,22.3139890000 114.1873530000,22.3142530000 114.1873740000,22.3143560000 114.1874650000,22.3147430000 114.1874970000,22.3149690000 114.1875400000,22.3154840000 114.1875190000,22.3155760000 114.1875080000,22.3158580000 114.1875200000,22.3163190000 114.1875200000,22.3179850000 114.1875110000,22.3180370000 114.1875050000,22.3190750000 114.1875150000,22.3198620000 114.1875130000,22.3200250000 114.1875120000,22.3200670000 114.1875030000,22.3210300000 114.1875030000,22.3210990000 114.1875030000,22.3211020000 114.1875000000,22.3216230000 114.1874970000,22.3220370000 114.1875080000,22.3221640000 114.1878080000,22.3228100000 114.1880420000,22.3232280000 114.1886390000,22.3244720000 114.1887340000,22.3246910000 114.1890270000,22.3252690000 114.1892590000,22.3256390000 114.1896650000,22.3264780000 114.1897730000,22.3266880000 114.1898690000,22.3268440000 114.1899450000,22.3269380000 114.1900540000,22.3270680000 114.1901550000,22.3271660000 114.1902930000,22.3272950000 114.1904490000,22.3274110000 114.1906160000,22.3275050000 114.1911260000,22.3277570000 114.1912990000,22.3278440000 114.1914510000,22.3279360000 114.1915980000,22.3280300000 114.1917400000,22.3281340000 114.1918670000,22.3282270000 114.1919750000,22.3283100000 114.1921230000,22.3284260000 114.1928640000,22.3291010000 114.1947640000,22.3309320000 114.1955510000,22.3317000000 114.1957490000,22.3318960000 114.1958570000,22.3320510000 114.1960530000,22.3322810000 114.1962040000,22.3324470000 114.1963680000,22.3326030000 114.1965550000,22.3327550000 114.1967320000,22.3328770000 114.1969100000,22.3330030000 114.1971320000,22.3331550000 114.1974040000,22.3333290000 114.1976910000,22.3335000000 114.1980050000,22.3336720000 114.1982780000,22.3338170000 114.1987280000,22.3339780000 114.1994520000,22.3342210000 114.2002410000,22.3345180000 114.2013210000,22.3349070000 114.2019180000,22.3351290000 114.2020820000,22.3351900000 114.2023430000,22.3352710000 114.2025260000,22.3353210000 114.2027310000,22.3353610000 114.2029400000,22.3353860000 114.2031080000,22.3353950000 114.2035390000,22.3353970000 114.2036210000,22.3353840000 114.2038670000,22.3352600000 114.2039840000,22.3352090000 114.2043380000,22.3350570000 114.2046190000,22.3348970000 114.2049550000,22.3346460000 114.2053490000,22.3343260000 114.2055030000,22.3342020000 114.2059020000,22.3338570000 114.2060240000,22.3337540000 114.2061100000,22.3336100000 114.2061850000,22.3334380000 114.2062070000,22.3332330000 114.2062380000,22.3329600000 114.2061460000,22.3326540000 114.2060380000,22.3324410000 114.2059370000,22.3322710000 114.2058000000,22.3320910000 114.2055590000,22.3318580000 114.2053980000,22.3316620000 114.2052720000,22.3314260000 114.2052040000,22.3312100000 114.2051190000,22.3308610000 114.2050880000,22.3298020000 114.2051000000,22.3295330000 114.2051350000,22.3293270000 114.2052090000,22.3289700000 114.2052630000,22.3287390000 114.2053080000,22.3284440000 114.2053110000,22.3282570000 114.2052980000,22.3280500000 114.2052590000,22.3278390000 114.2051810000,22.3276170000 114.2050770000,22.3273830000 114.2047580000,22.3268260000 114.2046890000,22.3267030000 114.2046160000,22.3265220000 114.2045670000,22.3263810000 114.2045440000,22.3262680000 114.2043350000,22.3252700000 114.2043050000,22.3250260000 114.2042960000,22.3248660000 114.2043020000,22.3247010000 114.2043210000,22.3244120000 114.2044120000,22.3237360000 114.2044900000,22.3231760000 114.2045590000,22.3225480000 114.2046040000,22.3223500000 114.2046700000,22.3221590000 114.2047860000,22.3219400000 114.2049050000,22.3217510000 114.2050760000,22.3215480000 114.2052900000,22.3213410000 114.2061850000,22.3205420000 114.2063390000,22.3203870000 114.2065000000,22.3202200000 114.2067740000,22.3198670000 114.2081000000,22.3183510000 114.2082600000,22.3181770000 114.2084360000,22.3180280000 114.2086810000,22.3178020000 114.2089020000,22.3176460000 114.2091070000,22.3175270000 114.2093220000,22.3174180000 114.2095400000,22.3173270000 114.2097620000,22.3172540000 114.2100330000,22.3171920000 114.2102760000,22.3171420000 114.2105500000,22.3171210000 114.2114570000,22.3170970000 114.2117560000,22.3170730000 114.2119880000,22.3170340000 114.2122850000,22.3169500000 114.2124730000,22.3168770000 114.2127070000,22.3167740000 114.2129200000,22.3166520000 114.2131030000,22.3165470000 114.2132790000,22.3163970000 114.2134740000,22.3162110000 114.2138690000,22.3158060000 114.2142290000,22.3154490000 114.2145580000,22.3151140000 114.2148470000,22.3148200000 114.2163560000,22.3132420000 114.2173930000,22.3121960000 114.2177430000,22.3118360000 114.2181890000,22.3113600000 114.2187700000,22.3106940000 114.2194920000,22.3097790000 114.2202700000,22.3087720000 114.2210710000,22.3077190000 114.2215620000,22.3070150000 114.2216430000,22.3069010000 114.2218020000,22.3066840000 114.2219420000,22.3065490000 114.2221130000,22.3064120000 114.2222910000,22.3063130000 114.2224020000,22.3062630000 114.2225810000,22.3061920000 114.2227370000,22.3061450000 114.2228630000,22.3061150000 114.2230330000,22.3060980000 114.2231470000,22.3060950000 114.2233980000,22.3061030000 114.2234760000,22.3061140000 114.2237290000,22.3061530000 114.2239750000,22.3062510000 114.2242370000,22.3063660000 114.2246560000,22.3066730000 114.2261910000,22.3078620000 114.2264960000,22.3080600000 114.2267550000,22.3082010000 114.2271910000,22.3083820000 114.2277470000,22.3085360000 114.2285990000,22.3087580000 114.2288100000,22.3088060000 114.2290690000,22.3088570000 114.2293260000,22.3089500000 114.2296230000,22.3090580000 114.2298580000,22.3091610000 114.2299500000,22.3092140000 114.2300300000,22.3092630000 114.2301010000,22.3093250000 114.2302800000,22.3095410000 114.2305130000,22.3098580000 114.2308770000,22.3104050000 114.2309700000,22.3105340000 114.2311020000,22.3106980000 114.2312620000,22.3108590000 114.2314500000,22.3110120000 114.2316710000,22.3111730000 114.2318810000,22.3112950000 114.2321580000,22.3114160000 114.2324370000,22.3115200000 114.2327180000,22.3116070000 114.2330890000,22.3117130000 114.2336110000,22.3118310000 114.2338830000,22.3119190000 114.2344900000,22.3121040000 114.2349170000,22.3122580000 114.2354360000,22.3124650000 114.2367560000,22.3130380000 114.2369630000,22.3131340000 114.2374850000,22.3133750000 114.2378950000,22.3135750000 114.2384370000,22.3138400000 114.2387190000,22.3140380000 114.2390200000,22.3142720000 114.2394200000,22.3146890000 114.2395730000,22.3148530000 114.2396260000,22.3149360000 114.2396520000,22.3149970000 114.2396690000,22.3150820000 114.2396720000,22.3151630000 114.2396520000,22.3152410000 114.2396210000,22.3153040000 114.2395490000,22.3153850000 114.2394470000,22.3154770000 114.2393390000,22.3155590000 114.2392180000,22.3156290000 114.2390870000,22.3156910000 114.2389760000,22.3157330000 114.2388420000,22.3157640000 114.2387060000,22.3157830000 114.2385850000,22.3157840000 114.2384720000,22.3157780000 114.2383660000,22.3157600000 114.2382640000,22.3157320000 114.2381400000,22.3156770000 114.2378720000,22.3155720000 114.2374670000,22.3154900000 114.2373650000,22.3154920000 114.2371640000,22.3155190000 114.2370090000,22.3155680000 114.2367520000,22.3156720000 114.2367410000,22.3156520000 114.2367240000,22.3156340000 114.2367040000,22.3156210000 114.2366790000,22.3156120000 114.2366460000,22.3156090000 114.2366140000,22.3156160000 114.2365980000,22.3156240000 114.2365850000,22.3156330000 114.2365710000,22.3156470000 114.2365600000,22.3156620000 114.2365520000,22.3156830000 114.2365490000,22.3157080000 114.2365530000,22.3157330000 114.2365630000,22.3157540000 114.2365830000,22.3157780000 114.2363290000,22.3161430000 114.2361500000,22.3164720000 114.2360220000,22.3167230000 114.2359230000,22.3169240000 114.2356220000,22.3174720000 114.2355860000,22.3175310000 114.2354990000,22.3175880000 114.2353230000,22.3178770000 114.2353080000,22.3179620000 114.2353130000,22.3179980000 114.2353190000,22.3180150000 114.2353300000,22.3180440000 114.2353630000,22.3180910000 114.2354700000,22.3181830000 114.2358330000,22.3184050000 114.2360320000,22.3184950000 114.2361490000,22.3185360000 114.2363840000,22.3185730000 114.2366760000,22.3185850000 114.2367870000,22.3185890000 114.2370340000,22.3185390000 114.2375090000,22.3184310000 114.2376020000,22.3184150000 114.2377350000,22.3183990000 114.2378700000,22.3183920000 114.2382890000,22.3184100000 114.2388370000,22.3185710000 114.2391710000,22.3186820000 114.2393240000,22.3187390000 114.2395470000,22.3188120000 114.2399930000,22.3189300000 114.2401800000,22.3189990000 114.2404810000,22.3190450000 114.2407430000,22.3191160000 114.2409890000,22.3192450000 114.2411950000,22.3194100000 114.2413770000,22.3196360000 114.2416680000,22.3200330000 114.2421370000,22.3206080000 114.2423020000,22.3207700000 114.2424370000,22.3208780000 114.2425900000,22.3209310000 114.2427450000,22.3209790000 114.2429040000,22.3210200000 114.2430740000,22.3210500000 114.2432040000,22.3210560000 114.2433520000,22.3210530000 114.2434890000,22.3210290000 114.2436190000,22.3209790000 114.2437430000,22.3209270000 114.2438510000,22.3208690000 114.2439890000,22.3207670000 114.2441370000,22.3206650000 114.2445460000,22.3203330000 114.2450780000,22.3199420000 114.2453920000,22.3196790000 114.2455410000,22.3195270000 114.2456550000,22.3193770000 114.2458250000,22.3191420000 114.2459730000,22.3189830000 114.2461440000,22.3188610000 114.2463460000,22.3187870000 114.2465420000,22.3187660000 114.2467600000,22.3187960000 114.2475730000,22.3190190000 114.2477150000,22.3190510000 114.2478690000,22.3190640000 114.2480210000,22.3190600000 114.2481710000,22.3190410000 114.2483660000,22.3190030000 114.2487200000,22.3189300000 114.2489590000,22.3188660000 114.2491210000,22.3188170000 114.2492350000,22.3187770000 114.2493760000,22.3187140000 114.2495100000,22.3186250000 114.2496580000,22.3185150000 114.2497820000,22.3183730000 114.2498620000,22.3182490000 114.2502040000,22.3177640000 114.2503290000,22.3175930000 114.2504800000,22.3174200000 114.2507060000,22.3172670000 114.2509430000,22.3171860000 114.2511870000,22.3171620000 114.2514440000,22.3171960000 114.2516600000,22.3172620000 114.2517330000,22.3172890000 114.2519640000,22.3173750000 114.2521430000,22.3174450000 114.2523280000,22.3174950000 114.2525440000,22.3175230000 114.2527910000,22.3175310000 114.2532980000,22.3175590000 114.2534620000,22.3175760000 114.2536450000,22.3176170000 114.2537680000,22.3176570000 114.2538830000,22.3177140000 114.2541040000,22.3178830000 114.2542090000,22.3179920000 114.2542980000,22.3181590000 114.2543720000,22.3183470000 114.2543930000,22.3184840000 114.2543940000,22.3186720000 114.2543570000,22.3190380000 114.2543270000,22.3193540000 114.2542600000,22.3196610000 114.2541970000,22.3198450000 114.2540940000,22.3200260000 114.2539700000,22.3202190000 114.2537870000,22.3203570000 114.2535890000,22.3204380000 114.2533400000,22.3204830000 114.2530760000,22.3204690000 114.2528210000,22.3203920000 114.2526840000,22.3203100000 114.2525480000,22.3202050000 114.2524080000,22.3200380000 114.2521310000,22.3197330000 114.2520190000,22.3196290000 114.2519510000,22.3195660000 114.2517050000,22.3194800000 114.2514670000,22.3194650000 114.2512620000,22.3194880000 114.2510380000,22.3195880000 114.2508680000,22.3197370000 114.2507680000,22.3199150000 114.2507050000,22.3200500000 114.2506560000,22.3201890000 114.2505690000,22.3204640000 114.2503700000,22.3210520000 114.2502400000,22.3213690000 114.2501380000,22.3215600000 114.2500570000,22.3217290000 114.2500170000,22.3218560000 114.2499870000,22.3219840000 114.2499870000,22.3221100000 114.2499980000,22.3222340000 114.2500130000,22.3223240000 114.2500400000,22.3223990000 114.2501960000,22.3226390000 114.2503790000,22.3229560000 114.2504510000,22.3231650000 114.2504620000,22.3233310000 114.2504530000,22.3235460000 114.2503580000,22.3237680000 114.2501640000,22.3239730000 114.2499130000,22.3242100000 114.2497760000,22.3243960000 114.2497290000,22.3244840000 114.2496880000,22.3245910000 114.2496590000,22.3247580000 114.2496460000,22.3249040000 114.2496630000,22.3250410000 114.2496950000,22.3251800000 114.2497690000,22.3253480000 114.2498500000,22.3254720000 114.2499600000,22.3256360000 114.2500610000,22.3257350000 114.2501590000,22.3258140000 114.2502770000,22.3258870000 114.2504340000,22.3259640000 114.2506060000,22.3260150000 114.2507050000,22.3260500000 114.2508550000,22.3261320000 114.2511810000,22.3262230000 114.2512620000,22.3262440000 114.2515340000,22.3263200000 114.2517800000,22.3263880000 114.2520340000,22.3264530000 114.2534100000,22.3268200000 114.2543080000,22.3270380000 114.2546940000,22.3271170000 114.2549840000,22.3271620000 114.2555200000,22.3271960000 114.2559360000,22.3271900000 114.2563150000,22.3271430000 114.2566450000,22.3270770000 114.2569420000,22.3270000000 114.2572340000,22.3268830000 114.2574280000,22.3268030000 114.2577480000,22.3266230000 114.2580150000,22.3264480000 114.2584290000,22.3261130000 114.2586360000,22.3258680000 114.2586830000,22.3258130000 114.2588240000,22.3255770000 114.2600950000,22.3236680000 114.2601230000,22.3236260000 114.2602330000,22.3234640000 114.2603650000,22.3232840000 114.2605550000,22.3230510000 114.2606240000,22.3229650000 114.2609950000,22.3225360000 114.2612810000,22.3222200000 114.2614260000,22.3220690000 114.2615380000,22.3219600000 114.2617950000,22.3216990000 114.2619130000,22.3215670000 114.2620810000,22.3213680000 114.2621430000,22.3212850000 114.2622130000,22.3211750000 114.2623230000,22.3209720000 114.2624030000,22.3208100000 114.2624810000,22.3206210000 114.2626200000,22.3200540000 114.2626620000,22.3199190000 114.2627350000,22.3197750000 114.2628260000,22.3196060000 114.2628540000,22.3195910000 114.2628790000,22.3195730000 114.2629010000,22.3195510000 114.2631840000,22.3194790000 114.2636560000,22.3194110000 114.2637670000,22.3193970000 114.2642380000,22.3193350000 114.2643620000,22.3193190000 114.2644470000,22.3193080000 114.2650110000,22.3192490000 114.2652560000,22.3192340000 114.2654400000,22.3192450000 114.2654920000,22.3192810000 114.2655530000,22.3192990000 114.2656180000,22.3192990000 114.2656880000,22.3192750000 114.2657450000,22.3192300000 114.2657800000,22.3191690000 114.2660200000,22.3191530000 114.2663670000,22.3190970000 114.2668290000,22.3189990000 114.2671370000,22.3189190000 114.2673520000,22.3188340000 114.2675830000,22.3187150000 114.2676400000,22.3186860000 114.2679390000,22.3184850000 114.2682640000,22.3182080000 114.2685780000,22.3185900000 114.2686920000,22.3187250000 114.2687830000,22.3187770000 114.2689000000,22.3187390000 114.2689150000,22.3187700000 114.2689420000,22.3187930000 114.2689850000,22.3188040000 114.2690280000,22.3187940000 114.2690600000,22.3187660000 114.2690730000,22.3187270000 114.2690650000,22.3186870000 114.2690360000,22.3186570000 114.2691880000,22.3185610000 114.2692730000,22.3184990000 114.2695490000,22.3183990000 114.2696540000,22.3183460000 114.2698360000,22.3181890000 114.2696260000,22.3179810000 114.2695510000,22.3180230000 114.2694690000,22.3180990000 114.2694730000,22.3181540000 114.2694730000,22.3181540000 114.2696540000,22.3183460000 114.2695490000,22.3183990000 114.2692730000,22.3184990000 114.2691880000,22.3185610000 114.2690360000,22.3186570000 114.2689980000,22.3186430000 114.2689560000,22.3186460000 114.2689220000,22.3186670000 114.2689010000,22.3187010000 114.2689000000,22.3187390000 114.2687830000,22.3187770000 114.2686920000,22.3187250000 114.2685780000,22.3185900000 114.2682640000,22.3182080000 114.2684570000,22.3180540000 114.2685600000,22.3179720000 114.2686130000,22.3179300000 114.2689980000,22.3176230000 114.2691190000,22.3175270000 114.2691800000,22.3174780000 114.2693390000,22.3173510000 114.2695300000,22.3172020000 114.2698630000,22.3169440000 114.2700670000,22.3168160000 114.2701590000,22.3167710000 114.2702650000,22.3167130000 114.2703360000,22.3167090000 114.2704010000,22.3166850000 114.2704550000,22.3166420000 114.2704910000,22.3165860000 114.2705060000,22.3165220000 114.2704980000,22.3164590000 114.2704690000,22.3164020000 114.2704230000,22.3163550000 114.2703630000,22.3163240000 114.2703130000,22.3163130000 114.2702070000,22.3162800000 114.2701000000,22.3162090000 114.2699780000,22.3161130000 114.2698650000,22.3160180000 114.2689060000,22.3150240000 114.2687840000,22.3148980000 114.2685750000,22.3146810000 114.2684680000,22.3145700000 114.2677730000,22.3139230000 114.2675890000,22.3137590000 114.2675100000,22.3136930000 114.2674390000,22.3137600000 114.2672430000,22.3139400000 114.2666360000,22.3144450000 114.2664000000,22.3146550000 114.2662710000,22.3147740000 114.2659380000,22.3150800000 114.2658690000,22.3151330000 114.2657860000,22.3151580000 114.2656780000,22.3151490000 114.2656080000,22.3151240000 114.2655270000,22.3150880000 114.2654420000,22.3150100000 114.2652790000,22.3148410000 114.2651280000,22.3147210000 114.2650400000,22.3146920000 114.2649830000,22.3146870000 114.2649240000,22.3146790000 114.2648810000,22.3146770000 114.2648210000,22.3146740000 114.2647180000,22.3147460000 114.2646200000,22.3148180000 114.2643480000,22.3150420000 114.2641530000,22.3152030000 114.2639700000,22.3153660000 114.2638640000,22.3154370000 114.2637780000,22.3155070000 114.2636780000,22.3155870000 114.2636650000,22.3156610000 114.2636600000,22.3157080000 114.2636590000,22.3157690000 114.2636680000,22.3158640000 114.2637250000,22.3159250000 114.2637900000,22.3159980000 114.2638690000,22.3161060000 114.2639200000,22.3161630000 114.2642940000,22.3165690000 114.2645540000,22.3168370000 114.2650340000,22.3172980000 114.2652310000,22.3175320000 114.2653170000,22.3176940000 114.2653740000,22.3178660000 114.2655000000,22.3187140000 114.2654980000,22.3188730000 114.2654880000,22.3189470000 114.2654390000,22.3189810000 114.2654040000,22.3190260000 114.2652420000,22.3190960000 114.2641750000,22.3192240000 114.2638280000,22.3192620000 114.2637520000,22.3192710000 114.2634930000,22.3192990000 114.2631390000,22.3193120000 114.2628910000,22.3193010000 114.2628440000,22.3192660000 114.2627880000,22.3192440000 114.2627260000,22.3192390000 114.2626660000,22.3192510000 114.2626110000,22.3192780000 114.2625680000,22.3193190000 114.2625400000,22.3193700000 114.2625310000,22.3194030000 114.2625290000,22.3194370000 114.2625340000,22.3194710000 114.2625320000,22.3196220000 114.2625270000,22.3197770000 114.2625140000,22.3199030000 114.2624940000,22.3200590000 114.2623950000,22.3205850000 114.2623220000,22.3207670000 114.2622430000,22.3209240000 114.2621230000,22.3211230000 114.2619980000,22.3213170000 114.2619420000,22.3213830000 114.2616820000,22.3216910000 114.2613560000,22.3220100000 114.2609080000,22.3224600000 114.2605180000,22.3228920000 114.2604500000,22.3229760000 114.2601770000,22.3233120000 114.2597930000,22.3238550000 114.2587490000,22.3255210000 114.2585820000,22.3257410000 114.2585370000,22.3258040000 114.2583450000,22.3260310000 114.2579730000,22.3263540000 114.2574880000,22.3266450000 114.2572930000,22.3267530000 114.2568990000,22.3269000000 114.2566280000,22.3269750000 114.2562290000,22.3270490000 114.2558780000,22.3270890000 114.2555280000,22.3271010000 114.2549910000,22.3270590000 114.2546930000,22.3270180000 114.2543370000,22.3269440000 114.2540560000,22.3268760000 114.2534570000,22.3267180000 114.2521130000,22.3263720000 114.2518710000,22.3263100000 114.2515810000,22.3262300000 114.2512940000,22.3261480000 114.2512120000,22.3261260000 114.2510030000,22.3260770000 114.2508820000,22.3260500000 114.2507050000,22.3260500000 114.2506060000,22.3260150000 114.2504340000,22.3259640000 114.2502770000,22.3258870000 114.2501590000,22.3258140000 114.2500610000,22.3257350000 114.2499600000,22.3256360000 114.2498500000,22.3254720000 114.2497690000,22.3253480000 114.2496950000,22.3251800000 114.2496630000,22.3250410000 114.2496460000,22.3249040000 114.2496590000,22.3247580000 114.2496880000,22.3245910000 114.2497290000,22.3244840000 114.2497760000,22.3243960000 114.2499130000,22.3242100000 114.2501640000,22.3239730000 114.2503580000,22.3237680000 114.2504530000,22.3235460000 114.2504620000,22.3233310000 114.2504510000,22.3231650000 114.2503790000,22.3229560000 114.2501960000,22.3226390000 114.2500400000,22.3223990000 114.2500130000,22.3223240000 114.2499980000,22.3222340000 114.2499870000,22.3221100000 114.2499870000,22.3219840000 114.2500170000,22.3218560000 114.2500570000,22.3217290000 114.2501380000,22.3215600000 114.2502400000,22.3213690000 114.2503700000,22.3210520000 114.2505690000,22.3204640000 114.2506560000,22.3201890000 114.2507050000,22.3200500000 114.2507680000,22.3199150000 114.2508680000,22.3197370000 114.2510380000,22.3195880000 114.2512620000,22.3194880000 114.2514670000,22.3194650000 114.2517050000,22.3194800000 114.2519510000,22.3195660000 114.2520190000,22.3196290000 114.2521310000,22.3197330000 114.2524080000,22.3200380000 114.2525480000,22.3202050000 114.2526840000,22.3203100000 114.2528210000,22.3203920000 114.2530760000,22.3204690000 114.2533400000,22.3204830000 114.2535890000,22.3204380000 114.2537870000,22.3203570000 114.2539700000,22.3202190000 114.2540940000,22.3200260000 114.2541970000,22.3198450000 114.2542600000,22.3196610000 114.2543270000,22.3193540000 114.2543570000,22.3190380000 114.2543940000,22.3186720000 114.2543930000,22.3184840000 114.2543720000,22.3183470000 114.2543420000,22.3182700000 114.2542980000,22.3181590000 114.2542090000,22.3179920000 114.2541040000,22.3178830000 114.2538830000,22.3177140000 114.2537680000,22.3176570000 114.2536450000,22.3176170000 114.2534620000,22.3175760000 114.2532980000,22.3175590000 114.2527910000,22.3175310000 114.2525440000,22.3175230000 114.2523280000,22.3174950000 114.2521430000,22.3174450000 114.2519640000,22.3173750000 114.2516600000,22.3172620000 114.2514440000,22.3171960000 114.2511870000,22.3171620000 114.2509430000,22.3171860000 114.2507060000,22.3172670000 114.2504800000,22.3174200000 114.2503290000,22.3175930000 114.2502040000,22.3177640000 114.2498620000,22.3182490000 114.2497820000,22.3183730000 114.2496580000,22.3185150000 114.2495100000,22.3186250000 114.2493760000,22.3187140000 114.2492350000,22.3187770000 114.2491210000,22.3188170000 114.2489590000,22.3188660000 114.2487200000,22.3189300000 114.2483660000,22.3190030000 114.2481710000,22.3190410000 114.2480210000,22.3190600000 114.2478690000,22.3190640000 114.2477150000,22.3190510000 114.2475730000,22.3190190000 114.2467600000,22.3187960000 114.2465420000,22.3187660000 114.2463460000,22.3187870000 114.2461440000,22.3188610000 114.2459730000,22.3189830000 114.2458250000,22.3191420000 114.2456550000,22.3193770000 114.2455410000,22.3195270000 114.2453920000,22.3196790000 114.2450780000,22.3199420000 114.2445460000,22.3203330000 114.2441370000,22.3206650000 114.2439890000,22.3207670000 114.2438510000,22.3208690000 114.2437430000,22.3209270000 114.2436190000,22.3209790000 114.2434890000,22.3210290000 114.2433520000,22.3210530000 114.2432040000,22.3210560000 114.2430740000,22.3210500000 114.2429040000,22.3210200000 114.2427450000,22.3209790000 114.2425900000,22.3209310000 114.2424800000,22.3208250000 114.2423420000,22.3207310000 114.2421770000,22.3205480000 114.2413330000,22.3194020000 114.2410310000,22.3192020000 114.2407600000,22.3190710000 114.2404690000,22.3189880000 114.2401960000,22.3189320000 114.2399930000,22.3189300000 114.2395470000,22.3188120000 114.2393240000,22.3187390000 114.2391710000,22.3186820000 114.2388370000,22.3185710000 114.2382890000,22.3184100000 114.2381040000,22.3183540000 114.2379340000,22.3183160000 114.2377660000,22.3183020000 114.2376230000,22.3183000000 114.2374910000,22.3183130000 114.2373630000,22.3183350000 114.2370770000,22.3183970000 114.2368400000,22.3184290000 114.2367830000,22.3184320000 114.2366550000,22.3184460000 114.2365590000,22.3184450000 114.2364460000,22.3184410000 114.2363600000,22.3184350000 114.2361670000,22.3183950000 114.2359490000,22.3182510000 114.2358640000,22.3181750000 114.2358040000,22.3181060000 114.2357220000,22.3179900000 114.2356630000,22.3178400000 114.2356220000,22.3174720000 114.2359230000,22.3169240000 114.2360220000,22.3167230000 114.2361500000,22.3164720000 114.2363290000,22.3161430000 114.2365830000,22.3157780000 114.2365970000,22.3157880000 114.2366200000,22.3157980000 114.2366460000,22.3158030000 114.2366640000,22.3158030000 114.2366830000,22.3158000000 114.2367030000,22.3157920000 114.2367220000,22.3157810000 114.2367410000,22.3157610000 114.2367530000,22.3157380000 114.2367590000,22.3157160000 114.2367590000,22.3156970000 114.2367560000,22.3156830000 114.2367520000,22.3156720000 114.2370090000,22.3155680000 114.2371640000,22.3155190000 114.2373650000,22.3154920000 114.2374670000,22.3154900000 114.2378720000,22.3155720000 114.2381400000,22.3156770000 114.2382640000,22.3157320000 114.2383960000,22.3157780000 114.2385170000,22.3158090000 114.2386520000,22.3158300000 114.2387870000,22.3158350000 114.2389300000,22.3158190000 114.2390520000,22.3157940000 114.2391740000,22.3157540000 114.2393190000,22.3156900000 114.2394440000,22.3156180000 114.2395620000,22.3155320000 114.2396730000,22.3154350000 114.2398040000,22.3153140000 114.2400870000,22.3149930000 114.2400420000,22.3147880000 114.2395430000,22.3143810000 114.2392620000,22.3141860000 114.2390270000,22.3140430000 114.2387130000,22.3138600000 114.2385500000,22.3137530000 114.2382780000,22.3135990000 114.2378940000,22.3134200000 114.2375240000,22.3132570000 114.2368820000,22.3129700000 114.2365910000,22.3128370000 114.2361920000,22.3126560000 114.2358190000,22.3124960000 114.2355560000,22.3123870000 114.2354250000,22.3123320000 114.2351180000,22.3122130000 114.2349080000,22.3121320000 114.2344030000,22.3119370000 114.2339150000,22.3117920000 114.2334570000,22.3116590000 114.2331360000,22.3115510000 114.2328230000,22.3114620000 114.2325570000,22.3113770000 114.2322940000,22.3112790000 114.2320000000,22.3111450000 114.2317880000,22.3110270000 114.2315570000,22.3108190000 114.2315090000,22.3107690000 114.2314410000,22.3106970000 114.2313240000,22.3105870000 114.2311360000,22.3103790000 114.2309710000,22.3101630000 114.2308100000,22.3099350000 114.2306370000,22.3096750000 114.2304750000,22.3093690000 114.2303910000,22.3092760000 114.2302890000,22.3091620000 114.2301760000,22.3090420000 114.2300170000,22.3089260000 114.2298730000,22.3088180000 114.2297150000,22.3087490000 114.2294750000,22.3086780000 114.2291470000,22.3086000000 114.2285190000,22.3084790000 114.2280480000,22.3083970000 114.2278080000,22.3083690000 114.2276600000,22.3083350000 114.2275040000,22.3083120000 114.2273240000,22.3083090000 114.2270840000,22.3082100000 114.2267940000,22.3080810000 114.2265630000,22.3079480000 114.2265020000,22.3079100000 114.2264230000,22.3078580000 114.2253870000,22.3070680000 114.2245180000,22.3064530000 114.2242970000,22.3062910000 114.2241950000,22.3062300000 114.2240210000,22.3061420000 114.2237420000,22.3060320000 114.2233830000,22.3059810000 114.2232760000,22.3059700000 114.2231710000,22.3059710000 114.2230800000,22.3059760000 114.2227950000,22.3060030000 114.2225050000,22.3060720000 114.2223270000,22.3061530000 114.2221850000,22.3062350000 114.2220480000,22.3063180000 114.2218690000,22.3064560000 114.2216350000,22.3066930000 114.2214520000,22.3069370000 114.2209550000,22.3076590000 114.2201670000,22.3087190000 114.2192820000,22.3098570000 114.2189020000,22.3103410000 114.2185710000,22.3107330000 114.2181640000,22.3111990000 114.2179470000,22.3114370000 114.2176990000,22.3117080000 114.2174100000,22.3119890000 114.2172860000,22.3121100000 114.2163760000,22.3130530000 114.2137790000,22.3157210000 114.2133820000,22.3161450000 114.2131930000,22.3163010000 114.2130460000,22.3164050000 114.2128790000,22.3165200000 114.2126690000,22.3166710000 114.2124170000,22.3167340000 114.2120990000,22.3168200000 114.2117640000,22.3168770000 114.2114070000,22.3168860000 114.2109610000,22.3168830000 114.2107650000,22.3168810000 114.2103660000,22.3168630000 114.2100240000,22.3168910000 114.2096300000,22.3169630000 114.2093450000,22.3170380000 114.2090860000,22.3171580000 114.2088770000,22.3173360000 114.2087320000,22.3174930000 114.2085910000,22.3176850000 114.2084220000,22.3179530000 114.2081470000,22.3183920000 114.2078550000,22.3187770000 114.2073720000,22.3193030000 114.2072660000,22.3194360000 114.2069020000,22.3198040000 114.2065430000,22.3200870000 114.2062830000,22.3202680000 114.2062470000,22.3202940000 114.2062100000,22.3203190000 114.2061220000,22.3203810000 114.2058560000,22.3206080000 114.2052380000,22.3211870000 114.2050110000,22.3214090000 114.2048520000,22.3215640000 114.2048150000,22.3216000000 114.2044820000,22.3219260000 114.2039760000,22.3223780000 114.2036220000,22.3227180000 114.2035130000,22.3228230000 114.2033570000,22.3229840000 114.2031680000,22.3231430000 114.2028860000,22.3233470000 114.2027360000,22.3234480000 114.2025740000,22.3235500000 114.2024370000,22.3236290000 114.2019620000,22.3238830000 114.2017220000,22.3239550000 114.2012960000,22.3239940000 114.2008220000,22.3240460000 114.1981480000,22.3240740000 114.1969720000,22.3240900000 114.1931910000,22.3242060000 114.1929760000,22.3241900000 114.1927100000,22.3241580000 114.1924060000,22.3240540000 114.1919930000,22.3238190000 114.1917780000,22.3236810000 114.1916420000,22.3235340000 114.1914650000,22.3232640000 114.1907280000,22.3216760000 114.1905840000,22.3212230000 114.1905240000,22.3208810000 114.1906000000,22.3205900000 114.1907220000,22.3203380000 114.1908780000,22.3201940000 114.1910580000,22.3200590000 114.1924400000,22.3193450000 114.1925540000,22.3192860000 114.1936700000,22.3187690000 114.1939780000,22.3186350000 114.1940270000,22.3186110000 114.1940750000,22.3185870000 114.1941240000,22.3185630000 114.1941720000,22.3185400000 114.1942020000,22.3184990000 114.1942120000,22.3184650000 114.1941980000,22.3183960000 114.1940540000,22.3180930000 114.1939310000,22.3180390000 114.1938770000,22.3180530000 114.1938350000,22.3180740000 114.1937890000,22.3181040000 114.1937460000,22.3181380000 114.1936250000,22.3182460000 114.1934960000,22.3183610000 114.1931070000,22.3187080000 114.1929240000,22.3188850000 114.1927800000,22.3190080000 114.1924790000,22.3192180000 114.1920790000,22.3188140000 114.1917520000,22.3184940000 114.1911590000,22.3178510000 114.1909560000,22.3176390000 114.1897460000,22.3163500000 114.1887510000,22.3152970000 114.1883320000,22.3148610000 114.1879850000,22.3144900000 114.1877600000,22.3142740000 114.1877180000,22.3142110000 114.1876980000,22.3141600000 114.1876790000,22.3140970000 114.1876700000,22.3140260000 114.1876680000,22.3134270000 114.1876630000,22.3126710000 114.1876990000,22.3123870000 114.1877000000,22.3123120000 114.1876940000,22.3120490000 114.1876750000,22.3111390000 114.1876750000,22.3106180000 114.1876580000,22.3098020000 114.1876490000,22.3089360000 114.1876440000,22.3088220000 114.1876310000,22.3085540000 114.1876180000,22.3083170000 114.1875900000,22.3081240000 114.1875190000,22.3080010000 114.1873570000,22.3077700000 114.1869390000,22.3071720000 114.1867800000,22.3069470000 114.1866970000,22.3068150000 114.1871810000,22.3065180000 114.1877030000,22.3061920000 114.1880610000,22.3059660000 114.1882260000,22.3058620000 114.1882400000,22.3058530000 114.1886070000,22.3056220000 114.1886160000,22.3056160000 114.1886580000,22.3055880000 114.1887260000,22.3055500000 114.1888230000,22.3054860000 114.1890100000,22.3053550000 114.1900620000,22.3046950000 114.1892980000,22.3036520000 114.1890570000,22.3033140000 114.1888860000,22.3030800000 114.1888610000,22.3029670000 114.1888060000,22.3028750000 114.1887660000,22.3027450000 114.1887380000,22.3025310000 114.1887460000,22.3024450000 114.1887210000,22.3022590000 114.1888290000,22.3022310000 114.1890080000,22.3021020000 114.1891550000,22.3020480000 114.1893080000,22.3020690000 114.1894560000,22.3021580000 114.1895990000,22.3022670000 114.1896800000,22.3023390000 114.1897760000,22.3023800000 114.1898730000,22.3023720000 114.1900420000,22.3022990000 114.1901480000,22.3022520000 114.1902760000,22.3021960000 114.1903800000,22.3021510000 114.1906520000,22.3016630000 114.1906090000,22.3015600000 114.1904610000,22.3014910000 114.1903960000,22.3014880000 114.1903140000,22.3014870000 114.1903140000,22.3014870000</coordinates>
                </LineString>
                <ExtendedData>
                    <Data name="duration">
                        <value>01:07:16</value>
                    </Data>
                    <Data name="length">
                        <value>37463.17937807539</value>
                    </Data>
                </ExtendedData>
            </Placemark>
        </Document>
    </Document>
</kml>