<?xml version="1.0" encoding="UTF-8"?>
<kml xmlns="http://www.opengis.net/kml/2.2" xmlns:gx="http://www.google.com/kml/ext/2.2">
    <Document>
        <name>Route</name>
        <Folder>
            <name>Route Request</name>
            <Placemark>
                <address>Hin Keng, Che Kung Miu Road, Hin Tin, Tai Wai, Hin Tin Village, Sha Tin District, New Territories, Hong Kong, 000000, China</address>
                <Point>
                    <coordinates>114.1710611249,22.3625622082</coordinates>
                </Point>
                <ExtendedData>
                    <Data name="road">
                        <value>Che Kung Miu Road</value>
                    </Data>
                    <Data name="municipality">
                        <value>New Territories</value>
                    </Data>
                    <Data name="suburb">
                        <value>Tai Wai</value>
                    </Data>
                    <Data name="postcode">
                        <value>000000</value>
                    </Data>
                    <Data name="city">
                        <value>Sha Tin District</value>
                    </Data>
                    <Data name="neighbourhood">
                        <value>Hin Tin</value>
                    </Data>
                    <Data name="ISO3166-2-lvl3">
                        <value>CN-HK</value>
                    </Data>
                    <Data name="village">
                        <value>Hin Tin Village</value>
                    </Data>
                    <Data name="amenity">
                        <value>Hin Keng</value>
                    </Data>
                    <Data name="country">
                        <value>China</value>
                    </Data>
                    <Data name="state">
                        <value>Hong Kong</value>
                    </Data>
                    <Data name="country_code">
                        <value>cn</value>
                    </Data>
                </ExtendedData>
            </Placemark>
            <Placemark>
                <address>Hung Mui Kuk Road, Hung Mui Kuk, San Tin Village, Tin Sam, Sha Tin District, New Territories, Hong Kong, 000000, China</address>
                <Point>
                    <coordinates>114.1789130120,22.3710304069</coordinates>
                </Point>
                <ExtendedData>
                    <Data name="road">
                        <value>Hung Mui Kuk Road</value>
                    </Data>
                    <Data name="quarter">
                        <value>Hung Mui Kuk</value>
                    </Data>
                    <Data name="municipality">
                        <value>New Territories</value>
                    </Data>
                    <Data name="postcode">
                        <value>000000</value>
                    </Data>
                    <Data name="hamlet">
                        <value>San Tin Village</value>
                    </Data>
                    <Data name="city">
                        <value>Sha Tin District</value>
                    </Data>
                    <Data name="ISO3166-2-lvl3">
                        <value>CN-HK</value>
                    </Data>
                    <Data name="village">
                        <value>Tin Sam</value>
                    </Data>
                    <Data name="country">
                        <value>China</value>
                    </Data>
                    <Data name="state">
                        <value>Hong Kong</value>
                    </Data>
                    <Data name="country_code">
                        <value>cn</value>
                    </Data>
                </ExtendedData>
            </Placemark>
            <Placemark>
                <Point>
                    <coordinates>114.1876738919,22.3748518060</coordinates>
                </Point>
                <ExtendedData>
                    <Data name="routingVisited">
                        <value>false</value>
                    </Data>
                </ExtendedData>
            </Placemark>
            <Placemark>
                <address>好運中心 (月租), 1-15, Wang Pok Street, Sha Tin Town Centre, Sha Tin Central, Sha Tin, Sha Tin District, New Territories, Hong Kong, China</address>
                <Point>
                    <coordinates>114.1912066554,22.3824093590</coordinates>
                </Point>
                <ExtendedData>
                    <Data name="road">
                        <value>Wang Pok Street</value>
                    </Data>
                    <Data name="quarter">
                        <value>Sha Tin Town Centre</value>
                    </Data>
                    <Data name="town">
                        <value>Sha Tin</value>
                    </Data>
                    <Data name="municipality">
                        <value>New Territories</value>
                    </Data>
                    <Data name="suburb">
                        <value>Sha Tin Central</value>
                    </Data>
                    <Data name="house_number">
                        <value>1-15</value>
                    </Data>
                    <Data name="city">
                        <value>Sha Tin District</value>
                    </Data>
                    <Data name="ISO3166-2-lvl3">
                        <value>CN-HK</value>
                    </Data>
                    <Data name="amenity">
                        <value>好運中心 (月租)</value>
                    </Data>
                    <Data name="country">
                        <value>China</value>
                    </Data>
                    <Data name="state">
                        <value>Hong Kong</value>
                    </Data>
                    <Data name="country_code">
                        <value>cn</value>
                    </Data>
                </ExtendedData>
            </Placemark>
            <Placemark>
                <address>Hong Kong School of Motoring, 138, Sha Tin Wai Road, Ngau Pei Sha, Ngau Pei Sha Village, Chap Wai Kon Village, Sha Tin District, New Territories, Hong Kong, China</address>
                <Point>
                    <coordinates>114.2111452027,22.3820318472</coordinates>
                </Point>
                <ExtendedData>
                    <Data name="road">
                        <value>Sha Tin Wai Road</value>
                    </Data>
                    <Data name="quarter">
                        <value>Ngau Pei Sha</value>
                    </Data>
                    <Data name="municipality">
                        <value>New Territories</value>
                    </Data>
                    <Data name="house_number">
                        <value>138</value>
                    </Data>
                    <Data name="hamlet">
                        <value>Ngau Pei Sha Village</value>
                    </Data>
                    <Data name="city">
                        <value>Sha Tin District</value>
                    </Data>
                    <Data name="ISO3166-2-lvl3">
                        <value>CN-HK</value>
                    </Data>
                    <Data name="village">
                        <value>Chap Wai Kon Village</value>
                    </Data>
                    <Data name="amenity">
                        <value>Hong Kong School of Motoring</value>
                    </Data>
                    <Data name="country">
                        <value>China</value>
                    </Data>
                    <Data name="state">
                        <value>Hong Kong</value>
                    </Data>
                    <Data name="country_code">
                        <value>cn</value>
                    </Data>
                </ExtendedData>
            </Placemark>
            <Placemark>
                <address>Chun Wang Street, Tseung Kwan O INNOPARK, Tai Chik Sha, Sai Kung District, New Territories, Hong Kong, China</address>
                <Point>
                    <coordinates>114.2713370988,22.2823808792</coordinates>
                </Point>
                <ExtendedData>
                    <Data name="road">
                        <value>Chun Wang Street</value>
                    </Data>
                    <Data name="quarter">
                        <value>Tseung Kwan O INNOPARK</value>
                    </Data>
                    <Data name="municipality">
                        <value>New Territories</value>
                    </Data>
                    <Data name="suburb">
                        <value>Tai Chik Sha</value>
                    </Data>
                    <Data name="city">
                        <value>Sai Kung District</value>
                    </Data>
                    <Data name="ISO3166-2-lvl3">
                        <value>CN-HK</value>
                    </Data>
                    <Data name="country">
                        <value>China</value>
                    </Data>
                    <Data name="state">
                        <value>Hong Kong</value>
                    </Data>
                    <Data name="country_code">
                        <value>cn</value>
                    </Data>
                </ExtendedData>
            </Placemark>
            <Placemark>
                <address>Po Yap Road, Tseung Kwan O South, Tseung Kwan O Town Centre, Tseung Kwan O, Sai Kung District, New Territories, Hong Kong, China</address>
                <Point>
                    <coordinates>114.2612748022,22.3072984116</coordinates>
                </Point>
                <ExtendedData>
                    <Data name="road">
                        <value>Po Yap Road</value>
                    </Data>
                    <Data name="quarter">
                        <value>Tseung Kwan O South</value>
                    </Data>
                    <Data name="town">
                        <value>Tseung Kwan O</value>
                    </Data>
                    <Data name="municipality">
                        <value>New Territories</value>
                    </Data>
                    <Data name="suburb">
                        <value>Tseung Kwan O Town Centre</value>
                    </Data>
                    <Data name="city">
                        <value>Sai Kung District</value>
                    </Data>
                    <Data name="ISO3166-2-lvl3">
                        <value>CN-HK</value>
                    </Data>
                    <Data name="country">
                        <value>China</value>
                    </Data>
                    <Data name="state">
                        <value>Hong Kong</value>
                    </Data>
                    <Data name="country_code">
                        <value>cn</value>
                    </Data>
                </ExtendedData>
            </Placemark>
            <Placemark>
                <address>Tseung Kwan O Public Transport Interchange, Tong Tak Street, Tseung Kwan O South, Tseung Kwan O Town Centre, Tseung Kwan O, Sai Kung District, New Territories, Hong Kong, China</address>
                <Point>
                    <coordinates>114.2603948204,22.3087679103</coordinates>
                </Point>
                <ExtendedData>
                    <Data name="road">
                        <value>Tong Tak Street</value>
                    </Data>
                    <Data name="quarter">
                        <value>Tseung Kwan O South</value>
                    </Data>
                    <Data name="town">
                        <value>Tseung Kwan O</value>
                    </Data>
                    <Data name="municipality">
                        <value>New Territories</value>
                    </Data>
                    <Data name="suburb">
                        <value>Tseung Kwan O Town Centre</value>
                    </Data>
                    <Data name="city">
                        <value>Sai Kung District</value>
                    </Data>
                    <Data name="ISO3166-2-lvl3">
                        <value>CN-HK</value>
                    </Data>
                    <Data name="amenity">
                        <value>Tseung Kwan O Public Transport Interchange</value>
                    </Data>
                    <Data name="country">
                        <value>China</value>
                    </Data>
                    <Data name="state">
                        <value>Hong Kong</value>
                    </Data>
                    <Data name="country_code">
                        <value>cn</value>
                    </Data>
                </ExtendedData>
            </Placemark>
            <Placemark>
                <address>Chi Shin Street, Tseung Kwan O South, Tseung Kwan O Town Centre, Tseung Kwan O, Sai Kung District, New Territories, Hong Kong, China</address>
                <Point>
                    <coordinates>114.2638704011,22.3078573627</coordinates>
                </Point>
                <ExtendedData>
                    <Data name="road">
                        <value>Chi Shin Street</value>
                    </Data>
                    <Data name="quarter">
                        <value>Tseung Kwan O South</value>
                    </Data>
                    <Data name="town">
                        <value>Tseung Kwan O</value>
                    </Data>
                    <Data name="municipality">
                        <value>New Territories</value>
                    </Data>
                    <Data name="suburb">
                        <value>Tseung Kwan O Town Centre</value>
                    </Data>
                    <Data name="city">
                        <value>Sai Kung District</value>
                    </Data>
                    <Data name="ISO3166-2-lvl3">
                        <value>CN-HK</value>
                    </Data>
                    <Data name="country">
                        <value>China</value>
                    </Data>
                    <Data name="state">
                        <value>Hong Kong</value>
                    </Data>
                    <Data name="country_code">
                        <value>cn</value>
                    </Data>
                </ExtendedData>
            </Placemark>
            <Placemark>
                <address>Chun Wang Street, Tseung Kwan O INNOPARK, Tai Chik Sha, Sai Kung District, New Territories, Hong Kong, China</address>
                <Point>
                    <coordinates>114.2713223363,22.2823808083</coordinates>
                </Point>
                <ExtendedData>
                    <Data name="road">
                        <value>Chun Wang Street</value>
                    </Data>
                    <Data name="quarter">
                        <value>Tseung Kwan O INNOPARK</value>
                    </Data>
                    <Data name="municipality">
                        <value>New Territories</value>
                    </Data>
                    <Data name="suburb">
                        <value>Tai Chik Sha</value>
                    </Data>
                    <Data name="city">
                        <value>Sai Kung District</value>
                    </Data>
                    <Data name="ISO3166-2-lvl3">
                        <value>CN-HK</value>
                    </Data>
                    <Data name="country">
                        <value>China</value>
                    </Data>
                    <Data name="state">
                        <value>Hong Kong</value>
                    </Data>
                    <Data name="country_code">
                        <value>cn</value>
                    </Data>
                </ExtendedData>
            </Placemark>
            <Placemark>
                <address>Sha Lek Highway, Ngau Pei Sha, Ngau Pei Sha Village, Chap Wai Kon Village, Sha Tin District, New Territories, Hong Kong, China</address>
                <Point>
                    <coordinates>114.2089638320,22.3811198152</coordinates>
                </Point>
                <ExtendedData>
                    <Data name="road">
                        <value>Sha Lek Highway</value>
                    </Data>
                    <Data name="quarter">
                        <value>Ngau Pei Sha</value>
                    </Data>
                    <Data name="municipality">
                        <value>New Territories</value>
                    </Data>
                    <Data name="hamlet">
                        <value>Ngau Pei Sha Village</value>
                    </Data>
                    <Data name="city">
                        <value>Sha Tin District</value>
                    </Data>
                    <Data name="ISO3166-2-lvl3">
                        <value>CN-HK</value>
                    </Data>
                    <Data name="village">
                        <value>Chap Wai Kon Village</value>
                    </Data>
                    <Data name="country">
                        <value>China</value>
                    </Data>
                    <Data name="state">
                        <value>Hong Kong</value>
                    </Data>
                    <Data name="country_code">
                        <value>cn</value>
                    </Data>
                </ExtendedData>
            </Placemark>
            <Placemark>
                <Point>
                    <coordinates>114.1878765642,22.3755904493</coordinates>
                </Point>
            </Placemark>
            <Placemark>
                <address>Che Kung Miu Road, Tai Wai Hui, Tai Wai, Tin Sam, Sha Tin District, New Territories, Hong Kong, China</address>
                <Point>
                    <coordinates>114.1796541591,22.3719170632</coordinates>
                </Point>
                <ExtendedData>
                    <Data name="road">
                        <value>Che Kung Miu Road</value>
                    </Data>
                    <Data name="quarter">
                        <value>Tai Wai Hui</value>
                    </Data>
                    <Data name="municipality">
                        <value>New Territories</value>
                    </Data>
                    <Data name="suburb">
                        <value>Tai Wai</value>
                    </Data>
                    <Data name="city">
                        <value>Sha Tin District</value>
                    </Data>
                    <Data name="ISO3166-2-lvl3">
                        <value>CN-HK</value>
                    </Data>
                    <Data name="village">
                        <value>Tin Sam</value>
                    </Data>
                    <Data name="country">
                        <value>China</value>
                    </Data>
                    <Data name="state">
                        <value>Hong Kong</value>
                    </Data>
                    <Data name="country_code">
                        <value>cn</value>
                    </Data>
                    <Data name="routingVisited">
                        <value>false</value>
                    </Data>
                </ExtendedData>
            </Placemark>
            <Placemark>
                <address>PLK Dr. Jimmy Wong Chi-ho (Tin Sum Valley) Primary School, Tin Sam Street, Hung Mui Kuk, Hung Mui Kuk Tsuen, Tin Sam, Sha Tin District, New Territories, Hong Kong, 000000, China</address>
                <Point>
                    <coordinates>114.1766471124,22.3670899227</coordinates>
                </Point>
                <ExtendedData>
                    <Data name="road">
                        <value>Tin Sam Street</value>
                    </Data>
                    <Data name="quarter">
                        <value>Hung Mui Kuk</value>
                    </Data>
                    <Data name="municipality">
                        <value>New Territories</value>
                    </Data>
                    <Data name="isolated_dwelling">
                        <value>Hung Mui Kuk Tsuen</value>
                    </Data>
                    <Data name="postcode">
                        <value>000000</value>
                    </Data>
                    <Data name="city">
                        <value>Sha Tin District</value>
                    </Data>
                    <Data name="ISO3166-2-lvl3">
                        <value>CN-HK</value>
                    </Data>
                    <Data name="village">
                        <value>Tin Sam</value>
                    </Data>
                    <Data name="amenity">
                        <value>PLK Dr. Jimmy Wong Chi-ho (Tin Sum Valley) Primary School</value>
                    </Data>
                    <Data name="country">
                        <value>China</value>
                    </Data>
                    <Data name="state">
                        <value>Hong Kong</value>
                    </Data>
                    <Data name="country_code">
                        <value>cn</value>
                    </Data>
                </ExtendedData>
            </Placemark>
            <Placemark>
                <address>Hin Keng, Che Kung Miu Road, Hin Tin, Tai Wai, Hin Tin Village, Sha Tin District, New Territories, Hong Kong, 000000, China</address>
                <Point>
                    <coordinates>114.1710610469,22.3625758684</coordinates>
                </Point>
                <ExtendedData>
                    <Data name="road">
                        <value>Che Kung Miu Road</value>
                    </Data>
                    <Data name="municipality">
                        <value>New Territories</value>
                    </Data>
                    <Data name="suburb">
                        <value>Tai Wai</value>
                    </Data>
                    <Data name="postcode">
                        <value>000000</value>
                    </Data>
                    <Data name="city">
                        <value>Sha Tin District</value>
                    </Data>
                    <Data name="neighbourhood">
                        <value>Hin Tin</value>
                    </Data>
                    <Data name="ISO3166-2-lvl3">
                        <value>CN-HK</value>
                    </Data>
                    <Data name="village">
                        <value>Hin Tin Village</value>
                    </Data>
                    <Data name="amenity">
                        <value>Hin Keng</value>
                    </Data>
                    <Data name="country">
                        <value>China</value>
                    </Data>
                    <Data name="state">
                        <value>Hong Kong</value>
                    </Data>
                    <Data name="country_code">
                        <value>cn</value>
                    </Data>
                </ExtendedData>
            </Placemark>
        </Folder>
        <Document>
            <name>60.2 km; 01:12 h (OSRM)</name>
            <Placemark>
                <name>Route</name>
                <LineString>
                    <coordinates>114.1707530000,22.3627350000 114.1707000000,22.3626550000 114.1706440000,22.3625480000 114.1706170000,22.3624690000 114.1706210000,22.3624480000 114.1706130000,22.3624110000 114.1705930000,22.3623820000 114.1705690000,22.3623640000 114.1705350000,22.3623510000 114.1704970000,22.3623500000 114.1704590000,22.3623630000 114.1704310000,22.3623850000 114.1704120000,22.3624150000 114.1704060000,22.3624430000 114.1704100000,22.3624740000 114.1704240000,22.3625030000 114.1704530000,22.3625310000 114.1704900000,22.3625460000 114.1705230000,22.3625600000 114.1705370000,22.3625750000 114.1705930000,22.3626670000 114.1706820000,22.3628040000 114.1707730000,22.3629210000 114.1708090000,22.3629610000 114.1709170000,22.3630800000 114.1711450000,22.3633480000 114.1711640000,22.3633710000 114.1712440000,22.3634570000 114.1713290000,22.3635550000 114.1713550000,22.3635820000 114.1719960000,22.3642530000 114.1720590000,22.3643190000 114.1726670000,22.3649960000 114.1726860000,22.3650170000 114.1726970000,22.3650300000 114.1731440000,22.3655270000 114.1733190000,22.3657220000 114.1735890000,22.3660240000 114.1736420000,22.3661130000 114.1736630000,22.3661470000 114.1737600000,22.3663070000 114.1738770000,22.3665110000 114.1741200000,22.3670500000 114.1742970000,22.3674840000 114.1743630000,22.3676440000 114.1744030000,22.3677530000 114.1745030000,22.3677110000 114.1745890000,22.3676720000 114.1749670000,22.3675010000 114.1752300000,22.3674010000 114.1753570000,22.3673680000 114.1754650000,22.3673420000 114.1756470000,22.3673420000 114.1758400000,22.3673490000 114.1760170000,22.3673830000 114.1761250000,22.3674210000 114.1762570000,22.3674820000 114.1764280000,22.3675910000 114.1765940000,22.3677030000 114.1768660000,22.3678990000 114.1771290000,22.3680930000 114.1773570000,22.3682410000 114.1775060000,22.3683200000 114.1778830000,22.3684820000 114.1785300000,22.3687350000 114.1786570000,22.3687840000 114.1786990000,22.3688010000 114.1788520000,22.3688650000 114.1789730000,22.3689140000 114.1790960000,22.3689650000 114.1791400000,22.3689830000 114.1792190000,22.3690160000 114.1793200000,22.3690580000 114.1795320000,22.3691460000 114.1798660000,22.3692850000 114.1800710000,22.3693800000 114.1801280000,22.3694060000 114.1802520000,22.3694620000 114.1799830000,22.3699090000 114.1798290000,22.3701470000 114.1797600000,22.3702270000 114.1797020000,22.3702950000 114.1796310000,22.3703770000 114.1794070000,22.3706280000 114.1792130000,22.3708270000 114.1791550000,22.3708850000 114.1790900000,22.3709390000 114.1790210000,22.3709890000 114.1789480000,22.3710340000 114.1789230000,22.3710470000 114.1788660000,22.3710770000 114.1788210000,22.3710970000 114.1786930000,22.3711460000 114.1786470000,22.3711520000 114.1786030000,22.3711630000 114.1785620000,22.3711810000 114.1785240000,22.3712050000 114.1784900000,22.3712340000 114.1784620000,22.3712670000 114.1784400000,22.3713040000 114.1784240000,22.3713440000 114.1784160000,22.3713860000 114.1784140000,22.3714280000 114.1784190000,22.3714700000 114.1784320000,22.3715110000 114.1784510000,22.3715490000 114.1784770000,22.3715840000 114.1785080000,22.3716150000 114.1785440000,22.3716410000 114.1785840000,22.3716620000 114.1786270000,22.3716760000 114.1786720000,22.3716840000 114.1787180000,22.3716860000 114.1787640000,22.3716810000 114.1788080000,22.3716690000 114.1789330000,22.3716800000 114.1790290000,22.3716990000 114.1791220000,22.3717300000 114.1792100000,22.3717720000 114.1792910000,22.3718240000 114.1796900000,22.3720700000 114.1799280000,22.3722150000 114.1800030000,22.3722650000 114.1803550000,22.3724980000 114.1804570000,22.3725650000 114.1808040000,22.3727920000 114.1808750000,22.3728360000 114.1812970000,22.3731030000 114.1814240000,22.3731860000 114.1814860000,22.3732280000 114.1816020000,22.3733030000 114.1821250000,22.3736510000 114.1822240000,22.3737110000 114.1826550000,22.3739710000 114.1827990000,22.3740680000 114.1829780000,22.3741730000 114.1831690000,22.3742760000 114.1833780000,22.3743660000 114.1836150000,22.3744490000 114.1838140000,22.3745070000 114.1839310000,22.3745270000 114.1840760000,22.3745410000 114.1840910000,22.3745430000 114.1841100000,22.3745450000 114.1841860000,22.3745520000 114.1842250000,22.3745560000 114.1842590000,22.3745590000 114.1844900000,22.3745650000 114.1846310000,22.3745650000 114.1847750000,22.3745600000 114.1850630000,22.3745160000 114.1852430000,22.3744910000 114.1854050000,22.3744650000 114.1855390000,22.3744380000 114.1856920000,22.3744180000 114.1857830000,22.3744130000 114.1858660000,22.3744080000 114.1860910000,22.3744030000 114.1861970000,22.3744100000 114.1863290000,22.3744180000 114.1864330000,22.3744240000 114.1864590000,22.3744250000 114.1864740000,22.3744270000 114.1865720000,22.3744370000 114.1866150000,22.3744420000 114.1866690000,22.3744470000 114.1867840000,22.3744710000 114.1868530000,22.3744860000 114.1869140000,22.3744990000 114.1870510000,22.3745410000 114.1871030000,22.3745570000 114.1873080000,22.3746360000 114.1876580000,22.3748320000 114.1876790000,22.3748440000 114.1879170000,22.3749810000 114.1880440000,22.3750540000 114.1879550000,22.3751770000 114.1878580000,22.3753120000 114.1875670000,22.3757140000 114.1871880000,22.3762140000 114.1867090000,22.3768650000 114.1866550000,22.3769480000 114.1865950000,22.3770540000 114.1865600000,22.3771310000 114.1865130000,22.3772770000 114.1864660000,22.3774400000 114.1863960000,22.3776740000 114.1863150000,22.3779510000 114.1862110000,22.3783020000 114.1861910000,22.3783860000 114.1861570000,22.3785220000 114.1861280000,22.3786300000 114.1862460000,22.3786580000 114.1863850000,22.3786980000 114.1866410000,22.3787610000 114.1867200000,22.3787830000 114.1867920000,22.3788010000 114.1868610000,22.3788120000 114.1872760000,22.3788950000 114.1873140000,22.3789190000 114.1873370000,22.3789420000 114.1873510000,22.3789630000 114.1873630000,22.3789850000 114.1873680000,22.3790190000 114.1872310000,22.3795680000 114.1872250000,22.3795930000 114.1872060000,22.3796700000 114.1872010000,22.3796920000 114.1871880000,22.3797420000 114.1870590000,22.3802590000 114.1870510000,22.3803640000 114.1870680000,22.3804700000 114.1871320000,22.3806040000 114.1871340000,22.3806070000 114.1872380000,22.3807330000 114.1874000000,22.3808900000 114.1875190000,22.3810030000 114.1875670000,22.3810480000 114.1876230000,22.3811070000 114.1877070000,22.3811950000 114.1880110000,22.3815120000 114.1881680000,22.3816760000 114.1882830000,22.3817950000 114.1885270000,22.3820560000 114.1887230000,22.3822620000 114.1888060000,22.3823360000 114.1888630000,22.3823980000 114.1888870000,22.3824220000 114.1889240000,22.3824690000 114.1889770000,22.3825520000 114.1892700000,22.3828570000 114.1892920000,22.3828790000 114.1897710000,22.3833820000 114.1900660000,22.3831390000 114.1901740000,22.3830490000 114.1901990000,22.3830280000 114.1905260000,22.3827480000 114.1905650000,22.3827140000 114.1906150000,22.3826720000 114.1906470000,22.3826440000 114.1907970000,22.3824940000 114.1908390000,22.3824570000 114.1910420000,22.3822940000 114.1911420000,22.3822690000 114.1911910000,22.3822840000 114.1912740000,22.3823160000 114.1912940000,22.3823370000 114.1913550000,22.3824000000 114.1916670000,22.3827460000 114.1917620000,22.3828570000 114.1918370000,22.3829560000 114.1919500000,22.3828830000 114.1920830000,22.3827980000 114.1923400000,22.3825680000 114.1925810000,22.3823600000 114.1927850000,22.3821830000 114.1934650000,22.3816200000 114.1936030000,22.3815010000 114.1937870000,22.3813590000 114.1939800000,22.3812010000 114.1940760000,22.3811220000 114.1941040000,22.3810990000 114.1941170000,22.3810870000 114.1941370000,22.3810710000 114.1942770000,22.3809600000 114.1943620000,22.3808880000 114.1944750000,22.3807970000 114.1945990000,22.3806940000 114.1946480000,22.3806530000 114.1947670000,22.3805530000 114.1948260000,22.3805040000 114.1948800000,22.3804580000 114.1951120000,22.3802650000 114.1957040000,22.3797870000 114.1957880000,22.3797190000 114.1958040000,22.3797060000 114.1958150000,22.3796970000 114.1960800000,22.3794830000 114.1962690000,22.3793650000 114.1963260000,22.3793410000 114.1966160000,22.3791720000 114.1966570000,22.3791550000 114.1967050000,22.3791340000 114.1967870000,22.3790990000 114.1971620000,22.3789390000 114.1974740000,22.3788240000 114.1975890000,22.3787860000 114.1976660000,22.3787640000 114.1979650000,22.3786900000 114.1982730000,22.3786110000 114.1985130000,22.3785470000 114.1990310000,22.3784200000 114.1991400000,22.3783830000 114.1995400000,22.3782780000 114.1997500000,22.3782230000 114.1998940000,22.3781780000 114.2000230000,22.3781390000 114.2004770000,22.3780210000 114.2006590000,22.3779730000 114.2007640000,22.3779480000 114.2008950000,22.3779250000 114.2010520000,22.3778990000 114.2014060000,22.3778320000 114.2016230000,22.3778180000 114.2017770000,22.3778200000 114.2018660000,22.3778230000 114.2020050000,22.3778290000 114.2021230000,22.3778400000 114.2022110000,22.3778490000 114.2022980000,22.3778610000 114.2023950000,22.3778770000 114.2024990000,22.3778950000 114.2026200000,22.3779190000 114.2029350000,22.3780010000 114.2032790000,22.3781090000 114.2035860000,22.3782100000 114.2038100000,22.3782930000 114.2042240000,22.3784840000 114.2045290000,22.3786500000 114.2048720000,22.3788060000 114.2051940000,22.3790210000 114.2057540000,22.3793840000 114.2076710000,22.3806290000 114.2086660000,22.3813090000 114.2087440000,22.3813880000 114.2089250000,22.3815540000 114.2089710000,22.3815890000 114.2092200000,22.3818000000 114.2094170000,22.3819990000 114.2096370000,22.3822500000 114.2097500000,22.3823790000 114.2098000000,22.3824300000 114.2098520000,22.3824770000 114.2099090000,22.3825210000 114.2099800000,22.3825680000 114.2100500000,22.3826090000 114.2100930000,22.3826300000 114.2101410000,22.3826480000 114.2101910000,22.3826620000 114.2102480000,22.3826740000 114.2103200000,22.3826830000 114.2104000000,22.3826860000 114.2104700000,22.3826820000 114.2105300000,22.3826720000 114.2106630000,22.3826410000 114.2107480000,22.3826070000 114.2108190000,22.3825670000 114.2108810000,22.3825250000 114.2109400000,22.3824760000 114.2109900000,22.3824250000 114.2110360000,22.3823640000 114.2110590000,22.3823240000 114.2110800000,22.3822750000 114.2111010000,22.3822140000 114.2111160000,22.3821540000 114.2111310000,22.3820340000 114.2111310000,22.3820330000 114.2111260000,22.3819340000 114.2111170000,22.3818600000 114.2110380000,22.3816820000 114.2110050000,22.3815340000 114.2107560000,22.3810660000 114.2106940000,22.3809790000 114.2106010000,22.3807770000 114.2104950000,22.3805060000 114.2104530000,22.3803400000 114.2104310000,22.3802510000 114.2104120000,22.3801500000 114.2103920000,22.3800170000 114.2103540000,22.3799000000 114.2103800000,22.3796890000 114.2104250000,22.3794890000 114.2104730000,22.3793300000 114.2105230000,22.3791960000 114.2105290000,22.3791780000 114.2105780000,22.3790510000 114.2106670000,22.3788400000 114.2107470000,22.3786940000 114.2108220000,22.3785570000 114.2109620000,22.3783840000 114.2110450000,22.3782860000 114.2110860000,22.3782430000 114.2112720000,22.3780530000 114.2117400000,22.3776370000 114.2117800000,22.3776010000 114.2118630000,22.3775380000 114.2123110000,22.3771630000 114.2125220000,22.3769600000 114.2128340000,22.3766900000 114.2130050000,22.3764410000 114.2132730000,22.3760500000 114.2133850000,22.3758450000 114.2134900000,22.3756340000 114.2135830000,22.3754400000 114.2136620000,22.3752500000 114.2137340000,22.3750400000 114.2138090000,22.3748200000 114.2138700000,22.3746200000 114.2139200000,22.3744100000 114.2139600000,22.3742100000 114.2139900000,22.3739900000 114.2140100000,22.3738200000 114.2140300000,22.3736200000 114.2140430000,22.3734200000 114.2140470000,22.3732200000 114.2140470000,22.3730200000 114.2140390000,22.3728200000 114.2140200000,22.3725900000 114.2139900000,22.3723500000 114.2139580000,22.3721200000 114.2139100000,22.3718900000 114.2138830000,22.3717800000 114.2083200000,22.3495900000 114.2082620000,22.3493800000 114.2081850000,22.3491100000 114.2081120000,22.3488600000 114.2080360000,22.3486000000 114.2079650000,22.3483650000 114.2078860000,22.3481300000 114.2077980000,22.3478750000 114.2077160000,22.3476550000 114.2076370000,22.3474500000 114.2075600000,22.3472510000 114.2074820000,22.3470500000 114.2074320000,22.3469220000 114.2073200000,22.3466400000 114.2072320000,22.3464380000 114.2071500000,22.3462500000 114.2070620000,22.3460490000 114.2069700000,22.3458400000 114.2068550000,22.3455880000 114.2067400000,22.3453400000 114.2066200000,22.3451000000 114.2064930000,22.3448500000 114.2063600000,22.3445900000 114.2062700000,22.3444200000 114.2061700000,22.3442500000 114.2060250000,22.3439910000 114.2058840000,22.3437400000 114.2047010000,22.3418120000 114.2045300000,22.3415180000 114.2044760000,22.3414270000 114.2044380000,22.3413580000 114.2043690000,22.3412250000 114.2042900000,22.3410970000 114.2041990000,22.3409580000 114.2041190000,22.3408110000 114.2040990000,22.3407730000 114.2040550000,22.3406910000 114.2039800000,22.3405480000 114.2039120000,22.3404510000 114.2038590000,22.3403550000 114.2038170000,22.3402780000 114.2037820000,22.3402120000 114.2037450000,22.3401470000 114.2037170000,22.3400990000 114.2037000000,22.3400640000 114.2036740000,22.3400040000 114.2036540000,22.3399550000 114.2036340000,22.3398990000 114.2036080000,22.3398160000 114.2035650000,22.3396780000 114.2035280000,22.3395060000 114.2035010000,22.3393390000 114.2034800000,22.3390750000 114.2034760000,22.3389440000 114.2034770000,22.3388050000 114.2034800000,22.3387400000 114.2034820000,22.3386830000 114.2034870000,22.3385930000 114.2034990000,22.3385110000 114.2035120000,22.3384170000 114.2035280000,22.3383250000 114.2035390000,22.3382550000 114.2035550000,22.3381730000 114.2035740000,22.3380710000 114.2036030000,22.3379420000 114.2036490000,22.3377920000 114.2036880000,22.3376760000 114.2037200000,22.3375820000 114.2037930000,22.3373920000 114.2038410000,22.3372750000 114.2038850000,22.3371860000 114.2039960000,22.3369550000 114.2040660000,22.3368040000 114.2041810000,22.3365570000 114.2042030000,22.3365080000 114.2042150000,22.3364830000 114.2042730000,22.3363500000 114.2043990000,22.3360690000 114.2044590000,22.3359240000 114.2045980000,22.3355830000 114.2046160000,22.3355370000 114.2046440000,22.3354700000 114.2048730000,22.3349550000 114.2049080000,22.3348770000 114.2049600000,22.3347510000 114.2050320000,22.3345780000 114.2050640000,22.3345000000 114.2051070000,22.3343920000 114.2051230000,22.3343370000 114.2051450000,22.3342680000 114.2051550000,22.3342330000 114.2051890000,22.3341200000 114.2052030000,22.3340550000 114.2052200000,22.3339490000 114.2052370000,22.3338640000 114.2052550000,22.3337280000 114.2052650000,22.3335930000 114.2052630000,22.3335160000 114.2052580000,22.3333320000 114.2052550000,22.3331870000 114.2052410000,22.3330880000 114.2052360000,22.3330420000 114.2052150000,22.3328370000 114.2052120000,22.3328000000 114.2052100000,22.3327610000 114.2052070000,22.3326740000 114.2052010000,22.3324970000 114.2052000000,22.3324510000 114.2051870000,22.3322190000 114.2051810000,22.3321340000 114.2051780000,22.3320810000 114.2051640000,22.3317700000 114.2051480000,22.3313810000 114.2051460000,22.3313320000 114.2051430000,22.3311520000 114.2051400000,22.3306860000 114.2051400000,22.3305550000 114.2051310000,22.3303030000 114.2051110000,22.3298300000 114.2051080000,22.3297680000 114.2051170000,22.3295330000 114.2051390000,22.3293240000 114.2051500000,22.3292710000 114.2051600000,22.3292080000 114.2052090000,22.3289700000 114.2052630000,22.3287390000 114.2053080000,22.3284440000 114.2053110000,22.3282570000 114.2052980000,22.3280500000 114.2052590000,22.3278390000 114.2051810000,22.3276170000 114.2050770000,22.3273830000 114.2047580000,22.3268260000 114.2046890000,22.3267030000 114.2046160000,22.3265220000 114.2045670000,22.3263810000 114.2045440000,22.3262680000 114.2043350000,22.3252700000 114.2043050000,22.3250260000 114.2042960000,22.3248660000 114.2043020000,22.3247010000 114.2043210000,22.3244120000 114.2044120000,22.3237360000 114.2044900000,22.3231760000 114.2045590000,22.3225480000 114.2046040000,22.3223500000 114.2046700000,22.3221590000 114.2047860000,22.3219400000 114.2049050000,22.3217510000 114.2050760000,22.3215480000 114.2052900000,22.3213410000 114.2061850000,22.3205420000 114.2063330000,22.3203840000 114.2064920000,22.3202130000 114.2067840000,22.3198740000 114.2081000000,22.3183510000 114.2081700000,22.3182690000 114.2082300000,22.3182000000 114.2082770000,22.3181420000 114.2083860000,22.3180500000 114.2085220000,22.3179360000 114.2085860000,22.3178820000 114.2086700000,22.3178110000 114.2087440000,22.3177540000 114.2089040000,22.3176590000 114.2090420000,22.3175720000 114.2091510000,22.3175130000 114.2093070000,22.3174380000 114.2094850000,22.3173620000 114.2095800000,22.3173240000 114.2096840000,22.3172880000 114.2097930000,22.3172510000 114.2100410000,22.3171920000 114.2101780000,22.3171680000 114.2102900000,22.3171520000 114.2104880000,22.3171320000 114.2105780000,22.3171280000 114.2114570000,22.3170970000 114.2115240000,22.3170920000 114.2115830000,22.3170870000 114.2116790000,22.3170760000 114.2117660000,22.3170630000 114.2118700000,22.3170480000 114.2119610000,22.3170280000 114.2120410000,22.3170080000 114.2121110000,22.3169890000 114.2122780000,22.3169410000 114.2123740000,22.3169050000 114.2124740000,22.3168660000 114.2125880000,22.3168170000 114.2126860000,22.3167710000 114.2128020000,22.3167100000 114.2128780000,22.3166650000 114.2129570000,22.3166170000 114.2130380000,22.3165620000 114.2131120000,22.3165080000 114.2131720000,22.3164640000 114.2132510000,22.3164000000 114.2134680000,22.3162080000 114.2138690000,22.3158060000 114.2142290000,22.3154490000 114.2144950000,22.3151780000 114.2145580000,22.3151140000 114.2148470000,22.3148200000 114.2153530000,22.3142870000 114.2163560000,22.3132420000 114.2173930000,22.3121960000 114.2177430000,22.3118360000 114.2181890000,22.3113600000 114.2187700000,22.3106940000 114.2194920000,22.3097790000 114.2201190000,22.3089800000 114.2206900000,22.3082660000 114.2208580000,22.3080590000 114.2211120000,22.3077160000 114.2211320000,22.3076900000 114.2212710000,22.3074870000 114.2216420000,22.3069660000 114.2217420000,22.3068270000 114.2218470000,22.3066940000 114.2219790000,22.3066100000 114.2221060000,22.3065310000 114.2222180000,22.3064690000 114.2222730000,22.3064390000 114.2223050000,22.3064210000 114.2223260000,22.3064100000 114.2223550000,22.3063970000 114.2223750000,22.3063870000 114.2223960000,22.3063770000 114.2224760000,22.3063430000 114.2225630000,22.3063050000 114.2226330000,22.3062800000 114.2226900000,22.3062600000 114.2227780000,22.3062390000 114.2228480000,22.3062240000 114.2229300000,22.3062070000 114.2230060000,22.3061970000 114.2230930000,22.3061880000 114.2231780000,22.3061830000 114.2232660000,22.3061820000 114.2233470000,22.3061850000 114.2234380000,22.3061870000 114.2235430000,22.3061940000 114.2236170000,22.3062050000 114.2237050000,22.3062210000 114.2237610000,22.3062320000 114.2238520000,22.3062610000 114.2239320000,22.3062940000 114.2240020000,22.3063260000 114.2240950000,22.3063750000 114.2241930000,22.3064020000 114.2242220000,22.3064100000 114.2242510000,22.3064200000 114.2243190000,22.3064430000 114.2244130000,22.3065110000 114.2245540000,22.3063590000 114.2246340000,22.3062720000 114.2246650000,22.3062350000 114.2247100000,22.3061860000 114.2247530000,22.3061420000 114.2247870000,22.3061010000 114.2248740000,22.3060090000 114.2249580000,22.3059160000 114.2250960000,22.3057500000 114.2251730000,22.3056570000 114.2255190000,22.3052610000 114.2255440000,22.3052330000 114.2255790000,22.3051930000 114.2261490000,22.3045420000 114.2263350000,22.3043330000 114.2265220000,22.3041240000 114.2265510000,22.3040900000 114.2266750000,22.3039520000 114.2267320000,22.3038900000 114.2268920000,22.3036890000 114.2269590000,22.3035710000 114.2270010000,22.3034480000 114.2270250000,22.3032480000 114.2270590000,22.3030990000 114.2270720000,22.3029560000 114.2270820000,22.3027540000 114.2270940000,22.3025350000 114.2271570000,22.3024730000 114.2272360000,22.3023190000 114.2272630000,22.3022770000 114.2274340000,22.3020150000 114.2275330000,22.3018660000 114.2278290000,22.3013970000 114.2279180000,22.3012390000 114.2285220000,22.3001440000 114.2287070000,22.2998480000 114.2288890000,22.2996330000 114.2289930000,22.2995310000 114.2291340000,22.2994150000 114.2292100000,22.2993570000 114.2293820000,22.2992520000 114.2294480000,22.2992080000 114.2295780000,22.2991440000 114.2296430000,22.2991140000 114.2297030000,22.2991000000 114.2298160000,22.2990850000 114.2299070000,22.2990930000 114.2299820000,22.2991050000 114.2300520000,22.2991290000 114.2301730000,22.2991680000 114.2301910000,22.2992140000 114.2302220000,22.2992540000 114.2302640000,22.2992850000 114.2304580000,22.2999510000 114.2304900000,22.3000890000 114.2305940000,22.3003420000 114.2307280000,22.3004880000 114.2308270000,22.3006120000 114.2309750000,22.3007520000 114.2310820000,22.3008290000 114.2312210000,22.3009040000 114.2313630000,22.3009660000 114.2320240000,22.3011620000 114.2325960000,22.3013320000 114.2327770000,22.3013980000 114.2329220000,22.3014790000 114.2330380000,22.3015720000 114.2331210000,22.3016720000 114.2331780000,22.3017750000 114.2332070000,22.3018660000 114.2332100000,22.3019750000 114.2332020000,22.3020720000 114.2331590000,22.3021690000 114.2330900000,22.3022540000 114.2330220000,22.3023150000 114.2329110000,22.3023890000 114.2328180000,22.3024240000 114.2326690000,22.3024680000 114.2325090000,22.3024940000 114.2324350000,22.3025080000 114.2323280000,22.3025440000 114.2319010000,22.3025450000 114.2316380000,22.3025460000 114.2311970000,22.3025000000 114.2310310000,22.3024540000 114.2309070000,22.3024060000 114.2308130000,22.3023470000 114.2307340000,22.3022840000 114.2306730000,22.3021920000 114.2306270000,22.3021000000 114.2306260000,22.3019770000 114.2306510000,22.3018730000 114.2306960000,22.3017660000 114.2307610000,22.3016930000 114.2308200000,22.3016410000 114.2309250000,22.3015910000 114.2310430000,22.3015550000 114.2312140000,22.3015460000 114.2313660000,22.3015630000 114.2315760000,22.3016140000 114.2318180000,22.3016950000 114.2319610000,22.3017500000 114.2321120000,22.3017970000 114.2323520000,22.3018620000 114.2327970000,22.3021250000 114.2329030000,22.3021980000 114.2332570000,22.3024120000 114.2334350000,22.3025210000 114.2336050000,22.3026330000 114.2337230000,22.3027040000 114.2338530000,22.3027700000 114.2339480000,22.3028360000 114.2350390000,22.3035570000 114.2355600000,22.3038460000 114.2361150000,22.3041060000 114.2365270000,22.3042620000 114.2369690000,22.3044030000 114.2378330000,22.3045890000 114.2384770000,22.3046690000 114.2389000000,22.3046890000 114.2393090000,22.3046920000 114.2398120000,22.3046420000 114.2402990000,22.3045780000 114.2409200000,22.3044530000 114.2415050000,22.3042620000 114.2420710000,22.3040460000 114.2426220000,22.3037960000 114.2430420000,22.3035640000 114.2435100000,22.3033130000 114.2441200000,22.3029960000 114.2447780000,22.3026500000 114.2450770000,22.3024930000 114.2454880000,22.3022770000 114.2460480000,22.3019840000 114.2493190000,22.3002670000 114.2495190000,22.3001510000 114.2497220000,22.3000320000 114.2500460000,22.2998260000 114.2503440000,22.2996220000 114.2506000000,22.2994330000 114.2507840000,22.2992910000 114.2509620000,22.2991440000 114.2511500000,22.2989840000 114.2514050000,22.2987510000 114.2527120000,22.2975060000 114.2528250000,22.2974010000 114.2528650000,22.2973630000 114.2529660000,22.2972660000 114.2530620000,22.2971880000 114.2532670000,22.2970100000 114.2534430000,22.2968570000 114.2536090000,22.2967330000 114.2537990000,22.2965920000 114.2538430000,22.2965620000 114.2540160000,22.2964260000 114.2541560000,22.2963260000 114.2542290000,22.2962790000 114.2543670000,22.2961980000 114.2545560000,22.2960930000 114.2548180000,22.2959580000 114.2550160000,22.2958650000 114.2552290000,22.2957740000 114.2560730000,22.2954520000 114.2562970000,22.2953620000 114.2575780000,22.2948040000 114.2576780000,22.2947630000 114.2578260000,22.2947010000 114.2580110000,22.2946250000 114.2582560000,22.2945350000 114.2586260000,22.2943760000 114.2595260000,22.2939890000 114.2601420000,22.2937320000 114.2620300000,22.2929460000 114.2626520000,22.2926910000 114.2627960000,22.2926360000 114.2630720000,22.2925390000 114.2633060000,22.2924650000 114.2635400000,22.2923970000 114.2638030000,22.2923320000 114.2640320000,22.2922750000 114.2643050000,22.2922240000 114.2646960000,22.2921600000 114.2649510000,22.2921240000 114.2651380000,22.2921050000 114.2655210000,22.2920760000 114.2657140000,22.2920670000 114.2660270000,22.2920630000 114.2661850000,22.2920620000 114.2664150000,22.2920610000 114.2667840000,22.2920610000 114.2668760000,22.2920620000 114.2686830000,22.2920680000 114.2689950000,22.2920710000 114.2691190000,22.2920750000 114.2694620000,22.2920760000 114.2697820000,22.2920800000 114.2703060000,22.2921000000 114.2704230000,22.2921010000 114.2717940000,22.2921040000 114.2721800000,22.2921060000 114.2722050000,22.2921070000 114.2723740000,22.2921080000 114.2731690000,22.2920990000 114.2734600000,22.2920960000 114.2736030000,22.2920940000 114.2736020000,22.2919710000 114.2736100000,22.2915030000 114.2736120000,22.2911130000 114.2736420000,22.2908820000 114.2736980000,22.2906220000 114.2738360000,22.2902910000 114.2739870000,22.2899510000 114.2740420000,22.2898430000 114.2746770000,22.2887010000 114.2750410000,22.2880270000 114.2752660000,22.2873930000 114.2753850000,22.2869700000 114.2754770000,22.2865530000 114.2755620000,22.2858890000 114.2755900000,22.2852300000 114.2755990000,22.2848880000 114.2756100000,22.2845710000 114.2756100000,22.2840500000 114.2755690000,22.2837260000 114.2754800000,22.2833620000 114.2753290000,22.2829600000 114.2748700000,22.2819840000 114.2745230000,22.2813080000 114.2744760000,22.2812000000 114.2743720000,22.2812330000 114.2741710000,22.2813110000 114.2730240000,22.2817550000 114.2714840000,22.2823850000 114.2713780000,22.2824440000 114.2713320000,22.2824690000 114.2712440000,22.2825360000 114.2705260000,22.2828220000 114.2697180000,22.2831440000 114.2699730000,22.2837400000 114.2702770000,22.2844050000 114.2707460000,22.2854460000 114.2711160000,22.2862670000 114.2711270000,22.2862910000 114.2714050000,22.2869070000 114.2715850000,22.2873050000 114.2716010000,22.2873440000 114.2716120000,22.2873660000 114.2718160000,22.2877690000 114.2718700000,22.2878840000 114.2718840000,22.2880380000 114.2719850000,22.2882780000 114.2720610000,22.2884420000 114.2721830000,22.2886970000 114.2723280000,22.2889380000 114.2724260000,22.2890600000 114.2725320000,22.2891850000 114.2726440000,22.2892880000 114.2727590000,22.2893660000 114.2729140000,22.2894600000 114.2730770000,22.2895380000 114.2734450000,22.2897020000 114.2735090000,22.2897720000 114.2735450000,22.2898290000 114.2735760000,22.2898790000 114.2735970000,22.2899260000 114.2736270000,22.2899950000 114.2736500000,22.2901100000 114.2736440000,22.2902290000 114.2735480000,22.2906240000 114.2734870000,22.2909720000 114.2734530000,22.2912710000 114.2734590000,22.2915930000 114.2734600000,22.2919700000 114.2734600000,22.2920960000 114.2734620000,22.2921370000 114.2734600000,22.2924110000 114.2734770000,22.2934150000 114.2734620000,22.2939510000 114.2734550000,22.2941650000 114.2734550000,22.2941890000 114.2734540000,22.2942110000 114.2734520000,22.2942510000 114.2734460000,22.2943540000 114.2734240000,22.2947600000 114.2733900000,22.2951840000 114.2733560000,22.2953670000 114.2733460000,22.2954250000 114.2733120000,22.2955250000 114.2732830000,22.2956110000 114.2731440000,22.2959790000 114.2729710000,22.2963200000 114.2727150000,22.2967790000 114.2726980000,22.2968100000 114.2726780000,22.2968450000 114.2726590000,22.2968810000 114.2723600000,22.2974140000 114.2720620000,22.2979340000 114.2720050000,22.2980310000 114.2716930000,22.2985870000 114.2714340000,22.2991520000 114.2713980000,22.2992430000 114.2713560000,22.2993720000 114.2713200000,22.2994990000 114.2712920000,22.2996280000 114.2712780000,22.2997340000 114.2712730000,22.2998150000 114.2712730000,22.2999080000 114.2712790000,22.3000100000 114.2712920000,22.3001140000 114.2713170000,22.3002260000 114.2713420000,22.3003120000 114.2713760000,22.3004040000 114.2714100000,22.3004830000 114.2714540000,22.3005710000 114.2715060000,22.3006600000 114.2715650000,22.3007470000 114.2716290000,22.3008290000 114.2716920000,22.3009030000 114.2720540000,22.3012740000 114.2721100000,22.3013580000 114.2721700000,22.3014560000 114.2722180000,22.3015480000 114.2722600000,22.3016390000 114.2722870000,22.3017200000 114.2723100000,22.3018010000 114.2723240000,22.3018760000 114.2723330000,22.3019510000 114.2723380000,22.3020390000 114.2723380000,22.3021400000 114.2723310000,22.3022300000 114.2723170000,22.3023370000 114.2722910000,22.3024610000 114.2722710000,22.3025330000 114.2722370000,22.3026230000 114.2721930000,22.3027210000 114.2721570000,22.3027880000 114.2721160000,22.3028520000 114.2720440000,22.3029460000 114.2719510000,22.3030510000 114.2718010000,22.3032000000 114.2716110000,22.3033560000 114.2714320000,22.3034970000 114.2711810000,22.3037340000 114.2709060000,22.3040270000 114.2707350000,22.3042800000 114.2704230000,22.3048300000 114.2703260000,22.3050170000 114.2702170000,22.3051850000 114.2700370000,22.3054180000 114.2698560000,22.3055990000 114.2697310000,22.3057090000 114.2696050000,22.3058190000 114.2695010000,22.3059050000 114.2691980000,22.3061630000 114.2690930000,22.3062540000 114.2687290000,22.3065710000 114.2684530000,22.3068920000 114.2684210000,22.3069390000 114.2683380000,22.3070600000 114.2682730000,22.3071550000 114.2681900000,22.3073680000 114.2681050000,22.3075740000 114.2679970000,22.3078510000 114.2679850000,22.3078790000 114.2679130000,22.3080670000 114.2678860000,22.3081290000 114.2678200000,22.3082850000 114.2677810000,22.3083530000 114.2676980000,22.3084950000 114.2676140000,22.3085990000 114.2675350000,22.3086960000 114.2673800000,22.3088370000 114.2672080000,22.3089920000 114.2670550000,22.3091270000 114.2669520000,22.3092110000 114.2668440000,22.3093230000 114.2667450000,22.3094410000 114.2666850000,22.3095120000 114.2666160000,22.3096100000 114.2665880000,22.3096550000 114.2665720000,22.3096820000 114.2665120000,22.3097560000 114.2664540000,22.3098270000 114.2663870000,22.3099280000 114.2663500000,22.3099940000 114.2662890000,22.3101050000 114.2661500000,22.3103550000 114.2660700000,22.3105360000 114.2658780000,22.3110140000 114.2658360000,22.3111190000 114.2657870000,22.3112220000 114.2656940000,22.3113680000 114.2655130000,22.3115070000 114.2654790000,22.3115100000 114.2654450000,22.3115160000 114.2652830000,22.3114580000 114.2651650000,22.3113890000 114.2651170000,22.3113550000 114.2650570000,22.3113070000 114.2650000000,22.3112580000 114.2649540000,22.3112130000 114.2649110000,22.3111670000 114.2648700000,22.3111190000 114.2648100000,22.3110380000 114.2647640000,22.3109700000 114.2647330000,22.3109160000 114.2647020000,22.3108590000 114.2646790000,22.3108110000 114.2646540000,22.3107540000 114.2646340000,22.3107000000 114.2646130000,22.3106280000 114.2645800000,22.3104890000 114.2645690000,22.3104030000 114.2645640000,22.3103250000 114.2645620000,22.3102130000 114.2645910000,22.3097080000 114.2645920000,22.3095930000 114.2645830000,22.3094570000 114.2645680000,22.3093590000 114.2645490000,22.3092740000 114.2645270000,22.3091960000 114.2644930000,22.3091030000 114.2644490000,22.3090040000 114.2644170000,22.3089440000 114.2643740000,22.3088720000 114.2643330000,22.3088070000 114.2642630000,22.3087110000 114.2641780000,22.3085810000 114.2641070000,22.3084450000 114.2641050000,22.3083830000 114.2640900000,22.3083230000 114.2640630000,22.3082670000 114.2640790000,22.3079890000 114.2640600000,22.3077990000 114.2640350000,22.3075450000 114.2640530000,22.3073860000 114.2640240000,22.3072090000 114.2639990000,22.3070500000 114.2637820000,22.3061360000 114.2637260000,22.3059080000 114.2636410000,22.3055780000 114.2635840000,22.3054000000 114.2635530000,22.3053160000 114.2635020000,22.3051900000 114.2634190000,22.3050700000 114.2633280000,22.3049660000 114.2631840000,22.3048770000 114.2630200000,22.3048170000 114.2628020000,22.3047910000 114.2616960000,22.3047920000 114.2615340000,22.3047910000 114.2614260000,22.3047990000 114.2614290000,22.3049660000 114.2614380000,22.3053010000 114.2614390000,22.3055220000 114.2614410000,22.3057810000 114.2614420000,22.3063090000 114.2614390000,22.3064670000 114.2614070000,22.3067580000 114.2613690000,22.3070180000 114.2613340000,22.3073040000 114.2613330000,22.3073130000 114.2613020000,22.3074580000 114.2612820000,22.3075670000 114.2612590000,22.3076800000 114.2612030000,22.3078770000 114.2610210000,22.3084100000 114.2609600000,22.3083920000 114.2609510000,22.3083890000 114.2608910000,22.3083700000 114.2608630000,22.3083610000 114.2606710000,22.3088430000 114.2606050000,22.3088210000 114.2605350000,22.3087970000 114.2604600000,22.3087720000 114.2604010000,22.3087530000 114.2603850000,22.3087480000 114.2603180000,22.3087260000 114.2602520000,22.3087050000 114.2601780000,22.3086820000 114.2601050000,22.3086600000 114.2600760000,22.3087320000 114.2600240000,22.3088910000 114.2604150000,22.3090260000 114.2605490000,22.3090730000 114.2606610000,22.3091120000 114.2606740000,22.3091160000 114.2607360000,22.3091370000 114.2608310000,22.3091700000 114.2608700000,22.3090710000 114.2609270000,22.3089250000 114.2611140000,22.3084400000 114.2613580000,22.3077560000 114.2613690000,22.3077110000 114.2613990000,22.3075930000 114.2614210000,22.3074970000 114.2614540000,22.3073500000 114.2615130000,22.3070480000 114.2615590000,22.3066850000 114.2615570000,22.3063780000 114.2615540000,22.3061770000 114.2615420000,22.3056450000 114.2615350000,22.3049640000 114.2615340000,22.3047910000 114.2616960000,22.3047920000 114.2628020000,22.3047910000 114.2630200000,22.3048170000 114.2631840000,22.3048770000 114.2633280000,22.3049660000 114.2634190000,22.3050700000 114.2635020000,22.3051900000 114.2635530000,22.3053160000 114.2635840000,22.3054000000 114.2636410000,22.3055780000 114.2637260000,22.3059080000 114.2637820000,22.3061360000 114.2639990000,22.3070500000 114.2640240000,22.3072090000 114.2640530000,22.3073860000 114.2640350000,22.3075450000 114.2640050000,22.3076670000 114.2639500000,22.3077940000 114.2639080000,22.3078740000 114.2638690000,22.3079480000 114.2637230000,22.3081210000 114.2636490000,22.3081270000 114.2636020000,22.3081370000 114.2635300000,22.3082230000 114.2634940000,22.3082710000 114.2634680000,22.3083250000 114.2634540000,22.3083820000 114.2634530000,22.3084400000 114.2634610000,22.3084920000 114.2634800000,22.3085420000 114.2635070000,22.3085890000 114.2635670000,22.3086510000 114.2636420000,22.3086960000 114.2637280000,22.3087200000 114.2638180000,22.3087220000 114.2638750000,22.3087110000 114.2639290000,22.3086900000 114.2640320000,22.3087040000 114.2640990000,22.3087260000 114.2641560000,22.3087600000 114.2641970000,22.3087950000 114.2642360000,22.3088370000 114.2642740000,22.3088860000 114.2643070000,22.3089360000 114.2643550000,22.3090260000 114.2644010000,22.3091270000 114.2644300000,22.3092070000 114.2644560000,22.3092920000 114.2644760000,22.3093800000 114.2644900000,22.3094760000 114.2644960000,22.3095600000 114.2644980000,22.3096590000 114.2644960000,22.3097480000 114.2644710000,22.3101120000 114.2644670000,22.3102010000 114.2644670000,22.3102980000 114.2644730000,22.3104070000 114.2644900000,22.3105270000 114.2645220000,22.3106600000 114.2645650000,22.3107850000 114.2646120000,22.3108890000 114.2646630000,22.3109840000 114.2647140000,22.3110660000 114.2647650000,22.3111360000 114.2648110000,22.3111920000 114.2648590000,22.3112460000 114.2649050000,22.3112920000 114.2650380000,22.3114150000 114.2650730000,22.3114540000 114.2650990000,22.3114890000 114.2651220000,22.3115330000 114.2651540000,22.3116110000 114.2651940000,22.3117320000 114.2651810000,22.3117760000 114.2651760000,22.3118210000 114.2651830000,22.3118850000 114.2652040000,22.3119450000 114.2652340000,22.3119940000 114.2652770000,22.3120500000 114.2653370000,22.3121020000 114.2654060000,22.3121330000 114.2654710000,22.3121500000 114.2655400000,22.3121540000 114.2656140000,22.3121440000 114.2657110000,22.3121060000 114.2657910000,22.3120430000 114.2658480000,22.3119610000 114.2658750000,22.3118680000 114.2658750000,22.3118390000 114.2658760000,22.3117980000 114.2659880000,22.3114940000 114.2662060000,22.3109860000 114.2662640000,22.3108500000 114.2663560000,22.3106160000 114.2664300000,22.3104340000 114.2665040000,22.3101990000 114.2666120000,22.3099420000 114.2666810000,22.3098010000 114.2667040000,22.3097360000 114.2667140000,22.3097110000 114.2667310000,22.3096640000 114.2667920000,22.3095740000 114.2668540000,22.3095010000 114.2669390000,22.3094100000 114.2670370000,22.3093040000 114.2671220000,22.3092140000 114.2672680000,22.3090580000 114.2673640000,22.3089680000 114.2674250000,22.3089110000 114.2675770000,22.3087410000 114.2676610000,22.3086490000 114.2677560000,22.3085310000 114.2678420000,22.3083830000 114.2678880000,22.3083030000 114.2679680000,22.3081650000 114.2680030000,22.3080890000 114.2680720000,22.3079090000 114.2680830000,22.3078830000 114.2681980000,22.3076030000 114.2682690000,22.3074130000 114.2683540000,22.3072710000 114.2683890000,22.3072080000 114.2684460000,22.3071090000 114.2685200000,22.3069980000 114.2685590000,22.3069480000 114.2686660000,22.3068090000 114.2688260000,22.3066320000 114.2691640000,22.3063060000 114.2692630000,22.3062240000 114.2696180000,22.3059260000 114.2699740000,22.3056120000 114.2701370000,22.3054570000 114.2703160000,22.3052100000 114.2708130000,22.3043130000 114.2709630000,22.3040770000 114.2712430000,22.3037820000 114.2714990000,22.3035580000 114.2716810000,22.3034110000 114.2719300000,22.3032140000 114.2721120000,22.3030140000 114.2721890000,22.3029010000 114.2722370000,22.3028180000 114.2722750000,22.3027460000 114.2723930000,22.3024720000 114.2724150000,22.3023680000 114.2724260000,22.3022140000 114.2724180000,22.3019670000 114.2723880000,22.3017870000 114.2723630000,22.3016880000 114.2723040000,22.3015360000 114.2722160000,22.3013710000 114.2721420000,22.3012630000 114.2720640000,22.3011670000 114.2719740000,22.3010700000 114.2718330000,22.3009340000 114.2717800000,22.3008800000 114.2717200000,22.3008120000 114.2716600000,22.3007390000 114.2716080000,22.3006700000 114.2715630000,22.3005980000 114.2715300000,22.3005410000 114.2714940000,22.3004690000 114.2714640000,22.3004020000 114.2714350000,22.3003250000 114.2714030000,22.3002230000 114.2713790000,22.3001210000 114.2713620000,22.3000050000 114.2713560000,22.2999010000 114.2713570000,22.2998110000 114.2713650000,22.2997100000 114.2713800000,22.2996050000 114.2714020000,22.2995070000 114.2714250000,22.2994250000 114.2714760000,22.2992740000 114.2715300000,22.2991320000 114.2715870000,22.2989930000 114.2721270000,22.2980860000 114.2724880000,22.2974650000 114.2725260000,22.2973990000 114.2725360000,22.2973810000 114.2728110000,22.2969030000 114.2731050000,22.2963860000 114.2732790000,22.2960300000 114.2734260000,22.2956450000 114.2734510000,22.2955590000 114.2734780000,22.2954520000 114.2734830000,22.2954320000 114.2735640000,22.2949720000 114.2736020000,22.2944950000 114.2736020000,22.2944680000 114.2736030000,22.2943940000 114.2736040000,22.2943240000 114.2736070000,22.2940200000 114.2736060000,22.2934970000 114.2736030000,22.2923780000 114.2736030000,22.2920940000 114.2736020000,22.2919710000 114.2736100000,22.2915030000 114.2736120000,22.2911130000 114.2736420000,22.2908820000 114.2736980000,22.2906220000 114.2738360000,22.2902910000 114.2739870000,22.2899510000 114.2740420000,22.2898430000 114.2746770000,22.2887010000 114.2750410000,22.2880270000 114.2752660000,22.2873930000 114.2753850000,22.2869700000 114.2754770000,22.2865530000 114.2755620000,22.2858890000 114.2755900000,22.2852300000 114.2755990000,22.2848880000 114.2756100000,22.2845710000 114.2756100000,22.2840500000 114.2755690000,22.2837260000 114.2754800000,22.2833620000 114.2753290000,22.2829600000 114.2748700000,22.2819840000 114.2745230000,22.2813080000 114.2744760000,22.2812000000 114.2743720000,22.2812330000 114.2741710000,22.2813110000 114.2730240000,22.2817550000 114.2714840000,22.2823850000 114.2713660000,22.2824500000 114.2713320000,22.2824690000 114.2712440000,22.2825360000 114.2705260000,22.2828220000 114.2697180000,22.2831440000 114.2699730000,22.2837400000 114.2702770000,22.2844050000 114.2707460000,22.2854460000 114.2711160000,22.2862670000 114.2711270000,22.2862910000 114.2714050000,22.2869070000 114.2715850000,22.2873050000 114.2716010000,22.2873440000 114.2716120000,22.2873660000 114.2718160000,22.2877690000 114.2718700000,22.2878840000 114.2718840000,22.2880380000 114.2719850000,22.2882780000 114.2720610000,22.2884420000 114.2721830000,22.2886970000 114.2723280000,22.2889380000 114.2724260000,22.2890600000 114.2725320000,22.2891850000 114.2726440000,22.2892880000 114.2727590000,22.2893660000 114.2729140000,22.2894600000 114.2730770000,22.2895380000 114.2734450000,22.2897020000 114.2735090000,22.2897720000 114.2735450000,22.2898290000 114.2735760000,22.2898790000 114.2735970000,22.2899260000 114.2736270000,22.2899950000 114.2736500000,22.2901100000 114.2736440000,22.2902290000 114.2735480000,22.2906240000 114.2734870000,22.2909720000 114.2734530000,22.2912710000 114.2734590000,22.2915930000 114.2734600000,22.2919700000 114.2731620000,22.2919710000 114.2730840000,22.2919710000 114.2724410000,22.2919790000 114.2723530000,22.2919810000 114.2723220000,22.2919810000 114.2720460000,22.2919860000 114.2710470000,22.2920040000 114.2702340000,22.2920000000 114.2697620000,22.2919840000 114.2694080000,22.2919740000 114.2691200000,22.2919690000 114.2689960000,22.2919660000 114.2686710000,22.2919650000 114.2668760000,22.2919560000 114.2667770000,22.2919570000 114.2664120000,22.2919570000 114.2661760000,22.2919590000 114.2660250000,22.2919630000 114.2657160000,22.2919660000 114.2655310000,22.2919760000 114.2651510000,22.2920030000 114.2649340000,22.2920250000 114.2646820000,22.2920610000 114.2642850000,22.2921210000 114.2640210000,22.2921790000 114.2637930000,22.2922280000 114.2635050000,22.2923020000 114.2631570000,22.2924060000 114.2630250000,22.2924490000 114.2627250000,22.2925560000 114.2619860000,22.2928550000 114.2600980000,22.2936400000 114.2594810000,22.2938980000 114.2585740000,22.2942620000 114.2584820000,22.2942990000 114.2579610000,22.2945110000 114.2577830000,22.2945980000 114.2576310000,22.2946690000 114.2575290000,22.2947150000 114.2563270000,22.2952520000 114.2560250000,22.2953740000 114.2552680000,22.2956590000 114.2551130000,22.2957190000 114.2546060000,22.2959290000 114.2543710000,22.2960260000 114.2542080000,22.2961090000 114.2540570000,22.2961890000 114.2538050000,22.2963340000 114.2535700000,22.2964930000 114.2533340000,22.2966560000 114.2531260000,22.2968010000 114.2528860000,22.2969930000 114.2528100000,22.2970620000 114.2526890000,22.2971720000 114.2526500000,22.2972080000 114.2525190000,22.2973310000 114.2512450000,22.2985380000 114.2509820000,22.2987870000 114.2508090000,22.2989350000 114.2506230000,22.2990860000 114.2504510000,22.2992260000 114.2501900000,22.2994110000 114.2498810000,22.2996270000 114.2496140000,22.2997960000 114.2493950000,22.2999280000 114.2491130000,22.3000860000 114.2476780000,22.3008400000 114.2458770000,22.3017750000 114.2454150000,22.3020140000 114.2449620000,22.3022250000 114.2445750000,22.3024380000 114.2438610000,22.3028180000 114.2436240000,22.3029760000 114.2433630000,22.3031500000 114.2432850000,22.3031870000 114.2430810000,22.3032830000 114.2428730000,22.3033820000 114.2425170000,22.3035510000 114.2419210000,22.3038330000 114.2409940000,22.3041660000 114.2401190000,22.3043420000 114.2396590000,22.3044010000 114.2390970000,22.3044190000 114.2384820000,22.3044110000 114.2376890000,22.3042980000 114.2369830000,22.3041320000 114.2365850000,22.3040070000 114.2361950000,22.3038510000 114.2356950000,22.3036110000 114.2352210000,22.3033410000 114.2341920000,22.3026940000 114.2340320000,22.3026050000 114.2335980000,22.3023120000 114.2334150000,22.3021010000 114.2332450000,22.3019870000 114.2329740000,22.3018130000 114.2324710000,22.3015120000 114.2322280000,22.3013640000 114.2320470000,22.3012540000 114.2318230000,22.3011110000 114.2317050000,22.3009960000 114.2316490000,22.3009500000 114.2315730000,22.3008820000 114.2314190000,22.3007540000 114.2313060000,22.3006590000 114.2312850000,22.3006410000 114.2312670000,22.3006260000 114.2311150000,22.3004980000 114.2309790000,22.3003580000 114.2308540000,22.3002280000 114.2307490000,22.3000930000 114.2306610000,22.2999770000 114.2305920000,22.2999040000 114.2305100000,22.2996130000 114.2304630000,22.2994510000 114.2304530000,22.2992860000 114.2305020000,22.2992490000 114.2305360000,22.2992000000 114.2305500000,22.2991430000 114.2305440000,22.2990850000 114.2305260000,22.2990450000 114.2304990000,22.2990110000 114.2304630000,22.2989830000 114.2304100000,22.2989610000 114.2303510000,22.2989550000 114.2302930000,22.2989660000 114.2302410000,22.2989930000 114.2302010000,22.2990330000 114.2301590000,22.2990160000 114.2301000000,22.2989930000 114.2300310000,22.2989770000 114.2296920000,22.2990080000 114.2295790000,22.2990400000 114.2294960000,22.2990730000 114.2294130000,22.2991140000 114.2293470000,22.2991540000 114.2292810000,22.2992030000 114.2290750000,22.2993470000 114.2289430000,22.2994630000 114.2288200000,22.2995940000 114.2286400000,22.2998030000 114.2284550000,22.3001050000 114.2281910000,22.3005920000 114.2278840000,22.3011770000 114.2277720000,22.3013680000 114.2277260000,22.3014420000 114.2274710000,22.3018330000 114.2273710000,22.3019760000 114.2271670000,22.3022740000 114.2271180000,22.3023660000 114.2270890000,22.3024550000 114.2270940000,22.3025350000 114.2270820000,22.3027540000 114.2270720000,22.3029560000 114.2270590000,22.3030990000 114.2270250000,22.3032480000 114.2269170000,22.3034220000 114.2267890000,22.3036240000 114.2266900000,22.3037660000 114.2266390000,22.3038370000 114.2265850000,22.3039010000 114.2264750000,22.3040300000 114.2260500000,22.3045180000 114.2254460000,22.3051990000 114.2253940000,22.3052580000 114.2253360000,22.3053240000 114.2251030000,22.3055870000 114.2248560000,22.3058450000 114.2246850000,22.3060370000 114.2246440000,22.3060820000 114.2245860000,22.3061020000 114.2245150000,22.3061210000 114.2244920000,22.3061280000 114.2244700000,22.3061330000 114.2244500000,22.3061380000 114.2244320000,22.3061400000 114.2244180000,22.3061410000 114.2243580000,22.3061430000 114.2243000000,22.3061440000 114.2242070000,22.3060920000 114.2239870000,22.3059850000 114.2239030000,22.3059520000 114.2238140000,22.3059260000 114.2237210000,22.3059030000 114.2236740000,22.3058920000 114.2235400000,22.3058700000 114.2234350000,22.3058600000 114.2233460000,22.3058570000 114.2232560000,22.3058540000 114.2231610000,22.3058570000 114.2230730000,22.3058610000 114.2229830000,22.3058690000 114.2228920000,22.3058830000 114.2228000000,22.3059010000 114.2226950000,22.3059210000 114.2225820000,22.3059520000 114.2225250000,22.3059730000 114.2224340000,22.3060070000 114.2223320000,22.3060490000 114.2222480000,22.3060900000 114.2222050000,22.3061150000 114.2221790000,22.3061300000 114.2221560000,22.3061450000 114.2221260000,22.3061650000 114.2220870000,22.3061930000 114.2220500000,22.3062200000 114.2219420000,22.3063130000 114.2218410000,22.3064100000 114.2217270000,22.3065540000 114.2216280000,22.3067100000 114.2215010000,22.3068920000 114.2211590000,22.3074240000 114.2210730000,22.3075480000 114.2210220000,22.3076230000 114.2210020000,22.3076520000 114.2207530000,22.3079900000 114.2205820000,22.3082080000 114.2201910000,22.3087040000 114.2192820000,22.3098570000 114.2189020000,22.3103410000 114.2185710000,22.3107330000 114.2181640000,22.3111990000 114.2179470000,22.3114370000 114.2176990000,22.3117080000 114.2174100000,22.3119890000 114.2172860000,22.3121100000 114.2163760000,22.3130530000 114.2152860000,22.3141730000 114.2147630000,22.3147110000 114.2144750000,22.3150060000 114.2144120000,22.3150710000 114.2141400000,22.3153500000 114.2137790000,22.3157210000 114.2133820000,22.3161450000 114.2131930000,22.3163010000 114.2130460000,22.3164050000 114.2129730000,22.3164550000 114.2128790000,22.3165200000 114.2126550000,22.3166460000 114.2125020000,22.3167240000 114.2124270000,22.3167550000 114.2123210000,22.3167980000 114.2122390000,22.3168220000 114.2121170000,22.3168520000 114.2120210000,22.3168740000 114.2119200000,22.3168980000 114.2118410000,22.3169200000 114.2117380000,22.3169490000 114.2116630000,22.3169700000 114.2115760000,22.3169900000 114.2115180000,22.3169910000 114.2114550000,22.3169940000 114.2114170000,22.3169950000 114.2106800000,22.3170050000 114.2105510000,22.3170110000 114.2104420000,22.3170210000 114.2102100000,22.3170480000 114.2100740000,22.3170700000 114.2099850000,22.3170880000 114.2098960000,22.3171080000 114.2098060000,22.3171300000 114.2097240000,22.3171530000 114.2095930000,22.3172020000 114.2094120000,22.3172720000 114.2092070000,22.3173630000 114.2090880000,22.3174210000 114.2090280000,22.3174530000 114.2089030000,22.3175220000 114.2087420000,22.3176250000 114.2086530000,22.3176850000 114.2085840000,22.3177360000 114.2085160000,22.3177900000 114.2084350000,22.3178570000 114.2083130000,22.3179690000 114.2081940000,22.3180790000 114.2080850000,22.3181980000 114.2079840000,22.3183110000 114.2064330000,22.3201070000 114.2063570000,22.3201920000 114.2062550000,22.3203020000 114.2061580000,22.3204010000 114.2060370000,22.3205190000 114.2050750000,22.3214000000 114.2049940000,22.3214800000 114.2048860000,22.3215990000 114.2048020000,22.3217090000 114.2047360000,22.3218030000 114.2046960000,22.3218670000 114.2046490000,22.3219500000 114.2046110000,22.3220300000 114.2045630000,22.3221480000 114.2045280000,22.3222600000 114.2044830000,22.3224360000 114.2044420000,22.3226720000 114.2042210000,22.3243450000 114.2041960000,22.3246690000 114.2041970000,22.3248460000 114.2042080000,22.3250020000 114.2042410000,22.3252630000 114.2044370000,22.3262760000 114.2044630000,22.3263880000 114.2045180000,22.3265500000 114.2045830000,22.3267130000 114.2046420000,22.3268410000 114.2049840000,22.3274340000 114.2050800000,22.3276420000 114.2051680000,22.3278610000 114.2051980000,22.3280440000 114.2052140000,22.3282530000 114.2052140000,22.3284240000 114.2051800000,22.3287150000 114.2051220000,22.3289480000 114.2050700000,22.3291840000 114.2050530000,22.3292530000 114.2050400000,22.3293060000 114.2050090000,22.3295240000 114.2050020000,22.3297670000 114.2050020000,22.3298290000 114.2050380000,22.3309920000 114.2050440000,22.3311500000 114.2050500000,22.3313320000 114.2050570000,22.3321360000 114.2050670000,22.3322470000 114.2050830000,22.3324490000 114.2050850000,22.3325000000 114.2050940000,22.3326830000 114.2051040000,22.3328560000 114.2051140000,22.3330460000 114.2051170000,22.3330890000 114.2051180000,22.3331960000 114.2051220000,22.3333410000 114.2051270000,22.3335070000 114.2051270000,22.3335910000 114.2051270000,22.3337070000 114.2051190000,22.3338340000 114.2051110000,22.3339340000 114.2050950000,22.3340380000 114.2050820000,22.3341030000 114.2050280000,22.3342200000 114.2050200000,22.3342540000 114.2049850000,22.3343660000 114.2049550000,22.3344540000 114.2049150000,22.3345580000 114.2048490000,22.3347230000 114.2047950000,22.3348460000 114.2047620000,22.3349190000 114.2045400000,22.3354300000 114.2045110000,22.3355040000 114.2044900000,22.3355570000 114.2043520000,22.3358800000 114.2042160000,22.3361710000 114.2041520000,22.3363020000 114.2040870000,22.3364340000 114.2040730000,22.3364670000 114.2040560000,22.3365040000 114.2039410000,22.3367580000 114.2038770000,22.3369020000 114.2037760000,22.3371440000 114.2037360000,22.3372380000 114.2036880000,22.3373560000 114.2036300000,22.3375310000 114.2035890000,22.3376540000 114.2035500000,22.3377810000 114.2035090000,22.3379280000 114.2034790000,22.3380610000 114.2034600000,22.3381460000 114.2034440000,22.3382300000 114.2034290000,22.3383090000 114.2034150000,22.3384040000 114.2034010000,22.3385110000 114.2033920000,22.3386020000 114.2033870000,22.3386840000 114.2033830000,22.3387460000 114.2033820000,22.3388110000 114.2033820000,22.3389480000 114.2033840000,22.3390810000 114.2034010000,22.3393410000 114.2034090000,22.3395050000 114.2034390000,22.3396900000 114.2034660000,22.3398430000 114.2034840000,22.3399170000 114.2035030000,22.3399940000 114.2035340000,22.3401090000 114.2035600000,22.3401840000 114.2035960000,22.3402690000 114.2036290000,22.3403460000 114.2036710000,22.3404490000 114.2037160000,22.3405590000 114.2037610000,22.3406650000 114.2038100000,22.3407720000 114.2038360000,22.3408530000 114.2038550000,22.3408860000 114.2038990000,22.3409740000 114.2039770000,22.3411010000 114.2042960000,22.3416610000 114.2043110000,22.3416850000 114.2043790000,22.3417970000 114.2044550000,22.3419240000 114.2053200000,22.3433150000 114.2054350000,22.3435200000 114.2055500000,22.3437290000 114.2056630000,22.3439250000 114.2057790000,22.3441400000 114.2058890000,22.3443450000 114.2060000000,22.3445600000 114.2061000000,22.3447600000 114.2062070000,22.3449750000 114.2063090000,22.3451800000 114.2064100000,22.3453900000 114.2065010000,22.3455900000 114.2065900000,22.3457900000 114.2066830000,22.3460000000 114.2067680000,22.3462000000 114.2068510000,22.3464000000 114.2069320000,22.3465990000 114.2070130000,22.3468000000 114.2071030000,22.3470300000 114.2072050000,22.3473000000 114.2073180000,22.3476000000 114.2074280000,22.3479000000 114.2075260000,22.3482000000 114.2076200000,22.3484900000 114.2076880000,22.3487000000 114.2077600000,22.3489400000 114.2078440000,22.3492500000 114.2079100000,22.3495000000 114.2135960000,22.3721800000 114.2136400000,22.3723800000 114.2136800000,22.3726000000 114.2137070000,22.3728000000 114.2137270000,22.3730000000 114.2137370000,22.3732000000 114.2137370000,22.3734000000 114.2137320000,22.3736000000 114.2137200000,22.3738000000 114.2136930000,22.3740200000 114.2136600000,22.3742200000 114.2136180000,22.3744700000 114.2135700000,22.3746800000 114.2135000000,22.3749100000 114.2134300000,22.3751100000 114.2133500000,22.3753100000 114.2132580000,22.3755300000 114.2131500000,22.3757400000 114.2130380000,22.3759400000 114.2128100000,22.3762900000 114.2127220000,22.3764120000 114.2126060000,22.3765450000 114.2124270000,22.3767490000 114.2121920000,22.3769590000 114.2119220000,22.3771500000 114.2115880000,22.3774160000 114.2112310000,22.3777030000 114.2109760000,22.3779750000 114.2108890000,22.3780830000 114.2108120000,22.3782010000 114.2107510000,22.3782880000 114.2106100000,22.3784960000 114.2105400000,22.3786320000 114.2104080000,22.3788930000 114.2103820000,22.3790110000 114.2103240000,22.3792690000 114.2103040000,22.3793500000 114.2102950000,22.3793920000 114.2102440000,22.3796720000 114.2101970000,22.3799260000 114.2101790000,22.3799930000 114.2101720000,22.3800200000 114.2101680000,22.3800330000 114.2101590000,22.3800660000 114.2100900000,22.3803130000 114.2100820000,22.3803570000 114.2100570000,22.3804590000 114.2100420000,22.3805030000 114.2100170000,22.3805770000 114.2099890000,22.3806310000 114.2099480000,22.3806970000 114.2099090000,22.3807560000 114.2098730000,22.3808070000 114.2098150000,22.3808670000 114.2097610000,22.3809140000 114.2096400000,22.3810070000 114.2095100000,22.3810770000 114.2094310000,22.3811070000 114.2093520000,22.3811290000 114.2092410000,22.3811510000 114.2091300000,22.3811500000 114.2090300000,22.3811440000 114.2089620000,22.3811330000 114.2089400000,22.3811300000 114.2087900000,22.3810900000 114.2087310000,22.3810710000 114.2084490000,22.3809720000 114.2082970000,22.3809110000 114.2052590000,22.3789250000 114.2046310000,22.3785240000 114.2042180000,22.3782740000 114.2041050000,22.3782120000 114.2040160000,22.3781660000 114.2039470000,22.3781300000 114.2038710000,22.3780930000 114.2037550000,22.3780390000 114.2035720000,22.3779430000 114.2035010000,22.3779090000 114.2034070000,22.3778670000 114.2032950000,22.3778220000 114.2029890000,22.3777150000 114.2027590000,22.3776460000 114.2025520000,22.3775970000 114.2022810000,22.3775610000 114.2020550000,22.3775510000 114.2018710000,22.3775510000 114.2017650000,22.3775580000 114.2016680000,22.3775680000 114.2015760000,22.3775810000 114.2014940000,22.3775940000 114.2014100000,22.3776080000 114.2011580000,22.3776470000 114.2009070000,22.3777140000 114.2007460000,22.3778070000 114.2006220000,22.3778250000 114.2000460000,22.3779790000 114.2000090000,22.3779900000 114.1998430000,22.3780380000 114.1997050000,22.3780910000 114.1993980000,22.3781830000 114.1992860000,22.3781950000 114.1991400000,22.3782360000 114.1990720000,22.3782600000 114.1989440000,22.3782980000 114.1984060000,22.3784480000 114.1979380000,22.3785770000 114.1976130000,22.3786710000 114.1975570000,22.3786870000 114.1974070000,22.3787320000 114.1971620000,22.3788120000 114.1970930000,22.3788400000 114.1968150000,22.3789590000 114.1967340000,22.3789950000 114.1966470000,22.3790350000 114.1963180000,22.3792090000 114.1961980000,22.3792900000 114.1957260000,22.3796280000 114.1951930000,22.3800650000 114.1951740000,22.3800790000 114.1951570000,22.3800920000 114.1950260000,22.3801900000 114.1947870000,22.3803690000 114.1947140000,22.3804160000 114.1946550000,22.3804530000 114.1945550000,22.3805420000 114.1944930000,22.3805970000 114.1944240000,22.3806580000 114.1944160000,22.3806720000 114.1943910000,22.3807200000 114.1942760000,22.3808010000 114.1941980000,22.3808690000 114.1940710000,22.3809730000 114.1940550000,22.3809860000 114.1940320000,22.3810050000 114.1939990000,22.3810350000 114.1938770000,22.3811360000 114.1935240000,22.3814280000 114.1933990000,22.3815310000 114.1927960000,22.3820390000 114.1927170000,22.3821100000 114.1925000000,22.3822770000 114.1923480000,22.3823940000 114.1922520000,22.3824640000 114.1920850000,22.3826030000 114.1919690000,22.3826990000 114.1919410000,22.3827240000 114.1918810000,22.3827750000 114.1916090000,22.3824660000 114.1912020000,22.3820720000 114.1911270000,22.3820160000 114.1910040000,22.3818870000 114.1908210000,22.3816730000 114.1907870000,22.3816510000 114.1907340000,22.3816340000 114.1906780000,22.3816380000 114.1906170000,22.3816640000 114.1901100000,22.3820410000 114.1900180000,22.3821100000 114.1899750000,22.3821460000 114.1899490000,22.3821680000 114.1898670000,22.3822390000 114.1897280000,22.3823460000 114.1896830000,22.3823800000 114.1896450000,22.3824120000 114.1896040000,22.3824480000 114.1894110000,22.3826140000 114.1893310000,22.3826330000 114.1892690000,22.3826310000 114.1892160000,22.3826070000 114.1891340000,22.3825370000 114.1889510000,22.3823670000 114.1889310000,22.3823470000 114.1888650000,22.3822840000 114.1887690000,22.3821850000 114.1887300000,22.3821440000 114.1885980000,22.3820010000 114.1883520000,22.3817370000 114.1882370000,22.3816180000 114.1880070000,22.3813810000 114.1877930000,22.3811480000 114.1877530000,22.3810220000 114.1877500000,22.3809900000 114.1877430000,22.3809330000 114.1877590000,22.3808370000 114.1878940000,22.3802620000 114.1880400000,22.3797500000 114.1880580000,22.3796880000 114.1880620000,22.3796730000 114.1880650000,22.3796640000 114.1880830000,22.3796000000 114.1881160000,22.3794820000 114.1881240000,22.3794540000 114.1881700000,22.3792760000 114.1881820000,22.3792170000 114.1881860000,22.3791730000 114.1881830000,22.3791320000 114.1881720000,22.3790850000 114.1881380000,22.3790400000 114.1880710000,22.3790020000 114.1875450000,22.3788710000 114.1872680000,22.3787920000 114.1871950000,22.3787780000 114.1870320000,22.3787410000 114.1870070000,22.3787350000 114.1868230000,22.3786890000 114.1867530000,22.3786720000 114.1866830000,22.3786540000 114.1864190000,22.3785880000 114.1862770000,22.3785520000 114.1863140000,22.3784100000 114.1863340000,22.3783340000 114.1865090000,22.3777330000 114.1865360000,22.3776390000 114.1865820000,22.3774680000 114.1866710000,22.3771810000 114.1867010000,22.3771020000 114.1867590000,22.3769940000 114.1868050000,22.3769270000 114.1872020000,22.3763820000 114.1872920000,22.3762560000 114.1873950000,22.3761000000 114.1874120000,22.3760730000 114.1876800000,22.3757590000 114.1878170000,22.3755950000 114.1878410000,22.3755650000 114.1880810000,22.3752630000 114.1882050000,22.3751350000 114.1883160000,22.3750420000 114.1882310000,22.3749860000 114.1881500000,22.3749370000 114.1880030000,22.3748480000 114.1876160000,22.3746160000 114.1873680000,22.3745210000 114.1872870000,22.3744890000 114.1871520000,22.3744370000 114.1870900000,22.3744140000 114.1870290000,22.3743950000 114.1869530000,22.3743710000 114.1869320000,22.3743650000 114.1868870000,22.3743510000 114.1868130000,22.3743370000 114.1868020000,22.3743350000 114.1866860000,22.3743120000 114.1864960000,22.3742750000 114.1863610000,22.3742630000 114.1861860000,22.3742600000 114.1861090000,22.3742630000 114.1858790000,22.3742720000 114.1857650000,22.3742770000 114.1857280000,22.3742780000 114.1856610000,22.3742830000 114.1855300000,22.3742920000 114.1853950000,22.3743340000 114.1850500000,22.3743970000 114.1847560000,22.3744390000 114.1845390000,22.3744410000 114.1843350000,22.3744340000 114.1841870000,22.3744240000 114.1841700000,22.3744230000 114.1841600000,22.3744220000 114.1840860000,22.3744110000 114.1840350000,22.3744030000 114.1839820000,22.3743960000 114.1836340000,22.3743130000 114.1833570000,22.3742090000 114.1832390000,22.3741650000 114.1830580000,22.3740710000 114.1828810000,22.3739680000 114.1827320000,22.3738760000 114.1825650000,22.3737700000 114.1821350000,22.3735130000 114.1818970000,22.3733620000 114.1816740000,22.3731900000 114.1815660000,22.3731190000 114.1815010000,22.3730780000 114.1814440000,22.3730370000 114.1813780000,22.3729930000 114.1805400000,22.3724630000 114.1799590000,22.3720790000 114.1796650000,22.3719020000 114.1793620000,22.3717200000 114.1792810000,22.3716660000 114.1792040000,22.3716070000 114.1791310000,22.3715440000 114.1790640000,22.3714760000 114.1789970000,22.3714040000 114.1789910000,22.3713620000 114.1789790000,22.3713210000 114.1790060000,22.3712470000 114.1790420000,22.3711760000 114.1790850000,22.3711080000 114.1791300000,22.3710520000 114.1791800000,22.3710000000 114.1792860000,22.3709010000 114.1794300000,22.3707590000 114.1794910000,22.3706940000 114.1795660000,22.3706160000 114.1796730000,22.3705040000 114.1797550000,22.3704180000 114.1798010000,22.3703580000 114.1798710000,22.3702680000 114.1800730000,22.3699920000 114.1803400000,22.3695770000 114.1803920000,22.3694810000 114.1804200000,22.3694140000 114.1803040000,22.3693660000 114.1802440000,22.3693410000 114.1787270000,22.3687370000 114.1787430000,22.3687000000 114.1787930000,22.3685920000 114.1788340000,22.3685330000 114.1788880000,22.3685060000 114.1789290000,22.3684980000 114.1789680000,22.3684840000 114.1790010000,22.3684570000 114.1790250000,22.3684270000 114.1790400000,22.3683840000 114.1790420000,22.3683380000 114.1790280000,22.3682950000 114.1790010000,22.3682570000 114.1789640000,22.3682280000 114.1789160000,22.3682130000 114.1788670000,22.3682100000 114.1788170000,22.3682230000 114.1787720000,22.3682500000 114.1787430000,22.3682850000 114.1783670000,22.3684030000 114.1783270000,22.3684070000 114.1782670000,22.3683960000 114.1778220000,22.3682050000 114.1775550000,22.3680880000 114.1768460000,22.3675860000 114.1767280000,22.3675080000 114.1766360000,22.3674030000 114.1765760000,22.3672810000 114.1765530000,22.3671480000 114.1765600000,22.3670820000 114.1765680000,22.3670140000 114.1766200000,22.3668880000 114.1768480000,22.3663650000 114.1768610000,22.3663360000 114.1769210000,22.3662050000 114.1769510000,22.3661800000 114.1769870000,22.3661630000 114.1770270000,22.3661560000 114.1770670000,22.3661570000 114.1772020000,22.3662110000 114.1772930000,22.3662490000 114.1773370000,22.3662650000 114.1773840000,22.3662660000 114.1774280000,22.3662500000 114.1774640000,22.3662200000 114.1774860000,22.3661610000 114.1774820000,22.3661170000 114.1774650000,22.3660870000 114.1774390000,22.3660600000 114.1773200000,22.3660100000 114.1770680000,22.3659040000 114.1769330000,22.3658380000 114.1768570000,22.3658120000 114.1767980000,22.3659450000 114.1767140000,22.3661320000 114.1766480000,22.3662000000 114.1766400000,22.3662220000 114.1765990000,22.3663080000 114.1764790000,22.3662750000 114.1764010000,22.3662510000 114.1762100000,22.3662300000 114.1761200000,22.3662020000 114.1759840000,22.3661510000 114.1758730000,22.3660690000 114.1758070000,22.3660130000 114.1755890000,22.3657280000 114.1753610000,22.3654670000 114.1752690000,22.3653610000 114.1750330000,22.3650920000 114.1750130000,22.3650720000 114.1748940000,22.3649470000 114.1747260000,22.3647480000 114.1743310000,22.3643310000 114.1741370000,22.3641050000 114.1741070000,22.3640690000 114.1740300000,22.3639790000 114.1739940000,22.3639400000 114.1739160000,22.3638570000 114.1738940000,22.3638370000 114.1738150000,22.3637670000 114.1737050000,22.3636780000 114.1735940000,22.3636040000 114.1735830000,22.3635980000 114.1734530000,22.3635220000 114.1730830000,22.3632990000 114.1729820000,22.3632350000 114.1727100000,22.3630560000 114.1725750000,22.3629670000 114.1725370000,22.3629480000 114.1725000000,22.3629300000 114.1724100000,22.3628970000 114.1723270000,22.3628770000 114.1722070000,22.3628730000 114.1720930000,22.3628870000 114.1719870000,22.3629090000 114.1718780000,22.3629530000 114.1713700000,22.3633570000 114.1713510000,22.3633730000 114.1713030000,22.3634100000 114.1712210000,22.3633220000 114.1712040000,22.3633020000 114.1710540000,22.3631270000 114.1710140000,22.3630800000 114.1709310000,22.3629800000 114.1708420000,22.3628720000 114.1708300000,22.3628530000 114.1707590000,22.3627450000</coordinates>
                </LineString>
                <ExtendedData>
                    <Data name="length">
                        <value>60178.775180672215</value>
                    </Data>
                    <Data name="duration">
                        <value>01:12:16</value>
                    </Data>
                </ExtendedData>
            </Placemark>
        </Document>
    </Document>
</kml>